length, depth, tcpoffset, success, robustness, alignment, coverage, wrench, stress, volume, qsum, qlog
0, 0, 0, 0, 0, 0, 0, 0, 0, 0, 0, 0
0, 0, 0.01, 0, 0, 0, 0, 0, 0, 0, 0, 0
0, 0, 0.02, 0, 0, 0, 0, 0, 0, 0, 0, 0
0, 0, 0.03, 0, 0, 0, 0, 0, 0, 0, 0, 0
0, 0, 0.04, 0, 0, 0, 0, 0, 0, 0, 0, 0
0, 0, 0.05, 0, 0, 0, 0, 0, 0, 0, 0, 0
0, 0, 0.06, 0, 0, 0, 0, 0, 0, 0, 0, 0
0, 0, 0.07, 0, 0, 0, 0, 0, 0, 0, 0, 0
0, 0, 0.08, 0, 0, 0, 0, 0, 0, 0, 0, 0
0, 0, 0.09, 0, 0, 0, 0, 0, 0, 0, 0, 0
0, 0, 0.1, 0, 0, 0, 0, 0, 0, 0, 0, 0
0, 0.0025, 0, 0, 0, 0, 0, 0, 0, 0, 0, 0
0, 0.0025, 0.01, 0, 0, 0, 0, 0, 0, 0, 0, 0
0, 0.0025, 0.02, 0, 0, 0, 0, 0, 0, 0, 0, 0
0, 0.0025, 0.03, 0, 0, 0, 0, 0, 0, 0, 0, 0
0, 0.0025, 0.04, 0, 0, 0, 0, 0, 0, 0, 0, 0
0, 0.0025, 0.05, 0, 0, 0, 0, 0, 0, 0, 0, 0
0, 0.0025, 0.06, 0, 0, 0, 0, 0, 0, 0, 0, 0
0, 0.0025, 0.07, 0, 0, 0, 0, 0, 0, 0, 0, 0
0, 0.0025, 0.08, 0, 0, 0, 0, 0, 0, 0, 0, 0
0, 0.0025, 0.09, 0, 0, 0, 0, 0, 0, 0, 0, 0
0, 0.0025, 0.1, 0, 0, 0, 0, 0, 0, 0, 0, 0
0, 0.005, 0, 0, 0, 0, 0, 0, 0, 0, 0, 0
0, 0.005, 0.01, 0, 0, 0, 0, 0, 0, 0, 0, 0
0, 0.005, 0.02, 0, 0, 0, 0, 0, 0, 0, 0, 0
0, 0.005, 0.03, 0, 0, 0, 0, 0, 0, 0, 0, 0
0, 0.005, 0.04, 0, 0, 0, 0, 0, 0, 0, 0, 0
0, 0.005, 0.05, 0, 0, 0, 0, 0, 0, 0, 0, 0
0, 0.005, 0.06, 0, 0, 0, 0, 0, 0, 0, 0, 0
0, 0.005, 0.07, 0, 0, 0, 0, 0, 0, 0, 0, 0
0, 0.005, 0.08, 0, 0, 0, 0, 0, 0, 0, 0, 0
0, 0.005, 0.09, 0, 0, 0, 0, 0, 0, 0, 0, 0
0, 0.005, 0.1, 0, 0, 0, 0, 0, 0, 0, 0, 0
0, 0.0075, 0, 0, 0, 0, 0, 0, 0, 0, 0, 0
0, 0.0075, 0.01, 0, 0, 0, 0, 0, 0, 0, 0, 0
0, 0.0075, 0.02, 0, 0, 0, 0, 0, 0, 0, 0, 0
0, 0.0075, 0.03, 0, 0, 0, 0, 0, 0, 0, 0, 0
0, 0.0075, 0.04, 0, 0, 0, 0, 0, 0, 0, 0, 0
0, 0.0075, 0.05, 0, 0, 0, 0, 0, 0, 0, 0, 0
0, 0.0075, 0.06, 0, 0, 0, 0, 0, 0, 0, 0, 0
0, 0.0075, 0.07, 0, 0, 0, 0, 0, 0, 0, 0, 0
0, 0.0075, 0.08, 0, 0, 0, 0, 0, 0, 0, 0, 0
0, 0.0075, 0.09, 0, 0, 0, 0, 0, 0, 0, 0, 0
0, 0.0075, 0.1, 0, 0, 0, 0, 0, 0, 0, 0, 0
0, 0.01, 0, 0, 0, 0, 0, 0, 0, 0, 0, 0
0, 0.01, 0.01, 0, 0, 0, 0, 0, 0, 0, 0, 0
0, 0.01, 0.02, 0, 0, 0, 0, 0, 0, 0, 0, 0
0, 0.01, 0.03, 0, 0, 0, 0, 0, 0, 0, 0, 0
0, 0.01, 0.04, 0, 0, 0, 0, 0, 0, 0, 0, 0
0, 0.01, 0.05, 0, 0, 0, 0, 0, 0, 0, 0, 0
0, 0.01, 0.06, 0, 0, 0, 0, 0, 0, 0, 0, 0
0, 0.01, 0.07, 0, 0, 0, 0, 0, 0, 0, 0, 0
0, 0.01, 0.08, 0, 0, 0, 0, 0, 0, 0, 0, 0
0, 0.01, 0.09, 0, 0, 0, 0, 0, 0, 0, 0, 0
0, 0.01, 0.1, 0, 0, 0, 0, 0, 0, 0, 0, 0
0, 0.0125, 0, 0, 0, 0, 0, 0, 0, 0, 0, 0
0, 0.0125, 0.01, 0, 0, 0, 0, 0, 0, 0, 0, 0
0, 0.0125, 0.02, 0, 0, 0, 0, 0, 0, 0, 0, 0
0, 0.0125, 0.03, 0, 0, 0, 0, 0, 0, 0, 0, 0
0, 0.0125, 0.04, 0, 0, 0, 0, 0, 0, 0, 0, 0
0, 0.0125, 0.05, 0, 0, 0, 0, 0, 0, 0, 0, 0
0, 0.0125, 0.06, 0, 0, 0, 0, 0, 0, 0, 0, 0
0, 0.0125, 0.07, 0, 0, 0, 0, 0, 0, 0, 0, 0
0, 0.0125, 0.08, 0, 0, 0, 0, 0, 0, 0, 0, 0
0, 0.0125, 0.09, 0, 0, 0, 0, 0, 0, 0, 0, 0
0, 0.0125, 0.1, 0, 0, 0, 0, 0, 0, 0, 0, 0
0, 0.015, 0, 0, 0, 0, 0, 0, 0, 0, 0, 0
0, 0.015, 0.01, 0, 0, 0, 0, 0, 0, 0, 0, 0
0, 0.015, 0.02, 0, 0, 0, 0, 0, 0, 0, 0, 0
0, 0.015, 0.03, 0, 0, 0, 0, 0, 0, 0, 0, 0
0, 0.015, 0.04, 0, 0, 0, 0, 0, 0, 0, 0, 0
0, 0.015, 0.05, 0, 0, 0, 0, 0, 0, 0, 0, 0
0, 0.015, 0.06, 0, 0, 0, 0, 0, 0, 0, 0, 0
0, 0.015, 0.07, 0, 0, 0, 0, 0, 0, 0, 0, 0
0, 0.015, 0.08, 0, 0, 0, 0, 0, 0, 0, 0, 0
0, 0.015, 0.09, 0, 0, 0, 0, 0, 0, 0, 0, 0
0, 0.015, 0.1, 0, 0, 0, 0, 0, 0, 0, 0, 0
0, 0.0175, 0, 0, 0, 0, 0, 0, 0, 0, 0, 0
0, 0.0175, 0.01, 0, 0, 0, 0, 0, 0, 0, 0, 0
0, 0.0175, 0.02, 0, 0, 0, 0, 0, 0, 0, 0, 0
0, 0.0175, 0.03, 0, 0, 0, 0, 0, 0, 0, 0, 0
0, 0.0175, 0.04, 0, 0, 0, 0, 0, 0, 0, 0, 0
0, 0.0175, 0.05, 0, 0, 0, 0, 0, 0, 0, 0, 0
0, 0.0175, 0.06, 0, 0, 0, 0, 0, 0, 0, 0, 0
0, 0.0175, 0.07, 0, 0, 0, 0, 0, 0, 0, 0, 0
0, 0.0175, 0.08, 0, 0, 0, 0, 0, 0, 0, 0, 0
0, 0.0175, 0.09, 0, 0, 0, 0, 0, 0, 0, 0, 0
0, 0.0175, 0.1, 0, 0, 0, 0, 0, 0, 0, 0, 0
0, 0.02, 0, 0, 0, 0, 0, 0, 0, 0, 0, 0
0, 0.02, 0.01, 0, 0, 0, 0, 0, 0, 0, 0, 0
0, 0.02, 0.02, 0, 0, 0, 0, 0, 0, 0, 0, 0
0, 0.02, 0.03, 0, 0, 0, 0, 0, 0, 0, 0, 0
0, 0.02, 0.04, 0, 0, 0, 0, 0, 0, 0, 0, 0
0, 0.02, 0.05, 0, 0, 0, 0, 0, 0, 0, 0, 0
0, 0.02, 0.06, 0, 0, 0, 0, 0, 0, 0, 0, 0
0, 0.02, 0.07, 0, 0, 0, 0, 0, 0, 0, 0, 0
0, 0.02, 0.08, 0, 0, 0, 0, 0, 0, 0, 0, 0
0, 0.02, 0.09, 0, 0, 0, 0, 0, 0, 0, 0, 0
0, 0.02, 0.1, 0, 0, 0, 0, 0, 0, 0, 0, 0
0, 0.0225, 0, 0, 0, 0, 0, 0, 0, 0, 0, 0
0, 0.0225, 0.01, 0, 0, 0, 0, 0, 0, 0, 0, 0
0, 0.0225, 0.02, 0, 0, 0, 0, 0, 0, 0, 0, 0
0, 0.0225, 0.03, 0, 0, 0, 0, 0, 0, 0, 0, 0
0, 0.0225, 0.04, 0, 0, 0, 0, 0, 0, 0, 0, 0
0, 0.0225, 0.05, 0, 0, 0, 0, 0, 0, 0, 0, 0
0, 0.0225, 0.06, 0, 0, 0, 0, 0, 0, 0, 0, 0
0, 0.0225, 0.07, 0, 0, 0, 0, 0, 0, 0, 0, 0
0, 0.0225, 0.08, 0, 0, 0, 0, 0, 0, 0, 0, 0
0, 0.0225, 0.09, 0, 0, 0, 0, 0, 0, 0, 0, 0
0, 0.0225, 0.1, 0, 0, 0, 0, 0, 0, 0, 0, 0
0, 0.025, 0, 0, 0, 0, 0, 0, 0, 0, 0, 0
0, 0.025, 0.01, 0, 0, 0, 0, 0, 0, 0, 0, 0
0, 0.025, 0.02, 0, 0, 0, 0, 0, 0, 0, 0, 0
0, 0.025, 0.03, 0, 0, 0, 0, 0, 0, 0, 0, 0
0, 0.025, 0.04, 0, 0, 0, 0, 0, 0, 0, 0, 0
0, 0.025, 0.05, 0, 0, 0, 0, 0, 0, 0, 0, 0
0, 0.025, 0.06, 0, 0, 0, 0, 0, 0, 0, 0, 0
0, 0.025, 0.07, 0, 0, 0, 0, 0, 0, 0, 0, 0
0, 0.025, 0.08, 0, 0, 0, 0, 0, 0, 0, 0, 0
0, 0.025, 0.09, 0, 0, 0, 0, 0, 0, 0, 0, 0
0, 0.025, 0.1, 0, 0, 0, 0, 0, 0, 0, 0, 0
0.01, 0, 0, 0, 0, 0, 0, 0, 0, 0, 0, 0
0.01, 0, 0.01, 0, 0, 0, 0, 0, 0, 0, 0, 0
0.01, 0, 0.02, 0, 0, 0, 0, 0, 0, 0, 0, 0
0.01, 0, 0.03, 0, 0, 0, 0, 0, 0, 0, 0, 0
0.01, 0, 0.04, 0, 0, 0, 0, 0, 0, 0, 0, 0
0.01, 0, 0.05, 0, 0, 0, 0, 0, 0, 0, 0, 0
0.01, 0, 0.06, 0, 0, 0, 0, 0, 0, 0, 0, 0
0.01, 0, 0.07, 0, 0, 0, 0, 0, 0, 0, 0, 0
0.01, 0, 0.08, 0, 0, 0, 0, 0, 0, 0, 0, 0
0.01, 0, 0.09, 0, 0, 0, 0, 0, 0, 0, 0, 0
0.01, 0, 0.1, 0, 0, 0, 0, 0, 0, 0, 0, 0
0.01, 0.0025, 0, 0.532828, 1, 0.174686, 0.00916316, 0.0210623, 0.8272, 0.99375, 0.508384, 0.204126
0.01, 0.0025, 0.01, 0, 0, 0, 0, 0, 0, 0, 0, 0
0.01, 0.0025, 0.02, 0, 0, 0, 0, 0, 0, 0, 0, 0
0.01, 0.0025, 0.03, 0, 0, 0, 0, 0, 0, 0, 0, 0
0.01, 0.0025, 0.04, 0, 0, 0, 0, 0, 0, 0, 0, 0
0.01, 0.0025, 0.05, 0, 0, 0, 0, 0, 0, 0, 0, 0
0.01, 0.0025, 0.06, 0, 0, 0, 0, 0, 0, 0, 0, 0
0.01, 0.0025, 0.07, 0, 0, 0, 0, 0, 0, 0, 0, 0
0.01, 0.0025, 0.08, 0, 0, 0, 0, 0, 0, 0, 0, 0
0.01, 0.0025, 0.09, 0, 0, 0, 0, 0, 0, 0, 0, 0
0.01, 0.0025, 0.1, 0, 0, 0, 0, 0, 0, 0, 0, 0
0.01, 0.005, 0, 0.582278, 1, 0.190263, 0.00998827, 0.0254573, 0.9136, 0.9875, 0.52987, 0.220589
0.01, 0.005, 0.01, 0, 0, 0, 0, 0, 0, 0, 0, 0
0.01, 0.005, 0.02, 0, 0, 0, 0, 0, 0, 0, 0, 0
0.01, 0.005, 0.03, 0, 0, 0, 0, 0, 0, 0, 0, 0
0.01, 0.005, 0.04, 0, 0, 0, 0, 0, 0, 0, 0, 0
0.01, 0.005, 0.05, 0, 0, 0, 0, 0, 0, 0, 0, 0
0.01, 0.005, 0.06, 0, 0, 0, 0, 0, 0, 0, 0, 0
0.01, 0.005, 0.07, 0, 0, 0, 0, 0, 0, 0, 0, 0
0.01, 0.005, 0.08, 0, 0, 0, 0, 0, 0, 0, 0, 0
0.01, 0.005, 0.09, 0, 0, 0, 0, 0, 0, 0, 0, 0
0.01, 0.005, 0.1, 0, 0, 0, 0, 0, 0, 0, 0, 0
0.01, 0.0075, 0, 0.597468, 1, 0.227587, 0.0102488, 0.0262679, 0.9424, 0.98125, 0.540746, 0.22981
0.01, 0.0075, 0.01, 0, 0, 0, 0, 0, 0, 0, 0, 0
0.01, 0.0075, 0.02, 0, 0, 0, 0, 0, 0, 0, 0, 0
0.01, 0.0075, 0.03, 0, 0, 0, 0, 0, 0, 0, 0, 0
0.01, 0.0075, 0.04, 0, 0, 0, 0, 0, 0, 0, 0, 0
0.01, 0.0075, 0.05, 0, 0, 0, 0, 0, 0, 0, 0, 0
0.01, 0.0075, 0.06, 0, 0, 0, 0, 0, 0, 0, 0, 0
0.01, 0.0075, 0.07, 0, 0, 0, 0, 0, 0, 0, 0, 0
0.01, 0.0075, 0.08, 0, 0, 0, 0, 0, 0, 0, 0, 0
0.01, 0.0075, 0.09, 0, 0, 0, 0, 0, 0, 0, 0, 0
0.01, 0.0075, 0.1, 0, 0, 0, 0, 0, 0, 0, 0, 0
0.01, 0.01, 0, 0.658228, 1, 0.192581, 0.0112911, 0.0275556, 0.9568, 0.975, 0.545922, 0.232561
0.01, 0.01, 0.01, 0, 0, 0, 0, 0, 0, 0, 0, 0
0.01, 0.01, 0.02, 0, 0, 0, 0, 0, 0, 0, 0, 0
0.01, 0.01, 0.03, 0, 0, 0, 0, 0, 0, 0, 0, 0
0.01, 0.01, 0.04, 0, 0, 0, 0, 0, 0, 0, 0, 0
0.01, 0.01, 0.05, 0, 0, 0, 0, 0, 0, 0, 0, 0
0.01, 0.01, 0.06, 0, 0, 0, 0, 0, 0, 0, 0, 0
0.01, 0.01, 0.07, 0, 0, 0, 0, 0, 0, 0, 0, 0
0.01, 0.01, 0.08, 0, 0, 0, 0, 0, 0, 0, 0, 0
0.01, 0.01, 0.09, 0, 0, 0, 0, 0, 0, 0, 0, 0
0.01, 0.01, 0.1, 0, 0, 0, 0, 0, 0, 0, 0, 0
0.01, 0.0125, 0, 0.673418, 1, 0.166582, 0.0115517, 0.0315747, 0.96544, 0.96875, 0.545331, 0.233871
0.01, 0.0125, 0.01, 0, 0, 0, 0, 0, 0, 0, 0, 0
0.01, 0.0125, 0.02, 0, 0, 0, 0, 0, 0, 0, 0, 0
0.01, 0.0125, 0.03, 0, 0, 0, 0, 0, 0, 0, 0, 0
0.01, 0.0125, 0.04, 0, 0, 0, 0, 0, 0, 0, 0, 0
0.01, 0.0125, 0.05, 0, 0, 0, 0, 0, 0, 0, 0, 0
0.01, 0.0125, 0.06, 0, 0, 0, 0, 0, 0, 0, 0, 0
0.01, 0.0125, 0.07, 0, 0, 0, 0, 0, 0, 0, 0, 0
0.01, 0.0125, 0.08, 0, 0, 0, 0, 0, 0, 0, 0, 0
0.01, 0.0125, 0.09, 0, 0, 0, 0, 0, 0, 0, 0, 0
0.01, 0.0125, 0.1, 0, 0, 0, 0, 0, 0, 0, 0, 0
0.01, 0.015, 0, 0.700508, 1, 0.20746, 0.0119859, 0.0318726, 0.9712, 0.9625, 0.555075, 0.244274
0.01, 0.015, 0.01, 0, 0, 0, 0, 0, 0, 0, 0, 0
0.01, 0.015, 0.02, 0, 0, 0, 0, 0, 0, 0, 0, 0
0.01, 0.015, 0.03, 0, 0, 0, 0, 0, 0, 0, 0, 0
0.01, 0.015, 0.04, 0, 0, 0, 0, 0, 0, 0, 0, 0
0.01, 0.015, 0.05, 0, 0, 0, 0, 0, 0, 0, 0, 0
0.01, 0.015, 0.06, 0, 0, 0, 0, 0, 0, 0, 0, 0
0.01, 0.015, 0.07, 0, 0, 0, 0, 0, 0, 0, 0, 0
0.01, 0.015, 0.08, 0, 0, 0, 0, 0, 0, 0, 0, 0
0.01, 0.015, 0.09, 0, 0, 0, 0, 0, 0, 0, 0, 0
0.01, 0.015, 0.1, 0, 0, 0, 0, 0, 0, 0, 0, 0
0.01, 0.0175, 0, 0.711055, 1, 0.201504, 0.0122899, 0.0313051, 0.975314, 0.95625, 0.555388, 0.243947
0.01, 0.0175, 0.01, 0, 0, 0, 0, 0, 0, 0, 0, 0
0.01, 0.0175, 0.02, 0, 0, 0, 0, 0, 0, 0, 0, 0
0.01, 0.0175, 0.03, 0, 0, 0, 0, 0, 0, 0, 0, 0
0.01, 0.0175, 0.04, 0, 0, 0, 0, 0, 0, 0, 0, 0
0.01, 0.0175, 0.05, 0, 0, 0, 0, 0, 0, 0, 0, 0
0.01, 0.0175, 0.06, 0, 0, 0, 0, 0, 0, 0, 0, 0
0.01, 0.0175, 0.07, 0, 0, 0, 0, 0, 0, 0, 0, 0
0.01, 0.0175, 0.08, 0, 0, 0, 0, 0, 0, 0, 0, 0
0.01, 0.0175, 0.09, 0, 0, 0, 0, 0, 0, 0, 0, 0
0.01, 0.0175, 0.1, 0, 0, 0, 0, 0, 0, 0, 0, 0
0.01, 0.02, 0, 0.745592, 1, 0.206495, 0.01281, 0.0310351, 0.9784, 0.95, 0.560619, 0.247502
0.01, 0.02, 0.01, 0, 0, 0, 0, 0, 0, 0, 0, 0
0.01, 0.02, 0.02, 0, 0, 0, 0, 0, 0, 0, 0, 0
0.01, 0.02, 0.03, 0, 0, 0, 0, 0, 0, 0, 0, 0
0.01, 0.02, 0.04, 0, 0, 0, 0, 0, 0, 0, 0, 0
0.01, 0.02, 0.05, 0, 0, 0, 0, 0, 0, 0, 0, 0
0.01, 0.02, 0.06, 0, 0, 0, 0, 0, 0, 0, 0, 0
0.01, 0.02, 0.07, 0, 0, 0, 0, 0, 0, 0, 0, 0
0.01, 0.02, 0.08, 0, 0, 0, 0, 0, 0, 0, 0, 0
0.01, 0.02, 0.09, 0, 0, 0, 0, 0, 0, 0, 0, 0
0.01, 0.02, 0.1, 0, 0, 0, 0, 0, 0, 0, 0, 0
0.01, 0.0225, 0, 0.765152, 1, 0.17948, 0.0131129, 0.0328487, 0.9808, 0.94375, 0.559306, 0.246152
0.01, 0.0225, 0.01, 0, 0, 0, 0, 0, 0, 0, 0, 0
0.01, 0.0225, 0.02, 0, 0, 0, 0, 0, 0, 0, 0, 0
0.01, 0.0225, 0.03, 0, 0, 0, 0, 0, 0, 0, 0, 0
0.01, 0.0225, 0.04, 0, 0, 0, 0, 0, 0, 0, 0, 0
0.01, 0.0225, 0.05, 0, 0, 0, 0, 0, 0, 0, 0, 0
0.01, 0.0225, 0.06, 0, 0, 0, 0, 0, 0, 0, 0, 0
0.01, 0.0225, 0.07, 0, 0, 0, 0, 0, 0, 0, 0, 0
0.01, 0.0225, 0.08, 0, 0, 0, 0, 0, 0, 0, 0, 0
0.01, 0.0225, 0.09, 0, 0, 0, 0, 0, 0, 0, 0, 0
0.01, 0.0225, 0.1, 0, 0, 0, 0, 0, 0, 0, 0, 0
0.01, 0.025, 0, 0.760705, 1, 0.225158, 0.0130544, 0.0354777, 0.98272, 0.9375, 0.564945, 0.256517
0.01, 0.025, 0.01, 0, 0, 0, 0, 0, 0, 0, 0, 0
0.01, 0.025, 0.02, 0, 0, 0, 0, 0, 0, 0, 0, 0
0.01, 0.025, 0.03, 0, 0, 0, 0, 0, 0, 0, 0, 0
0.01, 0.025, 0.04, 0, 0, 0, 0, 0, 0, 0, 0, 0
0.01, 0.025, 0.05, 0, 0, 0, 0, 0, 0, 0, 0, 0
0.01, 0.025, 0.06, 0, 0, 0, 0, 0, 0, 0, 0, 0
0.01, 0.025, 0.07, 0, 0, 0, 0, 0, 0, 0, 0, 0
0.01, 0.025, 0.08, 0, 0, 0, 0, 0, 0, 0, 0, 0
0.01, 0.025, 0.09, 0, 0, 0, 0, 0, 0, 0, 0, 0
0.01, 0.025, 0.1, 0, 0, 0, 0, 0, 0, 0, 0, 0
0.02, 0, 0, 0, 0, 0, 0, 0, 0, 0, 0, 0
0.02, 0, 0.01, 0, 0, 0, 0, 0, 0, 0, 0, 0
0.02, 0, 0.02, 0, 0, 0, 0, 0, 0, 0, 0, 0
0.02, 0, 0.03, 0, 0, 0, 0, 0, 0, 0, 0, 0
0.02, 0, 0.04, 0, 0, 0, 0, 0, 0, 0, 0, 0
0.02, 0, 0.05, 0, 0, 0, 0, 0, 0, 0, 0, 0
0.02, 0, 0.06, 0, 0, 0, 0, 0, 0, 0, 0, 0
0.02, 0, 0.07, 0, 0, 0, 0, 0, 0, 0, 0, 0
0.02, 0, 0.08, 0, 0, 0, 0, 0, 0, 0, 0, 0
0.02, 0, 0.09, 0, 0, 0, 0, 0, 0, 0, 0, 0
0.02, 0, 0.1, 0, 0, 0, 0, 0, 0, 0, 0, 0
0.02, 0.0025, 0, 0.779775, 1, 0.24451, 0.0389872, 0.0298436, 0.6352, 0.9875, 0.530831, 0.281235
0.02, 0.0025, 0.01, 0.96962, 1, 0.160525, 0.0166183, 0.0364825, 0.6352, 0.9875, 0.543707, 0.248907
0.02, 0.0025, 0.02, 0, 0, 0, 0, 0, 0, 0, 0, 0
0.02, 0.0025, 0.03, 0, 0, 0, 0, 0, 0, 0, 0, 0
0.02, 0.0025, 0.04, 0, 0, 0, 0, 0, 0, 0, 0, 0
0.02, 0.0025, 0.05, 0, 0, 0, 0, 0, 0, 0, 0, 0
0.02, 0.0025, 0.06, 0, 0, 0, 0, 0, 0, 0, 0, 0
0.02, 0.0025, 0.07, 0, 0, 0, 0, 0, 0, 0, 0, 0
0.02, 0.0025, 0.08, 0, 0, 0, 0, 0, 0, 0, 0, 0
0.02, 0.0025, 0.09, 0, 0, 0, 0, 0, 0, 0, 0, 0
0.02, 0.0025, 0.1, 0, 0, 0, 0, 0, 0, 0, 0, 0
0.02, 0.005, 0, 0.810811, 1, 0.254355, 0.0403316, 0.0348287, 0.8176, 0.975, 0.561847, 0.302342
0.02, 0.005, 0.01, 0.974619, 1, 0.195817, 0.0166183, 0.0431604, 0.8176, 0.975, 0.574688, 0.271635
0.02, 0.005, 0.02, 0, 0, 0, 0, 0, 0, 0, 0, 0
0.02, 0.005, 0.03, 0, 0, 0, 0, 0, 0, 0, 0, 0
0.02, 0.005, 0.04, 0, 0, 0, 0, 0, 0, 0, 0, 0
0.02, 0.005, 0.05, 0, 0, 0, 0, 0, 0, 0, 0, 0
0.02, 0.005, 0.06, 0, 0, 0, 0, 0, 0, 0, 0, 0
0.02, 0.005, 0.07, 0, 0, 0, 0, 0, 0, 0, 0, 0
0.02, 0.005, 0.08, 0, 0, 0, 0, 0, 0, 0, 0, 0
0.02, 0.005, 0.09, 0, 0, 0, 0, 0, 0, 0, 0, 0
0.02, 0.005, 0.1, 0, 0, 0, 0, 0, 0, 0, 0, 0
0.02, 0.0075, 0, 0.834081, 1, 0.274015, 0.041662, 0.036644, 0.8784, 0.9625, 0.575329, 0.313104
0.02, 0.0075, 0.01, 0.969543, 1, 0.201561, 0.0165751, 0.0484756, 0.8784, 0.9625, 0.582436, 0.27935
0.02, 0.0075, 0.02, 0, 0, 0, 0, 0, 0, 0, 0, 0
0.02, 0.0075, 0.03, 0, 0, 0, 0, 0, 0, 0, 0, 0
0.02, 0.0075, 0.04, 0, 0, 0, 0, 0, 0, 0, 0, 0
0.02, 0.0075, 0.05, 0, 0, 0, 0, 0, 0, 0, 0, 0
0.02, 0.0075, 0.06, 0, 0, 0, 0, 0, 0, 0, 0, 0
0.02, 0.0075, 0.07, 0, 0, 0, 0, 0, 0, 0, 0, 0
0.02, 0.0075, 0.08, 0, 0, 0, 0, 0, 0, 0, 0, 0
0.02, 0.0075, 0.09, 0, 0, 0, 0, 0, 0, 0, 0, 0
0.02, 0.0075, 0.1, 0, 0, 0, 0, 0, 0, 0, 0, 0
0.02, 0.01, 0, 0.856502, 1, 0.254342, 0.0428939, 0.041808, 0.9088, 0.95, 0.579192, 0.319153
0.02, 0.01, 0.01, 0.967089, 1, 0.194307, 0.0165318, 0.0506532, 0.9088, 0.95, 0.583912, 0.280274
0.02, 0.01, 0.02, 0, 0, 0, 0, 0, 0, 0, 0, 0
0.02, 0.01, 0.03, 0, 0, 0, 0, 0, 0, 0, 0, 0
0.02, 0.01, 0.04, 0, 0, 0, 0, 0, 0, 0, 0, 0
0.02, 0.01, 0.05, 0, 0, 0, 0, 0, 0, 0, 0, 0
0.02, 0.01, 0.06, 0, 0, 0, 0, 0, 0, 0, 0, 0
0.02, 0.01, 0.07, 0, 0, 0, 0, 0, 0, 0, 0, 0
0.02, 0.01, 0.08, 0, 0, 0, 0, 0, 0, 0, 0, 0
0.02, 0.01, 0.09, 0, 0, 0, 0, 0, 0, 0, 0, 0
0.02, 0.01, 0.1, 0, 0, 0, 0, 0, 0, 0, 0, 0
0.02, 0.0125, 0, 0.856502, 1, 0.246114, 0.0427819, 0.0446094, 0.92704, 0.9375, 0.579221, 0.320798
0.02, 0.0125, 0.01, 0.969697, 1, 0.189712, 0.0166183, 0.0522955, 0.92704, 0.9375, 0.584695, 0.281176
0.02, 0.0125, 0.02, 0, 0, 0, 0, 0, 0, 0, 0, 0
0.02, 0.0125, 0.03, 0, 0, 0, 0, 0, 0, 0, 0, 0
0.02, 0.0125, 0.04, 0, 0, 0, 0, 0, 0, 0, 0, 0
0.02, 0.0125, 0.05, 0, 0, 0, 0, 0, 0, 0, 0, 0
0.02, 0.0125, 0.06, 0, 0, 0, 0, 0, 0, 0, 0, 0
0.02, 0.0125, 0.07, 0, 0, 0, 0, 0, 0, 0, 0, 0
0.02, 0.0125, 0.08, 0, 0, 0, 0, 0, 0, 0, 0, 0
0.02, 0.0125, 0.09, 0, 0, 0, 0, 0, 0, 0, 0, 0
0.02, 0.0125, 0.1, 0, 0, 0, 0, 0, 0, 0, 0, 0
0.02, 0.015, 0, 0.883408, 1, 0.257295, 0.0442379, 0.0450781, 0.9392, 0.925, 0.584888, 0.326293
0.02, 0.015, 0.01, 0.967254, 1, 0.188116, 0.0166183, 0.0588133, 0.9392, 0.925, 0.585, 0.285471
0.02, 0.015, 0.02, 0, 0, 0, 0, 0, 0, 0, 0, 0
0.02, 0.015, 0.03, 0, 0, 0, 0, 0, 0, 0, 0, 0
0.02, 0.015, 0.04, 0, 0, 0, 0, 0, 0, 0, 0, 0
0.02, 0.015, 0.05, 0, 0, 0, 0, 0, 0, 0, 0, 0
0.02, 0.015, 0.06, 0, 0, 0, 0, 0, 0, 0, 0, 0
0.02, 0.015, 0.07, 0, 0, 0, 0, 0, 0, 0, 0, 0
0.02, 0.015, 0.08, 0, 0, 0, 0, 0, 0, 0, 0, 0
0.02, 0.015, 0.09, 0, 0, 0, 0, 0, 0, 0, 0, 0
0.02, 0.015, 0.1, 0, 0, 0, 0, 0, 0, 0, 0, 0
0.02, 0.0175, 0, 0.86456, 1, 0.287976, 0.0428939, 0.0478428, 0.947886, 0.9125, 0.586237, 0.331715
0.02, 0.0175, 0.01, 0.977273, 1, 0.177641, 0.0167482, 0.0615813, 0.947886, 0.9125, 0.584804, 0.285568
0.02, 0.0175, 0.02, 0, 0, 0, 0, 0, 0, 0, 0, 0
0.02, 0.0175, 0.03, 0, 0, 0, 0, 0, 0, 0, 0, 0
0.02, 0.0175, 0.04, 0, 0, 0, 0, 0, 0, 0, 0, 0
0.02, 0.0175, 0.05, 0, 0, 0, 0, 0, 0, 0, 0, 0
0.02, 0.0175, 0.06, 0, 0, 0, 0, 0, 0, 0, 0, 0
0.02, 0.0175, 0.07, 0, 0, 0, 0, 0, 0, 0, 0, 0
0.02, 0.0175, 0.08, 0, 0, 0, 0, 0, 0, 0, 0, 0
0.02, 0.0175, 0.09, 0, 0, 0, 0, 0, 0, 0, 0, 0
0.02, 0.0175, 0.1, 0, 0, 0, 0, 0, 0, 0, 0, 0
0.02, 0.02, 0, 0.881166, 1, 0.267922, 0.0441259, 0.0506244, 0.9544, 0.9, 0.585463, 0.332889
0.02, 0.02, 0.01, 0.977215, 1, 0.167812, 0.0166854, 0.0628343, 0.9544, 0.9, 0.582707, 0.283635
0.02, 0.02, 0.02, 0, 0, 0, 0, 0, 0, 0, 0, 0
0.02, 0.02, 0.03, 0, 0, 0, 0, 0, 0, 0, 0, 0
0.02, 0.02, 0.04, 0, 0, 0, 0, 0, 0, 0, 0, 0
0.02, 0.02, 0.05, 0, 0, 0, 0, 0, 0, 0, 0, 0
0.02, 0.02, 0.06, 0, 0, 0, 0, 0, 0, 0, 0, 0
0.02, 0.02, 0.07, 0, 0, 0, 0, 0, 0, 0, 0, 0
0.02, 0.02, 0.08, 0, 0, 0, 0, 0, 0, 0, 0, 0
0.02, 0.02, 0.09, 0, 0, 0, 0, 0, 0, 0, 0, 0
0.02, 0.02, 0.1, 0, 0, 0, 0, 0, 0, 0, 0, 0
0.02, 0.0225, 0, 0.892377, 1, 0.26991, 0.0446859, 0.0527716, 0.959467, 0.8875, 0.586673, 0.336018
0.02, 0.0225, 0.01, 0.96962, 1, 0.174, 0.0165479, 0.0648704, 0.959467, 0.8875, 0.581715, 0.285396
0.02, 0.0225, 0.02, 0, 0, 0, 0, 0, 0, 0, 0, 0
0.02, 0.0225, 0.03, 0, 0, 0, 0, 0, 0, 0, 0, 0
0.02, 0.0225, 0.04, 0, 0, 0, 0, 0, 0, 0, 0, 0
0.02, 0.0225, 0.05, 0, 0, 0, 0, 0, 0, 0, 0, 0
0.02, 0.0225, 0.06, 0, 0, 0, 0, 0, 0, 0, 0, 0
0.02, 0.0225, 0.07, 0, 0, 0, 0, 0, 0, 0, 0, 0
0.02, 0.0225, 0.08, 0, 0, 0, 0, 0, 0, 0, 0, 0
0.02, 0.0225, 0.09, 0, 0, 0, 0, 0, 0, 0, 0, 0
0.02, 0.0225, 0.1, 0, 0, 0, 0, 0, 0, 0, 0, 0
0.02, 0.025, 0, 0.885906, 1, 0.279838, 0.0443399, 0.0522442, 0.96352, 0.875, 0.585835, 0.336069
0.02, 0.025, 0.01, 0.972222, 1, 0.168035, 0.0166703, 0.0669644, 0.96352, 0.875, 0.580345, 0.285273
0.02, 0.025, 0.02, 0, 0, 0, 0, 0, 0, 0, 0, 0
0.02, 0.025, 0.03, 0, 0, 0, 0, 0, 0, 0, 0, 0
0.02, 0.025, 0.04, 0, 0, 0, 0, 0, 0, 0, 0, 0
0.02, 0.025, 0.05, 0, 0, 0, 0, 0, 0, 0, 0, 0
0.02, 0.025, 0.06, 0, 0, 0, 0, 0, 0, 0, 0, 0
0.02, 0.025, 0.07, 0, 0, 0, 0, 0, 0, 0, 0, 0
0.02, 0.025, 0.08, 0, 0, 0, 0, 0, 0, 0, 0, 0
0.02, 0.025, 0.09, 0, 0, 0, 0, 0, 0, 0, 0, 0
0.02, 0.025, 0.1, 0, 0, 0, 0, 0, 0, 0, 0, 0
0.03, 0, 0, 0, 0, 0, 0, 0, 0, 0, 0, 0
0.03, 0, 0.01, 0, 0, 0, 0, 0, 0, 0, 0, 0
0.03, 0, 0.02, 0, 0, 0, 0, 0, 0, 0, 0, 0
0.03, 0, 0.03, 0, 0, 0, 0, 0, 0, 0, 0, 0
0.03, 0, 0.04, 0, 0, 0, 0, 0, 0, 0, 0, 0
0.03, 0, 0.05, 0, 0, 0, 0, 0, 0, 0, 0, 0
0.03, 0, 0.06, 0, 0, 0, 0, 0, 0, 0, 0, 0
0.03, 0, 0.07, 0, 0, 0, 0, 0, 0, 0, 0, 0
0.03, 0, 0.08, 0, 0, 0, 0, 0, 0, 0, 0, 0
0.03, 0, 0.09, 0, 0, 0, 0, 0, 0, 0, 0, 0
0.03, 0, 0.1, 0, 0, 0, 0, 0, 0, 0, 0, 0
0.03, 0.0025, 0, 0.853763, 1, 0.332588, 0.0857944, 0.0361298, 0.4432, 0.98125, 0.533247, 0.324975
0.03, 0.0025, 0.01, 0.970852, 1, 0.246274, 0.0486166, 0.0392562, 0.4432, 0.98125, 0.532778, 0.295864
0.03, 0.0025, 0.02, 0.974747, 1, 0.165486, 0.0167914, 0.0410733, 0.4432, 0.98125, 0.517507, 0.241839
0.03, 0.0025, 0.03, 0, 0, 0, 0, 0, 0, 0, 0, 0
0.03, 0.0025, 0.04, 0, 0, 0, 0, 0, 0, 0, 0, 0
0.03, 0.0025, 0.05, 0, 0, 0, 0, 0, 0, 0, 0, 0
0.03, 0.0025, 0.06, 0, 0, 0, 0, 0, 0, 0, 0, 0
0.03, 0.0025, 0.07, 0, 0, 0, 0, 0, 0, 0, 0, 0
0.03, 0.0025, 0.08, 0, 0, 0, 0, 0, 0, 0, 0, 0
0.03, 0.0025, 0.09, 0, 0, 0, 0, 0, 0, 0, 0, 0
0.03, 0.0025, 0.1, 0, 0, 0, 0, 0, 0, 0, 0, 0
0.03, 0.005, 0, 0.885529, 1, 0.312256, 0.0888122, 0.043286, 0.7216, 0.9625, 0.573426, 0.356948
0.03, 0.005, 0.01, 0.979775, 1, 0.274007, 0.0488297, 0.0472823, 0.7216, 0.9625, 0.576285, 0.330475
0.03, 0.005, 0.02, 0.974684, 1, 0.209168, 0.0167482, 0.0515519, 0.7216, 0.9625, 0.562322, 0.276082
0.03, 0.005, 0.03, 0, 0, 0, 0, 0, 0, 0, 0, 0
0.03, 0.005, 0.04, 0, 0, 0, 0, 0, 0, 0, 0, 0
0.03, 0.005, 0.05, 0, 0, 0, 0, 0, 0, 0, 0, 0
0.03, 0.005, 0.06, 0, 0, 0, 0, 0, 0, 0, 0, 0
0.03, 0.005, 0.07, 0, 0, 0, 0, 0, 0, 0, 0, 0
0.03, 0.005, 0.08, 0, 0, 0, 0, 0, 0, 0, 0, 0
0.03, 0.005, 0.09, 0, 0, 0, 0, 0, 0, 0, 0, 0
0.03, 0.005, 0.1, 0, 0, 0, 0, 0, 0, 0, 0, 0
0.03, 0.0075, 0, 0.901075, 1, 0.311857, 0.0907328, 0.0481195, 0.8144, 0.94375, 0.587133, 0.369645
0.03, 0.0075, 0.01, 0.977528, 1, 0.254402, 0.048636, 0.0536306, 0.8144, 0.94375, 0.584621, 0.337477
0.03, 0.0075, 0.02, 0.977215, 1, 0.195343, 0.0167914, 0.0573517, 0.8144, 0.94375, 0.572122, 0.281849
0.03, 0.0075, 0.03, 0, 0, 0, 0, 0, 0, 0, 0, 0
0.03, 0.0075, 0.04, 0, 0, 0, 0, 0, 0, 0, 0, 0
0.03, 0.0075, 0.05, 0, 0, 0, 0, 0, 0, 0, 0, 0
0.03, 0.0075, 0.06, 0, 0, 0, 0, 0, 0, 0, 0, 0
0.03, 0.0075, 0.07, 0, 0, 0, 0, 0, 0, 0, 0, 0
0.03, 0.0075, 0.08, 0, 0, 0, 0, 0, 0, 0, 0, 0
0.03, 0.0075, 0.09, 0, 0, 0, 0, 0, 0, 0, 0, 0
0.03, 0.0075, 0.1, 0, 0, 0, 0, 0, 0, 0, 0, 0
0.03, 0.01, 0, 0.907527, 1, 0.30932, 0.0911638, 0.0514573, 0.8608, 0.925, 0.592181, 0.375291
0.03, 0.01, 0.01, 0.975336, 1, 0.295391, 0.0488596, 0.0599699, 0.8608, 0.925, 0.595051, 0.352195
0.03, 0.01, 0.02, 0.974684, 1, 0.187333, 0.0167482, 0.0647652, 0.8608, 0.925, 0.575619, 0.286308
0.03, 0.01, 0.03, 0, 0, 0, 0, 0, 0, 0, 0, 0
0.03, 0.01, 0.04, 0, 0, 0, 0, 0, 0, 0, 0, 0
0.03, 0.01, 0.05, 0, 0, 0, 0, 0, 0, 0, 0, 0
0.03, 0.01, 0.06, 0, 0, 0, 0, 0, 0, 0, 0, 0
0.03, 0.01, 0.07, 0, 0, 0, 0, 0, 0, 0, 0, 0
0.03, 0.01, 0.08, 0, 0, 0, 0, 0, 0, 0, 0, 0
0.03, 0.01, 0.09, 0, 0, 0, 0, 0, 0, 0, 0, 0
0.03, 0.01, 0.1, 0, 0, 0, 0, 0, 0, 0, 0, 0
0.03, 0.0125, 0, 0.91828, 1, 0.286601, 0.0924569, 0.0567086, 0.88864, 0.90625, 0.592705, 0.37842
0.03, 0.0125, 0.01, 0.96861, 1, 0.270085, 0.0483005, 0.0638897, 0.88864, 0.90625, 0.592254, 0.350522
0.03, 0.0125, 0.02, 0.964557, 1, 0.161015, 0.0165318, 0.0690138, 0.88864, 0.90625, 0.572287, 0.282249
0.03, 0.0125, 0.03, 0, 0, 0, 0, 0, 0, 0, 0, 0
0.03, 0.0125, 0.04, 0, 0, 0, 0, 0, 0, 0, 0, 0
0.03, 0.0125, 0.05, 0, 0, 0, 0, 0, 0, 0, 0, 0
0.03, 0.0125, 0.06, 0, 0, 0, 0, 0, 0, 0, 0, 0
0.03, 0.0125, 0.07, 0, 0, 0, 0, 0, 0, 0, 0, 0
0.03, 0.0125, 0.08, 0, 0, 0, 0, 0, 0, 0, 0, 0
0.03, 0.0125, 0.09, 0, 0, 0, 0, 0, 0, 0, 0, 0
0.03, 0.0125, 0.1, 0, 0, 0, 0, 0, 0, 0, 0, 0
0.03, 0.015, 0, 0.929185, 1, 0.335509, 0.09375, 0.061116, 0.9072, 0.8875, 0.602037, 0.39262
0.03, 0.015, 0.01, 0.975281, 1, 0.265971, 0.048636, 0.0674395, 0.9072, 0.8875, 0.593147, 0.353149
0.03, 0.015, 0.02, 0.974747, 1, 0.130183, 0.0167482, 0.075023, 0.9072, 0.8875, 0.5702, 0.278015
0.03, 0.015, 0.03, 0, 0, 0, 0, 0, 0, 0, 0, 0
0.03, 0.015, 0.04, 0, 0, 0, 0, 0, 0, 0, 0, 0
0.03, 0.015, 0.05, 0, 0, 0, 0, 0, 0, 0, 0, 0
0.03, 0.015, 0.06, 0, 0, 0, 0, 0, 0, 0, 0, 0
0.03, 0.015, 0.07, 0, 0, 0, 0, 0, 0, 0, 0, 0
0.03, 0.015, 0.08, 0, 0, 0, 0, 0, 0, 0, 0, 0
0.03, 0.015, 0.09, 0, 0, 0, 0, 0, 0, 0, 0, 0
0.03, 0.015, 0.1, 0, 0, 0, 0, 0, 0, 0, 0, 0
0.03, 0.0175, 0, 0.922581, 1, 0.286224, 0.0924569, 0.0642163, 0.920457, 0.86875, 0.593526, 0.384996
0.03, 0.0175, 0.01, 0.972973, 1, 0.225133, 0.0485242, 0.0700663, 0.920457, 0.86875, 0.586558, 0.346156
0.03, 0.0175, 0.02, 0.974684, 1, 0.125034, 0.0167049, 0.0779511, 0.920457, 0.86875, 0.569083, 0.277556
0.03, 0.0175, 0.03, 0, 0, 0, 0, 0, 0, 0, 0, 0
0.03, 0.0175, 0.04, 0, 0, 0, 0, 0, 0, 0, 0, 0
0.03, 0.0175, 0.05, 0, 0, 0, 0, 0, 0, 0, 0, 0
0.03, 0.0175, 0.06, 0, 0, 0, 0, 0, 0, 0, 0, 0
0.03, 0.0175, 0.07, 0, 0, 0, 0, 0, 0, 0, 0, 0
0.03, 0.0175, 0.08, 0, 0, 0, 0, 0, 0, 0, 0, 0
0.03, 0.0175, 0.09, 0, 0, 0, 0, 0, 0, 0, 0, 0
0.03, 0.0175, 0.1, 0, 0, 0, 0, 0, 0, 0, 0, 0
0.03, 0.02, 0, 0.929032, 1, 0.297293, 0.0935345, 0.0665858, 0.9304, 0.85, 0.595264, 0.389513
0.03, 0.02, 0.01, 0.986456, 1, 0.209699, 0.0488596, 0.072147, 0.9304, 0.85, 0.585366, 0.344569
0.03, 0.02, 0.02, 0.979747, 1, 0.108529, 0.0167286, 0.083288, 0.9304, 0.85, 0.566956, 0.274409
0.03, 0.02, 0.03, 0, 0, 0, 0, 0, 0, 0, 0, 0
0.03, 0.02, 0.04, 0, 0, 0, 0, 0, 0, 0, 0, 0
0.03, 0.02, 0.05, 0, 0, 0, 0, 0, 0, 0, 0, 0
0.03, 0.02, 0.06, 0, 0, 0, 0, 0, 0, 0, 0, 0
0.03, 0.02, 0.07, 0, 0, 0, 0, 0, 0, 0, 0, 0
0.03, 0.02, 0.08, 0, 0, 0, 0, 0, 0, 0, 0, 0
0.03, 0.02, 0.09, 0, 0, 0, 0, 0, 0, 0, 0, 0
0.03, 0.02, 0.1, 0, 0, 0, 0, 0, 0, 0, 0, 0
0.03, 0.0225, 0, 0.924893, 1, 0.271167, 0.0931034, 0.0675796, 0.938133, 0.83125, 0.589447, 0.383973
0.03, 0.0225, 0.01, 0.973154, 1, 0.205074, 0.0487042, 0.076072, 0.938133, 0.83125, 0.58177, 0.344563
0.03, 0.0225, 0.02, 0.974684, 1, 0.100397, 0.0167207, 0.0842992, 0.938133, 0.83125, 0.563641, 0.271078
0.03, 0.0225, 0.03, 0, 0, 0, 0, 0, 0, 0, 0, 0
0.03, 0.0225, 0.04, 0, 0, 0, 0, 0, 0, 0, 0, 0
0.03, 0.0225, 0.05, 0, 0, 0, 0, 0, 0, 0, 0, 0
0.03, 0.0225, 0.06, 0, 0, 0, 0, 0, 0, 0, 0, 0
0.03, 0.0225, 0.07, 0, 0, 0, 0, 0, 0, 0, 0, 0
0.03, 0.0225, 0.08, 0, 0, 0, 0, 0, 0, 0, 0, 0
0.03, 0.0225, 0.09, 0, 0, 0, 0, 0, 0, 0, 0, 0
0.03, 0.0225, 0.1, 0, 0, 0, 0, 0, 0, 0, 0, 0
0.03, 0.025, 0, 0.93319, 1, 0.239909, 0.09375, 0.0702984, 0.94432, 0.8125, 0.584852, 0.379424
0.03, 0.025, 0.01, 0.975391, 1, 0.206136, 0.0489058, 0.077453, 0.94432, 0.8125, 0.580672, 0.34522
0.03, 0.025, 0.02, 0.982368, 1, 0.0935913, 0.016843, 0.0870396, 0.94432, 0.8125, 0.56238, 0.26956
0.03, 0.025, 0.03, 0, 0, 0, 0, 0, 0, 0, 0, 0
0.03, 0.025, 0.04, 0, 0, 0, 0, 0, 0, 0, 0, 0
0.03, 0.025, 0.05, 0, 0, 0, 0, 0, 0, 0, 0, 0
0.03, 0.025, 0.06, 0, 0, 0, 0, 0, 0, 0, 0, 0
0.03, 0.025, 0.07, 0, 0, 0, 0, 0, 0, 0, 0, 0
0.03, 0.025, 0.08, 0, 0, 0, 0, 0, 0, 0, 0, 0
0.03, 0.025, 0.09, 0, 0, 0, 0, 0, 0, 0, 0, 0
0.03, 0.025, 0.1, 0, 0, 0, 0, 0, 0, 0, 0, 0
0.04, 0, 0, 0, 0, 0, 0, 0, 0, 0, 0, 0
0.04, 0, 0.01, 0, 0, 0, 0, 0, 0, 0, 0, 0
0.04, 0, 0.02, 0, 0, 0, 0, 0, 0, 0, 0, 0
0.04, 0, 0.03, 0, 0, 0, 0, 0, 0, 0, 0, 0
0.04, 0, 0.04, 0, 0, 0, 0, 0, 0, 0, 0, 0
0.04, 0, 0.05, 0, 0, 0, 0, 0, 0, 0, 0, 0
0.04, 0, 0.06, 0, 0, 0, 0, 0, 0, 0, 0, 0
0.04, 0, 0.07, 0, 0, 0, 0, 0, 0, 0, 0, 0
0.04, 0, 0.08, 0, 0, 0, 0, 0, 0, 0, 0, 0
0.04, 0, 0.09, 0, 0, 0, 0, 0, 0, 0, 0, 0
0.04, 0, 0.1, 0, 0, 0, 0, 0, 0, 0, 0, 0
0.04, 0.0025, 0, 0.873662, 1, 0.35624, 0.12858, 0.0353829, 0.2512, 0.975, 0.517152, 0.320424
0.04, 0.0025, 0.01, 0.965517, 1, 0.282309, 0.0969619, 0.0407658, 0.2512, 0.975, 0.515965, 0.308157
0.04, 0.0025, 0.02, 0.96861, 1, 0.184722, 0.0487286, 0.0428874, 0.2512, 0.975, 0.495878, 0.26492
0.04, 0.0025, 0.03, 0.967172, 1, 0.12009, 0.0166183, 0.0450157, 0.2512, 0.975, 0.482157, 0.215065
0.04, 0.0025, 0.04, 0, 0, 0, 0, 0, 0, 0, 0, 0
0.04, 0.0025, 0.05, 0, 0, 0, 0, 0, 0, 0, 0, 0
0.04, 0.0025, 0.06, 0, 0, 0, 0, 0, 0, 0, 0, 0
0.04, 0.0025, 0.07, 0, 0, 0, 0, 0, 0, 0, 0, 0
0.04, 0.0025, 0.08, 0, 0, 0, 0, 0, 0, 0, 0, 0
0.04, 0.0025, 0.09, 0, 0, 0, 0, 0, 0, 0, 0, 0
0.04, 0.0025, 0.1, 0, 0, 0, 0, 0, 0, 0, 0, 0
0.04, 0.005, 0, 0.897216, 1, 0.336324, 0.131071, 0.0456091, 0.6256, 0.95, 0.569403, 0.376485
0.04, 0.005, 0.01, 0.978495, 1, 0.314522, 0.0983854, 0.0520998, 0.6256, 0.95, 0.574157, 0.369342
0.04, 0.005, 0.02, 0.982022, 1, 0.215065, 0.0489417, 0.0557065, 0.6256, 0.95, 0.553905, 0.319815
0.04, 0.005, 0.03, 0.967089, 1, 0.155, 0.0166616, 0.060927, 0.6256, 0.95, 0.539325, 0.264445
0.04, 0.005, 0.04, 0, 0, 0, 0, 0, 0, 0, 0, 0
0.04, 0.005, 0.05, 0, 0, 0, 0, 0, 0, 0, 0, 0
0.04, 0.005, 0.06, 0, 0, 0, 0, 0, 0, 0, 0, 0
0.04, 0.005, 0.07, 0, 0, 0, 0, 0, 0, 0, 0, 0
0.04, 0.005, 0.08, 0, 0, 0, 0, 0, 0, 0, 0, 0
0.04, 0.005, 0.09, 0, 0, 0, 0, 0, 0, 0, 0, 0
0.04, 0.005, 0.1, 0, 0, 0, 0, 0, 0, 0, 0, 0
0.04, 0.0075, 0, 0.91863, 1, 0.310051, 0.134264, 0.0522778, 0.7504, 0.925, 0.584375, 0.39062
0.04, 0.0075, 0.01, 0.978495, 1, 0.299751, 0.0982373, 0.0600741, 0.7504, 0.925, 0.587422, 0.382663
0.04, 0.0075, 0.02, 0.990991, 1, 0.204026, 0.0493068, 0.0647701, 0.7504, 0.925, 0.569213, 0.332383
0.04, 0.0075, 0.03, 0.977215, 1, 0.152691, 0.0167049, 0.0693902, 0.7504, 0.925, 0.555915, 0.275367
0.04, 0.0075, 0.04, 0, 0, 0, 0, 0, 0, 0, 0, 0
0.04, 0.0075, 0.05, 0, 0, 0, 0, 0, 0, 0, 0, 0
0.04, 0.0075, 0.06, 0, 0, 0, 0, 0, 0, 0, 0, 0
0.04, 0.0075, 0.07, 0, 0, 0, 0, 0, 0, 0, 0, 0
0.04, 0.0075, 0.08, 0, 0, 0, 0, 0, 0, 0, 0, 0
0.04, 0.0075, 0.09, 0, 0, 0, 0, 0, 0, 0, 0, 0
0.04, 0.0075, 0.1, 0, 0, 0, 0, 0, 0, 0, 0, 0
0.04, 0.01, 0, 0.929336, 1, 0.294987, 0.1348, 0.057593, 0.8128, 0.9, 0.589931, 0.397095
0.04, 0.01, 0.01, 0.976344, 1, 0.244974, 0.0980224, 0.0675166, 0.8128, 0.9, 0.585665, 0.38065
0.04, 0.01, 0.02, 0.982063, 1, 0.191756, 0.0490832, 0.0715768, 0.8128, 0.9, 0.572468, 0.336049
0.04, 0.01, 0.03, 0.974747, 1, 0.158489, 0.0167914, 0.0782217, 0.8128, 0.9, 0.563007, 0.283842
0.04, 0.01, 0.04, 0, 0, 0, 0, 0, 0, 0, 0, 0
0.04, 0.01, 0.05, 0, 0, 0, 0, 0, 0, 0, 0, 0
0.04, 0.01, 0.06, 0, 0, 0, 0, 0, 0, 0, 0, 0
0.04, 0.01, 0.07, 0, 0, 0, 0, 0, 0, 0, 0, 0
0.04, 0.01, 0.08, 0, 0, 0, 0, 0, 0, 0, 0, 0
0.04, 0.01, 0.09, 0, 0, 0, 0, 0, 0, 0, 0, 0
0.04, 0.01, 0.1, 0, 0, 0, 0, 0, 0, 0, 0, 0
0.04, 0.0125, 0, 0.927195, 1, 0.312708, 0.13542, 0.0630175, 0.85024, 0.875, 0.594797, 0.406711
0.04, 0.0125, 0.01, 0.972043, 1, 0.231902, 0.0975924, 0.0734566, 0.85024, 0.875, 0.585748, 0.382697
0.04, 0.0125, 0.02, 0.988739, 1, 0.18076, 0.0490832, 0.0772818, 0.85024, 0.875, 0.574443, 0.338036
0.04, 0.0125, 0.03, 0.972152, 1, 0.122148, 0.0166616, 0.0840214, 0.85024, 0.875, 0.560032, 0.276537
0.04, 0.0125, 0.04, 0, 0, 0, 0, 0, 0, 0, 0, 0
0.04, 0.0125, 0.05, 0, 0, 0, 0, 0, 0, 0, 0, 0
0.04, 0.0125, 0.06, 0, 0, 0, 0, 0, 0, 0, 0, 0
0.04, 0.0125, 0.07, 0, 0, 0, 0, 0, 0, 0, 0, 0
0.04, 0.0125, 0.08, 0, 0, 0, 0, 0, 0, 0, 0, 0
0.04, 0.0125, 0.09, 0, 0, 0, 0, 0, 0, 0, 0, 0
0.04, 0.0125, 0.1, 0, 0, 0, 0, 0, 0, 0, 0, 0
0.04, 0.015, 0, 0.937901, 1, 0.258047, 0.13604, 0.0663141, 0.8752, 0.85, 0.589072, 0.399505
0.04, 0.015, 0.01, 0.978541, 1, 0.209879, 0.0982373, 0.0765459, 0.8752, 0.85, 0.584058, 0.380223
0.04, 0.015, 0.02, 0.982022, 1, 0.142383, 0.0489714, 0.0814866, 0.8752, 0.85, 0.56858, 0.328758
0.04, 0.015, 0.03, 0.974747, 1, 0.120987, 0.0167914, 0.0880395, 0.8752, 0.85, 0.560824, 0.278422
0.04, 0.015, 0.04, 0, 0, 0, 0, 0, 0, 0, 0, 0
0.04, 0.015, 0.05, 0, 0, 0, 0, 0, 0, 0, 0, 0
0.04, 0.015, 0.06, 0, 0, 0, 0, 0, 0, 0, 0, 0
0.04, 0.015, 0.07, 0, 0, 0, 0, 0, 0, 0, 0, 0
0.04, 0.015, 0.08, 0, 0, 0, 0, 0, 0, 0, 0, 0
0.04, 0.015, 0.09, 0, 0, 0, 0, 0, 0, 0, 0, 0
0.04, 0.015, 0.1, 0, 0, 0, 0, 0, 0, 0, 0, 0
0.04, 0.0175, 0, 0.935484, 1, 0.287682, 0.13573, 0.0687188, 0.893029, 0.825, 0.592235, 0.406981
0.04, 0.0175, 0.01, 0.980645, 1, 0.191481, 0.0988822, 0.0809542, 0.893029, 0.825, 0.581427, 0.378233
0.04, 0.0175, 0.02, 0.990991, 1, 0.134115, 0.049195, 0.0857092, 0.893029, 0.825, 0.568291, 0.328507
0.04, 0.0175, 0.03, 0.977215, 1, 0.112216, 0.0167914, 0.0905037, 0.893029, 0.825, 0.559251, 0.27625
0.04, 0.0175, 0.04, 0, 0, 0, 0, 0, 0, 0, 0, 0
0.04, 0.0175, 0.05, 0, 0, 0, 0, 0, 0, 0, 0, 0
0.04, 0.0175, 0.06, 0, 0, 0, 0, 0, 0, 0, 0, 0
0.04, 0.0175, 0.07, 0, 0, 0, 0, 0, 0, 0, 0, 0
0.04, 0.0175, 0.08, 0, 0, 0, 0, 0, 0, 0, 0, 0
0.04, 0.0175, 0.09, 0, 0, 0, 0, 0, 0, 0, 0, 0
0.04, 0.0175, 0.1, 0, 0, 0, 0, 0, 0, 0, 0, 0
0.04, 0.02, 0, 0.93133, 1, 0.303184, 0.13635, 0.0734819, 0.9064, 0.8, 0.592964, 0.413055
0.04, 0.02, 0.01, 0.976344, 1, 0.199915, 0.0980224, 0.0837288, 0.9064, 0.8, 0.58063, 0.380823
0.04, 0.02, 0.02, 0.988739, 1, 0.106813, 0.0490832, 0.0892411, 0.9064, 0.8, 0.562896, 0.318903
0.04, 0.02, 0.03, 0.974619, 1, 0.0935366, 0.0165989, 0.0930249, 0.9064, 0.8, 0.554883, 0.269057
0.04, 0.02, 0.04, 0, 0, 0, 0, 0, 0, 0, 0, 0
0.04, 0.02, 0.05, 0, 0, 0, 0, 0, 0, 0, 0, 0
0.04, 0.02, 0.06, 0, 0, 0, 0, 0, 0, 0, 0, 0
0.04, 0.02, 0.07, 0, 0, 0, 0, 0, 0, 0, 0, 0
0.04, 0.02, 0.08, 0, 0, 0, 0, 0, 0, 0, 0, 0
0.04, 0.02, 0.09, 0, 0, 0, 0, 0, 0, 0, 0, 0
0.04, 0.02, 0.1, 0, 0, 0, 0, 0, 0, 0, 0, 0
0.04, 0.0225, 0, 0.942184, 1, 0.278388, 0.137279, 0.0750699, 0.9168, 0.775, 0.589246, 0.409184
0.04, 0.0225, 0.01, 0.974194, 1, 0.164129, 0.0973775, 0.086944, 0.9168, 0.775, 0.573492, 0.370693
0.04, 0.0225, 0.02, 0.979821, 1, 0.106268, 0.0490393, 0.0898367, 0.9168, 0.775, 0.559538, 0.317596
0.04, 0.0225, 0.03, 0.977215, 1, 0.0899422, 0.0167207, 0.0962882, 0.9168, 0.775, 0.553138, 0.268478
0.04, 0.0225, 0.04, 0, 0, 0, 0, 0, 0, 0, 0, 0
0.04, 0.0225, 0.05, 0, 0, 0, 0, 0, 0, 0, 0, 0
0.04, 0.0225, 0.06, 0, 0, 0, 0, 0, 0, 0, 0, 0
0.04, 0.0225, 0.07, 0, 0, 0, 0, 0, 0, 0, 0, 0
0.04, 0.0225, 0.08, 0, 0, 0, 0, 0, 0, 0, 0, 0
0.04, 0.0225, 0.09, 0, 0, 0, 0, 0, 0, 0, 0, 0
0.04, 0.0225, 0.1, 0, 0, 0, 0, 0, 0, 0, 0, 0
0.04, 0.025, 0, 0.944325, 1, 0.244862, 0.137589, 0.0780863, 0.92512, 0.75, 0.582855, 0.402911
0.04, 0.025, 0.01, 0.969892, 1, 0.159752, 0.0973775, 0.0888113, 0.92512, 0.75, 0.570136, 0.3689
0.04, 0.025, 0.02, 0.982063, 1, 0.0900847, 0.0490174, 0.0934857, 0.92512, 0.75, 0.555682, 0.310982
0.04, 0.025, 0.03, 0.979747, 1, 0.0937286, 0.0167998, 0.0977315, 0.92512, 0.75, 0.551875, 0.270003
0.04, 0.025, 0.04, 0, 0, 0, 0, 0, 0, 0, 0, 0
0.04, 0.025, 0.05, 0, 0, 0, 0, 0, 0, 0, 0, 0
0.04, 0.025, 0.06, 0, 0, 0, 0, 0, 0, 0, 0, 0
0.04, 0.025, 0.07, 0, 0, 0, 0, 0, 0, 0, 0, 0
0.04, 0.025, 0.08, 0, 0, 0, 0, 0, 0, 0, 0, 0
0.04, 0.025, 0.09, 0, 0, 0, 0, 0, 0, 0, 0, 0
0.04, 0.025, 0.1, 0, 0, 0, 0, 0, 0, 0, 0, 0
0.05, 0, 0, 0, 0, 0, 0, 0, 0, 0, 0, 0
0.05, 0, 0.01, 0, 0, 0, 0, 0, 0, 0, 0, 0
0.05, 0, 0.02, 0, 0, 0, 0, 0, 0, 0, 0, 0
0.05, 0, 0.03, 0, 0, 0, 0, 0, 0, 0, 0, 0
0.05, 0, 0.04, 0, 0, 0, 0, 0, 0, 0, 0, 0
0.05, 0, 0.05, 0, 0, 0, 0, 0, 0, 0, 0, 0
0.05, 0, 0.06, 0, 0, 0, 0, 0, 0, 0, 0, 0
0.05, 0, 0.07, 0, 0, 0, 0, 0, 0, 0, 0, 0
0.05, 0, 0.08, 0, 0, 0, 0, 0, 0, 0, 0, 0
0.05, 0, 0.09, 0, 0, 0, 0, 0, 0, 0, 0, 0
0.05, 0, 0.1, 0, 0, 0, 0, 0, 0, 0, 0, 0
0.05, 0.0025, 0, 0.883369, 1, 0.31178, 0.162289, 0.0372353, 0.0592, 0.96875, 0.488946, 0.26649
0.05, 0.0025, 0.01, 0.959227, 1, 0.267331, 0.140068, 0.0425476, 0.0592, 0.96875, 0.491018, 0.263262
0.05, 0.0025, 0.02, 0.972043, 1, 0.15859, 0.0980392, 0.0469956, 0.0592, 0.96875, 0.471945, 0.235967
0.05, 0.0025, 0.03, 0.973034, 1, 0.151873, 0.0488297, 0.0479919, 0.0592, 0.96875, 0.46424, 0.212953
0.05, 0.0025, 0.04, 0.96962, 1, 0.0833734, 0.0165751, 0.0494447, 0.0592, 0.96875, 0.449566, 0.168142
0.05, 0.0025, 0.05, 0, 0, 0, 0, 0, 0, 0, 0, 0
0.05, 0.0025, 0.06, 0, 0, 0, 0, 0, 0, 0, 0, 0
0.05, 0.0025, 0.07, 0, 0, 0, 0, 0, 0, 0, 0, 0
0.05, 0.0025, 0.08, 0, 0, 0, 0, 0, 0, 0, 0, 0
0.05, 0.0025, 0.09, 0, 0, 0, 0, 0, 0, 0, 0, 0
0.05, 0.0025, 0.1, 0, 0, 0, 0, 0, 0, 0, 0, 0
0.05, 0.005, 0, 0.911828, 1, 0.361294, 0.168169, 0.0482867, 0.5296, 0.9375, 0.56524, 0.388184
0.05, 0.005, 0.01, 0.978541, 1, 0.321741, 0.14171, 0.0547759, 0.5296, 0.9375, 0.566267, 0.383202
0.05, 0.005, 0.02, 0.984914, 1, 0.16072, 0.0994618, 0.0603925, 0.5296, 0.9375, 0.538941, 0.334858
0.05, 0.005, 0.03, 0.979821, 1, 0.180799, 0.0491546, 0.0654097, 0.5296, 0.9375, 0.534612, 0.311219
0.05, 0.005, 0.04, 0.972081, 1, 0.115077, 0.0166616, 0.0684808, 0.5296, 0.9375, 0.519914, 0.251345
0.05, 0.005, 0.05, 0, 0, 0, 0, 0, 0, 0, 0, 0
0.05, 0.005, 0.06, 0, 0, 0, 0, 0, 0, 0, 0, 0
0.05, 0.005, 0.07, 0, 0, 0, 0, 0, 0, 0, 0, 0
0.05, 0.005, 0.08, 0, 0, 0, 0, 0, 0, 0, 0, 0
0.05, 0.005, 0.09, 0, 0, 0, 0, 0, 0, 0, 0, 0
0.05, 0.005, 0.1, 0, 0, 0, 0, 0, 0, 0, 0, 0
0.05, 0.0075, 0, 0.922747, 1, 0.330526, 0.169345, 0.0549257, 0.6864, 0.90625, 0.581456, 0.404265
0.05, 0.0075, 0.01, 0.972222, 1, 0.0879656, 0.141536, 0.0631368, 0.6864, 0.90625, 0.551073, 0.335192
0.05, 0.0075, 0.02, 0.987097, 1, 0.0634926, 0.0993121, 0.0704199, 0.6864, 0.90625, 0.54471, 0.3096
0.05, 0.0075, 0.03, 0.98427, 1, 0.0567683, 0.0490393, 0.0752234, 0.6864, 0.90625, 0.53685, 0.277966
0.05, 0.0075, 0.04, 0.974747, 1, 0.0458495, 0.0168347, 0.0805668, 0.6864, 0.90625, 0.530093, 0.233378
0.05, 0.0075, 0.05, 0, 0, 0, 0, 0, 0, 0, 0, 0
0.05, 0.0075, 0.06, 0, 0, 0, 0, 0, 0, 0, 0, 0
0.05, 0.0075, 0.07, 0, 0, 0, 0, 0, 0, 0, 0, 0
0.05, 0.0075, 0.08, 0, 0, 0, 0, 0, 0, 0, 0, 0
0.05, 0.0075, 0.09, 0, 0, 0, 0, 0, 0, 0, 0, 0
0.05, 0.0075, 0.1, 0, 0, 0, 0, 0, 0, 0, 0, 0
0.05, 0.01, 0, 0.933045, 1, 0.116546, 0.172009, 0.0615672, 0.7648, 0.875, 0.560424, 0.359141
0.05, 0.01, 0.01, 0.970021, 1, 0.0901521, 0.140919, 0.070726, 0.7648, 0.875, 0.558803, 0.345128
0.05, 0.01, 0.02, 0.980645, 1, 0.0529618, 0.0980979, 0.0767026, 0.7648, 0.875, 0.549744, 0.307762
0.05, 0.01, 0.03, 0.986547, 1, 0.0516482, 0.0492627, 0.0832946, 0.7648, 0.875, 0.544365, 0.281455
0.05, 0.01, 0.04, 0.979798, 1, 0.0475873, 0.016878, 0.0911463, 0.7648, 0.875, 0.539316, 0.241565
0.05, 0.01, 0.05, 0, 0, 0, 0, 0, 0, 0, 0, 0
0.05, 0.01, 0.06, 0, 0, 0, 0, 0, 0, 0, 0, 0
0.05, 0.01, 0.07, 0, 0, 0, 0, 0, 0, 0, 0, 0
0.05, 0.01, 0.08, 0, 0, 0, 0, 0, 0, 0, 0, 0
0.05, 0.01, 0.09, 0, 0, 0, 0, 0, 0, 0, 0, 0
0.05, 0.01, 0.1, 0, 0, 0, 0, 0, 0, 0, 0, 0
0.05, 0.0125, 0, 0.941935, 1, 0.117181, 0.174746, 0.0657676, 0.81184, 0.84375, 0.565031, 0.365352
0.05, 0.0125, 0.01, 0.974414, 1, 0.0770202, 0.141536, 0.0760035, 0.81184, 0.84375, 0.560652, 0.342512
0.05, 0.0125, 0.02, 0.984946, 1, 0.0500286, 0.0983116, 0.084305, 0.81184, 0.84375, 0.553312, 0.310739
0.05, 0.0125, 0.03, 0.977578, 1, 0.0478038, 0.0489276, 0.0911826, 0.81184, 0.84375, 0.545869, 0.28228
0.05, 0.0125, 0.04, 0.974684, 1, 0.0449981, 0.0167286, 0.0984478, 0.81184, 0.84375, 0.541493, 0.242614
0.05, 0.0125, 0.05, 0, 0, 0, 0, 0, 0, 0, 0, 0
0.05, 0.0125, 0.06, 0, 0, 0, 0, 0, 0, 0, 0, 0
0.05, 0.0125, 0.07, 0, 0, 0, 0, 0, 0, 0, 0, 0
0.05, 0.0125, 0.08, 0, 0, 0, 0, 0, 0, 0, 0, 0
0.05, 0.0125, 0.09, 0, 0, 0, 0, 0, 0, 0, 0, 0
0.05, 0.0125, 0.1, 0, 0, 0, 0, 0, 0, 0, 0, 0
0.05, 0.015, 0, 0.938034, 1, 0.108521, 0.173573, 0.069895, 0.8432, 0.8125, 0.563675, 0.363965
0.05, 0.015, 0.01, 0.972281, 1, 0.06762, 0.142285, 0.0808341, 0.8432, 0.8125, 0.559817, 0.339332
0.05, 0.015, 0.02, 0.978541, 1, 0.0426867, 0.0976704, 0.0900015, 0.8432, 0.8125, 0.552086, 0.306059
0.05, 0.015, 0.03, 0.979866, 1, 0.0410766, 0.0490393, 0.0943876, 0.8432, 0.8125, 0.545724, 0.277786
0.05, 0.015, 0.04, 0.974684, 1, 0.0390714, 0.0166854, 0.105653, 0.8432, 0.8125, 0.541685, 0.240096
0.05, 0.015, 0.05, 0, 0, 0, 0, 0, 0, 0, 0, 0
0.05, 0.015, 0.06, 0, 0, 0, 0, 0, 0, 0, 0, 0
0.05, 0.015, 0.07, 0, 0, 0, 0, 0, 0, 0, 0, 0
0.05, 0.015, 0.08, 0, 0, 0, 0, 0, 0, 0, 0, 0
0.05, 0.015, 0.09, 0, 0, 0, 0, 0, 0, 0, 0, 0
0.05, 0.015, 0.1, 0, 0, 0, 0, 0, 0, 0, 0, 0
0.05, 0.0175, 0, 0.939914, 1, 0.118999, 0.173182, 0.0734769, 0.8656, 0.78125, 0.564632, 0.370729
0.05, 0.0175, 0.01, 0.97234, 1, 0.0744384, 0.142285, 0.0839546, 0.8656, 0.78125, 0.559981, 0.345249
0.05, 0.0175, 0.02, 0.980603, 1, 0.0426441, 0.0978842, 0.0919821, 0.8656, 0.78125, 0.551423, 0.306587
0.05, 0.0175, 0.03, 0.982022, 1, 0.0393421, 0.0489276, 0.0977532, 0.8656, 0.78125, 0.544985, 0.276946
0.05, 0.0175, 0.04, 0.979644, 1, 0.0397005, 0.0166422, 0.108178, 0.8656, 0.78125, 0.541573, 0.241095
0.05, 0.0175, 0.05, 0, 0, 0, 0, 0, 0, 0, 0, 0
0.05, 0.0175, 0.06, 0, 0, 0, 0, 0, 0, 0, 0, 0
0.05, 0.0175, 0.07, 0, 0, 0, 0, 0, 0, 0, 0, 0
0.05, 0.0175, 0.08, 0, 0, 0, 0, 0, 0, 0, 0, 0
0.05, 0.0175, 0.09, 0, 0, 0, 0, 0, 0, 0, 0, 0
0.05, 0.0175, 0.1, 0, 0, 0, 0, 0, 0, 0, 0, 0
0.05, 0.02, 0, 0.940043, 1, 0.108197, 0.174746, 0.0755469, 0.8824, 0.75, 0.561562, 0.366524
0.05, 0.02, 0.01, 0.968017, 1, 0.0573058, 0.140437, 0.0872096, 0.8824, 0.75, 0.555053, 0.332534
0.05, 0.02, 0.02, 0.978495, 1, 0.0403009, 0.0978842, 0.0970867, 0.8824, 0.75, 0.549452, 0.305439
0.05, 0.02, 0.03, 0.98427, 1, 0.0323356, 0.0490393, 0.100601, 0.8824, 0.75, 0.542664, 0.269745
0.05, 0.02, 0.04, 0.977157, 1, 0.0347758, 0.0166775, 0.108406, 0.8824, 0.75, 0.538488, 0.235904
0.05, 0.02, 0.05, 0, 0, 0, 0, 0, 0, 0, 0, 0
0.05, 0.02, 0.06, 0, 0, 0, 0, 0, 0, 0, 0, 0
0.05, 0.02, 0.07, 0, 0, 0, 0, 0, 0, 0, 0, 0
0.05, 0.02, 0.08, 0, 0, 0, 0, 0, 0, 0, 0, 0
0.05, 0.02, 0.09, 0, 0, 0, 0, 0, 0, 0, 0, 0
0.05, 0.02, 0.1, 0, 0, 0, 0, 0, 0, 0, 0, 0
0.05, 0.0225, 0, 0.939914, 1, 0.0970715, 0.173573, 0.0775014, 0.895467, 0.71875, 0.557468, 0.360413
0.05, 0.0225, 0.01, 0.970021, 1, 0.0595992, 0.140437, 0.0906415, 0.895467, 0.71875, 0.553559, 0.335016
0.05, 0.0225, 0.02, 0.984946, 1, 0.0390485, 0.098739, 0.0976831, 0.895467, 0.71875, 0.547805, 0.303784
0.05, 0.0225, 0.03, 0.986547, 1, 0.0320745, 0.0492297, 0.101477, 0.895467, 0.71875, 0.540506, 0.268932
0.05, 0.0225, 0.04, 0.977157, 1, 0.0357443, 0.0166703, 0.113727, 0.895467, 0.71875, 0.536788, 0.237497
0.05, 0.0225, 0.05, 0, 0, 0, 0, 0, 0, 0, 0, 0
0.05, 0.0225, 0.06, 0, 0, 0, 0, 0, 0, 0, 0, 0
0.05, 0.0225, 0.07, 0, 0, 0, 0, 0, 0, 0, 0, 0
0.05, 0.0225, 0.08, 0, 0, 0, 0, 0, 0, 0, 0, 0
0.05, 0.0225, 0.09, 0, 0, 0, 0, 0, 0, 0, 0, 0
0.05, 0.0225, 0.1, 0, 0, 0, 0, 0, 0, 0, 0, 0
0.05, 0.025, 0, 0.948608, 1, 0.0802328, 0.175459, 0.079815, 0.90592, 0.6875, 0.553934, 0.351568
0.05, 0.025, 0.01, 0.968153, 1, 0.0557235, 0.14211, 0.0896358, 0.90592, 0.6875, 0.549863, 0.330201
0.05, 0.025, 0.02, 0.984979, 1, 0.0356605, 0.098739, 0.100427, 0.90592, 0.6875, 0.544746, 0.299652
0.05, 0.025, 0.03, 0.986547, 1, 0.0318197, 0.0491694, 0.104699, 0.90592, 0.6875, 0.537951, 0.268518
0.05, 0.025, 0.04, 0.979695, 1, 0.0348371, 0.0166645, 0.115292, 0.90592, 0.6875, 0.534273, 0.236055
0.05, 0.025, 0.05, 0, 0, 0, 0, 0, 0, 0, 0, 0
0.05, 0.025, 0.06, 0, 0, 0, 0, 0, 0, 0, 0, 0
0.05, 0.025, 0.07, 0, 0, 0, 0, 0, 0, 0, 0, 0
0.05, 0.025, 0.08, 0, 0, 0, 0, 0, 0, 0, 0, 0
0.05, 0.025, 0.09, 0, 0, 0, 0, 0, 0, 0, 0, 0
0.05, 0.025, 0.1, 0, 0, 0, 0, 0, 0, 0, 0, 0
0.06, 0, 0, 0, 0, 0, 0, 0, 0, 0, 0, 0
0.06, 0, 0.01, 0, 0, 0, 0, 0, 0, 0, 0, 0
0.06, 0, 0.02, 0, 0, 0, 0, 0, 0, 0, 0, 0
0.06, 0, 0.03, 0, 0, 0, 0, 0, 0, 0, 0, 0
0.06, 0, 0.04, 0, 0, 0, 0, 0, 0, 0, 0, 0
0.06, 0, 0.05, 0, 0, 0, 0, 0, 0, 0, 0, 0
0.06, 0, 0.06, 0, 0, 0, 0, 0, 0, 0, 0, 0
0.06, 0, 0.07, 0, 0, 0, 0, 0, 0, 0, 0, 0
0.06, 0, 0.08, 0, 0, 0, 0, 0, 0, 0, 0, 0
0.06, 0, 0.09, 0, 0, 0, 0, 0, 0, 0, 0, 0
0.06, 0, 0.1, 0, 0, 0, 0, 0, 0, 0, 0, 0
0.06, 0.0025, 0, 0.88651, 1, 0.129894, 0.186374, 0.0364667, 0, 0.9625, 0.457392, 0
0.06, 0.0025, 0.01, 0.954741, 1, 0.104836, 0.17631, 0.0430134, 0, 0.9625, 0.463057, 0
0.06, 0.0025, 0.02, 0.952891, 1, 0.0623154, 0.139139, 0.0464305, 0, 0.9625, 0.451896, 0
0.06, 0.0025, 0.03, 0.96129, 1, 0.0451955, 0.0971773, 0.0490046, 0, 0.9625, 0.445024, 0
0.06, 0.0025, 0.04, 0.966292, 1, 0.0451928, 0.0481577, 0.0493498, 0, 0.9625, 0.438785, 0
0.06, 0.0025, 0.05, 0.974747, 1, 0.0354197, 0.0167482, 0.0478668, 0, 0.9625, 0.433897, 0
0.06, 0.0025, 0.06, 0, 0, 0, 0, 0, 0, 0, 0, 0
0.06, 0.0025, 0.07, 0, 0, 0, 0, 0, 0, 0, 0, 0
0.06, 0.0025, 0.08, 0, 0, 0, 0, 0, 0, 0, 0, 0
0.06, 0.0025, 0.09, 0, 0, 0, 0, 0, 0, 0, 0, 0
0.06, 0.0025, 0.1, 0, 0, 0, 0, 0, 0, 0, 0, 0
0.06, 0.005, 0, 0.905579, 1, 0.118736, 0.189225, 0.0477407, 0.4336, 0.925, 0.517126, 0.325794
0.06, 0.005, 0.01, 0.967672, 1, 0.112416, 0.177804, 0.0557078, 0.4336, 0.925, 0.5246, 0.330657
0.06, 0.005, 0.02, 0.972163, 1, 0.0690555, 0.142152, 0.0617314, 0.4336, 0.925, 0.514815, 0.303332
0.06, 0.005, 0.03, 0.978495, 1, 0.0495185, 0.0986006, 0.0646099, 0.4336, 0.925, 0.507118, 0.276579
0.06, 0.005, 0.04, 0.98427, 1, 0.0544324, 0.0492666, 0.0670423, 0.4336, 0.925, 0.501944, 0.255447
0.06, 0.005, 0.05, 0.977215, 1, 0.0486365, 0.0168347, 0.0688651, 0.4336, 0.925, 0.495736, 0.216228
0.06, 0.005, 0.06, 0, 0, 0, 0, 0, 0, 0, 0, 0
0.06, 0.005, 0.07, 0, 0, 0, 0, 0, 0, 0, 0, 0
0.06, 0.005, 0.08, 0, 0, 0, 0, 0, 0, 0, 0, 0
0.06, 0.005, 0.09, 0, 0, 0, 0, 0, 0, 0, 0, 0
0.06, 0.005, 0.1, 0, 0, 0, 0, 0, 0, 0, 0, 0
0.06, 0.0075, 0, 0.908511, 1, 0.0949249, 0.192661, 0.0560804, 0.6224, 0.8875, 0.537439, 0.339017
0.06, 0.0075, 0.01, 0.952891, 1, 0.0940101, 0.177804, 0.0655684, 0.6224, 0.8875, 0.542882, 0.344587
0.06, 0.0075, 0.02, 0.965885, 1, 0.0541885, 0.140308, 0.0725933, 0.6224, 0.8875, 0.534696, 0.313024
0.06, 0.0075, 0.03, 0.984946, 1, 0.050916, 0.0988822, 0.0759657, 0.6224, 0.8875, 0.531516, 0.297875
0.06, 0.0075, 0.04, 0.988764, 1, 0.0561374, 0.0492627, 0.0775734, 0.6224, 0.8875, 0.525948, 0.274411
0.06, 0.0075, 0.05, 0.979747, 1, 0.0510978, 0.0168347, 0.0805056, 0.6224, 0.8875, 0.519726, 0.233176
0.06, 0.0075, 0.06, 0, 0, 0, 0, 0, 0, 0, 0, 0
0.06, 0.0075, 0.07, 0, 0, 0, 0, 0, 0, 0, 0, 0
0.06, 0.0075, 0.08, 0, 0, 0, 0, 0, 0, 0, 0, 0
0.06, 0.0075, 0.09, 0, 0, 0, 0, 0, 0, 0, 0, 0
0.06, 0.0075, 0.1, 0, 0, 0, 0, 0, 0, 0, 0, 0
0.06, 0.01, 0, 0.927966, 1, 0.110043, 0.194323, 0.0627953, 0.7168, 0.85, 0.551704, 0.358375
0.06, 0.01, 0.01, 0.961039, 1, 0.0869616, 0.175459, 0.0742993, 0.7168, 0.85, 0.55208, 0.351566
0.06, 0.01, 0.02, 0.976445, 1, 0.0533226, 0.140927, 0.0771739, 0.7168, 0.85, 0.544953, 0.320189
0.06, 0.01, 0.03, 0.987097, 1, 0.0492655, 0.0985253, 0.0825502, 0.7168, 0.85, 0.540605, 0.304187
0.06, 0.01, 0.04, 0.98427, 1, 0.0569995, 0.049151, 0.0873777, 0.7168, 0.85, 0.534943, 0.283394
0.06, 0.01, 0.05, 0.972222, 1, 0.058798, 0.0167482, 0.0888367, 0.7168, 0.85, 0.529058, 0.244223
0.06, 0.01, 0.06, 0, 0, 0, 0, 0, 0, 0, 0, 0
0.06, 0.01, 0.07, 0, 0, 0, 0, 0, 0, 0, 0, 0
0.06, 0.01, 0.08, 0, 0, 0, 0, 0, 0, 0, 0, 0
0.06, 0.01, 0.09, 0, 0, 0, 0, 0, 0, 0, 0, 0
0.06, 0.01, 0.1, 0, 0, 0, 0, 0, 0, 0, 0, 0
0.06, 0.0125, 0, 0.932059, 1, 0.112486, 0.19607, 0.0680583, 0.77344, 0.8125, 0.556373, 0.365966
0.06, 0.0125, 0.01, 0.949153, 1, 0.0839743, 0.176241, 0.0782959, 0.77344, 0.8125, 0.553372, 0.353599
0.06, 0.0125, 0.02, 0, 0, 0, 0, 0, 0, 0, 0, 0
0.06, 0.0125, 0.03, 0.974359, 1, 0.0428183, 0.0974567, 0.092194, 0.77344, 0.8125, 0.541824, 0.303201
0.06, 0.0125, 0.04, 0.979821, 1, 0.0537688, 0.0488159, 0.0951354, 0.77344, 0.8125, 0.53764, 0.285274
0.06, 0.0125, 0.05, 0.974619, 1, 0.0557909, 0.0165989, 0.0965375, 0.77344, 0.8125, 0.532784, 0.246152
0.06, 0.0125, 0.06, 0, 0, 0, 0, 0, 0, 0, 0, 0
0.06, 0.0125, 0.07, 0, 0, 0, 0, 0, 0, 0, 0, 0
0.06, 0.0125, 0.08, 0, 0, 0, 0, 0, 0, 0, 0, 0
0.06, 0.0125, 0.09, 0, 0, 0, 0, 0, 0, 0, 0, 0
0.06, 0.0125, 0.1, 0, 0, 0, 0, 0, 0, 0, 0, 0
0.06, 0.015, 0, 0.929638, 1, 0.129571, 0.194095, 0.0705704, 0.8112, 0.775, 0.558582, 0.374712
0.06, 0.015, 0.01, 0.969892, 1, 0.0732992, 0.179407, 0.0813173, 0.8112, 0.775, 0.555731, 0.350668
0.06, 0.015, 0.02, 0.982942, 1, 0.0498853, 0.142025, 0.0896982, 0.8112, 0.775, 0.550107, 0.326167
0.06, 0.015, 0.03, 0.982796, 1, 0.0413457, 0.0983116, 0.098002, 0.8112, 0.775, 0.543808, 0.305107
0.06, 0.015, 0.04, 0.97973, 1, 0.0507298, 0.0485925, 0.10071, 0.8112, 0.775, 0.537995, 0.285049
0.06, 0.015, 0.05, 0.972152, 1, 0.0453885, 0.0165989, 0.103226, 0.8112, 0.775, 0.531938, 0.241227
0.06, 0.015, 0.06, 0, 0, 0, 0, 0, 0, 0, 0, 0
0.06, 0.015, 0.07, 0, 0, 0, 0, 0, 0, 0, 0, 0
0.06, 0.015, 0.08, 0, 0, 0, 0, 0, 0, 0, 0, 0
0.06, 0.015, 0.09, 0, 0, 0, 0, 0, 0, 0, 0, 0
0.06, 0.015, 0.1, 0, 0, 0, 0, 0, 0, 0, 0, 0
0.06, 0.0175, 0, 0.938559, 1, 0.106578, 0.196266, 0.0743726, 0.838171, 0.7375, 0.555921, 0.36734
0.06, 0.0175, 0.01, 0.95914, 1, 0.0706752, 0.176677, 0.0850749, 0.838171, 0.7375, 0.552463, 0.348937
0.06, 0.0175, 0.02, 0.985043, 1, 0.0435045, 0.141937, 0.094279, 0.838171, 0.7375, 0.548634, 0.321429
0.06, 0.0175, 0.03, 0.987069, 1, 0.0351679, 0.0980979, 0.0999579, 0.838171, 0.7375, 0.542281, 0.298348
0.06, 0.0175, 0.04, 0.984234, 1, 0.0458128, 0.049151, 0.102487, 0.838171, 0.7375, 0.536765, 0.281596
0.06, 0.0175, 0.05, 0.977157, 1, 0.042423, 0.0166422, 0.105749, 0.838171, 0.7375, 0.531092, 0.239422
0.06, 0.0175, 0.06, 0, 0, 0, 0, 0, 0, 0, 0, 0
0.06, 0.0175, 0.07, 0, 0, 0, 0, 0, 0, 0, 0, 0
0.06, 0.0175, 0.08, 0, 0, 0, 0, 0, 0, 0, 0, 0
0.06, 0.0175, 0.09, 0, 0, 0, 0, 0, 0, 0, 0, 0
0.06, 0.0175, 0.1, 0, 0, 0, 0, 0, 0, 0, 0, 0
0.06, 0.02, 0, 0.92735, 1, 0.115843, 0.192792, 0.0781145, 0.8584, 0.7, 0.553214, 0.371257
0.06, 0.02, 0.01, 0.967811, 1, 0.0688055, 0.176448, 0.0876616, 0.8584, 0.7, 0.551304, 0.348066
0.06, 0.02, 0.02, 0.978723, 1, 0.0387833, 0.142244, 0.0975798, 0.8584, 0.7, 0.545104, 0.316278
0.06, 0.02, 0.03, 0.980645, 1, 0.0298948, 0.0976704, 0.104313, 0.8584, 0.7, 0.538703, 0.291647
0.06, 0.02, 0.04, 0.982103, 1, 0.0417579, 0.0492407, 0.105831, 0.8584, 0.7, 0.533905, 0.278028
0.06, 0.02, 0.05, 0.977157, 1, 0.0409643, 0.0166775, 0.108724, 0.8584, 0.7, 0.528846, 0.23828
0.06, 0.02, 0.06, 0, 0, 0, 0, 0, 0, 0, 0, 0
0.06, 0.02, 0.07, 0, 0, 0, 0, 0, 0, 0, 0, 0
0.06, 0.02, 0.08, 0, 0, 0, 0, 0, 0, 0, 0, 0
0.06, 0.02, 0.09, 0, 0, 0, 0, 0, 0, 0, 0, 0
0.06, 0.02, 0.1, 0, 0, 0, 0, 0, 0, 0, 0, 0
0.06, 0.0225, 0, 0.927966, 1, 0.0897077, 0.194095, 0.0792702, 0.874133, 0.6625, 0.54681, 0.357185
0.06, 0.0225, 0.01, 0.965812, 1, 0.056468, 0.175405, 0.0897268, 0.874133, 0.6625, 0.546292, 0.337334
0.06, 0.0225, 0.02, 0.978769, 1, 0.0382598, 0.142244, 0.099136, 0.874133, 0.6625, 0.542149, 0.314718
0.06, 0.0225, 0.03, 0.982833, 1, 0.0336754, 0.098739, 0.105179, 0.874133, 0.6625, 0.536723, 0.295993
0.06, 0.0225, 0.04, 0.986577, 1, 0.0410012, 0.049453, 0.108309, 0.874133, 0.6625, 0.531711, 0.277108
0.06, 0.0225, 0.05, 0.972152, 1, 0.0517051, 0.0167135, 0.111159, 0.874133, 0.6625, 0.526909, 0.245717
0.06, 0.0225, 0.06, 0, 0, 0, 0, 0, 0, 0, 0, 0
0.06, 0.0225, 0.07, 0, 0, 0, 0, 0, 0, 0, 0, 0
0.06, 0.0225, 0.08, 0, 0, 0, 0, 0, 0, 0, 0, 0
0.06, 0.0225, 0.09, 0, 0, 0, 0, 0, 0, 0, 0, 0
0.06, 0.0225, 0.1, 0, 0, 0, 0, 0, 0, 0, 0, 0
0.06, 0.025, 0, 0.934043, 1, 0.0847648, 0.195407, 0.0812842, 0.88672, 0.625, 0.543888, 0.35402
0.06, 0.025, 0.01, 0.96788, 1, 0.0561623, 0.176448, 0.0912863, 0.88672, 0.625, 0.543357, 0.336175
0.06, 0.025, 0.02, 0.976645, 1, 0.035351, 0.141631, 0.100817, 0.88672, 0.625, 0.538023, 0.309691
0.06, 0.025, 0.03, 0.987124, 1, 0.0320334, 0.0989105, 0.108803, 0.88672, 0.625, 0.534084, 0.293719
0.06, 0.025, 0.04, 0.986547, 1, 0.0373567, 0.0492809, 0.111312, 0.88672, 0.625, 0.528031, 0.272662
0.06, 0.025, 0.05, 0.977215, 1, 0.0433228, 0.0166645, 0.113075, 0.88672, 0.625, 0.523142, 0.238744
0.06, 0.025, 0.06, 0, 0, 0, 0, 0, 0, 0, 0, 0
0.06, 0.025, 0.07, 0, 0, 0, 0, 0, 0, 0, 0, 0
0.06, 0.025, 0.08, 0, 0, 0, 0, 0, 0, 0, 0, 0
0.06, 0.025, 0.09, 0, 0, 0, 0, 0, 0, 0, 0, 0
0.06, 0.025, 0.1, 0, 0, 0, 0, 0, 0, 0, 0, 0
0.07, 0, 0, 0, 0, 0, 0, 0, 0, 0, 0, 0
0.07, 0, 0.01, 0, 0, 0, 0, 0, 0, 0, 0, 0
0.07, 0, 0.02, 0, 0, 0, 0, 0, 0, 0, 0, 0
0.07, 0, 0.03, 0, 0, 0, 0, 0, 0, 0, 0, 0
0.07, 0, 0.04, 0, 0, 0, 0, 0, 0, 0, 0, 0
0.07, 0, 0.05, 0, 0, 0, 0, 0, 0, 0, 0, 0
0.07, 0, 0.06, 0, 0, 0, 0, 0, 0, 0, 0, 0
0.07, 0, 0.07, 0, 0, 0, 0, 0, 0, 0, 0, 0
0.07, 0, 0.08, 0, 0, 0, 0, 0, 0, 0, 0, 0
0.07, 0, 0.09, 0, 0, 0, 0, 0, 0, 0, 0, 0
0.07, 0, 0.1, 0, 0, 0, 0, 0, 0, 0, 0, 0
0.07, 0.0025, 0, 0.87931, 1, 0.109337, 0.201636, 0.0358055, 0, 0.95625, 0.45462, 0
0.07, 0.0025, 0.01, 0.944681, 1, 0.0993016, 0.1967, 0.0423855, 0, 0.95625, 0.46276, 0
0.07, 0.0025, 0.02, 0.946237, 1, 0.063262, 0.174355, 0.0468098, 0, 0.95625, 0.455273, 0
0.07, 0.0025, 0.03, 0.955224, 1, 0.0453799, 0.139205, 0.0481096, 0, 0.95625, 0.449167, 0
0.07, 0.0025, 0.04, 0.965591, 1, 0.0473774, 0.0971773, 0.0500033, 0, 0.95625, 0.4452, 0
0.07, 0.0025, 0.05, 0.975281, 1, 0.0538156, 0.0487177, 0.0482594, 0, 0.95625, 0.440332, 0
0.07, 0.0025, 0.06, 0.959596, 1, 0.0410995, 0.0165318, 0.0466353, 0, 0.95625, 0.431445, 0
0.07, 0.0025, 0.07, 0, 0, 0, 0, 0, 0, 0, 0, 0
0.07, 0.0025, 0.08, 0, 0, 0, 0, 0, 0, 0, 0, 0
0.07, 0.0025, 0.09, 0, 0, 0, 0, 0, 0, 0, 0, 0
0.07, 0.0025, 0.1, 0, 0, 0, 0, 0, 0, 0, 0, 0
0.07, 0.005, 0, 0.888172, 1, 0.119538, 0.203365, 0.0478363, 0.3376, 0.9125, 0.501287, 0.316506
0.07, 0.005, 0.01, 0.957265, 1, 0.103497, 0.198787, 0.0547458, 0.3376, 0.9125, 0.509199, 0.318455
0.07, 0.005, 0.02, 0.956989, 1, 0.0705089, 0.176287, 0.0599854, 0.3376, 0.9125, 0.501982, 0.300218
0.07, 0.005, 0.03, 0.974414, 1, 0.0571333, 0.142154, 0.0631081, 0.3376, 0.9125, 0.49813, 0.2853
0.07, 0.005, 0.04, 0.984946, 1, 0.053668, 0.0990312, 0.06302, 0.3376, 0.9125, 0.492966, 0.268889
0.07, 0.005, 0.05, 0.981982, 1, 0.0601519, 0.0488187, 0.0649619, 0.3376, 0.9125, 0.486573, 0.248006
0.07, 0.005, 0.06, 0.967005, 1, 0.048174, 0.0165318, 0.0641094, 0.3376, 0.9125, 0.477989, 0.204989
0.07, 0.005, 0.07, 0, 0, 0, 0, 0, 0, 0, 0, 0
0.07, 0.005, 0.08, 0, 0, 0, 0, 0, 0, 0, 0, 0
0.07, 0.005, 0.09, 0, 0, 0, 0, 0, 0, 0, 0, 0
0.07, 0.005, 0.1, 0, 0, 0, 0, 0, 0, 0, 0, 0
0.07, 0.0075, 0, 0.909871, 1, 0.124609, 0.208991, 0.0542002, 0.5584, 0.86875, 0.532117, 0.348394
0.07, 0.0075, 0.01, 0.944444, 1, 0.0915148, 0.197055, 0.064233, 0.5584, 0.86875, 0.532057, 0.340504
0.07, 0.0075, 0.02, 0.965812, 1, 0.0677232, 0.177245, 0.069452, 0.5584, 0.86875, 0.529626, 0.325915
0.07, 0.0075, 0.03, 0.970085, 1, 0.0624507, 0.139957, 0.0735386, 0.5584, 0.86875, 0.52474, 0.314226
0.07, 0.0075, 0.04, 0.972043, 1, 0.0549858, 0.0973775, 0.0756024, 0.5584, 0.86875, 0.518166, 0.294226
0.07, 0.0075, 0.05, 0.986547, 1, 0.0650987, 0.049151, 0.0756134, 0.5584, 0.86875, 0.514794, 0.273947
0.07, 0.0075, 0.06, 0.967172, 1, 0.0549566, 0.0166183, 0.0735016, 0.5584, 0.86875, 0.505628, 0.227453
0.07, 0.0075, 0.07, 0, 0, 0, 0, 0, 0, 0, 0, 0
0.07, 0.0075, 0.08, 0, 0, 0, 0, 0, 0, 0, 0, 0
0.07, 0.0075, 0.09, 0, 0, 0, 0, 0, 0, 0, 0, 0
0.07, 0.0075, 0.1, 0, 0, 0, 0, 0, 0, 0, 0, 0
0.07, 0.01, 0, 0.915254, 1, 0.118382, 0.210351, 0.060873, 0.6688, 0.825, 0.542666, 0.358798
0.07, 0.01, 0.01, 0.959227, 1, 0.0825308, 0.197921, 0.0717054, 0.6688, 0.825, 0.543598, 0.348146
0.07, 0.01, 0.02, 0.965591, 1, 0.0664635, 0.173763, 0.0777073, 0.6688, 0.825, 0.539618, 0.335467
0.07, 0.01, 0.03, 0.970021, 1, 0.0555347, 0.139877, 0.0803361, 0.6688, 0.825, 0.534224, 0.318708
0.07, 0.01, 0.04, 0.980645, 1, 0.0600174, 0.0978842, 0.0831767, 0.6688, 0.825, 0.530789, 0.308243
0.07, 0.01, 0.05, 0.979775, 1, 0.0714404, 0.0488159, 0.0837447, 0.6688, 0.825, 0.525368, 0.286356
0.07, 0.01, 0.06, 0.967089, 1, 0.0724655, 0.0167049, 0.0810982, 0.6688, 0.825, 0.518737, 0.244601
0.07, 0.01, 0.07, 0, 0, 0, 0, 0, 0, 0, 0, 0
0.07, 0.01, 0.08, 0, 0, 0, 0, 0, 0, 0, 0, 0
0.07, 0.01, 0.09, 0, 0, 0, 0, 0, 0, 0, 0, 0
0.07, 0.01, 0.1, 0, 0, 0, 0, 0, 0, 0, 0, 0
0.07, 0.0125, 0, 0.917021, 1, 0.121413, 0.210351, 0.0656846, 0.73504, 0.78125, 0.547251, 0.366215
0.07, 0.0125, 0.01, 0.940803, 1, 0.0858159, 0.198354, 0.0762454, 0.73504, 0.78125, 0.545358, 0.354326
0.07, 0.0125, 0.02, 0.972103, 1, 0.0569878, 0.174179, 0.0842869, 0.73504, 0.78125, 0.543407, 0.334344
0.07, 0.0125, 0.03, 0.974414, 1, 0.0484285, 0.140491, 0.0864876, 0.73504, 0.78125, 0.538016, 0.318058
0.07, 0.0125, 0.04, 0.969828, 1, 0.0571573, 0.0966018, 0.092515, 0.73504, 0.78125, 0.533199, 0.311485
0.07, 0.0125, 0.05, 0.984305, 1, 0.0714966, 0.0490393, 0.0894433, 0.73504, 0.78125, 0.530082, 0.29113
0.07, 0.0125, 0.06, 0.964377, 1, 0.0776071, 0.016426, 0.0877964, 0.73504, 0.78125, 0.523214, 0.25055
0.07, 0.0125, 0.07, 0, 0, 0, 0, 0, 0, 0, 0, 0
0.07, 0.0125, 0.08, 0, 0, 0, 0, 0, 0, 0, 0, 0
0.07, 0.0125, 0.09, 0, 0, 0, 0, 0, 0, 0, 0, 0
0.07, 0.0125, 0.1, 0, 0, 0, 0, 0, 0, 0, 0, 0
0.07, 0.015, 0, 0.919149, 1, 0.10991, 0.207743, 0.0708955, 0.7792, 0.7375, 0.546343, 0.364512
0.07, 0.015, 0.01, 0.950959, 1, 0.0827059, 0.197177, 0.0793641, 0.7792, 0.7375, 0.546701, 0.354766
0.07, 0.015, 0.02, 0.965885, 1, 0.057725, 0.174095, 0.0871453, 0.7792, 0.7375, 0.543079, 0.336261
0.07, 0.015, 0.03, 0.97234, 1, 0.0421689, 0.140496, 0.0921032, 0.7792, 0.7375, 0.537687, 0.314584
0.07, 0.015, 0.04, 0.980645, 1, 0.0487263, 0.0976704, 0.0961009, 0.7792, 0.7375, 0.534263, 0.307122
0.07, 0.015, 0.05, 0.970852, 1, 0.0597274, 0.0485925, 0.0933106, 0.7792, 0.7375, 0.527026, 0.284562
0.07, 0.015, 0.06, 0.967089, 1, 0.0729258, 0.0165557, 0.0908675, 0.7792, 0.7375, 0.523448, 0.249962
0.07, 0.015, 0.07, 0, 0, 0, 0, 0, 0, 0, 0, 0
0.07, 0.015, 0.08, 0, 0, 0, 0, 0, 0, 0, 0, 0
0.07, 0.015, 0.09, 0, 0, 0, 0, 0, 0, 0, 0, 0
0.07, 0.015, 0.1, 0, 0, 0, 0, 0, 0, 0, 0, 0
0.07, 0.0175, 0, 0.913136, 1, 0.10233, 0.209138, 0.074155, 0.810743, 0.69375, 0.543322, 0.362029
0.07, 0.0175, 0.01, 0.942553, 1, 0.0696947, 0.192472, 0.082877, 0.810743, 0.69375, 0.541727, 0.345643
0.07, 0.0175, 0.02, 0.967949, 1, 0.0511251, 0.173764, 0.0921464, 0.810743, 0.69375, 0.541354, 0.332114
0.07, 0.0175, 0.03, 0.970213, 1, 0.044647, 0.14019, 0.0957633, 0.810743, 0.69375, 0.536472, 0.317756
0.07, 0.0175, 0.04, 0.976344, 1, 0.0476858, 0.0976704, 0.0986768, 0.810743, 0.69375, 0.532124, 0.306202
0.07, 0.0175, 0.05, 0.972973, 1, 0.0613126, 0.0482574, 0.0977716, 0.810743, 0.69375, 0.526401, 0.286466
0.07, 0.0175, 0.06, 0.969543, 1, 0.0713572, 0.0165989, 0.0928417, 0.810743, 0.69375, 0.522119, 0.24937
0.07, 0.0175, 0.07, 0, 0, 0, 0, 0, 0, 0, 0, 0
0.07, 0.0175, 0.08, 0, 0, 0, 0, 0, 0, 0, 0, 0
0.07, 0.0175, 0.09, 0, 0, 0, 0, 0, 0, 0, 0, 0
0.07, 0.0175, 0.1, 0, 0, 0, 0, 0, 0, 0, 0, 0
0.07, 0.02, 0, 0.925214, 1, 0.111634, 0.207884, 0.076349, 0.8344, 0.65, 0.54364, 0.366552
0.07, 0.02, 0.01, 0.944798, 1, 0.0633245, 0.194373, 0.0851335, 0.8344, 0.65, 0.538861, 0.341074
0.07, 0.02, 0.02, 0.972222, 1, 0.0429918, 0.174525, 0.0933586, 0.8344, 0.65, 0.538214, 0.323322
0.07, 0.02, 0.03, 0.976596, 1, 0.035018, 0.141108, 0.0976955, 0.8344, 0.65, 0.533545, 0.306773
0.07, 0.02, 0.04, 0.974194, 1, 0.0400812, 0.0970293, 0.101046, 0.8344, 0.65, 0.528107, 0.297783
0.07, 0.02, 0.05, 0.982022, 1, 0.0632054, 0.0489058, 0.103535, 0.8344, 0.65, 0.52601, 0.289507
0.07, 0.02, 0.06, 0.964467, 1, 0.0589403, 0.0165046, 0.0982576, 0.8344, 0.65, 0.51751, 0.242977
0.07, 0.02, 0.07, 0, 0, 0, 0, 0, 0, 0, 0, 0
0.07, 0.02, 0.08, 0, 0, 0, 0, 0, 0, 0, 0, 0
0.07, 0.02, 0.09, 0, 0, 0, 0, 0, 0, 0, 0, 0
0.07, 0.02, 0.1, 0, 0, 0, 0, 0, 0, 0, 0, 0
0.07, 0.0225, 0, 0.927813, 1, 0.0931915, 0.209226, 0.0775947, 0.8528, 0.60625, 0.538125, 0.356074
0.07, 0.0225, 0.01, 0.949153, 1, 0.0593599, 0.194291, 0.0866682, 0.8528, 0.60625, 0.535503, 0.336693
0.07, 0.0225, 0.02, 0.970149, 1, 0.043559, 0.174144, 0.0936254, 0.8528, 0.60625, 0.534361, 0.321654
0.07, 0.0225, 0.03, 0.980851, 1, 0.0368193, 0.141939, 0.100288, 0.8528, 0.60625, 0.531278, 0.308474
0.07, 0.0225, 0.04, 0.978541, 1, 0.0406696, 0.0978842, 0.10457, 0.8528, 0.60625, 0.525816, 0.298388
0.07, 0.0225, 0.05, 0.982022, 1, 0.0614392, 0.0488948, 0.101277, 0.8528, 0.60625, 0.521812, 0.285462
0.07, 0.0225, 0.06, 0.967089, 1, 0.0711556, 0.0166271, 0.0987533, 0.8528, 0.60625, 0.516096, 0.248439
0.07, 0.0225, 0.07, 0, 0, 0, 0, 0, 0, 0, 0, 0
0.07, 0.0225, 0.08, 0, 0, 0, 0, 0, 0, 0, 0, 0
0.07, 0.0225, 0.09, 0, 0, 0, 0, 0, 0, 0, 0, 0
0.07, 0.0225, 0.1, 0, 0, 0, 0, 0, 0, 0, 0, 0
0.07, 0.025, 0, 0.932203, 1, 0.0817633, 0.21033, 0.0800274, 0.86752, 0.5625, 0.533478, 0.348637
0.07, 0.025, 0.01, 0.953291, 1, 0.0512919, 0.193124, 0.0873377, 0.86752, 0.5625, 0.530723, 0.32731
0.07, 0.025, 0.02, 0.965957, 1, 0.0449694, 0.173632, 0.0950006, 0.86752, 0.5625, 0.52994, 0.320799
0.07, 0.025, 0.03, 0.978769, 1, 0.0349388, 0.140935, 0.103059, 0.86752, 0.5625, 0.526817, 0.304438
0.07, 0.025, 0.04, 0.978495, 1, 0.0382669, 0.0978423, 0.10767, 0.86752, 0.5625, 0.521756, 0.294578
0.07, 0.025, 0.05, 0.982063, 1, 0.0637169, 0.0489464, 0.102876, 0.86752, 0.5625, 0.518232, 0.285274
0.07, 0.025, 0.06, 0.972152, 1, 0.0690151, 0.0165784, 0.0966237, 0.86752, 0.5625, 0.512056, 0.244641
0.07, 0.025, 0.07, 0, 0, 0, 0, 0, 0, 0, 0, 0
0.07, 0.025, 0.08, 0, 0, 0, 0, 0, 0, 0, 0, 0
0.07, 0.025, 0.09, 0, 0, 0, 0, 0, 0, 0, 0, 0
0.07, 0.025, 0.1, 0, 0, 0, 0, 0, 0, 0, 0, 0
0.08, 0, 0, 0, 0, 0, 0, 0, 0, 0, 0, 0
0.08, 0, 0.01, 0, 0, 0, 0, 0, 0, 0, 0, 0
0.08, 0, 0.02, 0, 0, 0, 0, 0, 0, 0, 0, 0
0.08, 0, 0.03, 0, 0, 0, 0, 0, 0, 0, 0, 0
0.08, 0, 0.04, 0, 0, 0, 0, 0, 0, 0, 0, 0
0.08, 0, 0.05, 0, 0, 0, 0, 0, 0, 0, 0, 0
0.08, 0, 0.06, 0, 0, 0, 0, 0, 0, 0, 0, 0
0.08, 0, 0.07, 0, 0, 0, 0, 0, 0, 0, 0, 0
0.08, 0, 0.08, 0, 0, 0, 0, 0, 0, 0, 0, 0
0.08, 0, 0.09, 0, 0, 0, 0, 0, 0, 0, 0, 0
0.08, 0, 0.1, 0, 0, 0, 0, 0, 0, 0, 0, 0
0.08, 0.0025, 0, 0.863539, 1, 0.117937, 0.204701, 0.0356666, 0, 0.95, 0.453121, 0
0.08, 0.0025, 0.01, 0.93576, 1, 0.0832644, 0.212465, 0.0404133, 0, 0.95, 0.460272, 0
0.08, 0.0025, 0.02, 0.923404, 1, 0.0626566, 0.194107, 0.0444874, 0, 0.95, 0.453522, 0
0.08, 0.0025, 0.03, 0.942431, 1, 0.0545707, 0.172188, 0.0480833, 0, 0.95, 0.452468, 0
0.08, 0.0025, 0.04, 0.948827, 1, 0.0451942, 0.137666, 0.0477765, 0, 0.95, 0.447066, 0
0.08, 0.0025, 0.05, 0.948387, 1, 0.0457993, 0.095669, 0.0486094, 0, 0.95, 0.441209, 0
0.08, 0.0025, 0.06, 0.941573, 1, 0.0486534, 0.0471497, 0.0469321, 0, 0.95, 0.433473, 0
0.08, 0.0025, 0.07, 0.949495, 1, 0.0339874, 0.0163154, 0.0449728, 0, 0.95, 0.427824, 0
0.08, 0.0025, 0.08, 0, 0, 0, 0, 0, 0, 0, 0, 0
0.08, 0.0025, 0.09, 0, 0, 0, 0, 0, 0, 0, 0, 0
0.08, 0.0025, 0.1, 0, 0, 0, 0, 0, 0, 0, 0, 0
0.08, 0.005, 0, 0.87234, 1, 0.122523, 0.208619, 0.0469958, 0.2416, 0.9, 0.484583, 0.301762
0.08, 0.005, 0.01, 0.946352, 1, 0.099433, 0.211638, 0.0541093, 0.2416, 0.9, 0.493305, 0.302969
0.08, 0.005, 0.02, 0.933761, 1, 0.0675921, 0.191863, 0.058811, 0.2416, 0.9, 0.484804, 0.285564
0.08, 0.005, 0.03, 0.963675, 1, 0.0571678, 0.174914, 0.0620454, 0.2416, 0.9, 0.485629, 0.278516
0.08, 0.005, 0.04, 0.965739, 1, 0.0540491, 0.139034, 0.0626728, 0.2416, 0.9, 0.480442, 0.267845
0.08, 0.005, 0.05, 0.976344, 1, 0.0528378, 0.0983854, 0.0628566, 0.2416, 0.9, 0.476003, 0.254613
0.08, 0.005, 0.06, 0.966368, 1, 0.0564259, 0.0483708, 0.0620686, 0.2416, 0.9, 0.467833, 0.231466
0.08, 0.005, 0.07, 0.931472, 1, 0.0430036, 0.0160125, 0.0584139, 0.2416, 0.9, 0.455786, 0.187499
0.08, 0.005, 0.08, 0, 0, 0, 0, 0, 0, 0, 0, 0
0.08, 0.005, 0.09, 0, 0, 0, 0, 0, 0, 0, 0, 0
0.08, 0.005, 0.1, 0, 0, 0, 0, 0, 0, 0, 0, 0
0.08, 0.0075, 0, 0.88535, 1, 0.116523, 0.210244, 0.0539511, 0.4944, 0.85, 0.515781, 0.336816
0.08, 0.0075, 0.01, 0.946695, 1, 0.0798923, 0.212022, 0.0637648, 0.4944, 0.85, 0.520968, 0.330389
0.08, 0.0075, 0.02, 0.944798, 1, 0.0603605, 0.194373, 0.0669204, 0.4944, 0.85, 0.515836, 0.315582
0.08, 0.0075, 0.03, 0.952991, 1, 0.05714, 0.172612, 0.0727058, 0.4944, 0.85, 0.514264, 0.311906
0.08, 0.0075, 0.04, 0.955128, 1, 0.0577362, 0.138164, 0.0728376, 0.4944, 0.85, 0.509752, 0.302767
0.08, 0.0075, 0.05, 0.974194, 1, 0.0523397, 0.0978074, 0.0736839, 0.4944, 0.85, 0.506061, 0.285451
0.08, 0.0075, 0.06, 0.966216, 1, 0.0550676, 0.048034, 0.071078, 0.4944, 0.85, 0.497828, 0.25812
0.08, 0.0075, 0.07, 0.939394, 1, 0.0444789, 0.0162721, 0.0670537, 0.4944, 0.85, 0.487371, 0.211862
0.08, 0.0075, 0.08, 0, 0, 0, 0, 0, 0, 0, 0, 0
0.08, 0.0075, 0.09, 0, 0, 0, 0, 0, 0, 0, 0, 0
0.08, 0.0075, 0.1, 0, 0, 0, 0, 0, 0, 0, 0, 0
0.08, 0.01, 0, 0.909091, 1, 0.116078, 0.215012, 0.0605647, 0.6208, 0.8, 0.531649, 0.35296
0.08, 0.01, 0.01, 0.934183, 1, 0.0701285, 0.212192, 0.0700239, 0.6208, 0.8, 0.529618, 0.335996
0.08, 0.01, 0.02, 0.940928, 1, 0.0612223, 0.192536, 0.0750752, 0.6208, 0.8, 0.527223, 0.328583
0.08, 0.01, 0.03, 0.957265, 1, 0.0619742, 0.173333, 0.0794669, 0.6208, 0.8, 0.527548, 0.327702
0.08, 0.01, 0.04, 0.965957, 1, 0.0571322, 0.139578, 0.079545, 0.6208, 0.8, 0.523287, 0.314496
0.08, 0.01, 0.05, 0.980603, 1, 0.0555009, 0.0976704, 0.0814874, 0.6208, 0.8, 0.519437, 0.299294
0.08, 0.01, 0.06, 0.959551, 1, 0.0636821, 0.048034, 0.0780607, 0.6208, 0.8, 0.510018, 0.273267
0.08, 0.01, 0.07, 0.94697, 1, 0.0414573, 0.0162721, 0.0777917, 0.6208, 0.8, 0.50047, 0.219667
0.08, 0.01, 0.08, 0, 0, 0, 0, 0, 0, 0, 0, 0
0.08, 0.01, 0.09, 0, 0, 0, 0, 0, 0, 0, 0, 0
0.08, 0.01, 0.1, 0, 0, 0, 0, 0, 0, 0, 0, 0
0.08, 0.0125, 0, 0.911392, 1, 0.127243, 0.215392, 0.0644266, 0.69664, 0.75, 0.537871, 0.36364
0.08, 0.0125, 0.01, 0.936034, 1, 0.0794376, 0.209745, 0.0740011, 0.69664, 0.75, 0.535123, 0.346773
0.08, 0.0125, 0.02, 0.951271, 1, 0.0542306, 0.193494, 0.0808246, 0.69664, 0.75, 0.532351, 0.329483
0.08, 0.0125, 0.03, 0.965885, 1, 0.049765, 0.174772, 0.0841798, 0.69664, 0.75, 0.531606, 0.323338
0.08, 0.0125, 0.04, 0.967949, 1, 0.056311, 0.138965, 0.0859461, 0.69664, 0.75, 0.527973, 0.319537
0.08, 0.0125, 0.05, 0.978448, 1, 0.0553615, 0.097243, 0.0878372, 0.69664, 0.75, 0.523647, 0.304324
0.08, 0.0125, 0.06, 0.975113, 1, 0.0670985, 0.0482574, 0.083162, 0.69664, 0.75, 0.517182, 0.280666
0.08, 0.0125, 0.07, 0.929114, 1, 0.05325, 0.0159938, 0.0810535, 0.69664, 0.75, 0.503722, 0.229478
0.08, 0.0125, 0.08, 0, 0, 0, 0, 0, 0, 0, 0, 0
0.08, 0.0125, 0.09, 0, 0, 0, 0, 0, 0, 0, 0, 0
0.08, 0.0125, 0.1, 0, 0, 0, 0, 0, 0, 0, 0, 0
0.08, 0.015, 0, 0.911205, 1, 0.111876, 0.212807, 0.0695476, 0.7472, 0.7, 0.536091, 0.36036
0.08, 0.015, 0.01, 0.95279, 1, 0.0758874, 0.209313, 0.0787119, 0.7472, 0.7, 0.5377, 0.348399
0.08, 0.015, 0.02, 0.974468, 1, 0.0571931, 0.19504, 0.0819912, 0.7472, 0.7, 0.536556, 0.334254
0.08, 0.015, 0.03, 0.970021, 1, 0.0551901, 0.172676, 0.0864059, 0.7472, 0.7, 0.53307, 0.329063
0.08, 0.015, 0.04, 0.97234, 1, 0.0510201, 0.140496, 0.0899321, 0.7472, 0.7, 0.528713, 0.317862
0.08, 0.015, 0.05, 0.967742, 1, 0.0573544, 0.0961744, 0.0940126, 0.7472, 0.7, 0.523212, 0.307924
0.08, 0.015, 0.06, 0.970787, 1, 0.0582564, 0.0482574, 0.0863714, 0.7472, 0.7, 0.515839, 0.276415
0.08, 0.015, 0.07, 0.946835, 1, 0.0488287, 0.0162964, 0.0839023, 0.7472, 0.7, 0.506152, 0.229038
0.08, 0.015, 0.08, 0, 0, 0, 0, 0, 0, 0, 0, 0
0.08, 0.015, 0.09, 0, 0, 0, 0, 0, 0, 0, 0, 0
0.08, 0.015, 0.1, 0, 0, 0, 0, 0, 0, 0, 0, 0
0.08, 0.0175, 0, 0.907368, 1, 0.111845, 0.216554, 0.0716215, 0.783314, 0.65, 0.534386, 0.361156
0.08, 0.0175, 0.01, 0.940552, 1, 0.0655727, 0.209774, 0.0802622, 0.783314, 0.65, 0.532782, 0.340321
0.08, 0.0175, 0.02, 0.963983, 1, 0.0504327, 0.192872, 0.0873722, 0.783314, 0.65, 0.532568, 0.328989
0.08, 0.0175, 0.03, 0.953191, 1, 0.0502309, 0.171407, 0.0897599, 0.783314, 0.65, 0.528272, 0.324032
0.08, 0.0175, 0.04, 0.982942, 1, 0.0413541, 0.141022, 0.0938152, 0.783314, 0.65, 0.527493, 0.309788
0.08, 0.0175, 0.05, 0.965591, 1, 0.0535689, 0.0963881, 0.0972196, 0.783314, 0.65, 0.520869, 0.305224
0.08, 0.0175, 0.06, 0.975336, 1, 0.0589832, 0.0487042, 0.0874718, 0.783314, 0.65, 0.51483, 0.276891
0.08, 0.0175, 0.07, 0.941476, 1, 0.0480322, 0.016037, 0.0868938, 0.783314, 0.65, 0.503679, 0.228057
0.08, 0.0175, 0.08, 0, 0, 0, 0, 0, 0, 0, 0, 0
0.08, 0.0175, 0.09, 0, 0, 0, 0, 0, 0, 0, 0, 0
0.08, 0.0175, 0.1, 0, 0, 0, 0, 0, 0, 0, 0, 0
0.08, 0.02, 0, 0.912393, 1, 0.117463, 0.212019, 0.0752139, 0.8104, 0.6, 0.532498, 0.363031
0.08, 0.02, 0.01, 0.938166, 1, 0.061794, 0.205761, 0.0842371, 0.8104, 0.6, 0.528623, 0.336505
0.08, 0.02, 0.02, 0.963983, 1, 0.0446674, 0.193225, 0.0892766, 0.8104, 0.6, 0.528793, 0.322288
0.08, 0.02, 0.03, 0.968017, 1, 0.0432736, 0.172793, 0.0916491, 0.8104, 0.6, 0.52659, 0.317125
0.08, 0.02, 0.04, 0.980769, 1, 0.0416884, 0.14041, 0.0945024, 0.8104, 0.6, 0.523967, 0.308144
0.08, 0.02, 0.05, 0.978402, 1, 0.054637, 0.0968156, 0.0983032, 0.8104, 0.6, 0.519794, 0.305328
0.08, 0.02, 0.06, 0.972973, 1, 0.0562383, 0.0482358, 0.0942567, 0.8104, 0.6, 0.511729, 0.275664
0.08, 0.02, 0.07, 0.946701, 1, 0.0439672, 0.0162022, 0.0884804, 0.8104, 0.6, 0.500821, 0.224803
0.08, 0.02, 0.08, 0, 0, 0, 0, 0, 0, 0, 0, 0
0.08, 0.02, 0.09, 0, 0, 0, 0, 0, 0, 0, 0, 0
0.08, 0.02, 0.1, 0, 0, 0, 0, 0, 0, 0, 0, 0
0.08, 0.0225, 0, 0.923729, 1, 0.0957351, 0.214833, 0.076061, 0.831467, 0.55, 0.527403, 0.351339
0.08, 0.0225, 0.01, 0.934461, 1, 0.059229, 0.205361, 0.0852955, 0.831467, 0.55, 0.523688, 0.331867
0.08, 0.0225, 0.02, 0.963983, 1, 0.0390581, 0.192388, 0.0904939, 0.831467, 0.55, 0.523913, 0.313822
0.08, 0.0225, 0.03, 0.970276, 1, 0.0429747, 0.174308, 0.0937671, 0.831467, 0.55, 0.523256, 0.315571
0.08, 0.0225, 0.04, 0.978769, 1, 0.0480127, 0.140935, 0.097597, 0.831467, 0.55, 0.520969, 0.313195
0.08, 0.0225, 0.05, 0.965665, 1, 0.0540193, 0.0968156, 0.0994771, 0.831467, 0.55, 0.513921, 0.302119
0.08, 0.0225, 0.06, 0.96861, 1, 0.063408, 0.0483367, 0.0955356, 0.831467, 0.55, 0.508194, 0.278424
0.08, 0.0225, 0.07, 0.946835, 1, 0.0555102, 0.0162384, 0.0873557, 0.831467, 0.55, 0.498201, 0.230045
0.08, 0.0225, 0.08, 0, 0, 0, 0, 0, 0, 0, 0, 0
0.08, 0.0225, 0.09, 0, 0, 0, 0, 0, 0, 0, 0, 0
0.08, 0.0225, 0.1, 0, 0, 0, 0, 0, 0, 0, 0, 0
0.08, 0.025, 0, 0.923729, 1, 0.0956155, 0.213505, 0.0795481, 0.84832, 0.5, 0.52296, 0.349444
0.08, 0.025, 0.01, 0.946809, 1, 0.0527769, 0.20433, 0.0847562, 0.84832, 0.5, 0.51957, 0.323034
0.08, 0.025, 0.02, 0.953488, 1, 0.0473535, 0.191232, 0.0906048, 0.84832, 0.5, 0.518714, 0.31841
0.08, 0.025, 0.03, 0.985075, 1, 0.0444037, 0.175803, 0.0939735, 0.84832, 0.5, 0.521082, 0.314821
0.08, 0.025, 0.04, 0.976596, 1, 0.0396305, 0.137796, 0.101119, 0.84832, 0.5, 0.51478, 0.30193
0.08, 0.025, 0.05, 0.976395, 1, 0.0558405, 0.0978423, 0.102099, 0.84832, 0.5, 0.5115, 0.302358
0.08, 0.025, 0.06, 0.979775, 1, 0.0496939, 0.0487234, 0.0914292, 0.84832, 0.5, 0.502563, 0.265092
0.08, 0.025, 0.07, 0.941772, 1, 0.0533888, 0.0161478, 0.0871144, 0.84832, 0.5, 0.492392, 0.225879
0.08, 0.025, 0.08, 0, 0, 0, 0, 0, 0, 0, 0, 0
0.08, 0.025, 0.09, 0, 0, 0, 0, 0, 0, 0, 0, 0
0.08, 0.025, 0.1, 0, 0, 0, 0, 0, 0, 0, 0, 0
0.09, 0, 0, 0, 0, 0, 0, 0, 0, 0, 0, 0
0.09, 0, 0.01, 0, 0, 0, 0, 0, 0, 0, 0, 0
0.09, 0, 0.02, 0, 0, 0, 0, 0, 0, 0, 0, 0
0.09, 0, 0.03, 0, 0, 0, 0, 0, 0, 0, 0, 0
0.09, 0, 0.04, 0, 0, 0, 0, 0, 0, 0, 0, 0
0.09, 0, 0.05, 0, 0, 0, 0, 0, 0, 0, 0, 0
0.09, 0, 0.06, 0, 0, 0, 0, 0, 0, 0, 0, 0
0.09, 0, 0.07, 0, 0, 0, 0, 0, 0, 0, 0, 0
0.09, 0, 0.08, 0, 0, 0, 0, 0, 0, 0, 0, 0
0.09, 0, 0.09, 0, 0, 0, 0, 0, 0, 0, 0, 0
0.09, 0, 0.1, 0, 0, 0, 0, 0, 0, 0, 0, 0
0.09, 0.0025, 0, 0.84778, 1, 0.115182, 0.206965, 0.0357627, 0, 0.94375, 0.44992, 0
0.09, 0.0025, 0.01, 0.938298, 1, 0.0791435, 0.217726, 0.0415067, 0, 0.94375, 0.460061, 0
0.09, 0.0025, 0.02, 0.942184, 1, 0.0558077, 0.20439, 0.0442605, 0, 0.94375, 0.45577, 0
0.09, 0.0025, 0.03, 0.92569, 1, 0.0510416, 0.188424, 0.0463132, 0, 0.94375, 0.450746, 0
0.09, 0.0025, 0.04, 0.942553, 1, 0.0460826, 0.171702, 0.0480557, 0, 0.94375, 0.450306, 0
0.09, 0.0025, 0.05, 0.950855, 1, 0.0447987, 0.138281, 0.0480373, 0, 0.94375, 0.446532, 0
0.09, 0.0025, 0.06, 0.946237, 1, 0.0401241, 0.0958845, 0.0484661, 0, 0.94375, 0.439209, 0
0.09, 0.0025, 0.07, 0.939326, 1, 0.0398354, 0.0470377, 0.0461019, 0, 0.94375, 0.430864, 0
0.09, 0.0025, 0.08, 0.929293, 1, 0.036921, 0.0161423, 0.0437617, 0, 0.94375, 0.424267, 0
0.09, 0.0025, 0.09, 0, 0, 0, 0, 0, 0, 0, 0, 0
0.09, 0.0025, 0.1, 0, 0, 0, 0, 0, 0, 0, 0, 0
0.09, 0.005, 0, 0.858947, 1, 0.130276, 0.21194, 0.0475623, 0.1456, 0.8875, 0.468832, 0.283105
0.09, 0.005, 0.01, 0.931624, 1, 0.0939128, 0.215865, 0.0535704, 0.1456, 0.8875, 0.475439, 0.278741
0.09, 0.005, 0.02, 0.94206, 1, 0.0638827, 0.202635, 0.058727, 0.1456, 0.8875, 0.471486, 0.265316
0.09, 0.005, 0.03, 0.948936, 1, 0.0555675, 0.190476, 0.0597497, 0.1456, 0.8875, 0.46969, 0.258699
0.09, 0.005, 0.04, 0.957356, 1, 0.0568911, 0.172112, 0.0626012, 0.1456, 0.8875, 0.468866, 0.257873
0.09, 0.005, 0.05, 0.961538, 1, 0.047639, 0.139085, 0.061607, 0.1456, 0.8875, 0.463281, 0.243474
0.09, 0.005, 0.06, 0.965517, 1, 0.0482673, 0.0973089, 0.0621545, 0.1456, 0.8875, 0.45805, 0.232225
0.09, 0.005, 0.07, 0.939326, 1, 0.0462935, 0.0469152, 0.0624162, 0.1456, 0.8875, 0.446864, 0.207306
0.09, 0.005, 0.08, 0.954082, 1, 0.0351231, 0.0162721, 0.0569872, 0.1456, 0.8875, 0.442223, 0.169474
0.09, 0.005, 0.09, 0, 0, 0, 0, 0, 0, 0, 0, 0
0.09, 0.005, 0.1, 0, 0, 0, 0, 0, 0, 0, 0, 0
0.09, 0.0075, 0, 0.883721, 1, 0.119001, 0.217047, 0.0553322, 0.4304, 0.83125, 0.50525, 0.332769
0.09, 0.0075, 0.01, 0.932059, 1, 0.0830878, 0.215789, 0.061708, 0.4304, 0.83125, 0.507756, 0.32327
0.09, 0.0075, 0.02, 0.946467, 1, 0.0602729, 0.203428, 0.0666518, 0.4304, 0.83125, 0.505496, 0.310257
0.09, 0.0075, 0.03, 0.929787, 1, 0.0582858, 0.186633, 0.068965, 0.4304, 0.83125, 0.50076, 0.30571
0.09, 0.0075, 0.04, 0.957265, 1, 0.0621193, 0.172492, 0.0720061, 0.4304, 0.83125, 0.503648, 0.308218
0.09, 0.0075, 0.05, 0.953092, 1, 0.0566573, 0.13865, 0.0716436, 0.4304, 0.83125, 0.497385, 0.294451
0.09, 0.0075, 0.06, 0.978448, 1, 0.0517145, 0.0978074, 0.0720957, 0.4304, 0.83125, 0.494531, 0.277792
0.09, 0.0075, 0.07, 0.955157, 1, 0.0366655, 0.0476988, 0.0703096, 0.4304, 0.83125, 0.48164, 0.237017
0.09, 0.0075, 0.08, 0.957071, 1, 0.0394354, 0.0165318, 0.0655844, 0.4304, 0.83125, 0.477182, 0.203875
0.09, 0.0075, 0.09, 0, 0, 0, 0, 0, 0, 0, 0, 0
0.09, 0.0075, 0.1, 0, 0, 0, 0, 0, 0, 0, 0, 0
0.09, 0.01, 0, 0.898734, 1, 0.109372, 0.217413, 0.0581672, 0.5728, 0.775, 0.518784, 0.342408
0.09, 0.01, 0.01, 0.924051, 1, 0.0867199, 0.213505, 0.0692846, 0.5728, 0.775, 0.520194, 0.340091
0.09, 0.01, 0.02, 0.940426, 1, 0.0620058, 0.201339, 0.0738082, 0.5728, 0.775, 0.517911, 0.325204
0.09, 0.01, 0.03, 0.955508, 1, 0.0620729, 0.191953, 0.0756965, 0.5728, 0.775, 0.519004, 0.32495
0.09, 0.01, 0.04, 0.972399, 1, 0.0614432, 0.173913, 0.0785561, 0.5728, 0.775, 0.519159, 0.322439
0.09, 0.01, 0.05, 0.965885, 1, 0.0535745, 0.139492, 0.0808839, 0.5728, 0.775, 0.512519, 0.307367
0.09, 0.01, 0.06, 0.959052, 1, 0.0547171, 0.095747, 0.0793259, 0.5728, 0.775, 0.505235, 0.291054
0.09, 0.01, 0.07, 0.96868, 1, 0.0450152, 0.0483691, 0.0757183, 0.5728, 0.775, 0.49794, 0.255406
0.09, 0.01, 0.08, 0.954545, 1, 0.0437023, 0.0164452, 0.0745403, 0.5728, 0.775, 0.491005, 0.217058
0.09, 0.01, 0.09, 0, 0, 0, 0, 0, 0, 0, 0, 0
0.09, 0.01, 0.1, 0, 0, 0, 0, 0, 0, 0, 0, 0
0.09, 0.0125, 0, 0.911579, 1, 0.116355, 0.221295, 0.0646297, 0.65824, 0.71875, 0.527264, 0.355508
0.09, 0.0125, 0.01, 0.923729, 1, 0.0724245, 0.2132, 0.0740258, 0.65824, 0.71875, 0.52291, 0.337572
0.09, 0.0125, 0.02, 0.955319, 1, 0.0640714, 0.2041, 0.0793338, 0.65824, 0.71875, 0.525688, 0.334533
0.09, 0.0125, 0.03, 0.955508, 1, 0.0519974, 0.191472, 0.0802425, 0.65824, 0.71875, 0.522316, 0.322286
0.09, 0.0125, 0.04, 0.959746, 1, 0.0471021, 0.17158, 0.0827431, 0.65824, 0.71875, 0.519737, 0.314398
0.09, 0.0125, 0.05, 0.963907, 1, 0.0611381, 0.139713, 0.0843759, 0.65824, 0.71875, 0.518018, 0.317976
0.09, 0.0125, 0.06, 0.967742, 1, 0.0554435, 0.0968156, 0.0850239, 0.65824, 0.71875, 0.511716, 0.298053
0.09, 0.0125, 0.07, 0.963964, 1, 0.0489493, 0.0479223, 0.0793364, 0.65824, 0.71875, 0.502452, 0.262058
0.09, 0.0125, 0.08, 0.959391, 1, 0.0410714, 0.016426, 0.0785178, 0.65824, 0.71875, 0.496057, 0.218848
0.09, 0.0125, 0.09, 0, 0, 0, 0, 0, 0, 0, 0, 0
0.09, 0.0125, 0.1, 0, 0, 0, 0, 0, 0, 0, 0, 0
0.09, 0.015, 0, 0.905063, 1, 0.106571, 0.218093, 0.0674822, 0.7152, 0.6625, 0.524987, 0.352228
0.09, 0.015, 0.01, 0.93617, 1, 0.075725, 0.212937, 0.0777985, 0.7152, 0.6625, 0.525761, 0.342816
0.09, 0.015, 0.02, 0.961538, 1, 0.0650913, 0.19956, 0.0828299, 0.7152, 0.6625, 0.526674, 0.336663
0.09, 0.015, 0.03, 0.970213, 1, 0.0519214, 0.188944, 0.0842584, 0.7152, 0.6625, 0.524719, 0.324636
0.09, 0.015, 0.04, 0.974522, 1, 0.0534498, 0.174603, 0.0837094, 0.7152, 0.6625, 0.523426, 0.322232
0.09, 0.015, 0.05, 0.963597, 1, 0.0585361, 0.137573, 0.0872094, 0.7152, 0.6625, 0.517802, 0.316855
0.09, 0.015, 0.06, 0.959052, 1, 0.049274, 0.0953195, 0.089503, 0.7152, 0.6625, 0.510121, 0.294257
0.09, 0.015, 0.07, 0.950783, 1, 0.0489445, 0.0478105, 0.0847114, 0.7152, 0.6625, 0.501421, 0.263968
0.09, 0.015, 0.08, 0.951777, 1, 0.0404919, 0.0162964, 0.0831279, 0.7152, 0.6625, 0.495628, 0.219739
0.09, 0.015, 0.09, 0, 0, 0, 0, 0, 0, 0, 0, 0
0.09, 0.015, 0.1, 0, 0, 0, 0, 0, 0, 0, 0, 0
0.09, 0.0175, 0, 0.908898, 1, 0.105854, 0.21956, 0.0714105, 0.755886, 0.60625, 0.52398, 0.353607
0.09, 0.0175, 0.01, 0.938689, 1, 0.0692574, 0.217658, 0.0800132, 0.755886, 0.60625, 0.523965, 0.339406
0.09, 0.0175, 0.02, 0.965957, 1, 0.0527327, 0.199475, 0.0869499, 0.755886, 0.60625, 0.523893, 0.327589
0.09, 0.0175, 0.03, 0.968288, 1, 0.0514782, 0.189946, 0.0850718, 0.755886, 0.60625, 0.522417, 0.323291
0.09, 0.0175, 0.04, 0.963907, 1, 0.0480105, 0.171675, 0.0873566, 0.755886, 0.60625, 0.519012, 0.316486
0.09, 0.0175, 0.05, 0.970085, 1, 0.0568344, 0.136706, 0.090664, 0.755886, 0.60625, 0.516632, 0.315786
0.09, 0.0175, 0.06, 0.974138, 1, 0.0482412, 0.0970293, 0.091441, 0.755886, 0.60625, 0.510426, 0.294267
0.09, 0.0175, 0.07, 0.970721, 1, 0.0529635, 0.0483691, 0.0845758, 0.755886, 0.60625, 0.502681, 0.266861
0.09, 0.0175, 0.08, 0.951654, 1, 0.0419986, 0.0162099, 0.0855669, 0.755886, 0.60625, 0.493938, 0.220576
0.09, 0.0175, 0.09, 0, 0, 0, 0, 0, 0, 0, 0, 0
0.09, 0.0175, 0.1, 0, 0, 0, 0, 0, 0, 0, 0, 0
0.09, 0.02, 0, 0.909283, 1, 0.106491, 0.219085, 0.0744116, 0.7864, 0.55, 0.52081, 0.352982
0.09, 0.02, 0.01, 0.919492, 1, 0.0593788, 0.211964, 0.0829292, 0.7864, 0.55, 0.515738, 0.32876
0.09, 0.02, 0.02, 0.961702, 1, 0.0446527, 0.199127, 0.0888139, 0.7864, 0.55, 0.518671, 0.317949
0.09, 0.02, 0.03, 0.964135, 1, 0.0461765, 0.189456, 0.0893881, 0.7864, 0.55, 0.517937, 0.31762
0.09, 0.02, 0.04, 0.974522, 1, 0.0469452, 0.172789, 0.0894817, 0.7864, 0.55, 0.517163, 0.314737
0.09, 0.02, 0.05, 0.974576, 1, 0.0543627, 0.138272, 0.09211, 0.7864, 0.55, 0.513674, 0.312625
0.09, 0.02, 0.06, 0.980477, 1, 0.0503806, 0.0966018, 0.09495, 0.7864, 0.55, 0.508401, 0.295333
0.09, 0.02, 0.07, 0.970787, 1, 0.0461989, 0.0482358, 0.0900043, 0.7864, 0.55, 0.498804, 0.261766
0.09, 0.02, 0.08, 0.951777, 1, 0.0437511, 0.0163318, 0.0841916, 0.7864, 0.55, 0.49035, 0.219774
0.09, 0.02, 0.09, 0, 0, 0, 0, 0, 0, 0, 0, 0
0.09, 0.02, 0.1, 0, 0, 0, 0, 0, 0, 0, 0, 0
0.09, 0.0225, 0, 0.92827, 1, 0.0936462, 0.22001, 0.0748108, 0.810133, 0.49375, 0.517231, 0.344195
0.09, 0.0225, 0.01, 0.936709, 1, 0.0522572, 0.213787, 0.084031, 0.810133, 0.49375, 0.512952, 0.321074
0.09, 0.0225, 0.02, 0.955224, 1, 0.0443945, 0.1967, 0.0912193, 0.810133, 0.49375, 0.51306, 0.314505
0.09, 0.0225, 0.03, 0.972574, 1, 0.0412229, 0.192339, 0.0896704, 0.810133, 0.49375, 0.514241, 0.310236
0.09, 0.0225, 0.04, 0.985075, 1, 0.0451218, 0.17307, 0.0910388, 0.810133, 0.49375, 0.514027, 0.3108
0.09, 0.0225, 0.05, 0.970213, 1, 0.0522568, 0.13654, 0.0959668, 0.810133, 0.49375, 0.508409, 0.308466
0.09, 0.0225, 0.06, 0.967811, 1, 0.044128, 0.0970293, 0.0944195, 0.810133, 0.49375, 0.501039, 0.285997
0.09, 0.0225, 0.07, 0.961798, 1, 0.0452032, 0.0480018, 0.089142, 0.810133, 0.49375, 0.492575, 0.25718
0.09, 0.0225, 0.08, 0.961929, 1, 0.0478008, 0.0165407, 0.0850085, 0.810133, 0.49375, 0.48788, 0.221139
0.09, 0.0225, 0.09, 0, 0, 0, 0, 0, 0, 0, 0, 0
0.09, 0.0225, 0.1, 0, 0, 0, 0, 0, 0, 0, 0, 0
0.09, 0.025, 0, 0.921444, 1, 0.0922658, 0.217812, 0.0774876, 0.82912, 0.4375, 0.510804, 0.33956
0.09, 0.025, 0.01, 0.951374, 1, 0.050883, 0.214187, 0.0840251, 0.82912, 0.4375, 0.509584, 0.316199
0.09, 0.025, 0.02, 0.965739, 1, 0.0418752, 0.194433, 0.0920714, 0.82912, 0.4375, 0.508677, 0.307944
0.09, 0.025, 0.03, 0.970402, 1, 0.0383637, 0.18888, 0.0913027, 0.82912, 0.4375, 0.507938, 0.302705
0.09, 0.025, 0.04, 0.983015, 1, 0.0422401, 0.171927, 0.0912824, 0.82912, 0.4375, 0.507869, 0.30335
0.09, 0.025, 0.05, 0.970276, 1, 0.0518556, 0.136391, 0.0975846, 0.82912, 0.4375, 0.503247, 0.304534
0.09, 0.025, 0.06, 0.980645, 1, 0.0419708, 0.0977379, 0.0956657, 0.82912, 0.4375, 0.49752, 0.281363
0.09, 0.025, 0.07, 0.973094, 1, 0.0499932, 0.0485004, 0.0886567, 0.82912, 0.4375, 0.489552, 0.257897
0.09, 0.025, 0.08, 0.964557, 1, 0.0355309, 0.0165353, 0.0838822, 0.82912, 0.4375, 0.481018, 0.208697
0.09, 0.025, 0.09, 0, 0, 0, 0, 0, 0, 0, 0, 0
0.09, 0.025, 0.1, 0, 0, 0, 0, 0, 0, 0, 0, 0
0.1, 0, 0, 0, 0, 0, 0, 0, 0, 0, 0, 0
0.1, 0, 0.01, 0, 0, 0, 0, 0, 0, 0, 0, 0
0.1, 0, 0.02, 0, 0, 0, 0, 0, 0, 0, 0, 0
0.1, 0, 0.03, 0, 0, 0, 0, 0, 0, 0, 0, 0
0.1, 0, 0.04, 0, 0, 0, 0, 0, 0, 0, 0, 0
0.1, 0, 0.05, 0, 0, 0, 0, 0, 0, 0, 0, 0
0.1, 0, 0.06, 0, 0, 0, 0, 0, 0, 0, 0, 0
0.1, 0, 0.07, 0, 0, 0, 0, 0, 0, 0, 0, 0
0.1, 0, 0.08, 0, 0, 0, 0, 0, 0, 0, 0, 0
0.1, 0, 0.09, 0, 0, 0, 0, 0, 0, 0, 0, 0
0.1, 0, 0.1, 0, 0, 0, 0, 0, 0, 0, 0, 0
0.1, 0.0025, 0, 0.871849, 1, 0.128288, 0.216162, 0.034809, 0, 0.9375, 0.455515, 0
0.1, 0.0025, 0.01, 0.92389, 1, 0.0936681, 0.221032, 0.0409155, 0, 0.9375, 0.459572, 0
0.1, 0.0025, 0.02, 0.932059, 1, 0.0566683, 0.210061, 0.0442051, 0, 0.9375, 0.454356, 0
0.1, 0.0025, 0.03, 0.934043, 1, 0.0510819, 0.19476, 0.0457254, 0, 0.9375, 0.451873, 0
0.1, 0.0025, 0.04, 0.936709, 1, 0.0452061, 0.186343, 0.0459265, 0, 0.9375, 0.450241, 0
0.1, 0.0025, 0.05, 0.944798, 1, 0.0445048, 0.168666, 0.0478947, 0, 0.9375, 0.449052, 0
0.1, 0.0025, 0.06, 0.942431, 1, 0.0420032, 0.133234, 0.0480535, 0, 0.9375, 0.443317, 0
0.1, 0.0025, 0.07, 0.948276, 1, 0.0367932, 0.0944681, 0.0487041, 0, 0.9375, 0.437963, 0
0.1, 0.0025, 0.08, 0.961798, 1, 0.0416365, 0.0465242, 0.0461461, 0, 0.9375, 0.433372, 0
0.1, 0.0025, 0.09, 0.949109, 1, 0.0301524, 0.0148274, 0.0463729, 0, 0.9375, 0.425423, 0
0.1, 0.0025, 0.1, 0, 0, 0, 0, 0, 0, 0, 0, 0
0.1, 0.005, 0, 0.894292, 1, 0.124738, 0.220707, 0.0458405, 0.0496, 0.875, 0.458597, 0.242265
0.1, 0.005, 0.01, 0.942918, 1, 0.0971077, 0.222976, 0.0537484, 0.0496, 0.875, 0.46305, 0.241295
0.1, 0.005, 0.02, 0.951064, 1, 0.064043, 0.211307, 0.057503, 0.0496, 0.875, 0.45836, 0.228092
0.1, 0.005, 0.03, 0.953291, 1, 0.0630027, 0.196707, 0.0591229, 0.0496, 0.875, 0.456675, 0.226215
0.1, 0.005, 0.04, 0.953586, 1, 0.0566155, 0.186737, 0.0602016, 0.0496, 0.875, 0.454534, 0.221719
0.1, 0.005, 0.05, 0.965957, 1, 0.0486149, 0.170015, 0.0623181, 0.0496, 0.875, 0.453072, 0.215513
0.1, 0.005, 0.06, 0.955319, 1, 0.0476109, 0.13499, 0.0625695, 0.0496, 0.875, 0.446441, 0.207697
0.1, 0.005, 0.07, 0.956989, 1, 0.0443935, 0.0945746, 0.0634906, 0.0496, 0.875, 0.440578, 0.195897
0.1, 0.005, 0.08, 0.968468, 1, 0.0435802, 0.0464144, 0.062095, 0.0496, 0.875, 0.435023, 0.176231
0.1, 0.005, 0.09, 0.961637, 1, 0.0309067, 0.0148967, 0.0604096, 0.0496, 0.875, 0.427493, 0.141941
0.1, 0.005, 0.1, 0, 0, 0, 0, 0, 0, 0, 0, 0
0.1, 0.0075, 0, 0.896842, 1, 0.125928, 0.219316, 0.0531079, 0.3664, 0.8125, 0.496299, 0.326035
0.1, 0.0075, 0.01, 0.944915, 1, 0.0825559, 0.222168, 0.0621324, 0.3664, 0.8125, 0.498667, 0.316844
0.1, 0.0075, 0.02, 0.934183, 1, 0.062984, 0.204556, 0.0661119, 0.3664, 0.8125, 0.492391, 0.303442
0.1, 0.0075, 0.03, 0.946809, 1, 0.0547072, 0.194433, 0.0696011, 0.3664, 0.8125, 0.492064, 0.297996
0.1, 0.0075, 0.04, 0.940928, 1, 0.0575353, 0.184435, 0.0696952, 0.3664, 0.8125, 0.490213, 0.297687
0.1, 0.0075, 0.05, 0.957356, 1, 0.0523116, 0.168899, 0.0700005, 0.3664, 0.8125, 0.489638, 0.290897
0.1, 0.0075, 0.06, 0.963753, 1, 0.0533323, 0.135442, 0.071958, 0.3664, 0.8125, 0.486198, 0.284032
0.1, 0.0075, 0.07, 0.972043, 1, 0.0428423, 0.0957089, 0.0718076, 0.3664, 0.8125, 0.480186, 0.262203
0.1, 0.0075, 0.08, 0.979684, 1, 0.0417198, 0.04688, 0.0722944, 0.3664, 0.8125, 0.474211, 0.236382
0.1, 0.0075, 0.09, 0.953728, 1, 0.0343251, 0.0146031, 0.0712923, 0.3664, 0.8125, 0.464693, 0.19347
0.1, 0.0075, 0.1, 0, 0, 0, 0, 0, 0, 0, 0, 0
0.1, 0.01, 0, 0.917722, 1, 0.114671, 0.22002, 0.05893, 0.5248, 0.75, 0.512306, 0.341083
0.1, 0.01, 0.01, 0.936709, 1, 0.0741559, 0.220617, 0.0702733, 0.5248, 0.75, 0.510936, 0.329744
0.1, 0.01, 0.02, 0.938689, 1, 0.0509469, 0.202866, 0.0724594, 0.5248, 0.75, 0.50568, 0.310252
0.1, 0.01, 0.03, 0.955224, 1, 0.0597941, 0.193095, 0.0750937, 0.5248, 0.75, 0.508287, 0.317603
0.1, 0.01, 0.04, 0.955508, 1, 0.0602992, 0.184349, 0.0771145, 0.5248, 0.75, 0.507439, 0.3171
0.1, 0.01, 0.05, 0.970213, 1, 0.0584018, 0.169066, 0.0792435, 0.5248, 0.75, 0.507389, 0.313676
0.1, 0.01, 0.06, 0.959488, 1, 0.0560569, 0.134821, 0.0793257, 0.5248, 0.75, 0.500642, 0.301489
0.1, 0.01, 0.07, 0.965591, 1, 0.0550924, 0.0944503, 0.0802579, 0.5248, 0.75, 0.495742, 0.286572
0.1, 0.01, 0.08, 0.968326, 1, 0.0391016, 0.0460238, 0.0777876, 0.5248, 0.75, 0.486577, 0.245242
0.1, 0.01, 0.09, 0.959079, 1, 0.0363318, 0.0147753, 0.0796595, 0.5248, 0.75, 0.480664, 0.20674
0.1, 0.01, 0.1, 0, 0, 0, 0, 0, 0, 0, 0, 0
0.1, 0.0125, 0, 0.907368, 1, 0.11788, 0.219862, 0.0647681, 0.61984, 0.6875, 0.516745, 0.350439
0.1, 0.0125, 0.01, 0.951477, 1, 0.0746339, 0.221154, 0.0720066, 0.61984, 0.6875, 0.518087, 0.335843
0.1, 0.0125, 0.02, 0.95339, 1, 0.0580245, 0.204464, 0.0798141, 0.61984, 0.6875, 0.514719, 0.325208
0.1, 0.0125, 0.03, 0.96162, 1, 0.055198, 0.193973, 0.0804191, 0.61984, 0.6875, 0.514079, 0.321216
0.1, 0.0125, 0.04, 0.964059, 1, 0.0581191, 0.18526, 0.0826888, 0.61984, 0.6875, 0.513924, 0.322871
0.1, 0.0125, 0.05, 0.968085, 1, 0.0573701, 0.167953, 0.0829223, 0.61984, 0.6875, 0.511953, 0.318107
0.1, 0.0125, 0.06, 0.97234, 1, 0.0435868, 0.136783, 0.0840233, 0.61984, 0.6875, 0.506296, 0.297769
0.1, 0.0125, 0.07, 0.963283, 1, 0.0498315, 0.0935673, 0.0864283, 0.61984, 0.6875, 0.500064, 0.288269
0.1, 0.0125, 0.08, 0.970588, 1, 0.0487058, 0.0462378, 0.0842499, 0.61984, 0.6875, 0.493875, 0.259139
0.1, 0.0125, 0.09, 0.94359, 1, 0.0385632, 0.0142249, 0.0860354, 0.61984, 0.6875, 0.48425, 0.211574
0.1, 0.0125, 0.1, 0, 0, 0, 0, 0, 0, 0, 0, 0
0.1, 0.015, 0, 0.918067, 1, 0.106225, 0.217905, 0.069172, 0.6832, 0.625, 0.517081, 0.348765
0.1, 0.015, 0.01, 0.957447, 1, 0.0641834, 0.217515, 0.077165, 0.6832, 0.625, 0.517787, 0.331554
0.1, 0.015, 0.02, 0.961864, 1, 0.0541182, 0.201758, 0.0828625, 0.6832, 0.625, 0.515543, 0.323602
0.1, 0.015, 0.03, 0.967811, 1, 0.056059, 0.190836, 0.0836004, 0.6832, 0.625, 0.515215, 0.323352
0.1, 0.015, 0.04, 0.961783, 1, 0.059907, 0.183246, 0.0847338, 0.6832, 0.625, 0.513981, 0.324881
0.1, 0.015, 0.05, 0.96162, 1, 0.0545896, 0.1663, 0.0843487, 0.6832, 0.625, 0.510723, 0.315969
0.1, 0.015, 0.06, 0.972281, 1, 0.0491725, 0.134746, 0.0896113, 0.6832, 0.625, 0.507716, 0.305173
0.1, 0.015, 0.07, 0.969828, 1, 0.0399113, 0.0941984, 0.0911885, 0.6832, 0.625, 0.500475, 0.282042
0.1, 0.015, 0.08, 0.961538, 1, 0.0468117, 0.0456148, 0.0885688, 0.6832, 0.625, 0.492962, 0.258748
0.1, 0.015, 0.09, 0.96875, 1, 0.0402252, 0.0141554, 0.0913636, 0.6832, 0.625, 0.488956, 0.215408
0.1, 0.015, 0.1, 0, 0, 0, 0, 0, 0, 0, 0, 0
0.1, 0.0175, 0, 0.920168, 1, 0.108497, 0.22184, 0.0699732, 0.728457, 0.5625, 0.515919, 0.349345
0.1, 0.0175, 0.01, 0.947034, 1, 0.0620654, 0.215136, 0.0798198, 0.728457, 0.5625, 0.513573, 0.328588
0.1, 0.0175, 0.02, 0.966102, 1, 0.0516083, 0.201662, 0.0880768, 0.728457, 0.5625, 0.514058, 0.322505
0.1, 0.0175, 0.03, 0.968085, 1, 0.0544409, 0.192034, 0.0844812, 0.728457, 0.5625, 0.512857, 0.320891
0.1, 0.0175, 0.04, 0.970276, 1, 0.0511333, 0.18477, 0.0876798, 0.728457, 0.5625, 0.512117, 0.31807
0.1, 0.0175, 0.05, 0.97234, 1, 0.0502017, 0.167704, 0.0888684, 0.728457, 0.5625, 0.51001, 0.313571
0.1, 0.0175, 0.06, 0.976496, 1, 0.0504421, 0.134706, 0.0887498, 0.728457, 0.5625, 0.505907, 0.304243
0.1, 0.0175, 0.07, 0.971983, 1, 0.0462167, 0.093543, 0.0935124, 0.728457, 0.5625, 0.499459, 0.28716
0.1, 0.0175, 0.08, 0.966063, 1, 0.0448578, 0.0457216, 0.0899363, 0.728457, 0.5625, 0.491077, 0.256484
0.1, 0.0175, 0.09, 0.961039, 1, 0.03781, 0.0140129, 0.0949863, 0.728457, 0.5625, 0.485544, 0.212888
0.1, 0.0175, 0.1, 0, 0, 0, 0, 0, 0, 0, 0, 0
0.1, 0.02, 0, 0.925847, 1, 0.115585, 0.219716, 0.0755277, 0.7624, 0.5, 0.514154, 0.352552
0.1, 0.02, 0.01, 0.943038, 1, 0.0574513, 0.21486, 0.0822087, 0.7624, 0.5, 0.508565, 0.322749
0.1, 0.02, 0.02, 0.961702, 1, 0.0464677, 0.199127, 0.0881301, 0.7624, 0.5, 0.508261, 0.3137
0.1, 0.02, 0.03, 0.970276, 1, 0.0495616, 0.192388, 0.0891347, 0.7624, 0.5, 0.509109, 0.315959
0.1, 0.02, 0.04, 0, 0, 0, 0, 0, 0, 0, 0, 0
0.1, 0.02, 0.05, 0, 0, 0, 0, 0, 0, 0, 0, 0
0.1, 0.02, 0.06, 0, 0, 0, 0, 0, 0, 0, 0, 0
0.1, 0.02, 0.07, 0, 0, 0, 0, 0, 0, 0, 0, 0
0.1, 0.02, 0.08, 0, 0, 0, 0, 0, 0, 0, 0, 0
0.1, 0.02, 0.09, 0, 0, 0, 0, 0, 0, 0, 0, 0
0.1, 0.02, 0.1, 0, 0, 0, 0, 0, 0, 0, 0, 0
0.1, 0.0225, 0, 0, 0, 0, 0, 0, 0, 0, 0, 0
0.1, 0.0225, 0.01, 0, 0, 0, 0, 0, 0, 0, 0, 0
0.1, 0.0225, 0.02, 0.953782, 1, 0.0458611, 0.197134, 0.0892565, 0.7888, 0.4375, 0.501762, 0.308445
0.1, 0.0225, 0.03, 0, 0, 0, 0, 0, 0, 0, 0, 0
0.1, 0.0225, 0.04, 0, 0, 0, 0, 0, 0, 0, 0, 0
0.1, 0.0225, 0.05, 0, 0, 0, 0, 0, 0, 0, 0, 0
0.1, 0.0225, 0.06, 0, 0, 0, 0, 0, 0, 0, 0, 0
0.1, 0.0225, 0.07, 0, 0, 0, 0, 0, 0, 0, 0, 0
0.1, 0.0225, 0.08, 0, 0, 0, 0, 0, 0, 0, 0, 0
0.1, 0.0225, 0.09, 0, 0, 0, 0, 0, 0, 0, 0, 0
0.1, 0.0225, 0.1, 0, 0, 0, 0, 0, 0, 0, 0, 0
0.1, 0.025, 0, 0, 0, 0, 0, 0, 0, 0, 0, 0
0.1, 0.025, 0.01, 0, 0, 0, 0, 0, 0, 0, 0, 0
0.1, 0.025, 0.02, 0, 0, 0, 0, 0, 0, 0, 0, 0
0.1, 0.025, 0.03, 0, 0, 0, 0, 0, 0, 0, 0, 0
0.1, 0.025, 0.04, 0, 0, 0, 0, 0, 0, 0, 0, 0
0.1, 0.025, 0.05, 0, 0, 0, 0, 0, 0, 0, 0, 0
0.1, 0.025, 0.06, 0, 0, 0, 0, 0, 0, 0, 0, 0
0.1, 0.025, 0.07, 0, 0, 0, 0, 0, 0, 0, 0, 0
0.1, 0.025, 0.08, 0, 0, 0, 0, 0, 0, 0, 0, 0
0.1, 0.025, 0.09, 0.954907, 1, 0.042375, 0.013121, 0.102902, 0.80992, 0.375, 0.471175, 0.207555
0.1, 0.025, 0.1, 0, 0, 0, 0, 0, 0, 0, 0, 0
