# depth, success, robustness, alignment, coverage, wrench, stress, volume, qsum, qlog
0, 0, 0, 0, 0, 0, 0, 0, 0, 0
0.0005, 0.375321, 1, 0.0770206, 0.22393, 0.0616834, 0, 0.988391, 0.389478, 0
0.001, 0.388175, 1, 0.0546637, 0.225936, 0.0630559, 0.0496, 0.976781, 0.39403, 0.203886
0.0015, 0.405128, 1, 0.0770701, 0.223262, 0.0616666, 0.3664, 0.965172, 0.442671, 0.284812
0.002, 0.393229, 1, 0.0702606, 0.227273, 0.0626082, 0.5248, 0.953562, 0.461676, 0.295498
0.0025, 0.399491, 1, 0.0641662, 0.233289, 0.0621964, 0.61984, 0.941953, 0.474419, 0.299697
0.003, 0.409794, 1, 0.0712083, 0.229947, 0.0602637, 0.6832, 0.930344, 0.483537, 0.307
0.0035, 0.386364, 1, 0.0570429, 0.235294, 0.0593627, 0.728457, 0.918734, 0.483608, 0.297452
0.004, 0.380247, 1, 0.0652652, 0.244652, 0.062635, 0.7624, 0.907125, 0.488904, 0.308011
0.0045, 0.36802, 1, 0.0659394, 0.236, 0.0621274, 0.7888, 0.895516, 0.488058, 0.30602
0.005, 0.386364, 1, 0.0749621, 0.238, 0.0618446, 0.80992, 0.883906, 0.493571, 0.314626
0.0055, 0.381443, 1, 0.0701441, 0.233023, 0.0640625, 0.8272, 0.872297, 0.492596, 0.312063
0.006, 0.377551, 1, 0.0636314, 0.233068, 0.0612175, 0.8416, 0.860687, 0.491108, 0.305488
0.0065, 0.369347, 1, 0.0634315, 0.241036, 0.0626931, 0.853785, 0.849078, 0.491339, 0.306936
0.007, 0.386768, 1, 0.0782228, 0.235918, 0.0650537, 0.864229, 0.837469, 0.49538, 0.318987
0.0075, 0.384224, 1, 0.0958991, 0.232604, 0.0643107, 0.87328, 0.825859, 0.496597, 0.326734
0.008, 0.384224, 1, 0.103024, 0.235255, 0.0690392, 0.8812, 0.81425, 0.498142, 0.333754
0.0085, 0.379487, 1, 0.072532, 0.236581, 0.0676112, 0.888188, 0.802641, 0.492434, 0.31589
0.009, 0.371501, 1, 0.0874486, 0.238569, 0.0689423, 0.8944, 0.791031, 0.493127, 0.324397
0.0095, 0.366834, 1, 0.117319, 0.238411, 0.0699693, 0.899958, 0.779422, 0.495988, 0.337961
0.01, 0.364557, 1, 0.103567, 0.23245, 0.0693299, 0.90496, 0.767812, 0.491811, 0.329623
0.0105, 0.367347, 1, 0.121273, 0.236424, 0.073764, 0.909486, 0.756203, 0.494928, 0.340835
0.011, 0.357868, 1, 0.0918053, 0.237086, 0.0748363, 0.9136, 0.744594, 0.488541, 0.326618
0.0115, 0.345865, 1, 0.0957027, 0.235762, 0.0745081, 0.917357, 0.732984, 0.486025, 0.325959
0.012, 0.372093, 1, 0.0873522, 0.234323, 0.0758764, 0.9208, 0.721375, 0.487403, 0.325106
0.0125, 0.36802, 1, 0.100216, 0.235644, 0.0768229, 0.923968, 0.709766, 0.487777, 0.331276
0.013, 0.365285, 1, 0.0995892, 0.233706, 0.0782095, 0.926892, 0.698156, 0.485977, 0.330452
0.0135, 0.359173, 1, 0.100221, 0.237656, 0.0787717, 0.9296, 0.686547, 0.484567, 0.330429
0.014, 0.365039, 1, 0.108964, 0.235681, 0.0782505, 0.932114, 0.674937, 0.484998, 0.333774
0.0145, 0.361538, 1, 0.0788288, 0.236998, 0.0794022, 0.934455, 0.663328, 0.479222, 0.318493
0.015, 0.360825, 1, 0.126973, 0.239631, 0.0781164, 0.93664, 0.651719, 0.484843, 0.339841
0.0155, 0.377892, 1, 0.0865345, 0.235681, 0.0773393, 0.938684, 0.640109, 0.479463, 0.321901
0.016, 0.360825, 1, 0.0968909, 0.233048, 0.0793587, 0.9406, 0.6285, 0.477032, 0.324909
0.0165, 0.366667, 1, 0.0946955, 0.238345, 0.0805812, 0.9424, 0.616891, 0.477083, 0.325567
0.017, 0.358056, 1, 0.0971913, 0.238345, 0.0832705, 0.944094, 0.605281, 0.475177, 0.3264
0.0175, 0.328244, 1, 0.0812211, 0.239002, 0.081868, 0.945691, 0.593672, 0.4671, 0.31278
0.018, 0.353846, 1, 0.0960349, 0.237689, 0.0827579, 0.9472, 0.582063, 0.47137, 0.323218
0.0185, 0.335859, 1, 0.104295, 0.241809, 0.0811861, 0.948627, 0.570453, 0.46889, 0.323667
0.019, 0.335025, 1, 0.0856493, 0.235911, 0.0801815, 0.949979, 0.558844, 0.463656, 0.312056
0.0195, 0.339241, 1, 0.0883183, 0.237066, 0.0793987, 0.951262, 0.547234, 0.463217, 0.312887
0.02, 0.323907, 1, 0.114973, 0.233792, 0.082909, 0.95248, 0.535625, 0.463384, 0.323186
0.0205, 0.335013, 1, 0.0708126, 0.236411, 0.0835136, 0.953639, 0.524016, 0.457629, 0.302923
0.021, 0.320611, 1, 0.0835208, 0.236411, 0.0851875, 0.954743, 0.512406, 0.456126, 0.308148
0.0215, 0.316456, 1, 0.0804845, 0.240341, 0.0836761, 0.955795, 0.500797, 0.453936, 0.304938
0.022, 0.313625, 1, 0.0948325, 0.234873, 0.0849813, 0.9568, 0.489187, 0.453471, 0.310438
0.0225, 0.312821, 1, 0.101879, 0.232921, 0.0851162, 0.95776, 0.477578, 0.452582, 0.312187
0.023, 0.317829, 1, 0.0770642, 0.230969, 0.0842361, 0.958678, 0.465969, 0.447821, 0.298846
0.0235, 0.311054, 1, 0.0979171, 0.23162, 0.085971, 0.959557, 0.454359, 0.44864, 0.308247
0.024, 0.308483, 1, 0.104, 0.23162, 0.0858475, 0.9604, 0.44275, 0.447586, 0.309373
0.0245, 0.316583, 1, 0.0755957, 0.233572, 0.0865482, 0.961208, 0.431141, 0.443521, 0.296298
0.025, 0.311688, 1, 0.0872666, 0.225764, 0.0908182, 0.961984, 0.419531, 0.442436, 0.301234
0.0255, 0.304569, 1, 0.094881, 0.228367, 0.0895132, 0.962729, 0.407922, 0.44114, 0.302539
0.026, 0.3025, 1, 0.0953378, 0.237476, 0.088075, 0.963446, 0.396312, 0.44045, 0.302226
0.0265, 0.285347, 1, 0.115355, 0.230969, 0.0929599, 0.964136, 0.384703, 0.439067, 0.307865
0.027, 0.289406, 1, 0.111598, 0.227568, 0.0909311, 0.9648, 0.373094, 0.436771, 0.304113
0.0275, 0.302267, 1, 0.0945685, 0.235867, 0.0906053, 0.96544, 0.361484, 0.435748, 0.298909
0.028, 0.303571, 1, 0.123674, 0.233268, 0.0877821, 0.966057, 0.349875, 0.437747, 0.30748
0.0285, 0.300771, 1, 0.099123, 0.22937, 0.0914866, 0.966653, 0.338266, 0.432238, 0.29715
0.029, 0.287958, 1, 0.1026, 0.225471, 0.090432, 0.967228, 0.326656, 0.428621, 0.294104
0.0295, 0.28084, 1, 0.103128, 0.224821, 0.0902437, 0.967783, 0.315047, 0.42598, 0.291574
0.03, 0.290909, 1, 0.0934527, 0.22937, 0.0893819, 0.96832, 0.303437, 0.424982, 0.287856
0.0305, 0.283505, 1, 0.105175, 0.230019, 0.0870469, 0.968839, 0.291828, 0.423773, 0.289103
0.031, 0.287958, 1, 0.108166, 0.222795, 0.0882876, 0.969342, 0.280219, 0.422395, 0.288517
0.0315, 0.294872, 1, 0.102302, 0.22859, 0.0915817, 0.969829, 0.268609, 0.422255, 0.288043
0.032, 0.280928, 1, 0.0921634, 0.227506, 0.0909618, 0.9703, 0.257, 0.41698, 0.279608
0.0325, 0.280519, 1, 0.0999459, 0.22365, 0.091503, 0.970757, 0.245391, 0.415967, 0.280516
0.033, 0.283163, 1, 0.0996919, 0.228149, 0.0906199, 0.9712, 0.233781, 0.415229, 0.279278
0.0335, 0.290816, 1, 0.0947248, 0.229434, 0.0872295, 0.97163, 0.222172, 0.413715, 0.275024
0.034, 0.294118, 1, 0.102857, 0.228149, 0.0888056, 0.972047, 0.210562, 0.413791, 0.277102
0.0345, 0.289003, 1, 0.099517, 0.225578, 0.0907258, 0.972452, 0.198953, 0.41089, 0.273297
0.035, 0.282776, 1, 0.102261, 0.226221, 0.0896484, 0.972846, 0.187344, 0.408728, 0.270833
0.0355, 0.274809, 1, 0.0924589, 0.230621, 0.0921085, 0.973228, 0.175734, 0.405566, 0.265221
0.036, 0.279188, 1, 0.108028, 0.230621, 0.09066, 0.9736, 0.164125, 0.406603, 0.268561
0.0365, 0.263682, 1, 0.107991, 0.230966, 0.0909222, 0.973962, 0.152516, 0.402863, 0.263767
0.037, 0.282116, 1, 0.0902191, 0.232246, 0.0911669, 0.974314, 0.140906, 0.401567, 0.256967
0.0375, 0.262626, 1, 0.0945755, 0.230966, 0.0930012, 0.974656, 0.129297, 0.397875, 0.253479
0.038, 0.258794, 1, 0.102452, 0.228316, 0.0906965, 0.974989, 0.117688, 0.396134, 0.251134
0.0385, 0.264781, 1, 0.0986944, 0.228316, 0.0900378, 0.975314, 0.106078, 0.394746, 0.246678
0.039, 0.256477, 1, 0.112673, 0.225128, 0.0897211, 0.975631, 0.0944687, 0.393443, 0.245533
0.0395, 0.27551, 1, 0.0983604, 0.227533, 0.0912227, 0.975939, 0.0828593, 0.393061, 0.239715
0.04, 0.267857, 1, 0.115621, 0.223072, 0.0892447, 0.97624, 0.07125, 0.391898, 0.237708
0.0405, 0.263291, 1, 0.0841675, 0.228171, 0.0899799, 0.976533, 0.0596406, 0.385969, 0.221908
0.041, 0.256927, 1, 0.126878, 0.227099, 0.0900851, 0.97682, 0.0480312, 0.389406, 0.227241
0.0415, 0.247423, 1, 0.0971902, 0.223985, 0.0902472, 0.977099, 0.0364219, 0.381766, 0.208793
0.042, 0.238342, 1, 0.1137, 0.222293, 0.0880587, 0.977371, 0.0248125, 0.380654, 0.200143
0.0425, 0.261658, 1, 0.0944792, 0.219558, 0.0892709, 0.977638, 0.0132031, 0.379401, 0.18055
0.043, 0.255263, 1, 0.102925, 0.217747, 0.0910276, 0.977898, 0.00159369, 0.378065, 0.134867
0.0435, 0.254545, 1, 0.0953429, 0.220894, 0.0908252, 0.978152, 0, 0.377108, 0
0.044, 0.251948, 1, 0.108984, 0.22404, 0.0893124, 0.9784, 0, 0.378955, 0
0.0445, 0.248062, 1, 0.108469, 0.220967, 0.0898761, 0.978643, 0, 0.378002, 0
0.045, 0.246193, 1, 0.0911088, 0.2225, 0.0860259, 0.97888, 0, 0.374958, 0
0.0455, 0.233766, 1, 0.109104, 0.216822, 0.0911194, 0.979112, 0, 0.375704, 0
0.046, 0.224806, 1, 0.113914, 0.217445, 0.0905791, 0.979339, 0, 0.375155, 0
0.0465, 0.238845, 1, 0.115653, 0.215576, 0.0880251, 0.979561, 0, 0.376809, 0
0.047, 0.234536, 1, 0.130097, 0.221531, 0.0908055, 0.979779, 0, 0.379535, 0
0.0475, 0.219072, 1, 0.0927429, 0.21593, 0.0902648, 0.979992, 0, 0.371143, 0
0.048, 0.233596, 1, 0.0839861, 0.214686, 0.0862095, 0.9802, 0, 0.37124, 0
0.0485, 0.218182, 1, 0.115336, 0.218419, 0.089171, 0.980404, 0, 0.374502, 0
0.049, 0.221636, 1, 0.103082, 0.213441, 0.0876778, 0.980604, 0, 0.372349, 0
0.0495, 0.231579, 1, 0.100875, 0.21704, 0.0894664, 0.9808, 0, 0.374251, 0
0.05, 0.228571, 1, 0.114257, 0.217069, 0.0874361, 0.980992, 0, 0.375475, 0
