# depth, success, robustness, alignment, coverage, wrench, stress, volume, qsum, qlog
0, 0, 0, 0, 0, 0, 0, 0, 0, 0
0.001, 0.321348, 1, 0.258741, 0.00414433, 0.0361105, 0, 0.9975, 0.373978, 0
0.002, 0.309955, 1, 0.26764, 0.00382201, 0.034197, 0, 0.995, 0.372945, 0
0.003, 0.309795, 1, 0.306373, 0.00366389, 0.037705, 0, 0.9925, 0.378577, 0
0.004, 0.324943, 1, 0.293427, 0.00369032, 0.0364164, 0, 0.99, 0.378354, 0
0.005, 0.300459, 1, 0.3257, 0.00329858, 0.0393018, 0, 0.9875, 0.379466, 0
0.006, 0.30485, 1, 0.318182, 0.00324181, 0.0411793, 0, 0.985, 0.378922, 0
0.007, 0.281106, 1, 0.286885, 0.00287634, 0.0396003, 0, 0.9825, 0.370424, 0
0.008, 0.310345, 1, 0.303704, 0.00308727, 0.0435848, 0, 0.98, 0.377246, 0
0.009, 0.3, 1, 0.317829, 0.00287222, 0.0451654, 0, 0.9775, 0.377624, 0
0.01, 0.298368, 1, 0.322917, 0.00272665, 0.0439252, 0, 0.975, 0.377562, 0
0.011, 0.271226, 1, 0.298551, 0.00240058, 0.0440838, 0, 0.9725, 0.369823, 0
0.012, 0.280285, 1, 0.316384, 0.00239901, 0.0466867, 0, 0.97, 0.373679, 0
0.013, 0.274463, 1, 0.301449, 0.00228769, 0.0469067, 0, 0.9675, 0.370372, 0
0.014, 0.262019, 1, 0.296636, 0.00211474, 0.046294, 0, 0.965, 0.367438, 0
0.015, 0.243373, 1, 0.290429, 0.00189085, 0.0490269, 0, 0.9625, 0.363889, 0
0.016, 0.23601, 1, 0.292096, 0.00175248, 0.0474589, 0, 0.96, 0.362474, 0
0.017, 0.231884, 1, 0.302083, 0.00165966, 0.0455902, 0, 0.9575, 0.362674, 0
0.018, 0.231707, 1, 0.326316, 0.00161799, 0.0481865, 0, 0.955, 0.366118, 0
0.019, 0.191542, 1, 0.294372, 0.00127283, 0.0504872, 0, 0.9525, 0.355739, 0
0.02, 0.192593, 1, 0.333333, 0.0012515, 0.0498178, 0, 0.95, 0.360999, 0
0.021, 0.184275, 1, 0.306667, 0.00116643, 0.0504359, 0, 0.9475, 0.355721, 0
0.022, 0.186104, 1, 0.297778, 0.00114265, 0.0478569, 0, 0.945, 0.353983, 0
0.023, 0.182045, 1, 0.296804, 0.00104571, 0.047863, 0, 0.9425, 0.352894, 0
0.024, 0.148241, 1, 0.259887, 0.000819604, 0.0465272, 0, 0.94, 0.342211, 0
0.025, 0.139594, 1, 0.254545, 0.000754231, 0.0461146, 0, 0.9375, 0.339787, 0
