# width, success, robustness, alignment, coverage, wrench, stress, volume, qsum, qlog
0, 0, 0, 0, 0, 0, 0, 0, 0, 0
0.001, 0.342466, 1, 0.248889, 0.00416806, 0.0358716, 0, 0.9975, 0.375556, 0
0.002, 0.312785, 1, 0.289538, 0.00352548, 0.039143, 0, 0.995, 0.377142, 0
0.003, 0.310345, 1, 0.308642, 0.00341902, 0.0369894, 0, 0.9925, 0.378842, 0
0.004, 0.302059, 1, 0.290404, 0.00332863, 0.0368323, 0, 0.99, 0.374661, 0
0.005, 0.294253, 1, 0.322917, 0.00322304, 0.0393775, 0, 0.9875, 0.378181, 0
0.006, 0.299539, 1, 0.320513, 0.00325529, 0.0351192, 0, 0.985, 0.377632, 0
0.007, 0.291284, 1, 0.312336, 0.00317635, 0.0385796, 0, 0.9825, 0.375411, 0
0.008, 0.288018, 1, 0.312, 0.00312633, 0.0364347, 0, 0.98, 0.374226, 0
0.009, 0.289655, 1, 0.309524, 0.00315071, 0.0378158, 0, 0.9775, 0.373949, 0
0.01, 0.291284, 1, 0.333333, 0.00317571, 0.038787, 0, 0.975, 0.377369, 0
0.011, 0.295872, 1, 0.310078, 0.00318448, 0.0359201, 0, 0.9725, 0.373936, 0
0.012, 0.287037, 1, 0.327957, 0.00305788, 0.0364953, 0, 0.97, 0.374935, 0
0.013, 0.296552, 1, 0.315245, 0.00317023, 0.0349916, 0, 0.9675, 0.373923, 0
0.014, 0.293303, 1, 0.351706, 0.00311947, 0.0368036, 0, 0.965, 0.378562, 0
0.015, 0.291667, 1, 0.34127, 0.00309491, 0.0370994, 0, 0.9625, 0.376519, 0
0.016, 0.289352, 1, 0.341333, 0.0030699, 0.0405073, 0, 0.96, 0.376323, 0
0.017, 0.288684, 1, 0.333333, 0.0030699, 0.0376363, 0, 0.9575, 0.374318, 0
0.018, 0.286374, 1, 0.344086, 0.00304414, 0.039267, 0.0925926, 0.955, 0.388623, 0.13976
0.019, 0.284065, 1, 0.333333, 0.00296079, 0.0387738, 0.185596, 0.9525, 0.399604, 0.152539
0.02, 0.296984, 1, 0.328125, 0.00304363, 0.0352146, 0.265, 0.95, 0.411195, 0.159528
0.021, 0.296296, 1, 0.294271, 0.00301844, 0.038663, 0.333333, 0.9475, 0.416155, 0.164167
0.022, 0.288372, 1, 0.330645, 0.00288883, 0.0392497, 0.392562, 0.945, 0.428388, 0.169446
0.023, 0.305556, 1, 0.330808, 0.00303281, 0.0357791, 0.444234, 0.9425, 0.437416, 0.172756
0.024, 0.313953, 1, 0.306173, 0.0030606, 0.0378486, 0.489583, 0.94, 0.441517, 0.175483
0.025, 0.314815, 1, 0.316176, 0.00306465, 0.0359283, 0.5296, 0.9375, 0.448155, 0.176995
