x, y, success, robustness, alignment, coverage, wrench, stress, volume, qsum, qlog
0, 0, 0.0180505, 0.03, 0.0212758, 0.202834, 0.0754244, 0.95248, 0.5, 0.257152, 0.0975303
0, 18, 0.0179856, 0.05, 0.0249223, 0.201949, 0.0747272, 0.95248, 0.5, 0.260295, 0.107047
0, 36, 0.0107527, 0.1, 0.0249622, 0.199291, 0.0735559, 0.95248, 0.5, 0.265863, 0.109386
0, 54, 0.0107527, 0.06, 0.0219302, 0.198406, 0.0737186, 0.95248, 0.5, 0.259612, 0.0997919
0, 72, 0.0323741, 0.03, 0.0300829, 0.20372, 0.0747643, 0.95248, 0.5, 0.260489, 0.111327
0, 90, 0.0251799, 0.02, 0.0263383, 0.201949, 0.0739709, 0.95248, 0.5, 0.257131, 0.0991745
0, 108, 0.0251799, 0.02, 0.0254772, 0.204606, 0.0757973, 0.95248, 0.5, 0.257649, 0.0992343
0, 126, 0.0107914, 0.05, 0.0242177, 0.19752, 0.0740752, 0.95248, 0.5, 0.258441, 0.0986698
0, 144, 0.00719424, 0.04, 0.0262262, 0.199291, 0.073641, 0.95248, 0.5, 0.256976, 0.0912676
0, 162, 0.0107527, 0.04, 0.0219359, 0.199291, 0.073734, 0.95248, 0.5, 0.256885, 0.0942421
0, 180, 0.0143885, 0.03, 0.0243181, 0.20372, 0.0740977, 0.95248, 0.5, 0.257001, 0.0960578
0.0025, 0, 0.0107914, 0.02, 0.0252013, 0.201949, 0.0744095, 0.95248, 0.5, 0.254976, 0.0873898
0.0025, 18, 0.0107914, 0.03, 0.0191136, 0.20372, 0.07233, 0.95248, 0.500198, 0.255519, 0.0887708
0.0025, 36, 0.0179856, 0.03, 0.0247408, 0.204606, 0.0734087, 0.95248, 0.500406, 0.257661, 0.0993542
0.0025, 54, 0.0107527, 0.07, 0.0250989, 0.202834, 0.0737675, 0.95248, 0.500637, 0.262224, 0.104357
0.0025, 72, 0.0108303, 0, 0.0255148, 0.196634, 0.0719961, 0.95248, 0.500908, 0.251195, 0
0.0025, 90, 0.0251799, 0.07, 0.0225631, 0.201063, 0.0701854, 0.95248, 0.50125, 0.263246, 0.115119
0.0025, 108, 0.0179856, 0.03, 0.0333955, 0.198406, 0.0654776, 0.95248, 0.50172, 0.257066, 0.101615
0.0025, 126, 0.0250896, 0.03, 0.0346414, 0.19752, 0.0681046, 0.95248, 0.502453, 0.258613, 0.10768
0.0025, 144, 0.0143885, 0.03, 0.0537621, 0.19132, 0.0827292, 0.95248, 0.503847, 0.261218, 0.108435
0.0025, 162, 0.0179211, 0.08, 0.0351753, 0.19132, 0.0736055, 0.95248, 0.507892, 0.265485, 0.119281
0.0025, 180, 0.0215054, 0.08, 0.0239133, 0.19132, 0.0728862, 0.941025, 0.55, 0.268664, 0.116821
0.005, 0, 0.0250896, 0.06, 0.028958, 0.202834, 0.0744343, 0.95248, 0.5, 0.263399, 0.117728
0.005, 18, 0.0251799, 0.05, 0.023005, 0.201063, 0.0745174, 0.95248, 0.500792, 0.261005, 0.110952
0.005, 36, 0.0215054, 0.05, 0.0229164, 0.204606, 0.0765519, 0.95248, 0.501625, 0.261383, 0.109136
0.005, 54, 0.0215827, 0.03, 0.0224605, 0.200177, 0.0738287, 0.95248, 0.502548, 0.257582, 0.100406
0.005, 72, 0.0143885, 0.07, 0.0336302, 0.201949, 0.0675874, 0.95248, 0.503633, 0.263381, 0.112051
0.005, 90, 0.0144404, 0.03, 0.0380902, 0.199291, 0.0680871, 0.95248, 0.505, 0.258198, 0.101065
0.005, 108, 0.0143885, 0.04, 0.048675, 0.195748, 0.0768311, 0.95248, 0.506882, 0.262144, 0.110676
0.005, 126, 0.0142857, 0.04, 0.0400722, 0.193977, 0.0905001, 0.95248, 0.509813, 0.263018, 0.110026
0.005, 144, 0.0179856, 0.08, 0.0782699, 0.186891, 0.100579, 0.95248, 0.515388, 0.275942, 0.139715
0.005, 162, 0.0107914, 0.07, 0.0530181, 0.186891, 0.0706166, 0.95248, 0.530885, 0.267812, 0.115078
0.005, 180, 0.0143369, 0.09, 0.0209243, 0.188663, 0.0739664, 0.925311, 0.6, 0.273314, 0.111119
0.0075, 0, 0.0215827, 0.02, 0.0212409, 0.201949, 0.0746118, 0.95248, 0.5, 0.255981, 0.0941947
0.0075, 18, 0.0107914, 0.08, 0.0257076, 0.198406, 0.0744329, 0.95248, 0.501782, 0.263371, 0.106622
0.0075, 36, 0.0180505, 0.04, 0.0289382, 0.198406, 0.0713239, 0.95248, 0.503655, 0.258979, 0.10512
0.0075, 54, 0.0143885, 0.06, 0.0256467, 0.199291, 0.0676041, 0.95248, 0.505732, 0.260735, 0.105315
0.0075, 72, 0.0179856, 0.02, 0.0343809, 0.199291, 0.0690027, 0.95248, 0.508174, 0.257331, 0.0972586
0.0075, 90, 0.0179856, 0.04, 0.0514387, 0.196634, 0.0794041, 0.95248, 0.51125, 0.26417, 0.115926
0.0075, 108, 0.0107914, 0.04, 0.0444964, 0.184234, 0.0963248, 0.95248, 0.515484, 0.263402, 0.107634
0.0075, 126, 0.0215827, 0.07, 0.0450071, 0.188663, 0.103655, 0.95248, 0.522079, 0.271924, 0.130976
0.0075, 144, 0.00359712, 0.03, 0.0688149, 0.181577, 0.103376, 0.95248, 0.534624, 0.267781, 0.0952214
0.0075, 162, 0.00716846, 0.01, 0.0454077, 0.18512, 0.0710498, 0.95248, 0.563116, 0.262049, 0.0810434
0.0075, 180, 0.0143369, 0.06, 0.0288771, 0.179805, 0.0723305, 0.902364, 0.65, 0.272531, 0.109561
0.01, 0, 0.0143369, 0.02, 0.0230956, 0.205492, 0.073885, 0.95248, 0.5, 0.255613, 0.0900146
0.01, 18, 0.0143885, 0.08, 0.0206979, 0.20372, 0.0739426, 0.95248, 0.503168, 0.264057, 0.108056
0.01, 36, 0.0179211, 0.08, 0.0308493, 0.200177, 0.0676059, 0.95248, 0.506498, 0.265076, 0.116357
0.01, 54, 0.0179856, 0.08, 0.039152, 0.201063, 0.0692937, 0.95248, 0.510191, 0.267166, 0.121075
0.01, 72, 0.0107527, 0.01, 0.036317, 0.200177, 0.0782826, 0.95248, 0.514531, 0.257506, 0.0841942
0.01, 90, 0.00719424, 0.08, 0.049218, 0.188663, 0.0962579, 0.95248, 0.52, 0.270545, 0.114295
0.01, 108, 0.00716846, 0.04, 0.0464526, 0.179805, 0.10655, 0.95248, 0.527528, 0.265712, 0.103615
0.01, 126, 0.00719424, 0.06, 0.0550697, 0.183348, 0.106721, 0.95248, 0.539252, 0.272009, 0.113248
0.01, 144, 0.0107527, 0.03, 0.0578709, 0.183348, 0.100841, 0.95248, 0.560469, 0.270823, 0.109123
0.01, 162, 0.0143885, 0.04, 0.0371095, 0.178034, 0.069973, 0.95248, 0.603238, 0.270746, 0.106251
0.01, 180, 0.0107914, 0.03, 0.0250299, 0.178919, 0.0733776, 0.866957, 0.7, 0.269296, 0.0939406
0.0125, 0, 0.0251799, 0.03, 0.0213861, 0.20372, 0.0751371, 0.95248, 0.5, 0.258272, 0.102364
0.0125, 18, 0.0107527, 0.07, 0.0232166, 0.199291, 0.0745002, 0.952, 0.50495, 0.262101, 0.103206
0.0125, 36, 0.00359712, 0.06, 0.0297252, 0.19752, 0.0668902, 0.952, 0.510154, 0.259984, 0.0880916
0.0125, 54, 0.0179856, 0.02, 0.0433464, 0.19752, 0.0691189, 0.952, 0.515923, 0.259413, 0.100638
0.0125, 72, 0.0215054, 0.06, 0.0411254, 0.190434, 0.0876337, 0.952, 0.522704, 0.267915, 0.1236
0.0125, 90, 0.00716846, 0.02, 0.0600696, 0.182462, 0.107227, 0.952, 0.53125, 0.26574, 0.0977406
0.0125, 108, 0.0143885, 0.04, 0.0989772, 0.180691, 0.115861, 0.952, 0.543012, 0.277847, 0.129672
0.0125, 126, 0.0251799, 0.02, 0.0736878, 0.178034, 0.108668, 0.952, 0.561332, 0.274129, 0.121177
0.0125, 144, 0.0215827, 0.04, 0.03636, 0.177148, 0.0995696, 0.952, 0.590281, 0.273849, 0.117604
0.0125, 162, 0.0142857, 0.02, 0.0395326, 0.179805, 0.07722, 0.9444, 0.65101, 0.275179, 0.0994804
0.0125, 180, 0.0179856, 0.08, 0.0196247, 0.178034, 0.0790329, 0.808115, 0.75, 0.276113, 0.113377
0.015, 0, 0.0215827, 0.04, 0.0226954, 0.200177, 0.073916, 0.95248, 0.5, 0.258693, 0.104716
0.015, 18, 0.0215827, 0.07, 0.0239323, 0.204606, 0.0702062, 0.925, 0.507127, 0.260351, 0.113566
0.015, 36, 0.0179856, 0.01, 0.0349708, 0.198406, 0.0675744, 0.925, 0.514621, 0.252651, 0.087775
0.015, 54, 0.0143885, 0.03, 0.0519725, 0.192205, 0.080116, 0.925, 0.522929, 0.259516, 0.10761
0.015, 72, 0.00719424, 0.03, 0.0440331, 0.192205, 0.0975043, 0.925, 0.532694, 0.261233, 0.098152
0.015, 90, 0.0107914, 0.04, 0.0748284, 0.178919, 0.123521, 0.925, 0.545, 0.271152, 0.120074
0.015, 108, 0.0143369, 0.06, 0.162354, 0.172719, 0.125985, 0.925, 0.561937, 0.288905, 0.148328
0.015, 126, 0.0107914, 0.04, 0.0998581, 0.172719, 0.109907, 0.925, 0.587313, 0.277941, 0.123753
0.015, 144, 0.0107527, 0.03, 0.027445, 0.170948, 0.0988985, 0.925, 0.62394, 0.269569, 0.097931
0.015, 162, 0.0107527, 0.03, 0.0263723, 0.173605, 0.0928145, 0.921468, 0.70101, 0.279432, 0.0982772
0.015, 180, 0.0107527, 0.03, 0.0364276, 0.172719, 0.0710975, 0.699468, 0.8, 0.260067, 0.0969911
0.0175, 0, 0.0251799, 0.04, 0.0267505, 0.201949, 0.0741447, 0.95248, 0.5, 0.260072, 0.109777
0.0175, 18, 0.0107527, 0.06, 0.0261021, 0.198406, 0.0697732, 0.866667, 0.509701, 0.248772, 0.10042
0.0175, 36, 0.0179856, 0.02, 0.0456064, 0.201949, 0.0684849, 0.866667, 0.519901, 0.248656, 0.100316
0.0175, 54, 0.0143885, 0.06, 0.0448881, 0.19132, 0.0927741, 0.866667, 0.531208, 0.257321, 0.1179
0.0175, 72, 0.00719424, 0.06, 0.0667009, 0.182462, 0.108185, 0.866667, 0.544501, 0.262244, 0.115135
0.0175, 90, 0.0215054, 0.06, 0.210527, 0.170062, 0.153168, 0.866667, 0.56125, 0.291883, 0.165784
0.0175, 108, 0.0215827, 0.06, 0.275724, 0.158547, 0.146392, 0.866667, 0.584303, 0.301888, 0.170546
0.0175, 126, 0.0143885, 0.09, 0.179214, 0.0504872, 0.0955956, 0.866667, 0.61576, 0.273159, 0.129101
0.0175, 144, 0.00358423, 0.07, 0.145731, 0.0345438, 0.0951174, 0.866667, 0.661447, 0.268156, 0.0948114
0.0175, 162, 0.0142857, 0.06, 0.0229445, 0.0106289, 0.0609942, 0.866667, 0.75101, 0.255219, 0.0700764
0.0175, 180, 0.0142857, 0.02, 0.0401777, 0.0141718, 0.0327766, 0.463604, 0.85, 0.205002, 0.0575908
0.02, 0, 0.0143885, 0.05, 0.0249378, 0.201063, 0.0745714, 0.95248, 0.5, 0.259634, 0.103602
0.02, 18, 0.0143885, 0.05, 0.0242302, 0.201063, 0.0695197, 0.7, 0.512671, 0.224553, 0.0981011
0.02, 36, 0.0107914, 0.07, 0.0343344, 0.196634, 0.069166, 0.7, 0.525994, 0.22956, 0.103805
0.02, 54, 0.00716846, 0.01, 0.0562806, 0.186891, 0.094601, 0.7, 0.540762, 0.227958, 0.0829407
0.02, 72, 0.0179856, 0.08, 0.110849, 0.170062, 0.137169, 0.7, 0.558123, 0.253456, 0.146576
0.02, 90, 0.0143885, 0.04, 0.324155, 0.155004, 0.159597, 0.7, 0.58, 0.281878, 0.151991
0.02, 108, 0.0107527, 0.04, 0.161637, 0.0540301, 0.108915, 0.7, 0.609646, 0.240712, 0.108286
0.02, 126, 0.00358423, 0, 0.0373608, 0.00620018, 0.0794424, 0.7, 0.646659, 0.210464, 0
0.02, 144, 0, 0, 0.01, 0.00265722, 0.0847078, 0.7, 0.7028, 0.214309, 0
0.02, 162, 0, 0, 0.01, 0, 0, 0.7, 0.80101, 0.215859, 0
0.02, 180, 0, 0, 0.01, 0.00088574, 6.37296e-09, 0, 0.9, 0.130127, 0
0.0225, 0, 0.0179856, 0.03, 0.0237339, 0.205492, 0.074176, 0.95248, 0.5, 0.257695, 0.0989627
0.0225, 18, 0.00719424, 0.02, 0.0385787, 0.199291, 0.0632983, 0, 0.516036, 0.120628, 0
0.0225, 36, 0.00719424, 0.03, 0.0419156, 0.196634, 0.0818871, 0, 0.532898, 0.127218, 0
0.0225, 54, 0.00359712, 0.07, 0.0615439, 0.190434, 0.0984469, 0, 0.551589, 0.139373, 0
0.0225, 72, 0.0143885, 0.02, 0.167008, 0.162976, 0.144756, 0, 0.573562, 0.15467, 0
0.0225, 90, 0.00719424, 0.04, 0.187372, 0.0531444, 0.117816, 0, 0.60125, 0.143825, 0
0.0225, 108, 0, 0, 0.219185, 0.00708592, 0.106713, 0, 0.63677, 0.209965, 0
0.0225, 126, 0, 0, 0.01, 0.00088574, 0.13979, 0, 0.680012, 0.11867, 0
0.0225, 144, 0, 0, 0.01, 0, 0, 0, 0.748, 0.108286, 0
0.0225, 162, 0, 0, 0.01, 0, 0, 0, 0.85101, 0.123001, 0
0.0225, 180, 0, 0, 0.01, 0.00088574, 3.65324e-09, 0, 0.95, 0.137269, 0
0.025, 0, 0, 0, 0, 0, 0, 0, 0, 0, 0
0.025, 18, 0, 0, 0, 0, 0, 0, 0, 0, 0
0.025, 36, 0, 0, 0, 0, 0, 0, 0, 0, 0
0.025, 54, 0, 0, 0, 0, 0, 0, 0, 0, 0
0.025, 72, 0, 0, 0, 0, 0, 0, 0, 0, 0
0.025, 90, 0, 0, 0, 0, 0, 0, 0, 0, 0
0.025, 108, 0, 0, 0, 0, 0, 0, 0, 0, 0
0.025, 126, 0, 0, 0, 0, 0, 0, 0, 0, 0
0.025, 144, 0, 0, 0, 0, 0, 0, 0, 0, 0
0.025, 162, 0, 0, 0, 0, 0, 0, 0, 0, 0
0.025, 180, 0, 0, 0, 0, 0, 0, 0, 0, 0
