#step, length, width, depth, chfdepth, chfangle, cut depth, cut angle, tilt, tcp, jawdist, stroke, force, success, robustness, alignment, coverage, wrench, stress, volume, q
0, 0.1, 0.025, 0.02, 0, 45, 0.0205095, 98.4107, -25.085, 0.025, 0, 0.05, 25, 0.182171, 1, 0.303763, 0.108581, 0.0950112, 0.0701509, 0.607056, 0.170213
1, 0.1, 0.025, 0.02, 0, 45, 0.0288428, 128.411, 64.915, 0.025, 0, 0.05, 25, 0, 0, 0, 0, 0, 0, 0, 0
2, 0.1, 0.025, 0.02, 0, 45, 0.0205095, 8.41071, -25.085, 0.025, 0, 0.05, 25, 0.341379, 1, 0.316736, 0.200166, 0.068917, 0.0701509, 0.50683, 0.148102
3, 0.1, 0.025, 0.02, 0, 45, 0.00384284, 38.4107, 64.915, 0.025, 0, 0.05, 25, 0.302491, 1, 0.303419, 0.202073, 0.0742479, 0.8812, 0.502427, 0.152323
4, 0.1, 0.025, 0.02, 0, 45, 0.00523173, 73.4107, -10.085, 0.025, 0, 0.05, 25, 0.27758, 1, 0.306667, 0.191164, 0.0655052, 0.8812, 0.504145, 0.143922
5, 0.1, 0.025, 0.02, 0, 45, 0.0246762, 23.4107, 19.915, 0.025, 0, 0.05, 25, 0.323843, 1, 0.315126, 0.200505, 0.0691306, 0, 0.526837, 0
6, 0.1, 0.025, 0.02, 0, 45, 0.0100928, 60.9107, -2.58502, 0.025, 0, 0.05, 25, 0.278169, 1, 0.298851, 0.194794, 0.0688085, 0.8812, 0.511991, 0.145609
7, 0.1, 0.025, 0.02, 0, 45, 0.0198151, 35.9107, 12.415, 0.025, 0, 0.05, 25, 0.278571, 1, 0.281481, 0.187344, 0.0773327, 0.302549, 0.526057, 0.148999
8, 0.1, 0.025, 0.02, 0, 45, 0.00893543, 106.744, 59.915, 0.025, 0, 0.05, 25, 0.266423, 1, 0.279817, 0.193091, 0.0791458, 0.8812, 0.541308, 0.151095
9, 0.1, 0.025, 0.02, 0, 45, 0.00237679, 126.466, 54.0816, 0.025, 0, 0.05, 25, 0.308772, 1, 0.312955, 0.202655, 0.06101, 0.8812, 0.503818, 0.140348
10, 0.1, 0.025, 0.02, 0, 45, 0.0154555, 58.5496, 22.8316, 0.025, 0, 0.05, 25, 0.293103, 1, 0.268678, 0.201915, 0.0879054, 0.794177, 0.529059, 0.155888
11, 0.1, 0.025, 0.02, 0, 45, 0.0176031, 23.5033, -18.1406, 0.025, 0, 0.05, 25, 0.300699, 1, 0.300546, 0.209442, 0.0705655, 0.657307, 0.513567, 0.147639
12, 0.1, 0.025, 0.02, 0, 45, 0.0111024, 85.9339, 40.4011, 0.025, 0, 0.05, 25, 0.27957, 1, 0.284627, 0.204291, 0.081919, 0.8812, 0.530153, 0.15498
13, 0.1, 0.025, 0.02, 0, 45, 0.0275354, 123.519, -39.4832, 0.025, 0, 0.05, 25, 0, 0, 0, 0, 0, 0, 0, 0
14, 0.1, 0.025, 0.02, 0, 45, 0.00976598, 59.6877, 38.8154, 0.025, 0, 0.05, 25, 0.285211, 1, 0.313889, 0.191847, 0.0680904, 0.8812, 0.514045, 0.148421
15, 0.1, 0.025, 0.02, 0, 45, 0.0230365, 118.341, -49.0434, 0.025, 0, 0.05, 25, 0.0217391, 1, 0.333333, 0.013617, 0.0865194, 0, 0.724654, 0
16, 0.1, 0.025, 0.02, 0, 45, 0.0252131, 104.649, -57.8281, 0.025, 0, 0.05, 25, 0, 0, 0, 0, 0, 0, 0, 0
17, 0.1, 0.025, 0.02, 0, 45, 0.0288428, 128.411, -70.085, 0.025, 0, 0.05, 25, 0, 0, 0, 0, 0, 0, 0, 0
18, 0.1, 0.025, 0.02, 0, 45, 0.0169966, 85.8567, -17.8859, 0.025, 0, 0.05, 25, 0.205674, 1, 0.264865, 0.154682, 0.107483, 0.707283, 0.556472, 0.170934
19, 0.1, 0.025, 0.02, 0, 45, 0.0110734, 64.5797, 8.21359, 0.025, 0, 0.05, 25, 0.29021, 1, 0.276316, 0.187039, 0.0793624, 0.8812, 0.515658, 0.150324
20, 0.1, 0.025, 0.02, 0, 45, 0.0151486, 97.09, -3.5148, 0.025, 0, 0.05, 25, 0.17193, 1, 0.315603, 0.160273, 0.126808, 0.806799, 0.552056, 0.202453
21, 0.1, 0.025, 0.02, 0, 45, 0.0101164, 93.3104, 23.6418, 0.025, 0, 0.05, 25, 0.270073, 1, 0.285486, 0.17563, 0.101315, 0.8812, 0.523673, 0.172419
22, 0.1, 0.025, 0.02, 0, 45, 0.0120666, 69.2303, 18.0528, 0.025, 0, 0.05, 25, 0.246429, 1, 0.291667, 0.187919, 0.0897281, 0.8812, 0.521141, 0.164084
23, 0.1, 0.025, 0.02, 0, 45, 0.020294, 106.064, -32.2693, 0.025, 0, 0.05, 25, 0.172043, 1, 0.291667, 0.117953, 0.0934461, 0.153349, 0.625559, 0.166123
24, 0.1, 0.025, 0.02, 0, 45, 0.0148091, 81.5081, 1.27879, 0.025, 0, 0.05, 25, 0.224335, 1, 0.291228, 0.174954, 0.112999, 0.819459, 0.537809, 0.183752
25, 0.1, 0.025, 0.02, 0, 45, 0.0107934, 77.8924, 11.6704, 0.025, 0, 0.05, 25, 0.281853, 1, 0.25, 0.15935, 0.0899143, 0.8812, 0.519229, 0.152182
26, 0.1, 0.025, 0.02, 0, 45, 0.0180805, 93.2811, -15.8962, 0.025, 0, 0.05, 25, 0.155797, 1, 0.350674, 0.147737, 0.134151, 0.608396, 0.571989, 0.219054
27, 0.1, 0.025, 0.02, 0, 45, 0.0150289, 95.3961, 5.79783, 0.025, 0, 0.05, 25, 0.238596, 1, 0.359736, 0.178919, 0.127499, 0.811411, 0.549897, 0.216589
28, 0.1, 0.025, 0.02, 0, 45, 0.0173629, 109.003, -10.3542, 0.025, 0, 0.05, 25, 0.193182, 1, 0.427203, 0.157895, 0.130049, 0.678526, 0.585909, 0.238013
29, 0.1, 0.025, 0.02, 0, 45, 0.0186398, 122.751, -16.1707, 0.025, 0, 0.05, 25, 0.0964286, 1, 0.252381, 0.0602929, 0.0909776, 0.536486, 0.626574, 0.153556
30, 0.1, 0.025, 0.02, 0, 45, 0.0184996, 101.364, -10.1202, 0.025, 0, 0.05, 25, 0.189964, 1, 0.490196, 0.141549, 0.145119, 0.556274, 0.584892, 0.26873
31, 0.1, 0.025, 0.02, 0, 45, 0.020175, 103.501, -13.423, 0.025, 0, 0.05, 25, 0.10453, 1, 0.509804, 0.0700165, 0.0863361, 0.194605, 0.605894, 0.210822
32, 0.1, 0.025, 0.02, 0, 45, 0.020933, 107.036, -30.0449, 0.025, 0, 0.05, 25, 0.119298, 1, 0.297101, 0.0738956, 0.0872312, 0, 0.6324, 0
33, 0.1, 0.025, 0.02, 0, 45, 0.0165049, 98.3061, -3.16286, 0.025, 0, 0.05, 25, 0.190813, 1, 0.374302, 0.165129, 0.133088, 0.740182, 0.56311, 0.225552
34, 0.1, 0.025, 0.02, 0, 45, 0.0168311, 112.501, 0.137954, 0.025, 0, 0.05, 25, 0.193309, 1, 0.418651, 0.144082, 0.134637, 0.719018, 0.584793, 0.239789
35, 0.1, 0.025, 0.02, 0, 45, 0.0186241, 116.939, -10.3948, 0.025, 0, 0.05, 25, 0.0925267, 1, 0.417989, 0.0525, 0.0910964, 0.538765, 0.612815, 0.197232
36, 0.1, 0.025, 0.02, 0, 45, 0.0170347, 102.964, -4.97085, 0.025, 0, 0.05, 25, 0.181481, 1, 0.462745, 0.154686, 0.143092, 0.70447, 0.573191, 0.259637
37, 0.1, 0.025, 0.02, 0, 45, 0.0175474, 102.216, 0.385467, 0.025, 0, 0.05, 25, 0.242857, 1, 0.541219, 0.168174, 0.154893, 0.662415, 0.576343, 0.291717
38, 0.1, 0.025, 0.02, 0, 45, 0.0176396, 98.8224, 5.75531, 0.025, 0, 0.05, 25, 0.222973, 1, 0.50817, 0.183453, 0.149265, 0.653902, 0.573003, 0.277599
39, 0.1, 0.025, 0.02, 0, 45, 0.0185566, 91.8618, -9.9417, 0.025, 0, 0.05, 25, 0.243636, 1, 0.440217, 0.161972, 0.154527, 0.548377, 0.572229, 0.262798
40, 0.1, 0.025, 0.02, 0, 45, 0.0193676, 93.9967, -8.1468, 0.025, 0, 0.05, 25, 0.153571, 1, 0.59481, 0.152233, 0.155452, 0.408955, 0.581266, 0.305504
41, 0.1, 0.025, 0.02, 0, 45, 0.0205341, 89.5129, -9.73478, 0.025, 0, 0.05, 25, 0.206767, 1, 0.637681, 0.146098, 0.159344, 0.0598836, 0.584837, 0.317088
42, 0.1, 0.025, 0.02, 0, 45, 0.019164, 103.533, -3.038, 0.025, 0, 0.05, 25, 0.163121, 1, 0.640404, 0.148917, 0.153645, 0.449475, 0.593361, 0.315231
43, 0.1, 0.025, 0.02, 0, 45, 0.0196641, 95.4777, 1.86203, 0.025, 0, 0.05, 25, 0.199301, 1, 0.60381, 0.15528, 0.159917, 0.34145, 0.585151, 0.311861
44, 0.1, 0.025, 0.02, 0, 45, 0.0220275, 90.1332, -7.6593, 0.025, 0, 0.05, 25, 0.123636, 1, 0.5671, 0.0648694, 0.106924, 0, 0.598143, 0
45, 0.1, 0.025, 0.02, 0, 45, 0.0186674, 99.1954, -1.62572, 0.025, 0, 0.05, 25, 0.167273, 1, 0.55144, 0.13444, 0.160843, 0.532441, 0.581917, 0.299668
46, 0.1, 0.025, 0.02, 0, 45, 0.0209074, 93.1539, -5.64811, 0.025, 0, 0.05, 25, 0.152174, 1, 0.643606, 0.131841, 0.154999, 0, 0.592825, 0
47, 0.1, 0.025, 0.02, 0, 45, 0.0192274, 97.685, -2.63132, 0.025, 0, 0.05, 25, 0.173145, 1, 0.634146, 0.142982, 0.161628, 0.437323, 0.584675, 0.321602
48, 0.1, 0.025, 0.02, 0, 45, 0.0196196, 98.3431, -12.1314, 0.025, 0, 0.05, 25, 0.147727, 1, 0.553991, 0.120851, 0.146352, 0.352309, 0.591134, 0.286074
49, 0.1, 0.025, 0.02, 0, 45, 0.019653, 96.1941, -1.63633, 0.025, 0, 0.05, 25, 0.179487, 1, 0.641667, 0.149533, 0.161916, 0.34419, 0.58612, 0.32339
50, 0.1, 0.025, 0.02, 0, 45, 0.0204456, 85.3946, -6.29696, 0.025, 0, 0.05, 25, 0.141869, 1, 0.495292, 0.149367, 0.15449, 0.0960564, 0.577609, 0.276178
51, 0.1, 0.025, 0.02, 0, 45, 0.0194844, 98.9987, -3.85274, 0.025, 0, 0.05, 25, 0.159011, 1, 0.618182, 0.140187, 0.165115, 0.383659, 0.5891, 0.320746
52, 0.1, 0.025, 0.02, 0, 45, 0.0183758, 105.739, 4.32118, 0.025, 0, 0.05, 25, 0.197802, 1, 0.620952, 0.14547, 0.154727, 0.5727, 0.589451, 0.311899
53, 0.1, 0.025, 0.02, 0, 45, 0.0199945, 93.5694, -6.22079, 0.025, 0, 0.05, 25, 0.154412, 1, 0.630108, 0.133162, 0.160837, 0.251643, 0.585603, 0.318937
54, 0.1, 0.025, 0.02, 0, 45, 0.0189154, 101.682, 0.807192, 0.025, 0, 0.05, 25, 0.184397, 1, 0.634921, 0.164062, 0.16266, 0.493555, 0.587877, 0.323014
55, 0.1, 0.025, 0.02, 0, 45, 0.0190461, 98.0424, 1.54576, 0.025, 0, 0.05, 25, 0.16263, 1, 0.626894, 0.150943, 0.160548, 0.471076, 0.583553, 0.31883
56, 0.1, 0.025, 0.02, 0, 45, 0.0193748, 98.7596, -2.50311, 0.025, 0, 0.05, 25, 0.170819, 1, 0.610442, 0.142489, 0.158596, 0.407441, 0.587615, 0.312546
57, 0.1, 0.025, 0.02, 0, 45, 0.0200218, 93.4499, -2.8581, 0.025, 0, 0.05, 25, 0.215054, 1, 0.626984, 0.150403, 0.163114, 0.24342, 0.585259, 0.320322
58, 0.1, 0.025, 0.02, 0, 45, 0.0198658, 95.4486, -1.13884, 0.025, 0, 0.05, 25, 0.176895, 1, 0.604418, 0.139613, 0.159702, 0.288704, 0.586834, 0.311554
59, 0.1, 0.025, 0.02, 0, 45, 0.0197373, 94.7918, -0.528133, 0.025, 0, 0.05, 25, 0.173611, 1, 0.608081, 0.145889, 0.159888, 0.323019, 0.58472, 0.312836
60, 0.1, 0.025, 0.02, 0, 45, 0.0197422, 94.1752, -2.20954, 0.025, 0, 0.05, 25, 0.153025, 1, 0.611814, 0.130041, 0.163778, 0.321732, 0.583912, 0.317533
61, 0.1, 0.025, 0.02, 0, 45, 0.0198741, 94.421, -3.94118, 0.025, 0, 0.05, 25, 0.188462, 1, 0.583864, 0.13488, 0.158376, 0.286392, 0.585541, 0.304986
62, 0.1, 0.025, 0.02, 0, 45, 0.0197715, 94.6991, -1.38139, 0.025, 0, 0.05, 25, 0.114815, 1, 0.606452, 0.130912, 0.161013, 0.314131, 0.584897, 0.313464
63, 0.1, 0.025, 0.02, 0, 45, 0.0198399, 94.5137, -3.08792, 0.025, 0, 0.05, 25, 0.165441, 1, 0.656315, 0.148387, 0.160406, 0.295823, 0.585308, 0.325264
64, 0.1, 0.025, 0.02, 0, 45, 0.0198741, 94.421, -3.94118, 0.025, 0, 0.05, 25, 0.176056, 1, 0.610766, 0.132838, 0.159409, 0.286392, 0.585541, 0.312869
65, 0.1, 0.025, 0.02, 0, 45, 0.0199342, 95.2632, -2.84537, 0.025, 0, 0.05, 25, 0.186312, 1, 0.6294, 0.14185, 0.162146, 0.269361, 0.58724, 0.320154
66, 0.1, 0.025, 0.02, 0, 45, 0.0197902, 94.4472, -2.36849, 0.025, 0, 0.05, 25, 0.197183, 1, 0.620952, 0.149829, 0.161444, 0.30918, 0.584732, 0.317547
67, 0.1, 0.025, 0.02, 0, 45, 0.0198862, 94.9912, -2.68641, 0.025, 0, 0.05, 25, 0.153584, 1, 0.64497, 0.148376, 0.16626, 0.283008, 0.586396, 0.328172
68, 0.1, 0.025, 0.02, 0, 45, 0.0199342, 95.2632, -2.84537, 0.025, 0, 0.05, 25, 0.164835, 1, 0.609649, 0.128596, 0.159771, 0.269361, 0.58724, 0.312846
69, 0.1, 0.025, 0.02, 0, 45, 0.0195643, 97.0161, -2.08234, 0.025, 0, 0.05, 25, 0.174377, 1, 0.602881, 0.144128, 0.159094, 0.365425, 0.586608, 0.310936
70, 0.1, 0.025, 0.02, 0, 45, 0.0199074, 94.3414, -2.66416, 0.025, 0, 0.05, 25, 0.14652, 1, 0.573593, 0.138365, 0.15819, 0.277025, 0.585599, 0.302093
71, 0.1, 0.025, 0.02, 0, 45, 0.0199094, 95.23, -2.48565, 0.025, 0, 0.05, 25, 0.164912, 1, 0.621377, 0.158348, 0.160075, 0.276469, 0.586946, 0.316149
72, 0.1, 0.025, 0.02, 0, 45, 0.0200028, 94.3898, -3.21144, 0.025, 0, 0.05, 25, 0.165493, 1, 0.600798, 0.145344, 0.163076, 0.249155, 0.586537, 0.313631
73, 0.1, 0.025, 0.02, 0, 45, 0.0198184, 95.7619, -2.60056, 0.025, 0, 0.05, 25, 0.184783, 1, 0.660784, 0.138324, 0.160616, 0.301647, 0.586969, 0.326607
74, 0.1, 0.025, 0.02, 0, 45, 0.0197398, 96.2656, -1.9703, 0.025, 0, 0.05, 25, 0.153584, 1, 0.610766, 0.133389, 0.159707, 0.322354, 0.587008, 0.313346
75, 0.1, 0.025, 0.02, 0, 45, 0.0199371, 94.8587, -2.90116, 0.025, 0, 0.05, 25, 0.149306, 1, 0.618449, 0.127404, 0.163107, 0.268529, 0.586653, 0.318307
76, 0.1, 0.025, 0.02, 0, 45, 0.0198518, 95.1779, -2.9731, 0.025, 0, 0.05, 25, 0.179487, 1, 0.623529, 0.146048, 0.157961, 0.29257, 0.5864, 0.3147
77, 0.1, 0.025, 0.02, 0, 45, 0.019895, 95.217, -2.60752, 0.025, 0, 0.05, 25, 0.139932, 1, 0.603774, 0.134746, 0.158801, 0.280546, 0.586809, 0.310475
78, 0.1, 0.025, 0.02, 0, 45, 0.0199201, 94.6059, -2.72933, 0.025, 0, 0.05, 25, 0.184783, 1, 0.603272, 0.142982, 0.162156, 0.273408, 0.58611, 0.313534
79, 0.1, 0.025, 0.02, 0, 45, 0.0198608, 95.0575, -2.57903, 0.025, 0, 0.05, 25, 0.15411, 1, 0.625247, 0.14494, 0.159741, 0.290087, 0.586267, 0.316868
80, 0.1, 0.025, 0.02, 0, 45, 0.0198746, 94.8718, -2.78679, 0.025, 0, 0.05, 25, 0.154676, 1, 0.63125, 0.139373, 0.161726, 0.286244, 0.586122, 0.320301
81, 0.1, 0.025, 0.02, 0, 45, 0.0198276, 95.3411, -2.63882, 0.025, 0, 0.05, 25, 0.181185, 1, 0.641176, 0.145548, 0.164573, 0.299155, 0.586412, 0.325657
