#step, length, width, depth, chfdepth, chfangle, cut depth, cut angle, tilt, tcp, jawdist, stroke, force, success, robustness, alignment, coverage, wrench, stress, volume, q
0, 0.170237, 0.0380502, 0.00230173, 0, 45, 0, 90, 0, 0.0573389, 0.0263881, 0.05, 25, 0.0021692, 1, 0, 9.17011e-05, 2.16752e-08, 0.238244, 0.850904, 0.00010833
1, 0.190237, 0.0380502, 0.00230173, 0, 45, 0, 90, 0, 0.0573389, 0.0263881, 0.05, 25, 0.00222222, 1, 0, 0.00010201, 7.57026e-09, 0.148221, 0.833388, 0.000119674
2, 0.170237, 0.0430502, 0.00230173, 0, 45, 0, 90, 0, 0.0573389, 0.0263881, 0.05, 25, 0, 1, 0, 0, 0, 0.404914, 0.831312, 0
3, 0.170237, 0.0380502, 0.00730173, 0, 45, 0, 90, 0, 0.0573389, 0.0263881, 0.05, 25, 0.00226757, 1, 0, 7.58208e-05, 1.0664e-08, 0.759871, 0.527026, 9.05066e-05
4, 0.170237, 0.0380502, 0.00230173, 0, 45, 0, 90, 0, 0.0773389, 0.0263881, 0.05, 25, 0.00244499, 1, 0, 5.0279e-05, 7.71572e-09, 0.238244, 0.850904, 6.01006e-05
5, 0.170237, 0.0380502, 0.00230173, 0, 45, 0, 90, 0, 0.0573389, 0.0313881, 0.05, 25, 0.00224215, 1, 0, 9.90393e-05, 1.29351e-08, 0.238244, 0.850904, 0.000116822
6, 0.178237, 0.0330502, 0.00430173, 0, 45, 0, 90, 0, 0.0653389, 0.0283881, 0.05, 25, 0, 1, 0, 0, 0, 0.434214, 0.746595, 0
7, 0.172237, 0.0405502, 0.00280173, 0, 45, 0, 90, 0, 0.0593389, 0.0268881, 0.05, 25, 0.00224719, 1, 0, 8.92698e-05, 3.14534e-10, 0.442462, 0.80432, 0.000106097
8, 0.179037, 0.0390502, 0.00450173, 0, 45, 0, 90, 0, 0.0381389, 0.0285881, 0.05, 25, 0, 1, 0, 0, 0, 0.610978, 0.685264, 0
9, 0.172437, 0.0383002, 0.00285173, 0, 45, 0, 90, 0, 0.0675389, 0.0269381, 0.05, 25, 0.0045977, 1, 0, 0.000139782, 8.72846e-10, 0.385271, 0.811661, 0.000164468
10, 0.172657, 0.0383252, 0.00490673, 0, 45, 0, 90, 0, 0.0585589, 0.0269931, 0.05, 25, 0, 1, 0, 0, 0, 0.642735, 0.675316, 0
11, 0.163537, 0.0384252, 0.00312673, 0, 45, 0, 90, 0, 0.0726389, 0.0272131, 0.05, 25, 0.002457, 1, 0, 5.37779e-05, 2.61058e-09, 0.471897, 0.803518, 6.45934e-05
12, 0.173537, 0.0384252, 0.00312673, 0, 45, 0, 90, 0, 0.0726389, 0.0247131, 0.05, 25, 0.00457666, 1, 0, 0.000116475, 0.000494749, 0.439405, 0.791503, 0.00013768
13, 0.173537, 0.0384252, 0.00312673, 0, 45, 0, 90, 0, 0.0726389, 0.0272131, 0.05, 25, 0.00477327, 1, 0, 0.000113986, 4.50883e-09, 0.439405, 0.791503, 0.000134794
14, 0.172537, 0.0371752, 0.00287673, 0, 45, 0, 90, 0, 0.0716389, 0.0269631, 0.05, 25, 0, 1, 0, 0, 0, 0.352796, 0.815483, 0
15, 0.173537, 0.0384252, 0.000626735, 0, 45, 0, 90, 0, 0.0726389, 0.0272131, 0.05, 25, 0.00238663, 1, 0, 6.04339e-05, 1.91061e-09, 0, 0.958208, 0
16, 0.168697, 0.0378752, 0.00541673, 0, 45, 0, 90, 0, 0.0701989, 0.0260031, 0.05, 25, 0.00242131, 1, 0, 5.55803e-05, 3.89716e-09, 0.676281, 0.653901, 6.68158e-05
17, 0.168161, 0.0394052, 0.00418273, 0, 45, 0, 90, 0, 0.0706229, 0.0258691, 0.05, 25, 0.00240385, 1, 0, 5.80282e-05, 1.10279e-09, 0.613938, 0.722835, 6.97021e-05
18, 0.17901, 0.0385472, 0.00435513, 0, 45, 0, 90, 0, 0.0688165, 0.0250815, 0.05, 25, 0.00465116, 1, 0, 0.000125929, 4.29248e-09, 0.587382, 0.69948, 0.000148869
19, 0.177976, 0.039366, 0.00164049, 0, 45, 0, 90, 0, 0.0707035, 0.0259228, 0.05, 25, 0.00470588, 1, 0, 0.000134084, 2.71424e-09, 0, 0.885064, 0
20, 0.171017, 0.0382479, 0.00447267, 0, 45, 0, 90, 0, 0.070325, 0.025983, 0.05, 25, 0.00230415, 1, 0, 5.57911e-05, 2.03901e-09, 0.610238, 0.707441, 6.70485e-05
21, 0.175656, 0.0389933, 0.00258455, 0, 45, 0, 90, 0, 0.0705773, 0.0259429, 0.05, 25, 0.00717703, 1, 0, 0.000201464, 8.49651e-09, 0.333334, 0.822973, 0.000235048
22, 0.177976, 0.039366, 0.00164049, 0, 45, 0, 90, 0, 0.0707035, 0.0259228, 0.05, 25, 0.00468384, 1, 0, 0.000126302, 0.00304185, 0, 0.885064, 0
23, 0.18151, 0.0376713, 0.00223522, 0, 45, 0, 90, 0, 0.0702613, 0.0260864, 0.05, 25, 0, 1, 0, 0, 0, 0.146407, 0.847162, 0
24, 0.171498, 0.0389717, 0.00369586, 0, 45, 0, 90, 0, 0.0705325, 0.0259234, 0.05, 25, 0.00470588, 1, 0, 0.000117028, 1.73115e-07, 0.544387, 0.752984, 0.000138543
25, 0.175318, 0.0388699, 0.00351887, 0, 45, 0, 90, 0, 0.0674027, 0.0242265, 0.05, 25, 0.00925926, 1, 0, 0.000246214, 0.000768002, 0.508181, 0.760203, 0.000287093
26, 0.176209, 0.0390922, 0.00371494, 0, 45, 0, 90, 0, 0.0647847, 0.0227332, 0.05, 25, 0.0547945, 1, 0.0833333, 0.00179305, 0.00762346, 0.537069, 0.7441, 0.00201159
27, 0.176387, 0.0391367, 0.00375415, 0, 45, 0, 90, 0, 0.0642611, 0.0259345, 0.05, 25, 0.00692841, 1, 0, 0.000221402, 7.22063e-09, 0.54248, 0.740843, 0.0002588
28, 0.180382, 0.0386561, 0.00320835, 0, 45, 0, 90, 0, 0.0638589, 0.0247287, 0.05, 25, 0, 1, 0, 0, 0, 0.438756, 0.776286, 0
29, 0.173719, 0.0388928, 0.00357398, 0, 45, 0, 90, 0, 0.0688641, 0.0256247, 0.05, 25, 0.00941176, 1, 0, 0.000248555, 6.32836e-09, 0.520774, 0.758527, 0.000289832
30, 0.170753, 0.0392189, 0.00223661, 0, 45, 0, 90, 0, 0.0655939, 0.0257879, 0.05, 25, 0.00228311, 1, 0, 7.29607e-05, 2.03469e-09, 0.259835, 0.85022, 8.66515e-05
31, 0.176946, 0.0387151, 0.0038255, 0, 45, 0, 90, 0, 0.0680108, 0.0252581, 0.05, 25, 0.00456621, 1, 0, 0.000128164, 4.01941e-09, 0.539722, 0.737934, 0.000151414
32, 0.172817, 0.039051, 0.00276624, 0, 45, 0, 90, 0, 0.0663996, 0.0256113, 0.05, 25, 0, 1, 0, 0, 0, 0.389051, 0.813315, 0
33, 0.175914, 0.0387991, 0.00356069, 0, 45, 0, 90, 0, 0.067608, 0.0253464, 0.05, 25, 0.00704225, 1, 0, 0.000208333, 2.00681e-09, 0.510516, 0.756972, 0.00024372
34, 0.178718, 0.0396654, 0.00402359, 0, 45, 0, 90, 0, 0.0668992, 0.0232946, 0.05, 25, 0.047836, 1, 0.126984, 0.00144758, 0.00910073, 0.578902, 0.714771, 0.00163139
35, 0.176723, 0.0392412, 0.00486639, 0, 45, 0, 90, 0, 0.0623895, 0.0232305, 0.05, 25, 0.0522727, 1, 0.144928, 0.0015761, 0.0156038, 0.648254, 0.662525, 0.00177392
36, 0.176789, 0.0396122, 0.00441253, 0, 45, 0, 90, 0, 0.0632714, 0.0229806, 0.05, 25, 0.0689655, 1, 0.111111, 0.00216403, 0.0072192, 0.619166, 0.690991, 0.00242047
37, 0.177226, 0.0400188, 0.00483845, 0, 45, 0, 90, 0, 0.0611031, 0.0217978, 0.05, 25, 0.0542453, 1, 0.101449, 0.00170043, 0.00794283, 0.658865, 0.656839, 0.00191115
38, 0.176475, 0.0394649, 0.00448242, 0, 45, 0, 90, 0, 0.0662225, 0.0212109, 0.05, 25, 0.067757, 1, 0.149425, 0.00203323, 0.0164952, 0.622972, 0.687818, 0.00227698
39, 0.180246, 0.0399375, 0.00502597, 0, 45, 0, 90, 0, 0.0605628, 0.0197552, 0.05, 25, 0.0677201, 1, 0.144444, 0.00224366, 0.00705584, 0.664602, 0.638201, 0.00250754
40, 0.18351, 0.0404598, 0.00575196, 0, 45, 0, 90, 0, 0.0564122, 0.0168205, 0.05, 25, 0.0550661, 1, 0.146667, 0.00217865, 0.0146054, 0.709254, 0.572929, 0.00243526
41, 0.175859, 0.0392738, 0.00497731, 0, 45, 0, 90, 0, 0.0599931, 0.0206696, 0.05, 25, 0.049763, 1, 0.126984, 0.00165667, 0.0162464, 0.65835, 0.656234, 0.0018629
42, 0.177509, 0.0397111, 0.00417888, 0, 45, 0, 90, 0, 0.0635443, 0.0197093, 0.05, 25, 0.062645, 1, 0.0740741, 0.00188653, 0.0184723, 0.598232, 0.705428, 0.00211548
43, 0.179032, 0.0398534, 0.00374859, 0, 45, 0, 90, 0, 0.0673611, 0.0218862, 0.05, 25, 0.047619, 1, 0.0634921, 0.00137255, 0.0210716, 0.551471, 0.732537, 0.00154809
44, 0.176653, 0.0394187, 0.00467013, 0, 45, 0, 90, 0, 0.0618351, 0.0209737, 0.05, 25, 0.0444965, 1, 0.0701754, 0.00141432, 0.0189254, 0.636911, 0.6748, 0.00159523
45, 0.181975, 0.0401001, 0.00533269, 0, 45, 0, 90, 0, 0.0592085, 0.0181425, 0.05, 25, 0.0578704, 1, 0.106667, 0.00206851, 0.0108332, 0.683428, 0.610861, 0.00231511
46, 0.182132, 0.0401738, 0.00529774, 0, 45, 0, 90, 0, 0.057733, 0.0190274, 0.05, 25, 0.0725624, 1, 0.177083, 0.00262942, 0.00895, 0.682233, 0.612368, 0.0029291
47, 0.181615, 0.0400507, 0.00544951, 0, 45, 0, 90, 0, 0.0590721, 0.0197782, 0.05, 25, 0.0857788, 1, 0.0964912, 0.00302958, 0.0113783, 0.690067, 0.603612, 0.00336541
48, 0.182265, 0.0403602, 0.00568148, 0, 45, 0, 90, 0, 0.0584519, 0.0182662, 0.05, 25, 0.0751174, 1, 0.131313, 0.00260664, 0.0100326, 0.706209, 0.582056, 0.00290376
49, 0.18244, 0.0402694, 0.0050503, 0, 45, 0, 90, 0, 0.0608476, 0.0192981, 0.05, 25, 0.0481651, 1, 0.126984, 0.00172315, 0.00875008, 0.66768, 0.628968, 0.00193561
50, 0.180854, 0.0399796, 0.00566466, 0, 45, 0, 90, 0, 0.0571636, 0.0186898, 0.05, 25, 0.05, 1, 0.0909091, 0.00175299, 0.00499124, 0.702038, 0.59042, 0.00196822
51, 0.182043, 0.0401969, 0.00520389, 0, 45, 0, 90, 0, 0.0599266, 0.019146, 0.05, 25, 0.0698198, 1, 0.129032, 0.00245408, 0.0132645, 0.677032, 0.619201, 0.00273758
52, 0.181345, 0.0401875, 0.00533075, 0, 45, 0, 90, 0, 0.05909, 0.0202467, 0.05, 25, 0.0698198, 1, 0.129032, 0.00260658, 0.0111283, 0.685786, 0.611505, 0.00290426
53, 0.183514, 0.0404501, 0.00575938, 0, 45, 0, 90, 0, 0.0571466, 0.0188306, 0.05, 25, 0.0576037, 1, 0.0769231, 0.00218708, 0.00929892, 0.709483, 0.572472, 0.00244449
54, 0.181063, 0.0400657, 0.00520932, 0, 45, 0, 90, 0, 0.0597088, 0.0195241, 0.05, 25, 0.0564706, 1, 0.0833333, 0.00190506, 0.0118777, 0.677009, 0.622094, 0.00213581
55, 0.181357, 0.0399892, 0.0055254, 0, 45, 0, 90, 0, 0.0597416, 0.0201536, 0.05, 25, 0.0395349, 1, 0.0392157, 0.00125656, 0.0109577, 0.693821, 0.599281, 0.00142012
56, 0.18175, 0.0399823, 0.00550889, 0, 45, 0, 90, 0, 0.0590631, 0.0195439, 0.05, 25, 0.0630631, 1, 0.119048, 0.00232307, 0.0119278, 0.692129, 0.59968, 0.00259397
57, 0.18129, 0.039896, 0.00533353, 0, 45, 0, 90, 0, 0.0593821, 0.0205341, 0.05, 25, 0.0504587, 1, 0.121212, 0.00172252, 0.0138383, 0.681441, 0.614239, 0.00193486
58, 0.181401, 0.0399776, 0.00557232, 0, 45, 0, 90, 0, 0.0586448, 0.0200943, 0.05, 25, 0.0711009, 1, 0.11828, 0.00229766, 0.0144561, 0.696149, 0.595896, 0.00256613
59, 0.1823, 0.0401073, 0.00566128, 0, 45, 0, 90, 0, 0.0583267, 0.0197896, 0.05, 25, 0.0694444, 1, 0.0888889, 0.00254864, 0.0100445, 0.701375, 0.586072, 0.0028404
60, 0.181986, 0.0400164, 0.00548482, 0, 45, 0, 90, 0, 0.0580539, 0.0197425, 0.05, 25, 0.0839161, 1, 0.12037, 0.0029407, 0.010695, 0.690902, 0.600573, 0.00326846
61, 0.18233, 0.0401578, 0.00573721, 0, 45, 0, 90, 0, 0.057882, 0.0190453, 0.05, 25, 0.0671296, 1, 0.137931, 0.00241687, 0.0108133, 0.706017, 0.579923, 0.00269625
62, 0.182591, 0.0401482, 0.00556436, 0, 45, 0, 90, 0, 0.0583143, 0.0190655, 0.05, 25, 0.0690423, 1, 0.0860215, 0.00260285, 0.00959921, 0.696305, 0.592093, 0.00289971
63, 0.182579, 0.0402099, 0.00564998, 0, 45, 0, 90, 0, 0.0575965, 0.0194245, 0.05, 25, 0.0625, 1, 0.126437, 0.00241606, 0.0153636, 0.701844, 0.585209, 0.00269545
64, 0.181957, 0.0400392, 0.00554416, 0, 45, 0, 90, 0, 0.0586964, 0.0195141, 0.05, 25, 0.044186, 1, 0.140351, 0.00159009, 0.0129743, 0.694606, 0.596084, 0.00178872
65, 0.18143, 0.0400679, 0.00543186, 0, 45, 0, 90, 0, 0.0595811, 0.019796, 0.05, 25, 0.0669746, 1, 0.137931, 0.00234022, 0.0117861, 0.689645, 0.60513, 0.00261288
66, 0.181127, 0.040002, 0.00539209, 0, 45, 0, 90, 0, 0.0594509, 0.0201345, 0.05, 25, 0.0482456, 1, 0.106061, 0.00177348, 0.0117112, 0.686851, 0.609319, 0.00199096
67, 0.181273, 0.0400224, 0.00534363, 0, 45, 0, 90, 0, 0.0594447, 0.0197724, 0.05, 25, 0.0504587, 1, 0.121212, 0.00163496, 0.013802, 0.684078, 0.612321, 0.00183839
68, 0.181258, 0.0399972, 0.00530567, 0, 45, 0, 90, 0, 0.0596671, 0.0201446, 0.05, 25, 0.0529954, 1, 0.130435, 0.00188834, 0.0116523, 0.681444, 0.61535, 0.00211734
69, 0.181548, 0.0400849, 0.00541982, 0, 45, 0, 90, 0, 0.0590765, 0.0198953, 0.05, 25, 0.0523918, 1, 0.130435, 0.00183941, 0.0162445, 0.689017, 0.605582, 0.00206344
70, 0.181518, 0.0400587, 0.00545595, 0, 45, 0, 90, 0, 0.0592943, 0.020127, 0.05, 25, 0.0679157, 1, 0.126437, 0.00234875, 0.012215, 0.690722, 0.603278, 0.00262217
71, 0.18182, 0.0401018, 0.00543304, 0, 45, 0, 90, 0, 0.0592255, 0.019762, 0.05, 25, 0.0498866, 1, 0.0757576, 0.00171007, 0.0085268, 0.689566, 0.60386, 0.00192104
72, 0.1813, 0.0400269, 0.00540232, 0, 45, 0, 90, 0, 0.0593946, 0.0200414, 0.05, 25, 0.0645161, 1, 0.107143, 0.00235849, 0.0106411, 0.687534, 0.607959, 0.00263292
73, 0.181301, 0.0399956, 0.0053983, 0, 45, 0, 90, 0, 0.0597271, 0.0200596, 0.05, 25, 0.0660592, 1, 0.137931, 0.00227024, 0.0158491, 0.686811, 0.608556, 0.00253629
74, 0.181608, 0.0400827, 0.00554951, 0, 45, 0, 90, 0, 0.0591606, 0.0197762, 0.05, 25, 0.0361991, 1, 0.0625, 0.00133802, 0.0158769, 0.69615, 0.596031, 0.00151029
75, 0.181345, 0.0400186, 0.00536663, 0, 45, 0, 90, 0, 0.0595405, 0.0200525, 0.05, 25, 0.0474041, 1, 0.126984, 0.00161327, 0.0111709, 0.685246, 0.610534, 0.00181447
76, 0.181773, 0.0400626, 0.00547311, 0, 45, 0, 90, 0, 0.0589108, 0.0196466, 0.05, 25, 0.0662252, 1, 0.177778, 0.00234723, 0.0121568, 0.691318, 0.601433, 0.00262046
77, 0.181664, 0.0400468, 0.00544629, 0, 45, 0, 90, 0, 0.0589609, 0.0196038, 0.05, 25, 0.0831409, 1, 0.12037, 0.00284585, 0.00917068, 0.689739, 0.60378, 0.00316519
78, 0.181708, 0.0400422, 0.00545834, 0, 45, 0, 90, 0, 0.0588175, 0.0197693, 0.05, 25, 0.0516854, 1, 0.173913, 0.00182222, 0.0122026, 0.690277, 0.602853, 0.00204447
79, 0.181772, 0.0400783, 0.00547512, 0, 45, 0, 90, 0, 0.0587445, 0.0196375, 0.05, 25, 0.0512821, 1, 0.0454545, 0.00177048, 0.00860369, 0.691673, 0.601131, 0.00198753
80, 0.181794, 0.0400775, 0.00552144, 0, 45, 0, 90, 0, 0.0587745, 0.0195949, 0.05, 25, 0.0535714, 1, 0.12, 0.0021535, 0.00797946, 0.694211, 0.597717, 0.00240819
81, 0.181649, 0.0400336, 0.00546436, 0, 45, 0, 90, 0, 0.0590698, 0.0197196, 0.05, 25, 0.0445434, 1, 0.05, 0.00168209, 0.0113898, 0.690588, 0.602628, 0.00189021
82, 0.181742, 0.0400671, 0.00547243, 0, 45, 0, 90, 0, 0.0588258, 0.019658, 0.05, 25, 0.0531178, 1, 0.0869565, 0.00180661, 0.0119484, 0.691402, 0.601506, 0.00202729
83, 0.18168, 0.0400448, 0.00546705, 0, 45, 0, 90, 0, 0.0589885, 0.0196991, 0.05, 25, 0.06, 1, 0.111111, 0.00212264, 0.00600146, 0.690859, 0.602254, 0.00237442
84, 0.181702, 0.0400708, 0.00548462, 0, 45, 0, 90, 0, 0.0590652, 0.0195598, 0.05, 25, 0.0599078, 1, 0.0740741, 0.00211715, 0.0132495, 0.692211, 0.600667, 0.00236838
85, 0.181706, 0.0400493, 0.00546491, 0, 45, 0, 90, 0, 0.0588794, 0.0197169, 0.05, 25, 0.0410023, 1, 0.111111, 0.00147759, 0.020629, 0.690763, 0.602307, 0.00166463
86, 0.181591, 0.0400527, 0.00545112, 0, 45, 0, 90, 0, 0.0591276, 0.0198654, 0.05, 25, 0.0746606, 1, 0.131313, 0.00259312, 0.014211, 0.690231, 0.603529, 0.00288937
87, 0.181536, 0.0400448, 0.00543772, 0, 45, 0, 90, 0, 0.0591527, 0.019844, 0.05, 25, 0.0647321, 1, 0.114943, 0.00233476, 0.0114844, 0.689438, 0.604701, 0.00260687
88, 0.181526, 0.0400373, 0.00541355, 0, 45, 0, 90, 0, 0.0592208, 0.0198698, 0.05, 25, 0.0428894, 1, 0.0526316, 0.00155572, 0.00978884, 0.687955, 0.606553, 0.00175094
89, 0.181583, 0.0400537, 0.00544074, 0, 45, 0, 90, 0, 0.0591138, 0.0198177, 0.05, 25, 0.0601852, 1, 0.115385, 0.00196568, 0.00912533, 0.68967, 0.604291, 0.00220218
90, 0.181569, 0.040055, 0.0054451, 0, 45, 0, 90, 0, 0.0591993, 0.0197826, 0.05, 25, 0.0545455, 1, 0.0972222, 0.00180424, 0.0213799, 0.689962, 0.603992, 0.00202472
91, 0.181632, 0.0400654, 0.00547613, 0, 45, 0, 90, 0, 0.0590454, 0.0197654, 0.05, 25, 0.0637813, 1, 0.142857, 0.00221589, 0.0125317, 0.691771, 0.601494, 0.00247664
