doltflat1_59.grp.xml 0.0001193801534213554
doltflat1_45.grp.xml 0.0001195261960933324
doltflat1_450.grp.xml 0.0001330440737997806
doltflat1_342.grp.xml 0.0001614214343147427
doltflat1_354.grp.xml 0.0001788985066900784
doltflat1_166.grp.xml 0.0001851941536671251
doltflat1_190.grp.xml 0.000232144955786447
doltflat1_376.grp.xml 0.0002682343022131049
doltflat1_464.grp.xml 0.000295279473710656
doltflat1_126.grp.xml 0.000458947509886635
doltflat1_26.grp.xml 0.0006161966030306542
doltflat1_132.grp.xml 0.0007382147830977847
doltflat1_218.grp.xml 0.0008845552812805394
doltflat1_369.grp.xml 0.001054854686272108
doltflat1_329.grp.xml 0.001217110679635805
doltflat1_451.grp.xml 0.001400716380471248
doltflat1_253.grp.xml 0.001552721122261233
doltflat1_315.grp.xml 0.001578046959800862
doltflat1_184.grp.xml 0.001590334718069922
doltflat1_187.grp.xml 0.001619310862454385
doltflat1_171.grp.xml 0.001624464556285922
doltflat1_207.grp.xml 0.00165638540936391
doltflat1_103.grp.xml 0.002477147110044917
doltflat1_512.grp.xml 0.002572020210304776
doltflat1_19.grp.xml 0.002762249904433351
doltflat1_68.grp.xml 0.003320974594973263
doltflat1_435.grp.xml 0.003351017034868539
doltflat1_510.grp.xml 0.003586033152430403
doltflat1_104.grp.xml 0.004389584636726568
doltflat1_449.grp.xml 0.00486911769415458
doltflat1_267.grp.xml 0.005345976407718391
doltflat1_345.grp.xml 0.00543307890423897
doltflat1_47.grp.xml 0.006094854861877156
doltflat1_192.grp.xml 0.006423770977768426
doltflat1_335.grp.xml 0.006495290316293798
doltflat1_178.grp.xml 0.007074481185106137
doltflat1_346.grp.xml 0.00740829562965789
doltflat1_323.grp.xml 0.008200593198938842
doltflat1_365.grp.xml 0.008320403850838001
doltflat1_310.grp.xml 0.008854716711577892
doltflat1_516.grp.xml 0.008883204351505702
doltflat1_157.grp.xml 0.009510498718549467
doltflat1_498.grp.xml 0.0108181734762403
doltflat1_119.grp.xml 0.01115244650250794
doltflat1_225.grp.xml 0.01148033691321486
doltflat1_196.grp.xml 0.01260975070501467
doltflat1_502.grp.xml 0.01354363576315073
doltflat1_159.grp.xml 0.01470745512044686
doltflat1_121.grp.xml 0.01571819801470442
doltflat1_238.grp.xml 0.01580423815001534
doltflat1_15.grp.xml 0.02000888848625041
doltflat1_168.grp.xml 0.02242760943006724
doltflat1_325.grp.xml 0.02260254869494062
doltflat1_260.grp.xml 0.02474206408460235
doltflat1_20.grp.xml 0.0260561670670246
doltflat1_393.grp.xml 0.02740353147432554
doltflat1_28.grp.xml 0.02771664068167348
doltflat1_430.grp.xml 0.02972602811553634
doltflat1_13.grp.xml 0.03001333833776661
doltflat1_158.grp.xml 0.03028469570155493
doltflat1_191.grp.xml 0.03175943595739188
doltflat1_138.grp.xml 0.03524881200878094
doltflat1_150.grp.xml 0.03582491876574736
doltflat1_114.grp.xml 0.03601299986955378
doltflat1_372.grp.xml 0.03633437146450978
doltflat1_73.grp.xml 0.04080595249007489
doltflat1_271.grp.xml 0.04093163453304035
doltflat1_330.grp.xml 0.04146491240207411
doltflat1_128.grp.xml 0.04228539542206888
doltflat1_203.grp.xml 0.04445044426785204
doltflat1_177.grp.xml 0.04465417817406253
doltflat1_488.grp.xml 0.04495815804858068
doltflat1_412.grp.xml 0.0450877567903665
doltflat1_82.grp.xml 0.04590105201918652
doltflat1_358.grp.xml 0.04746122927486754
doltflat1_152.grp.xml 0.04874415970882023
doltflat1_314.grp.xml 0.05055108795458616
doltflat1_99.grp.xml 0.05261540251341311
doltflat1_513.grp.xml 0.05369444479445333
doltflat1_318.grp.xml 0.06559294494775048
doltflat1_240.grp.xml 0.06945716156783459
doltflat1_107.grp.xml 0.06979810786937547
doltflat1_386.grp.xml 0.08116314789422552
doltflat1_75.grp.xml 0.08473391248219349
doltflat1_181.grp.xml 0.08636464176052099
doltflat1_173.grp.xml 0.08931160298035953
doltflat1_466.grp.xml 0.09171056256791897
doltflat1_507.grp.xml 0.095607146926537
doltflat1_476.grp.xml 0.1013455212583607
doltflat1_377.grp.xml 0.1055536367330534
doltflat1_402.grp.xml 0.1093066608721494
doltflat1_352.grp.xml 0.1100051923267639
doltflat1_350.grp.xml 0.1116300223718842
doltflat1_236.grp.xml 0.113376557582305
doltflat1_275.grp.xml 0.1194746415303606
doltflat1_453.grp.xml 0.1234836841308931
doltflat1_367.grp.xml 0.1312425809139718
doltflat1_511.grp.xml 3.163092820737521e-05
doltflat1_390.grp.xml 7.813670306561554e-05
doltflat1_202.grp.xml 9.783120758213635e-05
