solid OpenSCAD_Model
  facet normal -1 0 0
    outer loop
      vertex 0 -1.25694 0
      vertex 0 1.25694 2.48241
      vertex 0 1.25694 0
    endloop
  endfacet
  facet normal -1 -0 0
    outer loop
      vertex 0 1.25694 2.48241
      vertex 0 -1.25694 0
      vertex 0 -1.25694 2.48241
    endloop
  endfacet
  facet normal -0 0 1
    outer loop
      vertex 0 1.25694 2.48241
      vertex 7.01608 -1.25694 2.48241
      vertex 7.01608 1.25694 2.48241
    endloop
  endfacet
  facet normal 0 0 1
    outer loop
      vertex 7.01608 -1.25694 2.48241
      vertex 0 1.25694 2.48241
      vertex 0 -1.25694 2.48241
    endloop
  endfacet
  facet normal 1 -0 0
    outer loop
      vertex 11.5381 -1.25694 0.238776
      vertex 11.5381 0.591634 0.228182
      vertex 11.5381 0.606323 0.238776
    endloop
  endfacet
  facet normal 1 0 0
    outer loop
      vertex 11.5381 -1.25694 0.238776
      vertex 11.5381 0.568747 0.211651
      vertex 11.5381 0.591634 0.228182
    endloop
  endfacet
  facet normal 1 0 0
    outer loop
      vertex 11.5381 -1.25694 0.238776
      vertex 11.5381 0.550264 0.197103
      vertex 11.5381 0.568747 0.211651
    endloop
  endfacet
  facet normal 1 0 0
    outer loop
      vertex 11.5381 -1.25694 0.238776
      vertex 11.5381 0.523337 0.17588
      vertex 11.5381 0.550264 0.197103
    endloop
  endfacet
  facet normal 1 0 0
    outer loop
      vertex 11.5381 -1.25694 0.238776
      vertex 11.5381 0.492021 0.149259
      vertex 11.5381 0.523337 0.17588
    endloop
  endfacet
  facet normal 1 0 0
    outer loop
      vertex 11.5381 -1.25694 0.238776
      vertex 11.5381 0.47281 0.132921
      vertex 11.5381 0.492021 0.149259
    endloop
  endfacet
  facet normal 1 0 0
    outer loop
      vertex 11.5381 -1.25694 0.238776
      vertex 11.5381 0.454621 0.116381
      vertex 11.5381 0.47281 0.132921
    endloop
  endfacet
  facet normal 1 0 0
    outer loop
      vertex 11.5381 -1.25694 0.238776
      vertex 11.5381 0.415982 0.0812095
      vertex 11.5381 0.454621 0.116381
    endloop
  endfacet
  facet normal 1 0 0
    outer loop
      vertex 11.5381 -1.25694 0.238776
      vertex 11.5381 0.369087 0.0359924
      vertex 11.5381 0.415982 0.0812095
    endloop
  endfacet
  facet normal 1 0 0
    outer loop
      vertex 11.5381 -1.25694 0.238776
      vertex 11.5381 0.351119 0.0186536
      vertex 11.5381 0.369087 0.0359924
    endloop
  endfacet
  facet normal 1 0 0
    outer loop
      vertex 11.5381 -1.25694 0.238776
      vertex 11.5381 0.332762 0
      vertex 11.5381 0.351119 0.0186536
    endloop
  endfacet
  facet normal 1 0 0
    outer loop
      vertex 11.5381 0.332762 0
      vertex 11.5381 -1.25694 0.238776
      vertex 11.5381 -1.25694 0
    endloop
  endfacet
  facet normal 1 0 0
    outer loop
      vertex 11.5381 1.25694 0.238776
      vertex 11.5381 1.24322 0.197103
      vertex 11.5381 1.25694 0.186284
    endloop
  endfacet
  facet normal 1 0 0
    outer loop
      vertex 11.5381 1.25694 0.238776
      vertex 11.5381 1.22473 0.211651
      vertex 11.5381 1.24322 0.197103
    endloop
  endfacet
  facet normal 1 0 0
    outer loop
      vertex 11.5381 1.25694 0.238776
      vertex 11.5381 1.20185 0.228182
      vertex 11.5381 1.22473 0.211651
    endloop
  endfacet
  facet normal 1 0 -0
    outer loop
      vertex 11.5381 1.20185 0.228182
      vertex 11.5381 1.25694 0.238776
      vertex 11.5381 1.18716 0.238776
    endloop
  endfacet
  facet normal 0 1 -0
    outer loop
      vertex 11.0658 1.25694 0.465095
      vertex 7.01608 1.25694 2.48241
      vertex 11.0808 1.25694 0.465695
    endloop
  endfacet
  facet normal 0 1 -0
    outer loop
      vertex 11.064 1.25694 0.465022
      vertex 7.01608 1.25694 2.48241
      vertex 11.0658 1.25694 0.465095
    endloop
  endfacet
  facet normal 0 1 -0
    outer loop
      vertex 11.0622 1.25694 0.464799
      vertex 7.01608 1.25694 2.48241
      vertex 11.064 1.25694 0.465022
    endloop
  endfacet
  facet normal 0 1 -0
    outer loop
      vertex 11.0412 1.25694 0.462153
      vertex 7.01608 1.25694 2.48241
      vertex 11.0622 1.25694 0.464799
    endloop
  endfacet
  facet normal 0 1 -0
    outer loop
      vertex 11.0391 1.25694 0.461742
      vertex 7.01608 1.25694 2.48241
      vertex 11.0412 1.25694 0.462153
    endloop
  endfacet
  facet normal 0 1 -0
    outer loop
      vertex 11.0179 1.25694 0.457504
      vertex 7.01608 1.25694 2.48241
      vertex 11.0391 1.25694 0.461742
    endloop
  endfacet
  facet normal 0 1 -0
    outer loop
      vertex 10.997 1.25694 0.451632
      vertex 7.01608 1.25694 2.48241
      vertex 11.0179 1.25694 0.457504
    endloop
  endfacet
  facet normal 0 1 -0
    outer loop
      vertex 10.9942 1.25694 0.450833
      vertex 7.01608 1.25694 2.48241
      vertex 10.997 1.25694 0.451632
    endloop
  endfacet
  facet normal 0 1 -0
    outer loop
      vertex 10.9731 1.25694 0.443365
      vertex 7.01608 1.25694 2.48241
      vertex 10.9942 1.25694 0.450833
    endloop
  endfacet
  facet normal 0 1 -0
    outer loop
      vertex 10.9696 1.25694 0.442106
      vertex 7.01608 1.25694 2.48241
      vertex 10.9731 1.25694 0.443365
    endloop
  endfacet
  facet normal 0 1 -0
    outer loop
      vertex 10.9485 1.25694 0.432886
      vertex 7.01608 1.25694 2.48241
      vertex 10.9696 1.25694 0.442106
    endloop
  endfacet
  facet normal 0 1 -0
    outer loop
      vertex 10.9441 1.25694 0.430971
      vertex 7.01608 1.25694 2.48241
      vertex 10.9485 1.25694 0.432886
    endloop
  endfacet
  facet normal 0 1 -0
    outer loop
      vertex 10.9394 1.25694 0.428572
      vertex 7.01608 1.25694 2.48241
      vertex 10.9441 1.25694 0.430971
    endloop
  endfacet
  facet normal 0 1 -0
    outer loop
      vertex 10.9172 1.25694 0.41715
      vertex 7.01608 1.25694 2.48241
      vertex 10.9394 1.25694 0.428572
    endloop
  endfacet
  facet normal 0 1 -0
    outer loop
      vertex 10.8956 1.25694 0.404545
      vertex 7.01608 1.25694 2.48241
      vertex 10.9172 1.25694 0.41715
    endloop
  endfacet
  facet normal 0 1 -0
    outer loop
      vertex 10.8887 1.25694 0.400485
      vertex 7.01608 1.25694 2.48241
      vertex 10.8956 1.25694 0.404545
    endloop
  endfacet
  facet normal 0 1 -0
    outer loop
      vertex 10.8668 1.25694 0.386234
      vertex 7.01608 1.25694 2.48241
      vertex 10.8887 1.25694 0.400485
    endloop
  endfacet
  facet normal 0 1 -0
    outer loop
      vertex 10.8581 1.25694 0.380522
      vertex 7.01608 1.25694 2.48241
      vertex 10.8668 1.25694 0.386234
    endloop
  endfacet
  facet normal 0 1 -0
    outer loop
      vertex 10.8483 1.25694 0.373433
      vertex 7.01608 1.25694 2.48241
      vertex 10.8581 1.25694 0.380522
    endloop
  endfacet
  facet normal 0 1 -0
    outer loop
      vertex 10.825 1.25694 0.35662
      vertex 7.01608 1.25694 2.48241
      vertex 10.8483 1.25694 0.373433
    endloop
  endfacet
  facet normal 0 1 -0
    outer loop
      vertex 10.8026 1.25694 0.338941
      vertex 7.01608 1.25694 2.48241
      vertex 10.825 1.25694 0.35662
    endloop
  endfacet
  facet normal 0 1 -0
    outer loop
      vertex 10.7887 1.25694 0.327975
      vertex 7.01608 1.25694 2.48241
      vertex 10.8026 1.25694 0.338941
    endloop
  endfacet
  facet normal 0 1 -0
    outer loop
      vertex 10.7661 1.25694 0.308791
      vertex 7.01608 1.25694 2.48241
      vertex 10.7887 1.25694 0.327975
    endloop
  endfacet
  facet normal 0 1 -0
    outer loop
      vertex 10.7485 1.25694 0.293804
      vertex 7.01608 1.25694 2.48241
      vertex 10.7661 1.25694 0.308791
    endloop
  endfacet
  facet normal 0 1 -0
    outer loop
      vertex 10.7276 1.25694 0.274793
      vertex 7.01608 1.25694 2.48241
      vertex 10.7485 1.25694 0.293804
    endloop
  endfacet
  facet normal 0 1 -0
    outer loop
      vertex 10.7031 1.25694 0.252582
      vertex 7.01608 1.25694 2.48241
      vertex 10.7276 1.25694 0.274793
    endloop
  endfacet
  facet normal 0 1 -0
    outer loop
      vertex 10.6801 1.25694 0.230346
      vertex 7.01608 1.25694 2.48241
      vertex 10.7031 1.25694 0.252582
    endloop
  endfacet
  facet normal 0 1 -0
    outer loop
      vertex 10.6512 1.25694 0.202497
      vertex 7.01608 1.25694 2.48241
      vertex 10.6801 1.25694 0.230346
    endloop
  endfacet
  facet normal 0 1 -0
    outer loop
      vertex 10.6152 1.25694 0.165907
      vertex 7.01608 1.25694 2.48241
      vertex 10.6512 1.25694 0.202497
    endloop
  endfacet
  facet normal 0 1 -0
    outer loop
      vertex 10.5909 1.25694 0.141206
      vertex 7.01608 1.25694 2.48241
      vertex 10.6152 1.25694 0.165907
    endloop
  endfacet
  facet normal 0 1 -0
    outer loop
      vertex 10.5683 1.25694 0.117175
      vertex 7.01608 1.25694 2.48241
      vertex 10.5909 1.25694 0.141206
    endloop
  endfacet
  facet normal 0 1 -0
    outer loop
      vertex 10.5191 1.25694 0.0648527
      vertex 7.01608 1.25694 2.48241
      vertex 10.5683 1.25694 0.117175
    endloop
  endfacet
  facet normal 0 1 -0
    outer loop
      vertex 10.4605 1.25694 0
      vertex 7.01608 1.25694 2.48241
      vertex 10.5191 1.25694 0.0648527
    endloop
  endfacet
  facet normal 0 1 0
    outer loop
      vertex 0 1.25694 0
      vertex 7.01608 1.25694 2.48241
      vertex 10.4605 1.25694 0
    endloop
  endfacet
  facet normal 0 1 0
    outer loop
      vertex 7.01608 1.25694 2.48241
      vertex 0 1.25694 0
      vertex 0 1.25694 2.48241
    endloop
  endfacet
  facet normal 0 1 0
    outer loop
      vertex 11.5381 1.25694 0.238776
      vertex 11.4249 1.25694 0.293804
      vertex 11.4217 1.25694 0.296554
    endloop
  endfacet
  facet normal 0 1 0
    outer loop
      vertex 11.5381 1.25694 0.238776
      vertex 11.4458 1.25694 0.274793
      vertex 11.4249 1.25694 0.293804
    endloop
  endfacet
  facet normal 0 1 0
    outer loop
      vertex 11.5381 1.25694 0.238776
      vertex 11.4703 1.25694 0.252582
      vertex 11.4458 1.25694 0.274793
    endloop
  endfacet
  facet normal 0 1 0
    outer loop
      vertex 11.5381 1.25694 0.238776
      vertex 11.4933 1.25694 0.230346
      vertex 11.4703 1.25694 0.252582
    endloop
  endfacet
  facet normal 0 1 0
    outer loop
      vertex 11.5381 1.25694 0.238776
      vertex 11.5222 1.25694 0.202497
      vertex 11.4933 1.25694 0.230346
    endloop
  endfacet
  facet normal -0 1 0
    outer loop
      vertex 11.5222 1.25694 0.202497
      vertex 11.5381 1.25694 0.238776
      vertex 11.5381 1.25694 0.186284
    endloop
  endfacet
  facet normal 0 0 -1
    outer loop
      vertex 11.5381 -1.25694 0
      vertex 11.52 0.31867 0
      vertex 11.5381 0.332762 0
    endloop
  endfacet
  facet normal 0 0 -1
    outer loop
      vertex 11.5381 -1.25694 0
      vertex 11.5115 0.31209 0
      vertex 11.52 0.31867 0
    endloop
  endfacet
  facet normal 0 0 -1
    outer loop
      vertex 11.5381 -1.25694 0
      vertex 11.4828 0.292635 0
      vertex 11.5115 0.31209 0
    endloop
  endfacet
  facet normal 0 0 -1
    outer loop
      vertex 11.5381 -1.25694 0
      vertex 11.4739 0.286627 0
      vertex 11.4828 0.292635 0
    endloop
  endfacet
  facet normal 0 0 -1
    outer loop
      vertex 11.5381 -1.25694 0
      vertex 11.444 0.268984 0
      vertex 11.4739 0.286627 0
    endloop
  endfacet
  facet normal 0 0 -1
    outer loop
      vertex 11.5381 -1.25694 0
      vertex 11.4348 0.263548 0
      vertex 11.444 0.268984 0
    endloop
  endfacet
  facet normal 0 0 -1
    outer loop
      vertex 11.5381 -1.25694 0
      vertex 11.4039 0.247765 0
      vertex 11.4348 0.263548 0
    endloop
  endfacet
  facet normal 0 0 -1
    outer loop
      vertex 11.5381 -1.25694 0
      vertex 11.3944 0.242901 0
      vertex 11.4039 0.247765 0
    endloop
  endfacet
  facet normal 0 0 -1
    outer loop
      vertex 11.5381 -1.25694 0
      vertex 11.3846 0.238609 0
      vertex 11.3944 0.242901 0
    endloop
  endfacet
  facet normal 0 0 -1
    outer loop
      vertex 11.5381 -1.25694 0
      vertex 11.3527 0.224829 0
      vertex 11.3846 0.238609 0
    endloop
  endfacet
  facet normal 0 0 -1
    outer loop
      vertex 11.5381 -1.25694 0
      vertex 11.3201 0.213099 0
      vertex 11.3527 0.224829 0
    endloop
  endfacet
  facet normal 0 0 -1
    outer loop
      vertex 11.5381 -1.25694 0
      vertex 11.31 0.209475 0
      vertex 11.3201 0.213099 0
    endloop
  endfacet
  facet normal 0 0 -1
    outer loop
      vertex 11.5381 -1.25694 0
      vertex 11.2767 0.199795 0
      vertex 11.31 0.209475 0
    endloop
  endfacet
  facet normal 0 0 -1
    outer loop
      vertex 11.5381 -1.25694 0
      vertex 11.2664 0.196838 0
      vertex 11.2767 0.199795 0
    endloop
  endfacet
  facet normal 0 0 -1
    outer loop
      vertex 11.5381 -1.25694 0
      vertex 11.2326 0.189257 0
      vertex 11.2664 0.196838 0
    endloop
  endfacet
  facet normal 0 0 -1
    outer loop
      vertex 11.5381 -1.25694 0
      vertex 11.2221 0.18692 0
      vertex 11.2326 0.189257 0
    endloop
  endfacet
  facet normal 0 0 -1
    outer loop
      vertex 11.5381 -1.25694 0
      vertex 11.2115 0.185204 0
      vertex 11.2221 0.18692 0
    endloop
  endfacet
  facet normal 0 0 -1
    outer loop
      vertex 11.5381 -1.25694 0
      vertex 11.1773 0.179815 0
      vertex 11.2115 0.185204 0
    endloop
  endfacet
  facet normal 0 0 -1
    outer loop
      vertex 11.5381 -1.25694 0
      vertex 11.1427 0.176525 0
      vertex 11.1773 0.179815 0
    endloop
  endfacet
  facet normal 0 0 -1
    outer loop
      vertex 11.5381 -1.25694 0
      vertex 11.132 0.175524 0
      vertex 11.1427 0.176525 0
    endloop
  endfacet
  facet normal 0 0 -1
    outer loop
      vertex 11.5381 -1.25694 0
      vertex 11.0974 0.174427 0
      vertex 11.132 0.175524 0
    endloop
  endfacet
  facet normal 0 0 -1
    outer loop
      vertex 11.5381 -1.25694 0
      vertex 11.0867 0.174093 0
      vertex 11.0974 0.174427 0
    endloop
  endfacet
  facet normal 0 0 -1
    outer loop
      vertex 11.5381 -1.25694 0
      vertex 11.076 0.174427 0
      vertex 11.0867 0.174093 0
    endloop
  endfacet
  facet normal 0 0 -1
    outer loop
      vertex 11.5381 -1.25694 0
      vertex 11.0413 0.175524 0
      vertex 11.076 0.174427 0
    endloop
  endfacet
  facet normal 0 0 -1
    outer loop
      vertex 11.5381 -1.25694 0
      vertex 11.0306 0.176525 0
      vertex 11.0413 0.175524 0
    endloop
  endfacet
  facet normal 0 0 -1
    outer loop
      vertex 11.5381 -1.25694 0
      vertex 10.9961 0.179815 0
      vertex 11.0306 0.176525 0
    endloop
  endfacet
  facet normal 0 0 -1
    outer loop
      vertex 11.5381 -1.25694 0
      vertex 10.9619 0.185204 0
      vertex 10.9961 0.179815 0
    endloop
  endfacet
  facet normal 0 0 -1
    outer loop
      vertex 11.5381 -1.25694 0
      vertex 10.9513 0.18692 0
      vertex 10.9619 0.185204 0
    endloop
  endfacet
  facet normal 0 0 -1
    outer loop
      vertex 11.5381 -1.25694 0
      vertex 10.9408 0.189257 0
      vertex 10.9513 0.18692 0
    endloop
  endfacet
  facet normal 0 0 -1
    outer loop
      vertex 11.5381 -1.25694 0
      vertex 10.907 0.196838 0
      vertex 10.9408 0.189257 0
    endloop
  endfacet
  facet normal 0 0 -1
    outer loop
      vertex 11.5381 -1.25694 0
      vertex 10.8967 0.199795 0
      vertex 10.907 0.196838 0
    endloop
  endfacet
  facet normal 0 0 -1
    outer loop
      vertex 11.5381 -1.25694 0
      vertex 10.8634 0.209475 0
      vertex 10.8967 0.199795 0
    endloop
  endfacet
  facet normal 0 0 -1
    outer loop
      vertex 11.5381 -1.25694 0
      vertex 10.8307 0.221205 0
      vertex 10.8634 0.209475 0
    endloop
  endfacet
  facet normal 0 0 -1
    outer loop
      vertex 11.5381 -1.25694 0
      vertex 10.8207 0.224829 0
      vertex 10.8307 0.221205 0
    endloop
  endfacet
  facet normal 0 0 -1
    outer loop
      vertex 11.5381 -1.25694 0
      vertex 10.7888 0.238609 0
      vertex 10.8207 0.224829 0
    endloop
  endfacet
  facet normal 0 0 -1
    outer loop
      vertex 11.5381 -1.25694 0
      vertex 10.779 0.242901 0
      vertex 10.7888 0.238609 0
    endloop
  endfacet
  facet normal 0 0 -1
    outer loop
      vertex 11.5381 -1.25694 0
      vertex 10.7695 0.247765 0
      vertex 10.779 0.242901 0
    endloop
  endfacet
  facet normal 0 0 -1
    outer loop
      vertex 11.5381 -1.25694 0
      vertex 10.7386 0.263548 0
      vertex 10.7695 0.247765 0
    endloop
  endfacet
  facet normal 0 0 -1
    outer loop
      vertex 11.5381 -1.25694 0
      vertex 10.7293 0.268984 0
      vertex 10.7386 0.263548 0
    endloop
  endfacet
  facet normal 0 0 -1
    outer loop
      vertex 11.5381 -1.25694 0
      vertex 10.6995 0.286627 0
      vertex 10.7293 0.268984 0
    endloop
  endfacet
  facet normal 0 0 -1
    outer loop
      vertex 11.5381 -1.25694 0
      vertex 10.6708 0.306082 0
      vertex 10.6995 0.286627 0
    endloop
  endfacet
  facet normal 0 0 -1
    outer loop
      vertex 11.5381 -1.25694 0
      vertex 10.6619 0.31209 0
      vertex 10.6708 0.306082 0
    endloop
  endfacet
  facet normal 0 0 -1
    outer loop
      vertex 11.5381 -1.25694 0
      vertex 10.6534 0.31867 0
      vertex 10.6619 0.31209 0
    endloop
  endfacet
  facet normal 0 0 -1
    outer loop
      vertex 11.5381 -1.25694 0
      vertex 10.626 0.339937 0
      vertex 10.6534 0.31867 0
    endloop
  endfacet
  facet normal 0 0 -1
    outer loop
      vertex 11.5381 -1.25694 0
      vertex 10.618 0.346994 0
      vertex 10.626 0.339937 0
    endloop
  endfacet
  facet normal 0 0 -1
    outer loop
      vertex 11.5381 -1.25694 0
      vertex 10.592 0.36993 0
      vertex 10.618 0.346994 0
    endloop
  endfacet
  facet normal 0 0 -1
    outer loop
      vertex 11.5381 -1.25694 0
      vertex 10.5675 0.39444 0
      vertex 10.592 0.36993 0
    endloop
  endfacet
  facet normal 0 0 -1
    outer loop
      vertex 11.5381 -1.25694 0
      vertex 10.5599 0.402021 0
      vertex 10.5675 0.39444 0
    endloop
  endfacet
  facet normal 0 0 -1
    outer loop
      vertex 11.5381 -1.25694 0
      vertex 10.5528 0.41008 0
      vertex 10.5599 0.402021 0
    endloop
  endfacet
  facet normal 0 0 -1
    outer loop
      vertex 11.5381 -1.25694 0
      vertex 10.5299 0.436115 0
      vertex 10.5528 0.41008 0
    endloop
  endfacet
  facet normal 0 0 -1
    outer loop
      vertex 0 -1.25694 0
      vertex 10.5299 0.436115 0
      vertex 11.5381 -1.25694 0
    endloop
  endfacet
  facet normal -0 0 -1
    outer loop
      vertex 10.5299 0.436115 0
      vertex 0 -1.25694 0
      vertex 10.5086 0.463533 0
    endloop
  endfacet
  facet normal -0 0 -1
    outer loop
      vertex 10.5086 0.463533 0
      vertex 0 -1.25694 0
      vertex 10.5021 0.471973 0
    endloop
  endfacet
  facet normal -0 0 -1
    outer loop
      vertex 10.5021 0.471973 0
      vertex 0 -1.25694 0
      vertex 10.496 0.480843 0
    endloop
  endfacet
  facet normal 0 0 -1
    outer loop
      vertex 10.3655 0.851345 0
      vertex 0 1.25694 0
      vertex 10.3644 0.886011 0
    endloop
  endfacet
  facet normal 0 0 -1
    outer loop
      vertex 10.3687 0.816822 0
      vertex 0 1.25694 0
      vertex 10.3655 0.851345 0
    endloop
  endfacet
  facet normal 0 0 -1
    outer loop
      vertex 10.3697 0.806189 0
      vertex 0 1.25694 0
      vertex 10.3687 0.816822 0
    endloop
  endfacet
  facet normal 0 0 -1
    outer loop
      vertex 0 1.25694 0
      vertex 10.3697 0.806189 0
      vertex 0 -1.25694 0
    endloop
  endfacet
  facet normal -0 0 -1
    outer loop
      vertex 10.3714 0.795603 0
      vertex 0 -1.25694 0
      vertex 10.3697 0.806189 0
    endloop
  endfacet
  facet normal -0 0 -1
    outer loop
      vertex 10.3768 0.761318 0
      vertex 0 -1.25694 0
      vertex 10.3714 0.795603 0
    endloop
  endfacet
  facet normal -0 0 -1
    outer loop
      vertex 10.3844 0.727463 0
      vertex 0 -1.25694 0
      vertex 10.3768 0.761318 0
    endloop
  endfacet
  facet normal -0 0 -1
    outer loop
      vertex 10.3867 0.71702 0
      vertex 0 -1.25694 0
      vertex 10.3844 0.727463 0
    endloop
  endfacet
  facet normal -0 0 -1
    outer loop
      vertex 10.3964 0.683737 0
      vertex 0 -1.25694 0
      vertex 10.3867 0.71702 0
    endloop
  endfacet
  facet normal -0 0 -1
    outer loop
      vertex 10.3994 0.673437 0
      vertex 0 -1.25694 0
      vertex 10.3964 0.683737 0
    endloop
  endfacet
  facet normal -0 0 -1
    outer loop
      vertex 10.403 0.663376 0
      vertex 0 -1.25694 0
      vertex 10.3994 0.673437 0
    endloop
  endfacet
  facet normal -0 0 -1
    outer loop
      vertex 10.4148 0.630713 0
      vertex 0 -1.25694 0
      vertex 10.403 0.663376 0
    endloop
  endfacet
  facet normal -0 0 -1
    outer loop
      vertex 10.419 0.620842 0
      vertex 0 -1.25694 0
      vertex 10.4148 0.630713 0
    endloop
  endfacet
  facet normal -0 0 -1
    outer loop
      vertex 10.4328 0.589037 0
      vertex 0 -1.25694 0
      vertex 10.419 0.620842 0
    endloop
  endfacet
  facet normal -0 0 -1
    outer loop
      vertex 10.4486 0.55809 0
      vertex 0 -1.25694 0
      vertex 10.4328 0.589037 0
    endloop
  endfacet
  facet normal -0 0 -1
    outer loop
      vertex 10.4534 0.548553 0
      vertex 0 -1.25694 0
      vertex 10.4486 0.55809 0
    endloop
  endfacet
  facet normal -0 0 -1
    outer loop
      vertex 10.4589 0.539351 0
      vertex 0 -1.25694 0
      vertex 10.4534 0.548553 0
    endloop
  endfacet
  facet normal -0 0 -1
    outer loop
      vertex 10.4765 0.509501 0
      vertex 0 -1.25694 0
      vertex 10.4589 0.539351 0
    endloop
  endfacet
  facet normal -0 0 -1
    outer loop
      vertex 10.496 0.480843 0
      vertex 0 -1.25694 0
      vertex 10.4765 0.509501 0
    endloop
  endfacet
  facet normal 0 0 -1
    outer loop
      vertex 10.3644 0.886011 0
      vertex 0 1.25694 0
      vertex 10.3641 0.89674 0
    endloop
  endfacet
  facet normal 0 0 -1
    outer loop
      vertex 10.3641 0.89674 0
      vertex 0 1.25694 0
      vertex 10.3644 0.907421 0
    endloop
  endfacet
  facet normal 0 0 -1
    outer loop
      vertex 10.3644 0.907421 0
      vertex 0 1.25694 0
      vertex 10.3655 0.942087 0
    endloop
  endfacet
  facet normal 0 0 -1
    outer loop
      vertex 10.3655 0.942087 0
      vertex 0 1.25694 0
      vertex 10.3665 0.952768 0
    endloop
  endfacet
  facet normal 0 0 -1
    outer loop
      vertex 10.3665 0.952768 0
      vertex 0 1.25694 0
      vertex 10.3697 0.987291 0
    endloop
  endfacet
  facet normal 0 0 -1
    outer loop
      vertex 10.3697 0.987291 0
      vertex 0 1.25694 0
      vertex 10.3714 0.997877 0
    endloop
  endfacet
  facet normal 0 0 -1
    outer loop
      vertex 10.3714 0.997877 0
      vertex 0 1.25694 0
      vertex 10.3768 1.03216 0
    endloop
  endfacet
  facet normal 0 0 -1
    outer loop
      vertex 10.3768 1.03216 0
      vertex 0 1.25694 0
      vertex 10.3844 1.06602 0
    endloop
  endfacet
  facet normal 0 0 -1
    outer loop
      vertex 10.3844 1.06602 0
      vertex 0 1.25694 0
      vertex 10.3867 1.07646 0
    endloop
  endfacet
  facet normal 0 0 -1
    outer loop
      vertex 10.3867 1.07646 0
      vertex 0 1.25694 0
      vertex 10.3964 1.10974 0
    endloop
  endfacet
  facet normal 0 0 -1
    outer loop
      vertex 10.3964 1.10974 0
      vertex 0 1.25694 0
      vertex 10.3994 1.12004 0
    endloop
  endfacet
  facet normal 0 0 -1
    outer loop
      vertex 10.3994 1.12004 0
      vertex 0 1.25694 0
      vertex 10.403 1.1301 0
    endloop
  endfacet
  facet normal 0 0 -1
    outer loop
      vertex 10.403 1.1301 0
      vertex 0 1.25694 0
      vertex 10.4148 1.16277 0
    endloop
  endfacet
  facet normal 0 0 -1
    outer loop
      vertex 10.4148 1.16277 0
      vertex 0 1.25694 0
      vertex 10.419 1.17259 0
    endloop
  endfacet
  facet normal 0 0 -1
    outer loop
      vertex 10.419 1.17259 0
      vertex 0 1.25694 0
      vertex 10.4328 1.2044 0
    endloop
  endfacet
  facet normal 0 0 -1
    outer loop
      vertex 10.4328 1.2044 0
      vertex 0 1.25694 0
      vertex 10.4377 1.21398 0
    endloop
  endfacet
  facet normal 0 0 -1
    outer loop
      vertex 10.4377 1.21398 0
      vertex 0 1.25694 0
      vertex 10.4534 1.24493 0
    endloop
  endfacet
  facet normal 0 0 -1
    outer loop
      vertex 10.4534 1.24493 0
      vertex 0 1.25694 0
      vertex 10.4589 1.25413 0
    endloop
  endfacet
  facet normal 0 0 -1
    outer loop
      vertex 10.4589 1.25413 0
      vertex 0 1.25694 0
      vertex 10.4605 1.25694 0
    endloop
  endfacet
  facet normal 0 -1 0
    outer loop
      vertex 0 -1.25694 0
      vertex 7.01608 -1.25694 2.48241
      vertex 0 -1.25694 2.48241
    endloop
  endfacet
  facet normal 0 -1 0
    outer loop
      vertex 11.5381 -1.25694 0
      vertex 7.01608 -1.25694 2.48241
      vertex 0 -1.25694 0
    endloop
  endfacet
  facet normal 0 -1 0
    outer loop
      vertex 7.01608 -1.25694 2.48241
      vertex 11.5381 -1.25694 0
      vertex 11.5381 -1.25694 0.238776
    endloop
  endfacet
  facet normal 0.444456 0 0.895801
    outer loop
      vertex 11.0306 1.23291 0.49057
      vertex 7.01608 1.25694 2.48241
      vertex 11.0306 0.560532 0.49057
    endloop
  endfacet
  facet normal 0.444456 -2.41604e-05 0.895801
    outer loop
      vertex 11.0429 1.23964 0.484479
      vertex 7.01608 1.25694 2.48241
      vertex 11.0306 1.23291 0.49057
    endloop
  endfacet
  facet normal 0.444458 0.000391826 0.8958
    outer loop
      vertex 11.0433 1.23987 0.484277
      vertex 7.01608 1.25694 2.48241
      vertex 11.0429 1.23964 0.484479
    endloop
  endfacet
  facet normal 0.444456 -2.26111e-06 0.895801
    outer loop
      vertex 11.0634 1.2496 0.474335
      vertex 7.01608 1.25694 2.48241
      vertex 11.0433 1.23987 0.484277
    endloop
  endfacet
  facet normal 0.444457 0.000484886 0.8958
    outer loop
      vertex 11.0645 1.25014 0.473781
      vertex 7.01608 1.25694 2.48241
      vertex 11.0634 1.2496 0.474335
    endloop
  endfacet
  facet normal 0.444456 -0.000330948 0.895801
    outer loop
      vertex 11.0657 1.25064 0.473186
      vertex 7.01608 1.25694 2.48241
      vertex 11.0645 1.25014 0.473781
    endloop
  endfacet
  facet normal 0.444456 2.00725e-05 0.895801
    outer loop
      vertex 7.01608 1.25694 2.48241
      vertex 11.0657 1.25064 0.473186
      vertex 11.0808 1.25694 0.465695
    endloop
  endfacet
  facet normal 0.444463 0 0.895797
    outer loop
      vertex 11.5275 0.597958 0.244041
      vertex 11.5381 -1.25694 0.238776
      vertex 11.5381 0.606323 0.238776
    endloop
  endfacet
  facet normal 0.444447 -1.17611e-07 0.895805
    outer loop
      vertex 11.5133 0.586782 0.251095
      vertex 11.5381 -1.25694 0.238776
      vertex 11.5275 0.597958 0.244041
    endloop
  endfacet
  facet normal 0.444467 2.30334e-07 0.895795
    outer loop
      vertex 11.4988 0.577188 0.25829
      vertex 11.5381 -1.25694 0.238776
      vertex 11.5133 0.586782 0.251095
    endloop
  endfacet
  facet normal 0.444446 -3.43264e-07 0.895806
    outer loop
      vertex 11.4845 0.567732 0.265401
      vertex 11.5381 -1.25694 0.238776
      vertex 11.4988 0.577188 0.25829
    endloop
  endfacet
  facet normal 0.444468 4.66862e-07 0.895795
    outer loop
      vertex 11.47 0.559733 0.272597
      vertex 11.5381 -1.25694 0.238776
      vertex 11.4845 0.567732 0.265401
    endloop
  endfacet
  facet normal 0.444442 -7.64989e-07 0.895808
    outer loop
      vertex 11.4546 0.551261 0.280229
      vertex 11.5381 -1.25694 0.238776
      vertex 11.47 0.559733 0.272597
    endloop
  endfacet
  facet normal 0.444463 4.74576e-07 0.895797
    outer loop
      vertex 11.4378 0.543647 0.288543
      vertex 11.5381 -1.25694 0.238776
      vertex 11.4546 0.551261 0.280229
    endloop
  endfacet
  facet normal 0.44445 -4.11112e-07 0.895803
    outer loop
      vertex 11.4241 0.537421 0.295362
      vertex 11.5381 -1.25694 0.238776
      vertex 11.4378 0.543647 0.288543
    endloop
  endfacet
  facet normal 0.44446 3.58262e-07 0.895799
    outer loop
      vertex 11.4105 0.532427 0.302095
      vertex 11.5381 -1.25694 0.238776
      vertex 11.4241 0.537421 0.295362
    endloop
  endfacet
  facet normal 0.444461 4.12807e-07 0.895798
    outer loop
      vertex 11.3933 0.52613 0.310613
      vertex 11.5381 -1.25694 0.238776
      vertex 11.4105 0.532427 0.302095
    endloop
  endfacet
  facet normal 0.444458 9.98327e-08 0.8958
    outer loop
      vertex 11.3805 0.522432 0.316997
      vertex 11.5381 -1.25694 0.238776
      vertex 11.3933 0.52613 0.310613
    endloop
  endfacet
  facet normal 0.444458 1.31516e-07 0.8958
    outer loop
      vertex 11.3624 0.517244 0.325965
      vertex 11.5381 -1.25694 0.238776
      vertex 11.3805 0.522432 0.316997
    endloop
  endfacet
  facet normal 0.444436 -2.63475e-06 0.895811
    outer loop
      vertex 11.3504 0.514702 0.331922
      vertex 11.5381 -1.25694 0.238776
      vertex 11.3624 0.517244 0.325965
    endloop
  endfacet
  facet normal 0.444469 1.78641e-06 0.895794
    outer loop
      vertex 11.3316 0.510738 0.341224
      vertex 11.5381 -1.25694 0.238776
      vertex 11.3504 0.514702 0.331922
    endloop
  endfacet
  facet normal 0.444431 -3.71164e-06 0.895813
    outer loop
      vertex 11.3206 0.50916 0.3467
      vertex 11.5381 -1.25694 0.238776
      vertex 11.3316 0.510738 0.341224
    endloop
  endfacet
  facet normal 0.444463 1.13772e-06 0.895797
    outer loop
      vertex 11.3013 0.506408 0.356274
      vertex 11.5381 -1.25694 0.238776
      vertex 11.3206 0.50916 0.3467
    endloop
  endfacet
  facet normal 0.44446 7.10638e-07 0.895799
    outer loop
      vertex 11.2913 0.505632 0.361239
      vertex 11.5381 -1.25694 0.238776
      vertex 11.3013 0.506408 0.356274
    endloop
  endfacet
  facet normal 0.444452 -6.75837e-07 0.895802
    outer loop
      vertex 11.2715 0.504107 0.371071
      vertex 11.5381 -1.25694 0.238776
      vertex 11.2913 0.505632 0.361239
    endloop
  endfacet
  facet normal 0.444467 2.06186e-06 0.895795
    outer loop
      vertex 11.2506 0.503777 0.381438
      vertex 11.5381 -1.25694 0.238776
      vertex 11.2715 0.504107 0.371071
    endloop
  endfacet
  facet normal 0.44444 -3.50696e-06 0.895809
    outer loop
      vertex 11.2423 0.503675 0.385536
      vertex 11.5381 -1.25694 0.238776
      vertex 11.2506 0.503777 0.381438
    endloop
  endfacet
  facet normal 0.444459 6.64215e-07 0.895799
    outer loop
      vertex 11.2345 0.504069 0.389425
      vertex 11.5381 -1.25694 0.238776
      vertex 11.2423 0.503675 0.385536
    endloop
  endfacet
  facet normal 0.444448 -1.76445e-06 0.895805
    outer loop
      vertex 11.2139 0.505126 0.399641
      vertex 11.5381 -1.25694 0.238776
      vertex 11.2345 0.504069 0.389425
    endloop
  endfacet
  facet normal 0.444487 7.16606e-06 0.895785
    outer loop
      vertex 11.2071 0.505878 0.402993
      vertex 11.5381 -1.25694 0.238776
      vertex 11.2139 0.505126 0.399641
    endloop
  endfacet
  facet normal 0.44445 -1.59628e-06 0.895804
    outer loop
      vertex 11.1865 0.508216 0.413242
      vertex 11.5381 -1.25694 0.238776
      vertex 11.2071 0.505878 0.402993
    endloop
  endfacet
  facet normal 0.444459 7.56255e-07 0.895799
    outer loop
      vertex 11.1808 0.50919 0.416064
      vertex 11.5381 -1.25694 0.238776
      vertex 11.1865 0.508216 0.413242
    endloop
  endfacet
  facet normal 0.444467 2.71678e-06 0.895795
    outer loop
      vertex 11.1599 0.512796 0.426433
      vertex 11.5381 -1.25694 0.238776
      vertex 11.1808 0.50919 0.416064
    endloop
  endfacet
  facet normal 0.444453 -9.09708e-07 0.895802
    outer loop
      vertex 11.1384 0.517695 0.437091
      vertex 11.5381 -1.25694 0.238776
      vertex 11.1599 0.512796 0.426433
    endloop
  endfacet
  facet normal 0.444416 -1.13879e-05 0.895821
    outer loop
      vertex 11.1345 0.518609 0.439037
      vertex 11.5381 -1.25694 0.238776
      vertex 11.1384 0.517695 0.437091
    endloop
  endfacet
  facet normal 0.444431 -7.23555e-06 0.895813
    outer loop
      vertex 11.1308 0.519685 0.440863
      vertex 11.5381 -1.25694 0.238776
      vertex 11.1345 0.518609 0.439037
    endloop
  endfacet
  facet normal 0.44447 3.88967e-06 0.895794
    outer loop
      vertex 11.11 0.525789 0.451175
      vertex 11.5381 -1.25694 0.238776
      vertex 11.1308 0.519685 0.440863
    endloop
  endfacet
  facet normal 0.444416 -1.20481e-05 0.89582
    outer loop
      vertex 11.1073 0.526765 0.452541
      vertex 11.5381 -1.25694 0.238776
      vertex 11.11 0.525789 0.451175
    endloop
  endfacet
  facet normal 0.444455 -4.19664e-07 0.895801
    outer loop
      vertex 11.0867 0.534084 0.462775
      vertex 11.5381 -1.25694 0.238776
      vertex 11.1073 0.526765 0.452541
    endloop
  endfacet
  facet normal 0.444459 7.03863e-07 0.895799
    outer loop
      vertex 11.0657 0.542839 0.473186
      vertex 11.5381 -1.25694 0.238776
      vertex 11.0867 0.534084 0.462775
    endloop
  endfacet
  facet normal 0.444331 -4.09198e-05 0.895863
    outer loop
      vertex 11.0645 0.54334 0.473781
      vertex 11.5381 -1.25694 0.238776
      vertex 11.0657 0.542839 0.473186
    endloop
  endfacet
  facet normal 0.444463 2.26155e-06 0.895797
    outer loop
      vertex 11.0438 0.55331 0.484061
      vertex 11.5381 -1.25694 0.238776
      vertex 11.0645 0.54334 0.473781
    endloop
  endfacet
  facet normal 0.444645 6.43142e-05 0.895707
    outer loop
      vertex 11.0433 0.55352 0.484277
      vertex 11.5381 -1.25694 0.238776
      vertex 11.0438 0.55331 0.484061
    endloop
  endfacet
  facet normal 0.444661 6.94972e-05 0.895699
    outer loop
      vertex 11.0429 0.553743 0.484479
      vertex 11.5381 -1.25694 0.238776
      vertex 11.0433 0.55352 0.484277
    endloop
  endfacet
  facet normal 0.444444 -4.44816e-06 0.895807
    outer loop
      vertex 11.0306 0.560532 0.49057
      vertex 11.5381 -1.25694 0.238776
      vertex 11.0429 0.553743 0.484479
    endloop
  endfacet
  facet normal 0.444456 -0 0.895801
    outer loop
      vertex 7.01608 -1.25694 2.48241
      vertex 11.0306 0.560532 0.49057
      vertex 7.01608 1.25694 2.48241
    endloop
  endfacet
  facet normal 0.444456 -1.97561e-08 0.895801
    outer loop
      vertex 11.0306 0.560532 0.49057
      vertex 7.01608 -1.25694 2.48241
      vertex 11.5381 -1.25694 0.238776
    endloop
  endfacet
  facet normal 0.444463 0 0.895797
    outer loop
      vertex 11.5381 1.25694 0.238776
      vertex 11.5275 1.19552 0.244041
      vertex 11.5381 1.18716 0.238776
    endloop
  endfacet
  facet normal 0.444449 3.14118e-06 0.895804
    outer loop
      vertex 11.5381 1.25694 0.238776
      vertex 11.5133 1.2067 0.251095
      vertex 11.5275 1.19552 0.244041
    endloop
  endfacet
  facet normal 0.444464 -6.4263e-06 0.895797
    outer loop
      vertex 11.5381 1.25694 0.238776
      vertex 11.4988 1.21629 0.25829
      vertex 11.5133 1.2067 0.251095
    endloop
  endfacet
  facet normal 0.444451 9.5874e-06 0.895803
    outer loop
      vertex 11.5381 1.25694 0.238776
      vertex 11.4845 1.22575 0.265401
      vertex 11.4988 1.21629 0.25829
    endloop
  endfacet
  facet normal 0.444462 -1.42407e-05 0.895798
    outer loop
      vertex 11.5381 1.25694 0.238776
      vertex 11.47 1.23375 0.272597
      vertex 11.4845 1.22575 0.265401
    endloop
  endfacet
  facet normal 0.444452 2.3352e-05 0.895803
    outer loop
      vertex 11.5381 1.25694 0.238776
      vertex 11.4546 1.24222 0.280229
      vertex 11.47 1.23375 0.272597
    endloop
  endfacet
  facet normal 0.444457 -1.66298e-05 0.8958
    outer loop
      vertex 11.5381 1.25694 0.238776
      vertex 11.4378 1.24983 0.288543
      vertex 11.4546 1.24222 0.280229
    endloop
  endfacet
  facet normal 0.444456 1.44431e-05 0.895801
    outer loop
      vertex 11.5381 1.25694 0.238776
      vertex 11.4241 1.25606 0.295362
      vertex 11.4378 1.24983 0.288543
    endloop
  endfacet
  facet normal 0.444456 -0.000113878 0.8958
    outer loop
      vertex 11.4241 1.25606 0.295362
      vertex 11.5381 1.25694 0.238776
      vertex 11.4217 1.25694 0.296554
    endloop
  endfacet
  facet normal 0.725197 0.311799 -0.613898
    outer loop
      vertex 10.7781 0.751495 0.49057
      vertex 10.4148 0.630713 0
      vertex 10.7697 0.771236 0.49057
    endloop
  endfacet
  facet normal 0.725197 0.311799 -0.613898
    outer loop
      vertex 10.4148 0.630713 0
      vertex 10.7781 0.751495 0.49057
      vertex 10.419 0.620842 0
    endloop
  endfacet
  facet normal 0.316021 -0.723338 -0.613932
    outer loop
      vertex 10.9415 1.20525 0.49057
      vertex 10.9394 1.25694 0.428572
      vertex 10.9612 1.21384 0.49057
    endloop
  endfacet
  facet normal 0.316026 -0.723336 -0.613932
    outer loop
      vertex 10.9394 1.25694 0.428572
      vertex 10.9415 1.20525 0.49057
      vertex 10.9172 1.25694 0.41715
    endloop
  endfacet
  facet normal 0.522378 0.591883 -0.613837
    outer loop
      vertex 10.8533 0.648117 0.49057
      vertex 10.618 0.346994 0
      vertex 10.592 0.36993 0
    endloop
  endfacet
  facet normal 0.558198 0.558198 -0.613865
    outer loop
      vertex 10.5675 0.39444 0
      vertex 10.8381 0.66328 0.49057
      vertex 10.8533 0.648117 0.49057
    endloop
  endfacet
  facet normal 0.558198 0.558198 -0.613865
    outer loop
      vertex 10.8381 0.66328 0.49057
      vertex 10.5675 0.39444 0
      vertex 10.5599 0.402021 0
    endloop
  endfacet
  facet normal 0.35911 0.703031 -0.61383
    outer loop
      vertex 10.9224 0.597954 0.49057
      vertex 10.7695 0.247765 0
      vertex 10.7386 0.263548 0
    endloop
  endfacet
  facet normal 0.679584 0.401671 -0.613861
    outer loop
      vertex 10.7987 0.714016 0.49057
      vertex 10.4765 0.509501 0
      vertex 10.4589 0.539351 0
    endloop
  endfacet
  facet normal -0.313467 0.724553 -0.613809
    outer loop
      vertex 11.3527 0.224829 0
      vertex 11.2506 0.503777 0.381438
      vertex 11.3846 0.238609 0
    endloop
  endfacet
  facet normal -0.313456 0.724557 -0.613809
    outer loop
      vertex 11.2506 0.503777 0.381438
      vertex 11.3527 0.224829 0
      vertex 11.2423 0.503675 0.385536
    endloop
  endfacet
  facet normal -0.171619 0.770535 -0.613859
    outer loop
      vertex 11.2221 0.18692 0
      vertex 11.1808 0.50919 0.416064
      vertex 11.2326 0.189257 0
    endloop
  endfacet
  facet normal -0.171625 0.770534 -0.613858
    outer loop
      vertex 11.1808 0.50919 0.416064
      vertex 11.2221 0.18692 0
      vertex 11.1599 0.512796 0.426433
    endloop
  endfacet
  facet normal 0.592134 -0.522059 -0.613866
    outer loop
      vertex 10.8239 1.11408 0.49057
      vertex 10.7031 1.25694 0.252582
      vertex 10.8381 1.1302 0.49057
    endloop
  endfacet
  facet normal 0.592125 -0.522068 -0.613867
    outer loop
      vertex 10.7031 1.25694 0.252582
      vertex 10.8239 1.11408 0.49057
      vertex 10.6801 1.25694 0.230346
    endloop
  endfacet
  facet normal 0.623789 -0.48381 -0.613853
    outer loop
      vertex 10.6512 1.25694 0.202497
      vertex 10.8239 1.11408 0.49057
      vertex 10.6152 1.25694 0.165907
    endloop
  endfacet
  facet normal 0.724349 -0.313849 -0.613854
    outer loop
      vertex 10.4328 1.2044 0
      vertex 10.7781 1.04189 0.49057
      vertex 10.419 1.17259 0
    endloop
  endfacet
  facet normal 0.757809 -0.221028 -0.6139
    outer loop
      vertex 10.7624 1.00212 0.49057
      vertex 10.3964 1.10974 0
      vertex 10.3994 1.12004 0
    endloop
  endfacet
  facet normal 0.757809 -0.221028 -0.6139
    outer loop
      vertex 10.3964 1.10974 0
      vertex 10.7624 1.00212 0.49057
      vertex 10.7564 0.981522 0.49057
    endloop
  endfacet
  facet normal -0.0249635 0.789065 -0.613802
    outer loop
      vertex 11.0974 0.174427 0
      vertex 11.11 0.525789 0.451175
      vertex 11.132 0.175524 0
    endloop
  endfacet
  facet normal -0.0249528 0.789065 -0.613802
    outer loop
      vertex 11.11 0.525789 0.451175
      vertex 11.0974 0.174427 0
      vertex 11.1073 0.526765 0.452541
    endloop
  endfacet
  facet normal 0.623773 0.483831 -0.613852
    outer loop
      vertex 10.8239 0.679398 0.49057
      vertex 10.5299 0.436115 0
      vertex 10.5086 0.463533 0
    endloop
  endfacet
  facet normal 0.789032 0.0245477 -0.613862
    outer loop
      vertex 10.7457 0.89674 0.49057
      vertex 10.3644 0.886011 0
      vertex 10.3641 0.89674 0
    endloop
  endfacet
  facet normal 0.789032 0.0245477 -0.613862
    outer loop
      vertex 10.3644 0.886011 0
      vertex 10.7457 0.89674 0.49057
      vertex 10.7464 0.875282 0.49057
    endloop
  endfacet
  facet normal -0.316035 0.723369 -0.613889
    outer loop
      vertex 11.3846 0.238609 0
      vertex 11.2715 0.504107 0.371071
      vertex 11.3944 0.242901 0
    endloop
  endfacet
  facet normal -0.316044 0.723365 -0.613889
    outer loop
      vertex 11.2715 0.504107 0.371071
      vertex 11.3846 0.238609 0
      vertex 11.2506 0.503777 0.381438
    endloop
  endfacet
  facet normal -0.557666 0.558752 -0.613844
    outer loop
      vertex 11.4241 0.537421 0.295362
      vertex 11.5381 0.454621 0.116381
      vertex 11.5381 0.415982 0.0812095
    endloop
  endfacet
  facet normal -0.557659 0.558761 -0.613843
    outer loop
      vertex 11.5381 0.454621 0.116381
      vertex 11.4241 0.537421 0.295362
      vertex 11.4378 0.543647 0.288543
    endloop
  endfacet
  facet normal -0.521829 0.592345 -0.613857
    outer loop
      vertex 11.3933 0.52613 0.310613
      vertex 11.5381 0.369087 0.0359924
      vertex 11.5381 0.351119 0.0186536
    endloop
  endfacet
  facet normal -0.521833 0.592342 -0.613857
    outer loop
      vertex 11.5381 0.369087 0.0359924
      vertex 11.3933 0.52613 0.310613
      vertex 11.4105 0.532427 0.302095
    endloop
  endfacet
  facet normal -0.267174 0.742874 -0.613805
    outer loop
      vertex 11.3201 0.213099 0
      vertex 11.2423 0.503675 0.385536
      vertex 11.3527 0.224829 0
    endloop
  endfacet
  facet normal -0.267177 0.742873 -0.613804
    outer loop
      vertex 11.2423 0.503675 0.385536
      vertex 11.3201 0.213099 0
      vertex 11.2345 0.504069 0.389425
    endloop
  endfacet
  facet normal -0.653125 0.443407 -0.613854
    outer loop
      vertex 11.5381 0.591634 0.228182
      vertex 11.5133 0.586782 0.251095
      vertex 11.5275 0.597958 0.244041
    endloop
  endfacet
  facet normal -0.653129 0.443392 -0.613861
    outer loop
      vertex 11.5133 0.586782 0.251095
      vertex 11.5381 0.591634 0.228182
      vertex 11.5381 0.568747 0.211651
    endloop
  endfacet
  facet normal -0.624265 0.483164 -0.613877
    outer loop
      vertex 11.5381 0.568747 0.211651
      vertex 11.4988 0.577188 0.25829
      vertex 11.5133 0.586782 0.251095
    endloop
  endfacet
  facet normal -0.624258 0.483178 -0.613874
    outer loop
      vertex 11.4988 0.577188 0.25829
      vertex 11.5381 0.568747 0.211651
      vertex 11.5381 0.550264 0.197103
    endloop
  endfacet
  facet normal -0.522429 -0.591695 -0.613975
    outer loop
      vertex 11.4249 1.25694 0.293804
      vertex 11.4241 1.25606 0.295362
      vertex 11.4217 1.25694 0.296554
    endloop
  endfacet
  facet normal -0.592123 -0.522072 -0.613865
    outer loop
      vertex 11.47 1.23375 0.272597
      vertex 11.4703 1.25694 0.252582
      vertex 11.4933 1.25694 0.230346
    endloop
  endfacet
  facet normal -0.59212 -0.522074 -0.613867
    outer loop
      vertex 11.4703 1.25694 0.252582
      vertex 11.47 1.23375 0.272597
      vertex 11.4546 1.24222 0.280229
    endloop
  endfacet
  facet normal 0.172361 -0.77035 -0.613883
    outer loop
      vertex 11.0019 1.227 0.49057
      vertex 11.0179 1.25694 0.457504
      vertex 11.0228 1.23167 0.49057
    endloop
  endfacet
  facet normal 0.172361 -0.77035 -0.613884
    outer loop
      vertex 11.0179 1.25694 0.457504
      vertex 11.0019 1.227 0.49057
      vertex 10.997 1.25694 0.451632
    endloop
  endfacet
  facet normal 0.0246584 -0.78903 -0.61386
    outer loop
      vertex 11.0658 1.25694 0.465095
      vertex 11.0808 1.25694 0.465695
      vertex 11.0657 1.25064 0.473186
    endloop
  endfacet
  facet normal 0.779683 -0.123621 -0.613851
    outer loop
      vertex 10.3768 1.03216 0
      vertex 10.7517 0.960636 0.49057
      vertex 10.3714 0.997877 0
    endloop
  endfacet
  facet normal 0.770565 -0.171478 -0.613861
    outer loop
      vertex 10.3844 1.06602 0
      vertex 10.7517 0.960636 0.49057
      vertex 10.3768 1.03216 0
    endloop
  endfacet
  facet normal 0.557678 -0.558741 -0.613844
    outer loop
      vertex 10.7485 1.25694 0.293804
      vertex 10.8533 1.14536 0.49057
      vertex 10.7276 1.25694 0.274793
    endloop
  endfacet
  facet normal 0.483684 -0.623882 -0.613858
    outer loop
      vertex 10.8693 1.15948 0.49057
      vertex 10.825 1.25694 0.35662
      vertex 10.8863 1.17264 0.49057
    endloop
  endfacet
  facet normal 0.483684 -0.623882 -0.613858
    outer loop
      vertex 10.825 1.25694 0.35662
      vertex 10.8693 1.15948 0.49057
      vertex 10.8026 1.25694 0.338941
    endloop
  endfacet
  facet normal 0.592339 -0.521836 -0.613858
    outer loop
      vertex 10.6801 1.25694 0.230346
      vertex 10.8239 1.11408 0.49057
      vertex 10.6512 1.25694 0.202497
    endloop
  endfacet
  facet normal 0.679561 -0.401747 -0.613837
    outer loop
      vertex 10.5191 1.25694 0.0648527
      vertex 10.4589 1.25413 0
      vertex 10.4605 1.25694 0
    endloop
  endfacet
  facet normal 0.679584 -0.401673 -0.613861
    outer loop
      vertex 10.4589 1.25413 0
      vertex 10.5191 1.25694 0.0648527
      vertex 10.7987 1.07946 0.49057
    endloop
  endfacet
  facet normal -0.122739 0.779878 -0.613779
    outer loop
      vertex 11.1773 0.179815 0
      vertex 11.1384 0.517695 0.437091
      vertex 11.2115 0.185204 0
    endloop
  endfacet
  facet normal -0.122717 0.779881 -0.61378
    outer loop
      vertex 11.1384 0.517695 0.437091
      vertex 11.1773 0.179815 0
      vertex 11.1345 0.518609 0.439037
    endloop
  endfacet
  facet normal -0.0736884 0.786009 -0.613807
    outer loop
      vertex 11.132 0.175524 0
      vertex 11.1308 0.519685 0.440863
      vertex 11.1427 0.176525 0
    endloop
  endfacet
  facet normal -0.073692 0.786009 -0.613807
    outer loop
      vertex 11.1308 0.519685 0.440863
      vertex 11.132 0.175524 0
      vertex 11.11 0.525789 0.451175
    endloop
  endfacet
  facet normal 0.0249635 0.789064 -0.613804
    outer loop
      vertex 11.0413 0.175524 0
      vertex 11.0657 0.542839 0.473186
      vertex 11.076 0.174427 0
    endloop
  endfacet
  facet normal 0.0249699 0.789064 -0.613804
    outer loop
      vertex 11.0657 0.542839 0.473186
      vertex 11.0413 0.175524 0
      vertex 11.0645 0.54334 0.473781
    endloop
  endfacet
  facet normal 0.126359 0.779219 -0.613882
    outer loop
      vertex 11.0429 0.553743 0.484479
      vertex 11.0228 0.56181 0.49057
      vertex 11.0306 0.560532 0.49057
    endloop
  endfacet
  facet normal 0.126358 0.779218 -0.613883
    outer loop
      vertex 10.9619 0.185204 0
      vertex 11.0228 0.56181 0.49057
      vertex 11.0429 0.553743 0.484479
    endloop
  endfacet
  facet normal 0.12636 0.779218 -0.613883
    outer loop
      vertex 11.0228 0.56181 0.49057
      vertex 10.9619 0.185204 0
      vertex 10.9513 0.18692 0
    endloop
  endfacet
  facet normal 0.442906 0.653504 -0.613813
    outer loop
      vertex 10.9039 0.608826 0.49057
      vertex 10.6995 0.286627 0
      vertex 10.6708 0.306082 0
    endloop
  endfacet
  facet normal 0.401697 0.679628 -0.613795
    outer loop
      vertex 10.9039 0.608826 0.49057
      vertex 10.7293 0.268984 0
      vertex 10.6995 0.286627 0
    endloop
  endfacet
  facet normal 0.316035 0.723369 -0.613889
    outer loop
      vertex 10.7888 0.238609 0
      vertex 10.9415 0.588226 0.49057
      vertex 10.9612 0.579643 0.49057
    endloop
  endfacet
  facet normal 0.316035 0.723369 -0.613889
    outer loop
      vertex 10.9415 0.588226 0.49057
      vertex 10.7888 0.238609 0
      vertex 10.779 0.242901 0
    endloop
  endfacet
  facet normal 0.557667 0.558752 -0.613843
    outer loop
      vertex 10.8533 0.648117 0.49057
      vertex 10.592 0.36993 0
      vertex 10.5675 0.39444 0
    endloop
  endfacet
  facet normal 0.652629 0.444135 -0.613857
    outer loop
      vertex 10.7987 0.714016 0.49057
      vertex 10.496 0.480843 0
      vertex 10.4765 0.509501 0
    endloop
  endfacet
  facet normal 0.779683 0.123621 -0.613851
    outer loop
      vertex 10.7517 0.832844 0.49057
      vertex 10.3768 0.761318 0
      vertex 10.3714 0.795603 0
    endloop
  endfacet
  facet normal 0.742601 0.26777 -0.613876
    outer loop
      vertex 10.7697 0.771236 0.49057
      vertex 10.4148 0.630713 0
      vertex 10.403 0.663376 0
    endloop
  endfacet
  facet normal 0.742688 0.267509 -0.613884
    outer loop
      vertex 10.7697 0.771236 0.49057
      vertex 10.3994 0.673437 0
      vertex 10.7624 0.791359 0.49057
    endloop
  endfacet
  facet normal 0.742688 0.267509 -0.613884
    outer loop
      vertex 10.3994 0.673437 0
      vertex 10.7697 0.771236 0.49057
      vertex 10.403 0.663376 0
    endloop
  endfacet
  facet normal 0.703235 0.35865 -0.613865
    outer loop
      vertex 10.7879 0.732422 0.49057
      vertex 10.4486 0.55809 0
      vertex 10.7781 0.751495 0.49057
    endloop
  endfacet
  facet normal 0.703235 0.35865 -0.613865
    outer loop
      vertex 10.4486 0.55809 0
      vertex 10.7879 0.732422 0.49057
      vertex 10.4534 0.548553 0
    endloop
  endfacet
  facet normal 0.624255 0.48318 -0.613876
    outer loop
      vertex 10.8239 0.679398 0.49057
      vertex 10.5021 0.471973 0
      vertex 10.8109 0.696278 0.49057
    endloop
  endfacet
  facet normal 0.624255 0.48318 -0.613876
    outer loop
      vertex 10.5021 0.471973 0
      vertex 10.8239 0.679398 0.49057
      vertex 10.5086 0.463533 0
    endloop
  endfacet
  facet normal 0.785939 0.0740122 -0.613858
    outer loop
      vertex 10.7484 0.854015 0.49057
      vertex 10.3687 0.816822 0
      vertex 10.7464 0.875282 0.49057
    endloop
  endfacet
  facet normal 0.785939 0.0740122 -0.613858
    outer loop
      vertex 10.3687 0.816822 0
      vertex 10.7484 0.854015 0.49057
      vertex 10.3697 0.806189 0
    endloop
  endfacet
  facet normal 0.779775 -0.122938 -0.613871
    outer loop
      vertex 10.7517 0.960636 0.49057
      vertex 10.3697 0.987291 0
      vertex 10.3714 0.997877 0
    endloop
  endfacet
  facet normal 0.779775 -0.122938 -0.613871
    outer loop
      vertex 10.3697 0.987291 0
      vertex 10.7517 0.960636 0.49057
      vertex 10.7484 0.939465 0.49057
    endloop
  endfacet
  facet normal 0.789027 -0.0249623 -0.613851
    outer loop
      vertex 10.3655 0.942087 0
      vertex 10.7464 0.918102 0.49057
      vertex 10.3644 0.907421 0
    endloop
  endfacet
  facet normal -0.592132 0.522059 -0.613867
    outer loop
      vertex 11.4546 0.551261 0.280229
      vertex 11.5381 0.492021 0.149259
      vertex 11.5381 0.47281 0.132921
    endloop
  endfacet
  facet normal -0.592119 0.522076 -0.613866
    outer loop
      vertex 11.5381 0.492021 0.149259
      vertex 11.4546 0.551261 0.280229
      vertex 11.47 0.559733 0.272597
    endloop
  endfacet
  facet normal -0.483831 0.623773 -0.613852
    outer loop
      vertex 11.52 0.31867 0
      vertex 11.3933 0.52613 0.310613
      vertex 11.5381 0.351119 0.0186536
    endloop
  endfacet
  facet normal -0.483832 0.623773 -0.613852
    outer loop
      vertex 11.52 0.31867 0
      vertex 11.5381 0.351119 0.0186536
      vertex 11.5381 0.332762 0
    endloop
  endfacet
  facet normal -0.483832 0.623772 -0.613852
    outer loop
      vertex 11.3933 0.52613 0.310613
      vertex 11.52 0.31867 0
      vertex 11.3805 0.522432 0.316997
    endloop
  endfacet
  facet normal -0.35911 0.703031 -0.61383
    outer loop
      vertex 11.4039 0.247765 0
      vertex 11.3013 0.506408 0.356274
      vertex 11.4348 0.263548 0
    endloop
  endfacet
  facet normal -0.359113 0.703029 -0.61383
    outer loop
      vertex 11.3013 0.506408 0.356274
      vertex 11.4039 0.247765 0
      vertex 11.2913 0.505632 0.361239
    endloop
  endfacet
  facet normal -0.653564 0.442729 -0.613877
    outer loop
      vertex 11.5381 0.606323 0.238776
      vertex 11.5381 0.591634 0.228182
      vertex 11.5275 0.597958 0.244041
    endloop
  endfacet
  facet normal -0.653129 -0.443392 -0.613861
    outer loop
      vertex 11.5381 1.20185 0.228182
      vertex 11.5133 1.2067 0.251095
      vertex 11.5381 1.22473 0.211651
    endloop
  endfacet
  facet normal -0.653125 -0.44341 -0.613853
    outer loop
      vertex 11.5133 1.2067 0.251095
      vertex 11.5381 1.20185 0.228182
      vertex 11.5275 1.19552 0.244041
    endloop
  endfacet
  facet normal -0.558204 -0.558191 -0.613866
    outer loop
      vertex 11.4546 1.24222 0.280229
      vertex 11.4458 1.25694 0.274793
      vertex 11.4703 1.25694 0.252582
    endloop
  endfacet
  facet normal -0.558203 -0.558191 -0.613867
    outer loop
      vertex 11.4458 1.25694 0.274793
      vertex 11.4546 1.24222 0.280229
      vertex 11.4378 1.24983 0.288543
    endloop
  endfacet
  facet normal -0.557679 -0.558739 -0.613845
    outer loop
      vertex 11.4378 1.24983 0.288543
      vertex 11.4249 1.25694 0.293804
      vertex 11.4458 1.25694 0.274793
    endloop
  endfacet
  facet normal -0.557661 -0.558602 -0.613986
    outer loop
      vertex 11.4249 1.25694 0.293804
      vertex 11.4378 1.24983 0.288543
      vertex 11.4241 1.25606 0.295362
    endloop
  endfacet
  facet normal -0.624258 -0.483178 -0.613874
    outer loop
      vertex 11.5381 1.22473 0.211651
      vertex 11.4988 1.21629 0.25829
      vertex 11.5381 1.24322 0.197103
    endloop
  endfacet
  facet normal -0.624265 -0.483164 -0.613877
    outer loop
      vertex 11.4988 1.21629 0.25829
      vertex 11.5381 1.22473 0.211651
      vertex 11.5133 1.2067 0.251095
    endloop
  endfacet
  facet normal 0.268154 -0.742509 -0.613819
    outer loop
      vertex 10.9485 1.25694 0.432886
      vertex 10.9612 1.21384 0.49057
      vertex 10.9441 1.25694 0.430971
    endloop
  endfacet
  facet normal 0.122786 -0.779796 -0.613874
    outer loop
      vertex 11.0429 1.23964 0.484479
      vertex 11.0412 1.25694 0.462153
      vertex 11.0433 1.23987 0.484277
    endloop
  endfacet
  facet normal 0.122706 -0.779807 -0.613876
    outer loop
      vertex 11.0412 1.25694 0.462153
      vertex 11.0429 1.23964 0.484479
      vertex 11.0391 1.25694 0.461742
    endloop
  endfacet
  facet normal 0.0249687 -0.789025 -0.613853
    outer loop
      vertex 11.064 1.25694 0.465022
      vertex 11.0657 1.25064 0.473186
      vertex 11.0645 1.25014 0.473781
    endloop
  endfacet
  facet normal 0.0249519 -0.789027 -0.613851
    outer loop
      vertex 11.0657 1.25064 0.473186
      vertex 11.064 1.25694 0.465022
      vertex 11.0658 1.25694 0.465095
    endloop
  endfacet
  facet normal 0.0771562 -0.7856 -0.613905
    outer loop
      vertex 11.0412 1.25694 0.462153
      vertex 11.0634 1.2496 0.474335
      vertex 11.0433 1.23987 0.484277
    endloop
  endfacet
  facet normal 0.077158 -0.785598 -0.613907
    outer loop
      vertex 11.0634 1.2496 0.474335
      vertex 11.0412 1.25694 0.462153
      vertex 11.0622 1.25694 0.464799
    endloop
  endfacet
  facet normal 0.12293 -0.779766 -0.613883
    outer loop
      vertex 11.0391 1.25694 0.461742
      vertex 11.0306 1.23291 0.49057
      vertex 11.0228 1.23167 0.49057
    endloop
  endfacet
  facet normal 0.122932 -0.779766 -0.613883
    outer loop
      vertex 11.0306 1.23291 0.49057
      vertex 11.0391 1.25694 0.461742
      vertex 11.0429 1.23964 0.484479
    endloop
  endfacet
  facet normal 0.122938 -0.779768 -0.61388
    outer loop
      vertex 11.0391 1.25694 0.461742
      vertex 11.0228 1.23167 0.49057
      vertex 11.0179 1.25694 0.457504
    endloop
  endfacet
  facet normal 0.358642 -0.703221 -0.613886
    outer loop
      vertex 10.9224 1.19553 0.49057
      vertex 10.9172 1.25694 0.41715
      vertex 10.9415 1.20525 0.49057
    endloop
  endfacet
  facet normal 0.358641 -0.703221 -0.613887
    outer loop
      vertex 10.9172 1.25694 0.41715
      vertex 10.9224 1.19553 0.49057
      vertex 10.8956 1.25694 0.404545
    endloop
  endfacet
  facet normal 0.401659 -0.679613 -0.613837
    outer loop
      vertex 10.8668 1.25694 0.386234
      vertex 10.9039 1.18465 0.49057
      vertex 10.8581 1.25694 0.380522
    endloop
  endfacet
  facet normal 0.558198 -0.558198 -0.613866
    outer loop
      vertex 10.8381 1.1302 0.49057
      vertex 10.7276 1.25694 0.274793
      vertex 10.8533 1.14536 0.49057
    endloop
  endfacet
  facet normal 0.558204 -0.558192 -0.613865
    outer loop
      vertex 10.7276 1.25694 0.274793
      vertex 10.8381 1.1302 0.49057
      vertex 10.7031 1.25694 0.252582
    endloop
  endfacet
  facet normal 0.483819 -0.623782 -0.613853
    outer loop
      vertex 10.8026 1.25694 0.338941
      vertex 10.8693 1.15948 0.49057
      vertex 10.7887 1.25694 0.327975
    endloop
  endfacet
  facet normal 0.652635 -0.444125 -0.613857
    outer loop
      vertex 10.5683 1.25694 0.117175
      vertex 10.7987 1.07946 0.49057
      vertex 10.5191 1.25694 0.0648527
    endloop
  endfacet
  facet normal 0.624255 -0.48318 -0.613875
    outer loop
      vertex 10.8109 1.0972 0.49057
      vertex 10.6152 1.25694 0.165907
      vertex 10.8239 1.11408 0.49057
    endloop
  endfacet
  facet normal 0.624252 -0.483184 -0.613875
    outer loop
      vertex 10.6152 1.25694 0.165907
      vertex 10.8109 1.0972 0.49057
      vertex 10.5909 1.25694 0.141206
    endloop
  endfacet
  facet normal 0.679694 -0.401477 -0.613867
    outer loop
      vertex 10.7987 1.07946 0.49057
      vertex 10.4534 1.24493 0
      vertex 10.4589 1.25413 0
    endloop
  endfacet
  facet normal 0.679694 -0.401477 -0.613867
    outer loop
      vertex 10.4534 1.24493 0
      vertex 10.7987 1.07946 0.49057
      vertex 10.7879 1.06106 0.49057
    endloop
  endfacet
  facet normal 0.703679 -0.357803 -0.613851
    outer loop
      vertex 10.4534 1.24493 0
      vertex 10.7879 1.06106 0.49057
      vertex 10.4377 1.21398 0
    endloop
  endfacet
  facet normal 0.703954 -0.357231 -0.613869
    outer loop
      vertex 10.7879 1.06106 0.49057
      vertex 10.4328 1.2044 0
      vertex 10.4377 1.21398 0
    endloop
  endfacet
  facet normal 0.703954 -0.357231 -0.613869
    outer loop
      vertex 10.4328 1.2044 0
      vertex 10.7879 1.06106 0.49057
      vertex 10.7781 1.04189 0.49057
    endloop
  endfacet
  facet normal -0.0747988 0.78593 -0.613775
    outer loop
      vertex 11.1427 0.176525 0
      vertex 11.1345 0.518609 0.439037
      vertex 11.1773 0.179815 0
    endloop
  endfacet
  facet normal -0.0747986 0.78593 -0.613775
    outer loop
      vertex 11.1345 0.518609 0.439037
      vertex 11.1427 0.176525 0
      vertex 11.1308 0.519685 0.440863
    endloop
  endfacet
  facet normal -0.126915 0.779116 -0.613898
    outer loop
      vertex 11.2115 0.185204 0
      vertex 11.1599 0.512796 0.426433
      vertex 11.2221 0.18692 0
    endloop
  endfacet
  facet normal -0.126914 0.779116 -0.613898
    outer loop
      vertex 11.1599 0.512796 0.426433
      vertex 11.2115 0.185204 0
      vertex 11.1384 0.517695 0.437091
    endloop
  endfacet
  facet normal -0.218734 0.758514 -0.61385
    outer loop
      vertex 11.2664 0.196838 0
      vertex 11.2071 0.505878 0.402993
      vertex 11.2767 0.199795 0
    endloop
  endfacet
  facet normal -0.218732 0.758515 -0.61385
    outer loop
      vertex 11.2071 0.505878 0.402993
      vertex 11.2664 0.196838 0
      vertex 11.1865 0.508216 0.413242
    endloop
  endfacet
  facet normal -0.172516 0.770356 -0.613832
    outer loop
      vertex 11.2326 0.189257 0
      vertex 11.1865 0.508216 0.413242
      vertex 11.2664 0.196838 0
    endloop
  endfacet
  facet normal -0.172517 0.770356 -0.613832
    outer loop
      vertex 11.1865 0.508216 0.413242
      vertex 11.2326 0.189257 0
      vertex 11.1808 0.50919 0.416064
    endloop
  endfacet
  facet normal -0.220173 0.758132 -0.613808
    outer loop
      vertex 11.2767 0.199795 0
      vertex 11.2139 0.505126 0.399641
      vertex 11.31 0.209475 0
    endloop
  endfacet
  facet normal -0.220191 0.758127 -0.613807
    outer loop
      vertex 11.2139 0.505126 0.399641
      vertex 11.2767 0.199795 0
      vertex 11.2071 0.505878 0.402993
    endloop
  endfacet
  facet normal -0.266406 0.743131 -0.613828
    outer loop
      vertex 11.31 0.209475 0
      vertex 11.2345 0.504069 0.389425
      vertex 11.3201 0.213099 0
    endloop
  endfacet
  facet normal -0.266398 0.743133 -0.613828
    outer loop
      vertex 11.2345 0.504069 0.389425
      vertex 11.31 0.209475 0
      vertex 11.2139 0.505126 0.399641
    endloop
  endfacet
  facet normal -0.0245488 0.789069 -0.613814
    outer loop
      vertex 11.0867 0.174093 0
      vertex 11.1073 0.526765 0.452541
      vertex 11.0974 0.174427 0
    endloop
  endfacet
  facet normal -0.0245476 0.789069 -0.613814
    outer loop
      vertex 11.1073 0.526765 0.452541
      vertex 11.0867 0.174093 0
      vertex 11.0867 0.534084 0.462775
    endloop
  endfacet
  facet normal 0.122739 0.779878 -0.613779
    outer loop
      vertex 10.9619 0.185204 0
      vertex 11.0433 0.55352 0.484277
      vertex 10.9961 0.179815 0
    endloop
  endfacet
  facet normal 0.122761 0.779874 -0.61378
    outer loop
      vertex 11.0433 0.55352 0.484277
      vertex 10.9619 0.185204 0
      vertex 11.0429 0.553743 0.484479
    endloop
  endfacet
  facet normal 0.483684 0.623882 -0.613858
    outer loop
      vertex 10.6619 0.31209 0
      vertex 10.8693 0.634003 0.49057
      vertex 10.8863 0.620842 0.49057
    endloop
  endfacet
  facet normal 0.483684 0.623882 -0.613858
    outer loop
      vertex 10.8693 0.634003 0.49057
      vertex 10.6619 0.31209 0
      vertex 10.6534 0.31867 0
    endloop
  endfacet
  facet normal 0.399946 0.68061 -0.613852
    outer loop
      vertex 10.7386 0.263548 0
      vertex 10.9039 0.608826 0.49057
      vertex 10.9224 0.597954 0.49057
    endloop
  endfacet
  facet normal 0.399946 0.68061 -0.613852
    outer loop
      vertex 10.9039 0.608826 0.49057
      vertex 10.7386 0.263548 0
      vertex 10.7293 0.268984 0
    endloop
  endfacet
  facet normal 0.444376 0.652457 -0.613865
    outer loop
      vertex 10.6708 0.306082 0
      vertex 10.8863 0.620842 0.49057
      vertex 10.9039 0.608826 0.49057
    endloop
  endfacet
  facet normal 0.444376 0.652457 -0.613865
    outer loop
      vertex 10.8863 0.620842 0.49057
      vertex 10.6708 0.306082 0
      vertex 10.6619 0.31209 0
    endloop
  endfacet
  facet normal 0.267528 0.742742 -0.61381
    outer loop
      vertex 10.8307 0.221205 0
      vertex 10.9612 0.579643 0.49057
      vertex 10.9813 0.572395 0.49057
    endloop
  endfacet
  facet normal 0.267528 0.742742 -0.61381
    outer loop
      vertex 10.9612 0.579643 0.49057
      vertex 10.8307 0.221205 0
      vertex 10.8207 0.224829 0
    endloop
  endfacet
  facet normal 0.358657 0.703249 -0.613845
    outer loop
      vertex 10.779 0.242901 0
      vertex 10.9224 0.597954 0.49057
      vertex 10.9415 0.588226 0.49057
    endloop
  endfacet
  facet normal 0.358657 0.703249 -0.613845
    outer loop
      vertex 10.9224 0.597954 0.49057
      vertex 10.779 0.242901 0
      vertex 10.7695 0.247765 0
    endloop
  endfacet
  facet normal 0.757809 0.221028 -0.6139
    outer loop
      vertex 10.7624 0.791359 0.49057
      vertex 10.3964 0.683737 0
      vertex 10.7564 0.811958 0.49057
    endloop
  endfacet
  facet normal 0.757809 0.221028 -0.6139
    outer loop
      vertex 10.3964 0.683737 0
      vertex 10.7624 0.791359 0.49057
      vertex 10.3994 0.673437 0
    endloop
  endfacet
  facet normal 0.757992 0.220447 -0.613882
    outer loop
      vertex 10.7564 0.811958 0.49057
      vertex 10.3964 0.683737 0
      vertex 10.3867 0.71702 0
    endloop
  endfacet
  facet normal 0.703688 0.357808 -0.613838
    outer loop
      vertex 10.7781 0.751495 0.49057
      vertex 10.4486 0.55809 0
      vertex 10.4328 0.589037 0
    endloop
  endfacet
  facet normal 0.724363 0.313854 -0.613835
    outer loop
      vertex 10.7781 0.751495 0.49057
      vertex 10.4328 0.589037 0
      vertex 10.419 0.620842 0
    endloop
  endfacet
  facet normal 0.679694 0.401477 -0.613867
    outer loop
      vertex 10.7987 0.714016 0.49057
      vertex 10.4534 0.548553 0
      vertex 10.7879 0.732422 0.49057
    endloop
  endfacet
  facet normal 0.679694 0.401477 -0.613867
    outer loop
      vertex 10.4534 0.548553 0
      vertex 10.7987 0.714016 0.49057
      vertex 10.4589 0.539351 0
    endloop
  endfacet
  facet normal 0.592346 0.521829 -0.613858
    outer loop
      vertex 10.8239 0.679398 0.49057
      vertex 10.5528 0.41008 0
      vertex 10.5299 0.436115 0
    endloop
  endfacet
  facet normal 0.592134 0.522059 -0.613867
    outer loop
      vertex 10.5528 0.41008 0
      vertex 10.8381 0.66328 0.49057
      vertex 10.5599 0.402021 0
    endloop
  endfacet
  facet normal 0.592134 0.522059 -0.613867
    outer loop
      vertex 10.8381 0.66328 0.49057
      vertex 10.5528 0.41008 0
      vertex 10.8239 0.679398 0.49057
    endloop
  endfacet
  facet normal 0.770565 0.171478 -0.613861
    outer loop
      vertex 10.7517 0.832844 0.49057
      vertex 10.3844 0.727463 0
      vertex 10.3768 0.761318 0
    endloop
  endfacet
  facet normal 0.770347 0.172361 -0.613887
    outer loop
      vertex 10.7564 0.811958 0.49057
      vertex 10.3844 0.727463 0
      vertex 10.7517 0.832844 0.49057
    endloop
  endfacet
  facet normal 0.770347 0.172361 -0.613887
    outer loop
      vertex 10.3844 0.727463 0
      vertex 10.7564 0.811958 0.49057
      vertex 10.3867 0.71702 0
    endloop
  endfacet
  facet normal 0.785961 0.0738196 -0.613853
    outer loop
      vertex 10.7464 0.875282 0.49057
      vertex 10.3687 0.816822 0
      vertex 10.3655 0.851345 0
    endloop
  endfacet
  facet normal 0.789028 0.0249624 -0.61385
    outer loop
      vertex 10.7464 0.875282 0.49057
      vertex 10.3655 0.851345 0
      vertex 10.3644 0.886011 0
    endloop
  endfacet
  facet normal 0 0 -1
    outer loop
      vertex 11.0019 0.566483 0.49057
      vertex 11.0306 0.560532 0.49057
      vertex 11.0228 0.56181 0.49057
    endloop
  endfacet
  facet normal 0 0 -1
    outer loop
      vertex 11.0306 0.560532 0.49057
      vertex 11.0019 0.566483 0.49057
      vertex 11.0306 1.23291 0.49057
    endloop
  endfacet
  facet normal 0 0 -1
    outer loop
      vertex 11.0019 1.227 0.49057
      vertex 11.0306 1.23291 0.49057
      vertex 11.0019 0.566483 0.49057
    endloop
  endfacet
  facet normal 0 0 -1
    outer loop
      vertex 11.0306 1.23291 0.49057
      vertex 11.0019 1.227 0.49057
      vertex 11.0228 1.23167 0.49057
    endloop
  endfacet
  facet normal 0 0 -1
    outer loop
      vertex 10.9813 0.572395 0.49057
      vertex 11.0019 1.227 0.49057
      vertex 11.0019 0.566483 0.49057
    endloop
  endfacet
  facet normal 0 0 -1
    outer loop
      vertex 10.9813 0.572395 0.49057
      vertex 10.9813 1.22108 0.49057
      vertex 11.0019 1.227 0.49057
    endloop
  endfacet
  facet normal 0 0 -1
    outer loop
      vertex 10.9612 0.579643 0.49057
      vertex 10.9813 1.22108 0.49057
      vertex 10.9813 0.572395 0.49057
    endloop
  endfacet
  facet normal 0 0 -1
    outer loop
      vertex 10.9612 0.579643 0.49057
      vertex 10.9612 1.21384 0.49057
      vertex 10.9813 1.22108 0.49057
    endloop
  endfacet
  facet normal 0 0 -1
    outer loop
      vertex 10.9415 0.588226 0.49057
      vertex 10.9612 1.21384 0.49057
      vertex 10.9612 0.579643 0.49057
    endloop
  endfacet
  facet normal 0 0 -1
    outer loop
      vertex 10.9415 0.588226 0.49057
      vertex 10.9415 1.20525 0.49057
      vertex 10.9612 1.21384 0.49057
    endloop
  endfacet
  facet normal 0 0 -1
    outer loop
      vertex 10.9224 0.597954 0.49057
      vertex 10.9415 1.20525 0.49057
      vertex 10.9415 0.588226 0.49057
    endloop
  endfacet
  facet normal 0 0 -1
    outer loop
      vertex 10.9224 0.597954 0.49057
      vertex 10.9224 1.19553 0.49057
      vertex 10.9415 1.20525 0.49057
    endloop
  endfacet
  facet normal 0 0 -1
    outer loop
      vertex 10.9039 0.608826 0.49057
      vertex 10.9224 1.19553 0.49057
      vertex 10.9224 0.597954 0.49057
    endloop
  endfacet
  facet normal 0 0 -1
    outer loop
      vertex 10.9039 0.608826 0.49057
      vertex 10.9039 1.18465 0.49057
      vertex 10.9224 1.19553 0.49057
    endloop
  endfacet
  facet normal 0 0 -1
    outer loop
      vertex 10.8863 0.620842 0.49057
      vertex 10.9039 1.18465 0.49057
      vertex 10.9039 0.608826 0.49057
    endloop
  endfacet
  facet normal 0 0 -1
    outer loop
      vertex 10.8863 0.620842 0.49057
      vertex 10.8863 1.17264 0.49057
      vertex 10.9039 1.18465 0.49057
    endloop
  endfacet
  facet normal 0 0 -1
    outer loop
      vertex 10.8693 0.634003 0.49057
      vertex 10.8863 1.17264 0.49057
      vertex 10.8863 0.620842 0.49057
    endloop
  endfacet
  facet normal 0 0 -1
    outer loop
      vertex 10.8693 0.634003 0.49057
      vertex 10.8693 1.15948 0.49057
      vertex 10.8863 1.17264 0.49057
    endloop
  endfacet
  facet normal 0 0 -1
    outer loop
      vertex 10.8533 0.648117 0.49057
      vertex 10.8693 1.15948 0.49057
      vertex 10.8693 0.634003 0.49057
    endloop
  endfacet
  facet normal 0 0 -1
    outer loop
      vertex 10.8533 0.648117 0.49057
      vertex 10.8533 1.14536 0.49057
      vertex 10.8693 1.15948 0.49057
    endloop
  endfacet
  facet normal 0 0 -1
    outer loop
      vertex 10.8381 0.66328 0.49057
      vertex 10.8533 1.14536 0.49057
      vertex 10.8533 0.648117 0.49057
    endloop
  endfacet
  facet normal 0 0 -1
    outer loop
      vertex 10.8381 0.66328 0.49057
      vertex 10.8381 1.1302 0.49057
      vertex 10.8533 1.14536 0.49057
    endloop
  endfacet
  facet normal 0 0 -1
    outer loop
      vertex 10.8239 0.679398 0.49057
      vertex 10.8381 1.1302 0.49057
      vertex 10.8381 0.66328 0.49057
    endloop
  endfacet
  facet normal 0 0 -1
    outer loop
      vertex 10.8239 0.679398 0.49057
      vertex 10.8239 1.11408 0.49057
      vertex 10.8381 1.1302 0.49057
    endloop
  endfacet
  facet normal 0 0 -1
    outer loop
      vertex 10.8109 0.696278 0.49057
      vertex 10.8239 1.11408 0.49057
      vertex 10.8239 0.679398 0.49057
    endloop
  endfacet
  facet normal 0 0 -1
    outer loop
      vertex 10.8109 0.696278 0.49057
      vertex 10.8109 1.0972 0.49057
      vertex 10.8239 1.11408 0.49057
    endloop
  endfacet
  facet normal 0 0 -1
    outer loop
      vertex 10.7987 0.714016 0.49057
      vertex 10.8109 1.0972 0.49057
      vertex 10.8109 0.696278 0.49057
    endloop
  endfacet
  facet normal 0 0 -1
    outer loop
      vertex 10.7987 0.714016 0.49057
      vertex 10.7987 1.07946 0.49057
      vertex 10.8109 1.0972 0.49057
    endloop
  endfacet
  facet normal 0 0 -1
    outer loop
      vertex 10.7879 0.732422 0.49057
      vertex 10.7987 1.07946 0.49057
      vertex 10.7987 0.714016 0.49057
    endloop
  endfacet
  facet normal 0 0 -1
    outer loop
      vertex 10.7879 0.732422 0.49057
      vertex 10.7879 1.06106 0.49057
      vertex 10.7987 1.07946 0.49057
    endloop
  endfacet
  facet normal 0 0 -1
    outer loop
      vertex 10.7781 0.751495 0.49057
      vertex 10.7879 1.06106 0.49057
      vertex 10.7879 0.732422 0.49057
    endloop
  endfacet
  facet normal 0 0 -1
    outer loop
      vertex 10.7781 0.751495 0.49057
      vertex 10.7781 1.04189 0.49057
      vertex 10.7879 1.06106 0.49057
    endloop
  endfacet
  facet normal 0 0 -1
    outer loop
      vertex 10.7697 0.771236 0.49057
      vertex 10.7781 1.04189 0.49057
      vertex 10.7781 0.751495 0.49057
    endloop
  endfacet
  facet normal 0 0 -1
    outer loop
      vertex 10.7697 0.771236 0.49057
      vertex 10.7697 1.02224 0.49057
      vertex 10.7781 1.04189 0.49057
    endloop
  endfacet
  facet normal 0 0 -1
    outer loop
      vertex 10.7624 0.791359 0.49057
      vertex 10.7697 1.02224 0.49057
      vertex 10.7697 0.771236 0.49057
    endloop
  endfacet
  facet normal 0 0 -1
    outer loop
      vertex 10.7624 0.791359 0.49057
      vertex 10.7624 1.00212 0.49057
      vertex 10.7697 1.02224 0.49057
    endloop
  endfacet
  facet normal 0 0 -1
    outer loop
      vertex 10.7564 0.811958 0.49057
      vertex 10.7624 1.00212 0.49057
      vertex 10.7624 0.791359 0.49057
    endloop
  endfacet
  facet normal 0 0 -1
    outer loop
      vertex 10.7564 0.811958 0.49057
      vertex 10.7564 0.981522 0.49057
      vertex 10.7624 1.00212 0.49057
    endloop
  endfacet
  facet normal 0 0 -1
    outer loop
      vertex 10.7517 0.832844 0.49057
      vertex 10.7564 0.981522 0.49057
      vertex 10.7564 0.811958 0.49057
    endloop
  endfacet
  facet normal 0 0 -1
    outer loop
      vertex 10.7517 0.832844 0.49057
      vertex 10.7517 0.960636 0.49057
      vertex 10.7564 0.981522 0.49057
    endloop
  endfacet
  facet normal 0 0 -1
    outer loop
      vertex 10.7484 0.854015 0.49057
      vertex 10.7517 0.960636 0.49057
      vertex 10.7517 0.832844 0.49057
    endloop
  endfacet
  facet normal 0 0 -1
    outer loop
      vertex 10.7484 0.854015 0.49057
      vertex 10.7484 0.939465 0.49057
      vertex 10.7517 0.960636 0.49057
    endloop
  endfacet
  facet normal 0 0 -1
    outer loop
      vertex 10.7464 0.875282 0.49057
      vertex 10.7484 0.939465 0.49057
      vertex 10.7484 0.854015 0.49057
    endloop
  endfacet
  facet normal 0 0 -1
    outer loop
      vertex 10.7464 0.875282 0.49057
      vertex 10.7464 0.918102 0.49057
      vertex 10.7484 0.939465 0.49057
    endloop
  endfacet
  facet normal 0 -0 -1
    outer loop
      vertex 10.7464 0.918102 0.49057
      vertex 10.7464 0.875282 0.49057
      vertex 10.7457 0.89674 0.49057
    endloop
  endfacet
  facet normal 0.78903 -0.0246572 -0.61386
    outer loop
      vertex 10.7457 0.89674 0.49057
      vertex 10.3644 0.907421 0
      vertex 10.7464 0.918102 0.49057
    endloop
  endfacet
  facet normal 0.78903 -0.0246572 -0.61386
    outer loop
      vertex 10.3644 0.907421 0
      vertex 10.7457 0.89674 0.49057
      vertex 10.3641 0.89674 0
    endloop
  endfacet
  facet normal 0.785969 -0.0736846 -0.613859
    outer loop
      vertex 10.7484 0.939465 0.49057
      vertex 10.3655 0.942087 0
      vertex 10.3665 0.952768 0
    endloop
  endfacet
  facet normal 0.785969 -0.0736846 -0.613859
    outer loop
      vertex 10.3655 0.942087 0
      vertex 10.7484 0.939465 0.49057
      vertex 10.7464 0.918102 0.49057
    endloop
  endfacet
  facet normal 0.785959 -0.0738194 -0.613855
    outer loop
      vertex 10.3697 0.987291 0
      vertex 10.7484 0.939465 0.49057
      vertex 10.3665 0.952768 0
    endloop
  endfacet
  facet normal -0.623763 0.483846 -0.61385
    outer loop
      vertex 11.5381 0.550264 0.197103
      vertex 11.4845 0.567732 0.265401
      vertex 11.4988 0.577188 0.25829
    endloop
  endfacet
  facet normal -0.623772 0.483832 -0.613853
    outer loop
      vertex 11.4845 0.567732 0.265401
      vertex 11.5381 0.550264 0.197103
      vertex 11.5381 0.523337 0.17588
    endloop
  endfacet
  facet normal -0.592348 0.521827 -0.613857
    outer loop
      vertex 11.47 0.559733 0.272597
      vertex 11.5381 0.523337 0.17588
      vertex 11.5381 0.492021 0.149259
    endloop
  endfacet
  facet normal -0.592358 0.521815 -0.613858
    outer loop
      vertex 11.5381 0.523337 0.17588
      vertex 11.47 0.559733 0.272597
      vertex 11.4845 0.567732 0.265401
    endloop
  endfacet
  facet normal -0.558198 0.558198 -0.613865
    outer loop
      vertex 11.4378 0.543647 0.288543
      vertex 11.5381 0.47281 0.132921
      vertex 11.5381 0.454621 0.116381
    endloop
  endfacet
  facet normal -0.558206 0.558188 -0.613866
    outer loop
      vertex 11.5381 0.47281 0.132921
      vertex 11.4378 0.543647 0.288543
      vertex 11.4546 0.551261 0.280229
    endloop
  endfacet
  facet normal -0.401493 0.679721 -0.613826
    outer loop
      vertex 11.4348 0.263548 0
      vertex 11.3206 0.50916 0.3467
      vertex 11.444 0.268984 0
    endloop
  endfacet
  facet normal -0.4015 0.679717 -0.613826
    outer loop
      vertex 11.3206 0.50916 0.3467
      vertex 11.4348 0.263548 0
      vertex 11.3013 0.506408 0.356274
    endloop
  endfacet
  facet normal -0.401688 0.679612 -0.613819
    outer loop
      vertex 11.444 0.268984 0
      vertex 11.3316 0.510738 0.341224
      vertex 11.4739 0.286627 0
    endloop
  endfacet
  facet normal -0.401663 0.679626 -0.613821
    outer loop
      vertex 11.3316 0.510738 0.341224
      vertex 11.444 0.268984 0
      vertex 11.3206 0.50916 0.3467
    endloop
  endfacet
  facet normal -0.442749 0.653582 -0.613843
    outer loop
      vertex 11.4739 0.286627 0
      vertex 11.3504 0.514702 0.331922
      vertex 11.4828 0.292635 0
    endloop
  endfacet
  facet normal -0.442762 0.653574 -0.613842
    outer loop
      vertex 11.3504 0.514702 0.331922
      vertex 11.4739 0.286627 0
      vertex 11.3316 0.510738 0.341224
    endloop
  endfacet
  facet normal -0.442896 0.653488 -0.613837
    outer loop
      vertex 11.4828 0.292635 0
      vertex 11.3624 0.517244 0.325965
      vertex 11.5115 0.31209 0
    endloop
  endfacet
  facet normal -0.442873 0.653503 -0.613839
    outer loop
      vertex 11.3624 0.517244 0.325965
      vertex 11.4828 0.292635 0
      vertex 11.3504 0.514702 0.331922
    endloop
  endfacet
  facet normal -0.522377 0.591883 -0.613837
    outer loop
      vertex 11.4105 0.532427 0.302095
      vertex 11.5381 0.415982 0.0812095
      vertex 11.5381 0.369087 0.0359924
    endloop
  endfacet
  facet normal -0.522383 0.591878 -0.613837
    outer loop
      vertex 11.5381 0.415982 0.0812095
      vertex 11.4105 0.532427 0.302095
      vertex 11.4241 0.537421 0.295362
    endloop
  endfacet
  facet normal -0.653565 -0.442728 -0.613876
    outer loop
      vertex 11.5381 1.20185 0.228182
      vertex 11.5381 1.18716 0.238776
      vertex 11.5275 1.19552 0.244041
    endloop
  endfacet
  facet normal -0.592343 -0.521828 -0.613861
    outer loop
      vertex 11.4845 1.22575 0.265401
      vertex 11.4933 1.25694 0.230346
      vertex 11.5222 1.25694 0.202497
    endloop
  endfacet
  facet normal -0.592359 -0.521816 -0.613855
    outer loop
      vertex 11.4933 1.25694 0.230346
      vertex 11.4845 1.22575 0.265401
      vertex 11.47 1.23375 0.272597
    endloop
  endfacet
  facet normal -0.623784 -0.483826 -0.613845
    outer loop
      vertex 11.5381 1.24322 0.197103
      vertex 11.5222 1.25694 0.202497
      vertex 11.5381 1.25694 0.186284
    endloop
  endfacet
  facet normal -0.623782 -0.483821 -0.613851
    outer loop
      vertex 11.4988 1.21629 0.25829
      vertex 11.5222 1.25694 0.202497
      vertex 11.5381 1.24322 0.197103
    endloop
  endfacet
  facet normal -0.623761 -0.483841 -0.613857
    outer loop
      vertex 11.5222 1.25694 0.202497
      vertex 11.4988 1.21629 0.25829
      vertex 11.4845 1.22575 0.265401
    endloop
  endfacet
  facet normal 0.26752 -0.74272 -0.61384
    outer loop
      vertex 10.9612 1.21384 0.49057
      vertex 10.9696 1.25694 0.442106
      vertex 10.9813 1.22108 0.49057
    endloop
  endfacet
  facet normal 0.267525 -0.74272 -0.613839
    outer loop
      vertex 10.9696 1.25694 0.442106
      vertex 10.9612 1.21384 0.49057
      vertex 10.9485 1.25694 0.432886
    endloop
  endfacet
  facet normal 0.312524 -0.724948 -0.613823
    outer loop
      vertex 10.9441 1.25694 0.430971
      vertex 10.9612 1.21384 0.49057
      vertex 10.9394 1.25694 0.428572
    endloop
  endfacet
  facet normal 0.0749308 -0.785863 -0.613845
    outer loop
      vertex 11.0622 1.25694 0.464799
      vertex 11.0645 1.25014 0.473781
      vertex 11.0634 1.2496 0.474335
    endloop
  endfacet
  facet normal 0.0749052 -0.785867 -0.613842
    outer loop
      vertex 11.0645 1.25014 0.473781
      vertex 11.0622 1.25694 0.464799
      vertex 11.064 1.25694 0.465022
    endloop
  endfacet
  facet normal 0.724661 -0.313082 -0.613878
    outer loop
      vertex 10.7781 1.04189 0.49057
      vertex 10.4148 1.16277 0
      vertex 10.419 1.17259 0
    endloop
  endfacet
  facet normal 0.724661 -0.313082 -0.613878
    outer loop
      vertex 10.4148 1.16277 0
      vertex 10.7781 1.04189 0.49057
      vertex 10.7697 1.02224 0.49057
    endloop
  endfacet
  facet normal 0.742688 -0.267509 -0.613884
    outer loop
      vertex 10.7697 1.02224 0.49057
      vertex 10.3994 1.12004 0
      vertex 10.403 1.1301 0
    endloop
  endfacet
  facet normal 0.742688 -0.267509 -0.613884
    outer loop
      vertex 10.3994 1.12004 0
      vertex 10.7697 1.02224 0.49057
      vertex 10.7624 1.00212 0.49057
    endloop
  endfacet
  facet normal 0.742601 -0.26777 -0.613876
    outer loop
      vertex 10.4148 1.16277 0
      vertex 10.7697 1.02224 0.49057
      vertex 10.403 1.1301 0
    endloop
  endfacet
  facet normal 0.757992 -0.220447 -0.613882
    outer loop
      vertex 10.3964 1.10974 0
      vertex 10.7564 0.981522 0.49057
      vertex 10.3867 1.07646 0
    endloop
  endfacet
  facet normal 0.770347 -0.172361 -0.613887
    outer loop
      vertex 10.7564 0.981522 0.49057
      vertex 10.3844 1.06602 0
      vertex 10.3867 1.07646 0
    endloop
  endfacet
  facet normal 0.770347 -0.172361 -0.613887
    outer loop
      vertex 10.3844 1.06602 0
      vertex 10.7564 0.981522 0.49057
      vertex 10.7517 0.960636 0.49057
    endloop
  endfacet
  facet normal 0.443661 -0.652967 -0.61384
    outer loop
      vertex 10.8581 1.25694 0.380522
      vertex 10.9039 1.18465 0.49057
      vertex 10.8483 1.25694 0.373433
    endloop
  endfacet
  facet normal 0.444376 -0.652457 -0.613865
    outer loop
      vertex 10.8863 1.17264 0.49057
      vertex 10.8483 1.25694 0.373433
      vertex 10.9039 1.18465 0.49057
    endloop
  endfacet
  facet normal 0.444374 -0.652458 -0.613865
    outer loop
      vertex 10.8483 1.25694 0.373433
      vertex 10.8863 1.17264 0.49057
      vertex 10.825 1.25694 0.35662
    endloop
  endfacet
  facet normal 0.39993 -0.680583 -0.613892
    outer loop
      vertex 10.9039 1.18465 0.49057
      vertex 10.8887 1.25694 0.400485
      vertex 10.9224 1.19553 0.49057
    endloop
  endfacet
  facet normal 0.399925 -0.680585 -0.613893
    outer loop
      vertex 10.8887 1.25694 0.400485
      vertex 10.9039 1.18465 0.49057
      vertex 10.8668 1.25694 0.386234
    endloop
  endfacet
  facet normal 0.359098 -0.703001 -0.613872
    outer loop
      vertex 10.8956 1.25694 0.404545
      vertex 10.9224 1.19553 0.49057
      vertex 10.8887 1.25694 0.400485
    endloop
  endfacet
  facet normal 0.522371 -0.591888 -0.613838
    outer loop
      vertex 10.7661 1.25694 0.308791
      vertex 10.8533 1.14536 0.49057
      vertex 10.7485 1.25694 0.293804
    endloop
  endfacet
  facet normal 0.521828 -0.592346 -0.613858
    outer loop
      vertex 10.8533 1.14536 0.49057
      vertex 10.7887 1.25694 0.327975
      vertex 10.8693 1.15948 0.49057
    endloop
  endfacet
  facet normal 0.52183 -0.592345 -0.613858
    outer loop
      vertex 10.7887 1.25694 0.327975
      vertex 10.8533 1.14536 0.49057
      vertex 10.7661 1.25694 0.308791
    endloop
  endfacet
  facet normal 0.65192 -0.445128 -0.613891
    outer loop
      vertex 10.7987 1.07946 0.49057
      vertex 10.5909 1.25694 0.141206
      vertex 10.8109 1.0972 0.49057
    endloop
  endfacet
  facet normal 0.651898 -0.445157 -0.613893
    outer loop
      vertex 10.5909 1.25694 0.141206
      vertex 10.7987 1.07946 0.49057
      vertex 10.5683 1.25694 0.117175
    endloop
  endfacet
  facet normal 0.0246583 0.789067 -0.613812
    outer loop
      vertex 11.076 0.174427 0
      vertex 11.0867 0.534084 0.462775
      vertex 11.0867 0.174093 0
    endloop
  endfacet
  facet normal 0.0246564 0.789067 -0.613812
    outer loop
      vertex 11.0867 0.534084 0.462775
      vertex 11.076 0.174427 0
      vertex 11.0657 0.542839 0.473186
    endloop
  endfacet
  facet normal 0.0749011 0.785919 -0.613777
    outer loop
      vertex 10.9961 0.179815 0
      vertex 11.0438 0.55331 0.484061
      vertex 11.0306 0.176525 0
    endloop
  endfacet
  facet normal 0.0748854 0.78592 -0.613776
    outer loop
      vertex 11.0438 0.55331 0.484061
      vertex 10.9961 0.179815 0
      vertex 11.0433 0.55352 0.484277
    endloop
  endfacet
  facet normal 0.0736881 0.786006 -0.613812
    outer loop
      vertex 11.0306 0.176525 0
      vertex 11.0645 0.54334 0.473781
      vertex 11.0413 0.175524 0
    endloop
  endfacet
  facet normal 0.0736899 0.786006 -0.613812
    outer loop
      vertex 11.0645 0.54334 0.473781
      vertex 11.0306 0.176525 0
      vertex 11.0438 0.55331 0.484061
    endloop
  endfacet
  facet normal 0.521829 0.592346 -0.613858
    outer loop
      vertex 10.618 0.346994 0
      vertex 10.8693 0.634003 0.49057
      vertex 10.626 0.339937 0
    endloop
  endfacet
  facet normal 0.521829 0.592346 -0.613858
    outer loop
      vertex 10.8693 0.634003 0.49057
      vertex 10.618 0.346994 0
      vertex 10.8533 0.648117 0.49057
    endloop
  endfacet
  facet normal 0.483831 0.623773 -0.613852
    outer loop
      vertex 10.8693 0.634003 0.49057
      vertex 10.6534 0.31867 0
      vertex 10.626 0.339937 0
    endloop
  endfacet
  facet normal 0.217796 0.758773 -0.613863
    outer loop
      vertex 10.907 0.196838 0
      vertex 10.9813 0.572395 0.49057
      vertex 11.0019 0.566483 0.49057
    endloop
  endfacet
  facet normal 0.217796 0.758773 -0.613863
    outer loop
      vertex 10.9813 0.572395 0.49057
      vertex 10.907 0.196838 0
      vertex 10.8967 0.199795 0
    endloop
  endfacet
  facet normal 0.267175 0.742878 -0.613799
    outer loop
      vertex 10.9813 0.572395 0.49057
      vertex 10.8634 0.209475 0
      vertex 10.8307 0.221205 0
    endloop
  endfacet
  facet normal 0.313467 0.724553 -0.613809
    outer loop
      vertex 10.9612 0.579643 0.49057
      vertex 10.8207 0.224829 0
      vertex 10.7888 0.238609 0
    endloop
  endfacet
  facet normal 0.651919 0.445128 -0.613891
    outer loop
      vertex 10.8109 0.696278 0.49057
      vertex 10.496 0.480843 0
      vertex 10.7987 0.714016 0.49057
    endloop
  endfacet
  facet normal 0.651919 0.445128 -0.613891
    outer loop
      vertex 10.496 0.480843 0
      vertex 10.8109 0.696278 0.49057
      vertex 10.5021 0.471973 0
    endloop
  endfacet
  facet normal 0.779775 0.122938 -0.613871
    outer loop
      vertex 10.7517 0.832844 0.49057
      vertex 10.3697 0.806189 0
      vertex 10.7484 0.854015 0.49057
    endloop
  endfacet
  facet normal 0.779775 0.122938 -0.613871
    outer loop
      vertex 10.3697 0.806189 0
      vertex 10.7517 0.832844 0.49057
      vertex 10.3714 0.795603 0
    endloop
  endfacet
  facet normal -0.358657 0.703249 -0.613845
    outer loop
      vertex 11.3944 0.242901 0
      vertex 11.2913 0.505632 0.361239
      vertex 11.4039 0.247765 0
    endloop
  endfacet
  facet normal -0.358653 0.703251 -0.613845
    outer loop
      vertex 11.2913 0.505632 0.361239
      vertex 11.3944 0.242901 0
      vertex 11.2715 0.504107 0.371071
    endloop
  endfacet
  facet normal -0.483684 0.623882 -0.613858
    outer loop
      vertex 11.5115 0.31209 0
      vertex 11.3805 0.522432 0.316997
      vertex 11.52 0.31867 0
    endloop
  endfacet
  facet normal -0.483687 0.62388 -0.613857
    outer loop
      vertex 11.3805 0.522432 0.316997
      vertex 11.5115 0.31209 0
      vertex 11.3624 0.517244 0.325965
    endloop
  endfacet
  facet normal 0.220127 -0.758118 -0.613841
    outer loop
      vertex 10.9731 1.25694 0.443365
      vertex 10.9813 1.22108 0.49057
      vertex 10.9696 1.25694 0.442106
    endloop
  endfacet
  facet normal 0.172493 -0.770323 -0.61388
    outer loop
      vertex 10.997 1.25694 0.451632
      vertex 11.0019 1.227 0.49057
      vertex 10.9942 1.25694 0.450833
    endloop
  endfacet
  facet normal 0.220176 0.758142 -0.613794
    outer loop
      vertex 10.9813 0.572395 0.49057
      vertex 10.8967 0.199795 0
      vertex 10.8634 0.209475 0
    endloop
  endfacet
  facet normal 0.217786 -0.758738 -0.61391
    outer loop
      vertex 10.9813 1.22108 0.49057
      vertex 10.9942 1.25694 0.450833
      vertex 11.0019 1.227 0.49057
    endloop
  endfacet
  facet normal 0.217792 -0.758738 -0.613908
    outer loop
      vertex 10.9942 1.25694 0.450833
      vertex 10.9813 1.22108 0.49057
      vertex 10.9731 1.25694 0.443365
    endloop
  endfacet
  facet normal 0.172516 0.770356 -0.613832
    outer loop
      vertex 11.0019 0.566483 0.49057
      vertex 10.9408 0.189257 0
      vertex 10.907 0.196838 0
    endloop
  endfacet
  facet normal 0.172369 0.770385 -0.613837
    outer loop
      vertex 10.9513 0.18692 0
      vertex 11.0019 0.566483 0.49057
      vertex 11.0228 0.56181 0.49057
    endloop
  endfacet
  facet normal 0.172369 0.770385 -0.613837
    outer loop
      vertex 11.0019 0.566483 0.49057
      vertex 10.9513 0.18692 0
      vertex 10.9408 0.189257 0
    endloop
  endfacet
endsolid OpenSCAD_Model
