solid OpenSCAD_Model
  facet normal -1 0 0
    outer loop
      vertex 0 -1.00145 0
      vertex 0 1.00145 2.27495
      vertex 0 1.00145 0
    endloop
  endfacet
  facet normal -1 -0 0
    outer loop
      vertex 0 1.00145 2.27495
      vertex 0 -1.00145 0
      vertex 0 -1.00145 2.27495
    endloop
  endfacet
  facet normal 1 -0 0
    outer loop
      vertex 11.6576 -1.00145 0.368801
      vertex 11.6576 1.00145 0
      vertex 11.6576 1.00145 0.368801
    endloop
  endfacet
  facet normal 1 0 0
    outer loop
      vertex 11.6576 1.00145 0
      vertex 11.6576 -1.00145 0.368801
      vertex 11.6576 -1.00145 0
    endloop
  endfacet
  facet normal 0 1 0
    outer loop
      vertex 11.6576 1.00145 0.368801
      vertex 8.5193 1.00145 0.618267
      vertex 0 1.00145 2.27495
    endloop
  endfacet
  facet normal 0 1 0
    outer loop
      vertex 11.6576 1.00145 0.368801
      vertex 8.52494 1.00145 0.609198
      vertex 8.5193 1.00145 0.618267
    endloop
  endfacet
  facet normal 0 1 0
    outer loop
      vertex 11.6576 1.00145 0.368801
      vertex 8.57805 1.00145 0.521821
      vertex 8.52494 1.00145 0.609198
    endloop
  endfacet
  facet normal 0 1 0
    outer loop
      vertex 11.6576 1.00145 0.368801
      vertex 8.5946 1.00145 0.49456
      vertex 8.57805 1.00145 0.521821
    endloop
  endfacet
  facet normal 0 1 0
    outer loop
      vertex 11.6576 1.00145 0.368801
      vertex 8.62447 1.00145 0.444332
      vertex 8.5946 1.00145 0.49456
    endloop
  endfacet
  facet normal 0 1 0
    outer loop
      vertex 11.6576 1.00145 0.368801
      vertex 8.69787 1.00145 0.320881
      vertex 8.62447 1.00145 0.444332
    endloop
  endfacet
  facet normal 0 1 0
    outer loop
      vertex 11.6576 1.00145 0.368801
      vertex 8.7976 1.00145 0.150475
      vertex 8.69787 1.00145 0.320881
    endloop
  endfacet
  facet normal 0 1 0
    outer loop
      vertex 11.6576 1.00145 0.368801
      vertex 8.8679 1.00145 0.0302897
      vertex 8.7976 1.00145 0.150475
    endloop
  endfacet
  facet normal 0 1 0
    outer loop
      vertex 8.88542 1.00145 0
      vertex 11.6576 1.00145 0.368801
      vertex 11.6576 1.00145 0
    endloop
  endfacet
  facet normal 0 1 0
    outer loop
      vertex 11.6576 1.00145 0.368801
      vertex 8.88542 1.00145 0
      vertex 8.8679 1.00145 0.0302897
    endloop
  endfacet
  facet normal 0 1 -0
    outer loop
      vertex 7.89305 1.00145 0.618267
      vertex 0 1.00145 2.27495
      vertex 8.5193 1.00145 0.618267
    endloop
  endfacet
  facet normal 0 1 -0
    outer loop
      vertex 7.88741 1.00145 0.609198
      vertex 0 1.00145 2.27495
      vertex 7.89305 1.00145 0.618267
    endloop
  endfacet
  facet normal 0 1 -0
    outer loop
      vertex 7.83431 1.00145 0.521821
      vertex 0 1.00145 2.27495
      vertex 7.88741 1.00145 0.609198
    endloop
  endfacet
  facet normal 0 1 -0
    outer loop
      vertex 7.81776 1.00145 0.49456
      vertex 0 1.00145 2.27495
      vertex 7.83431 1.00145 0.521821
    endloop
  endfacet
  facet normal 0 1 -0
    outer loop
      vertex 7.7879 1.00145 0.444332
      vertex 0 1.00145 2.27495
      vertex 7.81776 1.00145 0.49456
    endloop
  endfacet
  facet normal 0 1 -0
    outer loop
      vertex 7.7145 1.00145 0.320881
      vertex 0 1.00145 2.27495
      vertex 7.7879 1.00145 0.444332
    endloop
  endfacet
  facet normal 0 1 -0
    outer loop
      vertex 7.61479 1.00145 0.150475
      vertex 0 1.00145 2.27495
      vertex 7.7145 1.00145 0.320881
    endloop
  endfacet
  facet normal 0 1 -0
    outer loop
      vertex 7.54449 1.00145 0.0302897
      vertex 0 1.00145 2.27495
      vertex 7.61479 1.00145 0.150475
    endloop
  endfacet
  facet normal 0 1 -0
    outer loop
      vertex 7.52698 1.00145 0
      vertex 0 1.00145 2.27495
      vertex 7.54449 1.00145 0.0302897
    endloop
  endfacet
  facet normal 0 1 0
    outer loop
      vertex 0 1.00145 2.27495
      vertex 7.52698 1.00145 0
      vertex 0 1.00145 0
    endloop
  endfacet
  facet normal 0 0 -1
    outer loop
      vertex 8.84862 0.62089 0
      vertex 11.6576 1.00145 0
      vertex 11.6576 -1.00145 0
    endloop
  endfacet
  facet normal 0 0 -1
    outer loop
      vertex 11.6576 1.00145 0
      vertex 8.89683 0.864601 0
      vertex 8.89716 0.875187 0
    endloop
  endfacet
  facet normal 0 0 -1
    outer loop
      vertex 11.6576 1.00145 0
      vertex 8.89578 0.831842 0
      vertex 8.89683 0.864601 0
    endloop
  endfacet
  facet normal 0 0 -1
    outer loop
      vertex 11.6576 1.00145 0
      vertex 8.89268 0.799179 0
      vertex 8.89578 0.831842 0
    endloop
  endfacet
  facet normal 0 0 -1
    outer loop
      vertex 11.6576 1.00145 0
      vertex 8.89168 0.788641 0
      vertex 8.89268 0.799179 0
    endloop
  endfacet
  facet normal 0 0 -1
    outer loop
      vertex 11.6576 1.00145 0
      vertex 8.88658 0.756264 0
      vertex 8.89168 0.788641 0
    endloop
  endfacet
  facet normal 0 0 -1
    outer loop
      vertex 11.6576 1.00145 0
      vertex 8.88491 0.745773 0
      vertex 8.88658 0.756264 0
    endloop
  endfacet
  facet normal 0 0 -1
    outer loop
      vertex 11.6576 1.00145 0
      vertex 8.88262 0.735426 0
      vertex 8.88491 0.745773 0
    endloop
  endfacet
  facet normal 0 0 -1
    outer loop
      vertex 11.6576 1.00145 0
      vertex 8.87547 0.703382 0
      vertex 8.88262 0.735426 0
    endloop
  endfacet
  facet normal 0 0 -1
    outer loop
      vertex 11.6576 1.00145 0
      vertex 8.87251 0.693178 0
      vertex 8.87547 0.703382 0
    endloop
  endfacet
  facet normal 0 0 -1
    outer loop
      vertex 11.6576 1.00145 0
      vertex 8.86335 0.661707 0
      vertex 8.87251 0.693178 0
    endloop
  endfacet
  facet normal 0 0 -1
    outer loop
      vertex 11.6576 1.00145 0
      vertex 8.85224 0.630856 0
      vertex 8.86335 0.661707 0
    endloop
  endfacet
  facet normal 0 0 -1
    outer loop
      vertex 11.6576 1.00145 0
      vertex 8.84862 0.62089 0
      vertex 8.85224 0.630856 0
    endloop
  endfacet
  facet normal 0 0 -1
    outer loop
      vertex 11.6576 -1.00145 0
      vertex 8.84442 0.611162 0
      vertex 8.84862 0.62089 0
    endloop
  endfacet
  facet normal 0 0 -1
    outer loop
      vertex 11.6576 -1.00145 0
      vertex 8.83136 0.581026 0
      vertex 8.84442 0.611162 0
    endloop
  endfacet
  facet normal 0 0 -1
    outer loop
      vertex 11.6576 -1.00145 0
      vertex 8.81648 0.551844 0
      vertex 8.83136 0.581026 0
    endloop
  endfacet
  facet normal 0 0 -1
    outer loop
      vertex 11.6576 -1.00145 0
      vertex 8.81166 0.542402 0
      vertex 8.81648 0.551844 0
    endloop
  endfacet
  facet normal 0 0 -1
    outer loop
      vertex 11.6576 -1.00145 0
      vertex 8.80628 0.533247 0
      vertex 8.81166 0.542402 0
    endloop
  endfacet
  facet normal 0 0 -1
    outer loop
      vertex 11.6576 -1.00145 0
      vertex 8.78959 0.504971 0
      vertex 8.80628 0.533247 0
    endloop
  endfacet
  facet normal 0 0 -1
    outer loop
      vertex 11.6576 -1.00145 0
      vertex 8.78363 0.496197 0
      vertex 8.78959 0.504971 0
    endloop
  endfacet
  facet normal 0 0 -1
    outer loop
      vertex 11.6576 -1.00145 0
      vertex 8.76517 0.469112 0
      vertex 8.78363 0.496197 0
    endloop
  endfacet
  facet normal 0 0 -1
    outer loop
      vertex 11.6576 -1.00145 0
      vertex 8.7451 0.443172 0
      vertex 8.76517 0.469112 0
    endloop
  endfacet
  facet normal 0 0 -1
    outer loop
      vertex 11.6576 -1.00145 0
      vertex 8.73857 0.43478 0
      vertex 8.7451 0.443172 0
    endloop
  endfacet
  facet normal 0 0 -1
    outer loop
      vertex 11.6576 -1.00145 0
      vertex 8.73156 0.426817 0
      vertex 8.73857 0.43478 0
    endloop
  endfacet
  facet normal 0 0 -1
    outer loop
      vertex 11.6576 -1.00145 0
      vertex 8.70986 0.402212 0
      vertex 8.73156 0.426817 0
    endloop
  endfacet
  facet normal 0 0 -1
    outer loop
      vertex 11.6576 -1.00145 0
      vertex 8.6792 0.371552 0
      vertex 8.70986 0.402212 0
    endloop
  endfacet
  facet normal 0 0 -1
    outer loop
      vertex 11.6576 -1.00145 0
      vertex 8.65459 0.349855 0
      vertex 8.6792 0.371552 0
    endloop
  endfacet
  facet normal 0 0 -1
    outer loop
      vertex 11.6576 -1.00145 0
      vertex 8.64663 0.342846 0
      vertex 8.65459 0.349855 0
    endloop
  endfacet
  facet normal 0 0 -1
    outer loop
      vertex 11.6576 -1.00145 0
      vertex 8.62069 0.322723 0
      vertex 8.64663 0.342846 0
    endloop
  endfacet
  facet normal 0 0 -1
    outer loop
      vertex 11.6576 -1.00145 0
      vertex 8.6123 0.316238 0
      vertex 8.62069 0.322723 0
    endloop
  endfacet
  facet normal 0 0 -1
    outer loop
      vertex 11.6576 -1.00145 0
      vertex 8.60353 0.310278 0
      vertex 8.6123 0.316238 0
    endloop
  endfacet
  facet normal 0 0 -1
    outer loop
      vertex 11.6576 -1.00145 0
      vertex 8.57639 0.29192 0
      vertex 8.60353 0.310278 0
    endloop
  endfacet
  facet normal 0 0 -1
    outer loop
      vertex 11.6576 -1.00145 0
      vertex 8.56729 0.286484 0
      vertex 8.57639 0.29192 0
    endloop
  endfacet
  facet normal 0 0 -1
    outer loop
      vertex 11.6576 -1.00145 0
      vertex 8.53906 0.269747 0
      vertex 8.56729 0.286484 0
    endloop
  endfacet
  facet normal 0 0 -1
    outer loop
      vertex 11.6576 -1.00145 0
      vertex 8.52962 0.264931 0
      vertex 8.53906 0.269747 0
    endloop
  endfacet
  facet normal 0 0 -1
    outer loop
      vertex 11.6576 -1.00145 0
      vertex 8.50039 0.250053 0
      vertex 8.52962 0.264931 0
    endloop
  endfacet
  facet normal 0 0 -1
    outer loop
      vertex 11.6576 -1.00145 0
      vertex 8.4703 0.237036 0
      vertex 8.50039 0.250053 0
    endloop
  endfacet
  facet normal 0 0 -1
    outer loop
      vertex 11.6576 -1.00145 0
      vertex 8.46057 0.23284 0
      vertex 8.4703 0.237036 0
    endloop
  endfacet
  facet normal 0 0 -1
    outer loop
      vertex 11.6576 -1.00145 0
      vertex 8.42972 0.221729 0
      vertex 8.46057 0.23284 0
    endloop
  endfacet
  facet normal 0 0 -1
    outer loop
      vertex 11.6576 -1.00145 0
      vertex 8.4197 0.218153 0
      vertex 8.42972 0.221729 0
    endloop
  endfacet
  facet normal 0 0 -1
    outer loop
      vertex 11.6576 -1.00145 0
      vertex 8.40955 0.215197 0
      vertex 8.4197 0.218153 0
    endloop
  endfacet
  facet normal 0 0 -1
    outer loop
      vertex 11.6576 -1.00145 0
      vertex 8.37803 0.206041 0
      vertex 8.40955 0.215197 0
    endloop
  endfacet
  facet normal 0 0 -1
    outer loop
      vertex 11.6576 -1.00145 0
      vertex 8.36768 0.203705 0
      vertex 8.37803 0.206041 0
    endloop
  endfacet
  facet normal 0 0 -1
    outer loop
      vertex 11.6576 -1.00145 0
      vertex 8.33569 0.196552 0
      vertex 8.36768 0.203705 0
    endloop
  endfacet
  facet normal 0 0 -1
    outer loop
      vertex 11.6576 -1.00145 0
      vertex 8.3252 0.194883 0
      vertex 8.33569 0.196552 0
    endloop
  endfacet
  facet normal 0 0 -1
    outer loop
      vertex 11.6576 -1.00145 0
      vertex 8.29277 0.189734 0
      vertex 8.3252 0.194883 0
    endloop
  endfacet
  facet normal 0 0 -1
    outer loop
      vertex 11.6576 -1.00145 0
      vertex 8.28218 0.188732 0
      vertex 8.29277 0.189734 0
    endloop
  endfacet
  facet normal 0 0 -1
    outer loop
      vertex 11.6576 -1.00145 0
      vertex 8.24957 0.18568 0
      vertex 8.28218 0.188732 0
    endloop
  endfacet
  facet normal 0 0 -1
    outer loop
      vertex 11.6576 -1.00145 0
      vertex 8.21676 0.184631 0
      vertex 8.24957 0.18568 0
    endloop
  endfacet
  facet normal 0 0 -1
    outer loop
      vertex 11.6576 -1.00145 0
      vertex 8.20618 0.184298 0
      vertex 8.21676 0.184631 0
    endloop
  endfacet
  facet normal 0 0 -1
    outer loop
      vertex 11.6576 -1.00145 0
      vertex 8.19559 0.184631 0
      vertex 8.20618 0.184298 0
    endloop
  endfacet
  facet normal 0 0 -1
    outer loop
      vertex 11.6576 -1.00145 0
      vertex 8.16283 0.18568 0
      vertex 8.19559 0.184631 0
    endloop
  endfacet
  facet normal 0 0 -1
    outer loop
      vertex 11.6576 -1.00145 0
      vertex 8.13017 0.188732 0
      vertex 8.16283 0.18568 0
    endloop
  endfacet
  facet normal 0 0 -1
    outer loop
      vertex 11.6576 -1.00145 0
      vertex 8.11958 0.189734 0
      vertex 8.13017 0.188732 0
    endloop
  endfacet
  facet normal 0 0 -1
    outer loop
      vertex 11.6576 -1.00145 0
      vertex 8.08716 0.194883 0
      vertex 8.11958 0.189734 0
    endloop
  endfacet
  facet normal 0 0 -1
    outer loop
      vertex 11.6576 -1.00145 0
      vertex 8.07672 0.196552 0
      vertex 8.08716 0.194883 0
    endloop
  endfacet
  facet normal 0 0 -1
    outer loop
      vertex 0 -1.00145 0
      vertex 8.07672 0.196552 0
      vertex 11.6576 -1.00145 0
    endloop
  endfacet
  facet normal -0 0 -1
    outer loop
      vertex 8.07672 0.196552 0
      vertex 0 -1.00145 0
      vertex 8.04472 0.203705 0
    endloop
  endfacet
  facet normal -0 0 -1
    outer loop
      vertex 8.04472 0.203705 0
      vertex 0 -1.00145 0
      vertex 8.03432 0.206041 0
    endloop
  endfacet
  facet normal -0 0 -1
    outer loop
      vertex 8.03432 0.206041 0
      vertex 0 -1.00145 0
      vertex 8.00285 0.215197 0
    endloop
  endfacet
  facet normal 0 0 -1
    outer loop
      vertex 7.51657 0.831842 0
      vertex 0 1.00145 0
      vertex 7.51624 0.842428 0
    endloop
  endfacet
  facet normal 0 0 -1
    outer loop
      vertex 7.51967 0.799179 0
      vertex 0 1.00145 0
      vertex 7.51657 0.831842 0
    endloop
  endfacet
  facet normal 0 0 -1
    outer loop
      vertex 7.52068 0.788641 0
      vertex 0 1.00145 0
      vertex 7.51967 0.799179 0
    endloop
  endfacet
  facet normal 0 0 -1
    outer loop
      vertex 7.52583 0.756264 0
      vertex 0 1.00145 0
      vertex 7.52068 0.788641 0
    endloop
  endfacet
  facet normal 0 0 -1
    outer loop
      vertex 7.52749 0.745773 0
      vertex 0 1.00145 0
      vertex 7.52583 0.756264 0
    endloop
  endfacet
  facet normal 0 0 -1
    outer loop
      vertex 0 1.00145 0
      vertex 7.52749 0.745773 0
      vertex 0 -1.00145 0
    endloop
  endfacet
  facet normal -0 0 -1
    outer loop
      vertex 7.52978 0.735426 0
      vertex 0 -1.00145 0
      vertex 7.52749 0.745773 0
    endloop
  endfacet
  facet normal -0 0 -1
    outer loop
      vertex 7.53694 0.703382 0
      vertex 0 -1.00145 0
      vertex 7.52978 0.735426 0
    endloop
  endfacet
  facet normal -0 0 -1
    outer loop
      vertex 7.53989 0.693178 0
      vertex 0 -1.00145 0
      vertex 7.53694 0.703382 0
    endloop
  endfacet
  facet normal -0 0 -1
    outer loop
      vertex 7.54905 0.661707 0
      vertex 0 -1.00145 0
      vertex 7.53989 0.693178 0
    endloop
  endfacet
  facet normal -0 0 -1
    outer loop
      vertex 7.56016 0.630856 0
      vertex 0 -1.00145 0
      vertex 7.54905 0.661707 0
    endloop
  endfacet
  facet normal -0 0 -1
    outer loop
      vertex 7.56378 0.62089 0
      vertex 0 -1.00145 0
      vertex 7.56016 0.630856 0
    endloop
  endfacet
  facet normal -0 0 -1
    outer loop
      vertex 7.56798 0.611162 0
      vertex 0 -1.00145 0
      vertex 7.56378 0.62089 0
    endloop
  endfacet
  facet normal -0 0 -1
    outer loop
      vertex 7.581 0.581026 0
      vertex 0 -1.00145 0
      vertex 7.56798 0.611162 0
    endloop
  endfacet
  facet normal -0 0 -1
    outer loop
      vertex 7.59587 0.551844 0
      vertex 0 -1.00145 0
      vertex 7.581 0.581026 0
    endloop
  endfacet
  facet normal -0 0 -1
    outer loop
      vertex 7.60069 0.542402 0
      vertex 0 -1.00145 0
      vertex 7.59587 0.551844 0
    endloop
  endfacet
  facet normal -0 0 -1
    outer loop
      vertex 7.60608 0.533247 0
      vertex 0 -1.00145 0
      vertex 7.60069 0.542402 0
    endloop
  endfacet
  facet normal -0 0 -1
    outer loop
      vertex 7.62277 0.504971 0
      vertex 0 -1.00145 0
      vertex 7.60608 0.533247 0
    endloop
  endfacet
  facet normal -0 0 -1
    outer loop
      vertex 7.62873 0.496197 0
      vertex 0 -1.00145 0
      vertex 7.62277 0.504971 0
    endloop
  endfacet
  facet normal -0 0 -1
    outer loop
      vertex 7.64718 0.469112 0
      vertex 0 -1.00145 0
      vertex 7.62873 0.496197 0
    endloop
  endfacet
  facet normal -0 0 -1
    outer loop
      vertex 7.66726 0.443172 0
      vertex 0 -1.00145 0
      vertex 7.64718 0.469112 0
    endloop
  endfacet
  facet normal -0 0 -1
    outer loop
      vertex 7.67379 0.43478 0
      vertex 0 -1.00145 0
      vertex 7.66726 0.443172 0
    endloop
  endfacet
  facet normal -0 0 -1
    outer loop
      vertex 7.6808 0.426817 0
      vertex 0 -1.00145 0
      vertex 7.67379 0.43478 0
    endloop
  endfacet
  facet normal -0 0 -1
    outer loop
      vertex 7.70249 0.402212 0
      vertex 0 -1.00145 0
      vertex 7.6808 0.426817 0
    endloop
  endfacet
  facet normal -0 0 -1
    outer loop
      vertex 7.70998 0.394726 0
      vertex 0 -1.00145 0
      vertex 7.70249 0.402212 0
    endloop
  endfacet
  facet normal -0 0 -1
    outer loop
      vertex 7.7332 0.371552 0
      vertex 0 -1.00145 0
      vertex 7.70998 0.394726 0
    endloop
  endfacet
  facet normal -0 0 -1
    outer loop
      vertex 7.75781 0.349855 0
      vertex 0 -1.00145 0
      vertex 7.7332 0.371552 0
    endloop
  endfacet
  facet normal -0 0 -1
    outer loop
      vertex 7.76577 0.342846 0
      vertex 0 -1.00145 0
      vertex 7.75781 0.349855 0
    endloop
  endfacet
  facet normal -0 0 -1
    outer loop
      vertex 7.79166 0.322723 0
      vertex 0 -1.00145 0
      vertex 7.76577 0.342846 0
    endloop
  endfacet
  facet normal -0 0 -1
    outer loop
      vertex 7.80005 0.316238 0
      vertex 0 -1.00145 0
      vertex 7.79166 0.322723 0
    endloop
  endfacet
  facet normal -0 0 -1
    outer loop
      vertex 7.80883 0.310278 0
      vertex 0 -1.00145 0
      vertex 7.80005 0.316238 0
    endloop
  endfacet
  facet normal -0 0 -1
    outer loop
      vertex 7.83596 0.29192 0
      vertex 0 -1.00145 0
      vertex 7.80883 0.310278 0
    endloop
  endfacet
  facet normal -0 0 -1
    outer loop
      vertex 7.84507 0.286484 0
      vertex 0 -1.00145 0
      vertex 7.83596 0.29192 0
    endloop
  endfacet
  facet normal -0 0 -1
    outer loop
      vertex 7.8733 0.269747 0
      vertex 0 -1.00145 0
      vertex 7.84507 0.286484 0
    endloop
  endfacet
  facet normal -0 0 -1
    outer loop
      vertex 7.88274 0.264931 0
      vertex 0 -1.00145 0
      vertex 7.8733 0.269747 0
    endloop
  endfacet
  facet normal -0 0 -1
    outer loop
      vertex 7.91197 0.250053 0
      vertex 0 -1.00145 0
      vertex 7.88274 0.264931 0
    endloop
  endfacet
  facet normal -0 0 -1
    outer loop
      vertex 7.94206 0.237036 0
      vertex 0 -1.00145 0
      vertex 7.91197 0.250053 0
    endloop
  endfacet
  facet normal -0 0 -1
    outer loop
      vertex 7.95183 0.23284 0
      vertex 0 -1.00145 0
      vertex 7.94206 0.237036 0
    endloop
  endfacet
  facet normal -0 0 -1
    outer loop
      vertex 7.98273 0.221729 0
      vertex 0 -1.00145 0
      vertex 7.95183 0.23284 0
    endloop
  endfacet
  facet normal -0 0 -1
    outer loop
      vertex 7.9927 0.218153 0
      vertex 0 -1.00145 0
      vertex 7.98273 0.221729 0
    endloop
  endfacet
  facet normal -0 0 -1
    outer loop
      vertex 8.00285 0.215197 0
      vertex 0 -1.00145 0
      vertex 7.9927 0.218153 0
    endloop
  endfacet
  facet normal 0 0 -1
    outer loop
      vertex 8.89683 0.88582 0
      vertex 11.6576 1.00145 0
      vertex 8.89716 0.875187 0
    endloop
  endfacet
  facet normal 0 0 -1
    outer loop
      vertex 8.89578 0.918627 0
      vertex 11.6576 1.00145 0
      vertex 8.89683 0.88582 0
    endloop
  endfacet
  facet normal 0 0 -1
    outer loop
      vertex 8.89268 0.95129 0
      vertex 11.6576 1.00145 0
      vertex 8.89578 0.918627 0
    endloop
  endfacet
  facet normal 0 0 -1
    outer loop
      vertex 8.89168 0.961828 0
      vertex 11.6576 1.00145 0
      vertex 8.89268 0.95129 0
    endloop
  endfacet
  facet normal 0 0 -1
    outer loop
      vertex 8.88658 0.994205 0
      vertex 11.6576 1.00145 0
      vertex 8.89168 0.961828 0
    endloop
  endfacet
  facet normal -0 0 -1
    outer loop
      vertex 11.6576 1.00145 0
      vertex 8.88658 0.994205 0
      vertex 8.88542 1.00145 0
    endloop
  endfacet
  facet normal 0 0 -1
    outer loop
      vertex 7.51624 0.842428 0
      vertex 0 1.00145 0
      vertex 7.51524 0.875187 0
    endloop
  endfacet
  facet normal 0 0 -1
    outer loop
      vertex 7.51524 0.875187 0
      vertex 0 1.00145 0
      vertex 7.51624 0.907993 0
    endloop
  endfacet
  facet normal 0 0 -1
    outer loop
      vertex 7.51624 0.907993 0
      vertex 0 1.00145 0
      vertex 7.51657 0.918627 0
    endloop
  endfacet
  facet normal 0 0 -1
    outer loop
      vertex 7.51657 0.918627 0
      vertex 0 1.00145 0
      vertex 7.51967 0.95129 0
    endloop
  endfacet
  facet normal 0 0 -1
    outer loop
      vertex 7.51967 0.95129 0
      vertex 0 1.00145 0
      vertex 7.52068 0.961828 0
    endloop
  endfacet
  facet normal 0 0 -1
    outer loop
      vertex 7.52068 0.961828 0
      vertex 0 1.00145 0
      vertex 7.52583 0.994205 0
    endloop
  endfacet
  facet normal 0 0 -1
    outer loop
      vertex 7.52583 0.994205 0
      vertex 0 1.00145 0
      vertex 7.52698 1.00145 0
    endloop
  endfacet
  facet normal 0 -1 0
    outer loop
      vertex 0 -1.00145 0
      vertex 11.6576 -1.00145 0.368801
      vertex 0 -1.00145 2.27495
    endloop
  endfacet
  facet normal 0 -1 -0
    outer loop
      vertex 11.6576 -1.00145 0.368801
      vertex 0 -1.00145 0
      vertex 11.6576 -1.00145 0
    endloop
  endfacet
  facet normal 0.161368 0 0.986894
    outer loop
      vertex 0 1.00145 2.27495
      vertex 11.6576 -1.00145 0.368801
      vertex 11.6576 1.00145 0.368801
    endloop
  endfacet
  facet normal 0.161368 0 0.986894
    outer loop
      vertex 11.6576 -1.00145 0.368801
      vertex 0 1.00145 2.27495
      vertex 0 -1.00145 2.27495
    endloop
  endfacet
  facet normal -0.867925 -0.0272443 -0.495948
    outer loop
      vertex 8.54387 0.875187 0.618267
      vertex 8.89683 0.88582 0
      vertex 8.89716 0.875187 0
    endloop
  endfacet
  facet normal -0.867925 -0.0272443 -0.495948
    outer loop
      vertex 8.89683 0.88582 0
      vertex 8.54387 0.875187 0.618267
      vertex 8.54321 0.896454 0.618267
    endloop
  endfacet
  facet normal -0.867917 -0.0277531 -0.495934
    outer loop
      vertex 8.89578 0.918627 0
      vertex 8.89683 0.88582 0
      vertex 8.54321 0.896454 0.618267
    endloop
  endfacet
  facet normal -0.857777 -0.135173 -0.495931
    outer loop
      vertex 8.88658 0.994205 0
      vertex 8.89168 0.961828 0
      vertex 8.5412 0.91753 0.618267
    endloop
  endfacet
  facet normal -0.747831 0.441385 -0.495911
    outer loop
      vertex 8.80628 0.533247 0
      vertex 8.78959 0.504971 0
      vertex 8.49133 0.694275 0.618267
    endloop
  endfacet
  facet normal 0.0273687 0.86798 -0.495845
    outer loop
      vertex 8.19559 0.184631 0
      vertex 8.20618 0.537491 0.618267
      vertex 8.20618 0.184298 0
    endloop
  endfacet
  facet normal 0.0273687 0.86798 -0.495845
    outer loop
      vertex 8.20618 0.537491 0.618267
      vertex 8.19559 0.184631 0
      vertex 8.18501 0.538158 0.618267
    endloop
  endfacet
  facet normal -0.864471 0.0821443 -0.495926
    outer loop
      vertex 8.89268 0.799179 0
      vertex 8.5412 0.832939 0.618267
      vertex 8.54321 0.854015 0.618267
    endloop
  endfacet
  facet normal -0.864471 0.0821443 -0.495926
    outer loop
      vertex 8.5412 0.832939 0.618267
      vertex 8.89268 0.799179 0
      vertex 8.89168 0.788641 0
    endloop
  endfacet
  facet normal -0.847444 -0.189456 -0.495929
    outer loop
      vertex 8.69787 1.00145 0.320881
      vertex 8.7976 1.00145 0.150475
      vertex 8.53329 0.959206 0.618267
    endloop
  endfacet
  facet normal 0.867932 0.0273672 -0.495929
    outer loop
      vertex 7.86915 0.854015 0.618267
      vertex 7.51624 0.842428 0
      vertex 7.86848 0.875187 0.618267
    endloop
  endfacet
  facet normal 0.867932 0.0273672 -0.495929
    outer loop
      vertex 7.51624 0.842428 0
      vertex 7.86915 0.854015 0.618267
      vertex 7.51657 0.831842 0
    endloop
  endfacet
  facet normal 0.834078 0.241649 -0.495902
    outer loop
      vertex 7.88498 0.770855 0.618267
      vertex 7.53694 0.703382 0
      vertex 7.87907 0.791264 0.618267
    endloop
  endfacet
  facet normal 0.834078 0.241649 -0.495902
    outer loop
      vertex 7.53694 0.703382 0
      vertex 7.88498 0.770855 0.618267
      vertex 7.53989 0.693178 0
    endloop
  endfacet
  facet normal 0.651318 0.574321 -0.495924
    outer loop
      vertex 7.96003 0.644016 0.618267
      vertex 7.70249 0.402212 0
      vertex 7.6808 0.426817 0
    endloop
  endfacet
  facet normal -0.136216 0.857653 -0.495859
    outer loop
      vertex 8.3252 0.194883 0
      vertex 8.29277 0.189734 0
      vertex 8.24852 0.540161 0.618267
    endloop
  endfacet
  facet normal -0.191269 0.84705 -0.495905
    outer loop
      vertex 8.36768 0.203705 0
      vertex 8.2902 0.548172 0.618267
      vertex 8.37803 0.206041 0
    endloop
  endfacet
  facet normal -0.191269 0.84705 -0.495905
    outer loop
      vertex 8.2902 0.548172 0.618267
      vertex 8.36768 0.203705 0
      vertex 8.2695 0.543499 0.618267
    endloop
  endfacet
  facet normal -0.573749 0.65181 -0.495939
    outer loop
      vertex 8.64663 0.342846 0
      vertex 8.43735 0.629044 0.618267
      vertex 8.65459 0.349855 0
    endloop
  endfacet
  facet normal -0.573749 0.65181 -0.495939
    outer loop
      vertex 8.43735 0.629044 0.618267
      vertex 8.64663 0.342846 0
      vertex 8.42142 0.615025 0.618267
    endloop
  endfacet
  facet normal -0.847502 0.189175 -0.495937
    outer loop
      vertex 8.88262 0.735426 0
      vertex 8.87547 0.703382 0
      vertex 8.53329 0.791264 0.618267
    endloop
  endfacet
  facet normal -0.867915 0.0277935 -0.495935
    outer loop
      vertex 8.89683 0.864601 0
      vertex 8.89578 0.831842 0
      vertex 8.54321 0.854015 0.618267
    endloop
  endfacet
  facet normal -0.797301 -0.344035 -0.495935
    outer loop
      vertex 8.52494 1.00145 0.609198
      vertex 8.52013 0.999546 0.618267
      vertex 8.5193 1.00145 0.618267
    endloop
  endfacet
  facet normal 0.86797 0.0265318 -0.495907
    outer loop
      vertex 7.86848 0.875187 0.618267
      vertex 7.51624 0.842428 0
      vertex 7.51524 0.875187 0
    endloop
  endfacet
  facet normal 0.864483 0.0820313 -0.495923
    outer loop
      vertex 7.86915 0.854015 0.618267
      vertex 7.51967 0.799179 0
      vertex 7.51657 0.831842 0
    endloop
  endfacet
  facet normal 0.530944 0.687104 -0.495971
    outer loop
      vertex 7.80005 0.316238 0
      vertex 7.99093 0.615025 0.618267
      vertex 8.00772 0.602055 0.618267
    endloop
  endfacet
  facet normal 0.530944 0.687104 -0.495971
    outer loop
      vertex 7.99093 0.615025 0.618267
      vertex 7.80005 0.316238 0
      vertex 7.79166 0.322723 0
    endloop
  endfacet
  facet normal 0.857591 0.136406 -0.495914
    outer loop
      vertex 7.87115 0.832939 0.618267
      vertex 7.52583 0.756264 0
      vertex 7.52068 0.788641 0
    endloop
  endfacet
  facet normal 0.773637 0.394403 -0.495915
    outer loop
      vertex 7.90062 0.731468 0.618267
      vertex 7.59587 0.551844 0
      vertex 7.581 0.581026 0
    endloop
  endfacet
  facet normal 0.614029 0.614029 -0.495921
    outer loop
      vertex 7.97501 0.629044 0.618267
      vertex 7.70249 0.402212 0
      vertex 7.96003 0.644016 0.618267
    endloop
  endfacet
  facet normal 0.614029 0.614029 -0.495921
    outer loop
      vertex 7.70249 0.402212 0
      vertex 7.97501 0.629044 0.618267
      vertex 7.70998 0.394726 0
    endloop
  endfacet
  facet normal -0.189453 0.847487 -0.495856
    outer loop
      vertex 8.36768 0.203705 0
      vertex 8.33569 0.196552 0
      vertex 8.2695 0.543499 0.618267
    endloop
  endfacet
  facet normal -0.0809016 0.864636 -0.495842
    outer loop
      vertex 8.28218 0.188732 0
      vertex 8.24957 0.18568 0
      vertex 8.22735 0.538158 0.618267
    endloop
  endfacet
  facet normal -0.651318 0.574321 -0.495924
    outer loop
      vertex 8.73156 0.426817 0
      vertex 8.70986 0.402212 0
      vertex 8.45232 0.644016 0.618267
    endloop
  endfacet
  facet normal -0.718292 0.48797 -0.495925
    outer loop
      vertex 8.78959 0.504971 0
      vertex 8.4794 0.676727 0.618267
      vertex 8.49133 0.694275 0.618267
    endloop
  endfacet
  facet normal -0.718292 0.48797 -0.495925
    outer loop
      vertex 8.4794 0.676727 0.618267
      vertex 8.78959 0.504971 0
      vertex 8.78363 0.496197 0
    endloop
  endfacet
  facet normal -0.857777 0.135173 -0.495931
    outer loop
      vertex 8.89168 0.788641 0
      vertex 8.88658 0.756264 0
      vertex 8.5412 0.832939 0.618267
    endloop
  endfacet
  facet normal -0.857558 -0.136419 -0.495968
    outer loop
      vertex 8.88658 0.994205 0
      vertex 8.8679 1.00145 0.0302897
      vertex 8.88542 1.00145 0
    endloop
  endfacet
  facet normal -0.857558 -0.136433 -0.495964
    outer loop
      vertex 8.5412 0.91753 0.618267
      vertex 8.8679 1.00145 0.0302897
      vertex 8.88658 0.994205 0
    endloop
  endfacet
  facet normal -0.857558 -0.13643 -0.495964
    outer loop
      vertex 8.8679 1.00145 0.0302897
      vertex 8.5412 0.91753 0.618267
      vertex 8.53786 0.938511 0.618267
    endloop
  endfacet
  facet normal -0.864483 -0.0820313 -0.495923
    outer loop
      vertex 8.89268 0.95129 0
      vertex 8.89578 0.918627 0
      vertex 8.54321 0.896454 0.618267
    endloop
  endfacet
  facet normal -0.864471 -0.0821443 -0.495926
    outer loop
      vertex 8.89268 0.95129 0
      vertex 8.5412 0.91753 0.618267
      vertex 8.89168 0.961828 0
    endloop
  endfacet
  facet normal -0.864471 -0.0821443 -0.495926
    outer loop
      vertex 8.5412 0.91753 0.618267
      vertex 8.89268 0.95129 0
      vertex 8.54321 0.896454 0.618267
    endloop
  endfacet
  facet normal 0.867971 -0.0264933 -0.495907
    outer loop
      vertex 7.51624 0.907993 0
      vertex 7.86848 0.875187 0.618267
      vertex 7.51524 0.875187 0
    endloop
  endfacet
  facet normal 0.864483 -0.0820313 -0.495923
    outer loop
      vertex 7.51967 0.95129 0
      vertex 7.86915 0.896454 0.618267
      vertex 7.51657 0.918627 0
    endloop
  endfacet
  facet normal 0.847474 -0.189445 -0.495881
    outer loop
      vertex 7.7145 1.00145 0.320881
      vertex 7.87907 0.959206 0.618267
      vertex 7.61479 1.00145 0.150475
    endloop
  endfacet
  facet normal 0.136216 0.857653 -0.495859
    outer loop
      vertex 8.16383 0.540161 0.618267
      vertex 8.11958 0.189734 0
      vertex 8.08716 0.194883 0
    endloop
  endfacet
  facet normal 0.394596 0.773564 -0.495875
    outer loop
      vertex 7.88274 0.264931 0
      vertex 8.04348 0.579262 0.618267
      vertex 8.06236 0.56963 0.618267
    endloop
  endfacet
  facet normal 0.394596 0.773564 -0.495875
    outer loop
      vertex 8.04348 0.579262 0.618267
      vertex 7.88274 0.264931 0
      vertex 7.8733 0.269747 0
    endloop
  endfacet
  facet normal 0.487963 0.718281 -0.495948
    outer loop
      vertex 7.80883 0.310278 0
      vertex 8.00772 0.602055 0.618267
      vertex 8.02526 0.590134 0.618267
    endloop
  endfacet
  facet normal 0.487963 0.718281 -0.495948
    outer loop
      vertex 8.00772 0.602055 0.618267
      vertex 7.80883 0.310278 0
      vertex 7.80005 0.316238 0
    endloop
  endfacet
  facet normal 0.847529 0.189181 -0.495888
    outer loop
      vertex 7.87907 0.791264 0.618267
      vertex 7.53694 0.703382 0
      vertex 7.52978 0.735426 0
    endloop
  endfacet
  facet normal 0.833826 0.242568 -0.495877
    outer loop
      vertex 7.88498 0.770855 0.618267
      vertex 7.54905 0.661707 0
      vertex 7.53989 0.693178 0
    endloop
  endfacet
  facet normal 0.864471 0.0821443 -0.495926
    outer loop
      vertex 7.87115 0.832939 0.618267
      vertex 7.51967 0.799179 0
      vertex 7.86915 0.854015 0.618267
    endloop
  endfacet
  facet normal 0.864471 0.0821443 -0.495926
    outer loop
      vertex 7.51967 0.799179 0
      vertex 7.87115 0.832939 0.618267
      vertex 7.52068 0.788641 0
    endloop
  endfacet
  facet normal 0.613407 0.614669 -0.495897
    outer loop
      vertex 7.97501 0.629044 0.618267
      vertex 7.7332 0.371552 0
      vertex 7.70998 0.394726 0
    endloop
  endfacet
  facet normal 0.685222 0.533383 -0.495956
    outer loop
      vertex 7.94601 0.659943 0.618267
      vertex 7.66726 0.443172 0
      vertex 7.93295 0.676727 0.618267
    endloop
  endfacet
  facet normal 0.685222 0.533383 -0.495956
    outer loop
      vertex 7.66726 0.443172 0
      vertex 7.94601 0.659943 0.618267
      vertex 7.67379 0.43478 0
    endloop
  endfacet
  facet normal 0.747831 0.441385 -0.495911
    outer loop
      vertex 7.92103 0.694275 0.618267
      vertex 7.62277 0.504971 0
      vertex 7.60608 0.533247 0
    endloop
  endfacet
  facet normal -0.027755 0.867973 -0.495835
    outer loop
      vertex 8.22735 0.538158 0.618267
      vertex 8.24957 0.18568 0
      vertex 8.21676 0.184631 0
    endloop
  endfacet
  facet normal -0.530944 0.687104 -0.495971
    outer loop
      vertex 8.6123 0.316238 0
      vertex 8.42142 0.615025 0.618267
      vertex 8.62069 0.322723 0
    endloop
  endfacet
  facet normal -0.530944 0.687104 -0.495971
    outer loop
      vertex 8.42142 0.615025 0.618267
      vertex 8.6123 0.316238 0
      vertex 8.40464 0.602055 0.618267
    endloop
  endfacet
  facet normal -0.393908 0.773928 -0.495855
    outer loop
      vertex 8.52962 0.264931 0
      vertex 8.50039 0.250053 0
      vertex 8.34999 0.56963 0.618267
    endloop
  endfacet
  facet normal -0.136439 0.857615 -0.495865
    outer loop
      vertex 8.3252 0.194883 0
      vertex 8.2695 0.543499 0.618267
      vertex 8.33569 0.196552 0
    endloop
  endfacet
  facet normal -0.136439 0.857615 -0.495865
    outer loop
      vertex 8.2695 0.543499 0.618267
      vertex 8.3252 0.194883 0
      vertex 8.24852 0.540161 0.618267
    endloop
  endfacet
  facet normal -0.242696 0.83378 -0.495893
    outer loop
      vertex 8.40955 0.215197 0
      vertex 8.31051 0.554085 0.618267
      vertex 8.4197 0.218153 0
    endloop
  endfacet
  facet normal -0.242696 0.83378 -0.495893
    outer loop
      vertex 8.31051 0.554085 0.618267
      vertex 8.40955 0.215197 0
      vertex 8.2902 0.548172 0.618267
    endloop
  endfacet
  facet normal -0.294234 0.817037 -0.495859
    outer loop
      vertex 8.46057 0.23284 0
      vertex 8.42972 0.221729 0
      vertex 8.33054 0.561237 0.618267
    endloop
  endfacet
  facet normal -0.686751 0.531474 -0.495892
    outer loop
      vertex 8.76517 0.469112 0
      vertex 8.7451 0.443172 0
      vertex 8.4794 0.676727 0.618267
    endloop
  endfacet
  facet normal -0.717643 0.488957 -0.495893
    outer loop
      vertex 8.78363 0.496197 0
      vertex 8.76517 0.469112 0
      vertex 8.4794 0.676727 0.618267
    endloop
  endfacet
  facet normal -0.748367 0.440445 -0.495939
    outer loop
      vertex 8.81166 0.542402 0
      vertex 8.49133 0.694275 0.618267
      vertex 8.5021 0.712585 0.618267
    endloop
  endfacet
  facet normal -0.748367 0.440445 -0.495939
    outer loop
      vertex 8.49133 0.694275 0.618267
      vertex 8.81166 0.542402 0
      vertex 8.80628 0.533247 0
    endloop
  endfacet
  facet normal -0.773637 0.394403 -0.495915
    outer loop
      vertex 8.83136 0.581026 0
      vertex 8.81648 0.551844 0
      vertex 8.51173 0.731468 0.618267
    endloop
  endfacet
  facet normal -0.651808 0.573747 -0.495944
    outer loop
      vertex 8.73857 0.43478 0
      vertex 8.45232 0.644016 0.618267
      vertex 8.46634 0.659943 0.618267
    endloop
  endfacet
  facet normal -0.651808 0.573747 -0.495944
    outer loop
      vertex 8.45232 0.644016 0.618267
      vertex 8.73857 0.43478 0
      vertex 8.73156 0.426817 0
    endloop
  endfacet
  facet normal -0.81605 0.296745 -0.495989
    outer loop
      vertex 8.85224 0.630856 0
      vertex 8.52013 0.750923 0.618267
      vertex 8.52737 0.770855 0.618267
    endloop
  endfacet
  facet normal -0.81605 0.296745 -0.495989
    outer loop
      vertex 8.52013 0.750923 0.618267
      vertex 8.85224 0.630856 0
      vertex 8.84862 0.62089 0
    endloop
  endfacet
  facet normal -0.834052 0.241641 -0.495951
    outer loop
      vertex 8.87547 0.703382 0
      vertex 8.52737 0.770855 0.618267
      vertex 8.53329 0.791264 0.618267
    endloop
  endfacet
  facet normal -0.834052 0.241641 -0.495951
    outer loop
      vertex 8.52737 0.770855 0.618267
      vertex 8.87547 0.703382 0
      vertex 8.87251 0.693178 0
    endloop
  endfacet
  facet normal -0.864483 0.0820313 -0.495923
    outer loop
      vertex 8.89578 0.831842 0
      vertex 8.89268 0.799179 0
      vertex 8.54321 0.854015 0.618267
    endloop
  endfacet
  facet normal -0.867922 0.0273669 -0.495946
    outer loop
      vertex 8.89683 0.864601 0
      vertex 8.54387 0.875187 0.618267
      vertex 8.89716 0.875187 0
    endloop
  endfacet
  facet normal -0.867922 0.0273669 -0.495946
    outer loop
      vertex 8.54387 0.875187 0.618267
      vertex 8.89683 0.864601 0
      vertex 8.54321 0.854015 0.618267
    endloop
  endfacet
  facet normal -0.847837 -0.187555 -0.49598
    outer loop
      vertex 8.53786 0.938511 0.618267
      vertex 8.7976 1.00145 0.150475
      vertex 8.8679 1.00145 0.0302897
    endloop
  endfacet
  facet normal -0.84784 -0.187541 -0.49598
    outer loop
      vertex 8.7976 1.00145 0.150475
      vertex 8.53786 0.938511 0.618267
      vertex 8.53329 0.959206 0.618267
    endloop
  endfacet
  facet normal -0.834061 -0.24164 -0.495936
    outer loop
      vertex 8.53329 0.959206 0.618267
      vertex 8.62447 1.00145 0.444332
      vertex 8.69787 1.00145 0.320881
    endloop
  endfacet
  facet normal -0.83406 -0.241643 -0.495936
    outer loop
      vertex 8.62447 1.00145 0.444332
      vertex 8.53329 0.959206 0.618267
      vertex 8.52737 0.979614 0.618267
    endloop
  endfacet
  facet normal -0.81702 -0.294179 -0.495921
    outer loop
      vertex 8.57805 1.00145 0.521821
      vertex 8.5946 1.00145 0.49456
      vertex 8.52737 0.979614 0.618267
    endloop
  endfacet
  facet normal 0 0 -1
    outer loop
      vertex 8.54321 0.854015 0.618267
      vertex 8.54321 0.896454 0.618267
      vertex 8.54387 0.875187 0.618267
    endloop
  endfacet
  facet normal 0 0 -1
    outer loop
      vertex 8.5412 0.832939 0.618267
      vertex 8.54321 0.896454 0.618267
      vertex 8.54321 0.854015 0.618267
    endloop
  endfacet
  facet normal 0 0 -1
    outer loop
      vertex 8.5412 0.832939 0.618267
      vertex 8.5412 0.91753 0.618267
      vertex 8.54321 0.896454 0.618267
    endloop
  endfacet
  facet normal 0 0 -1
    outer loop
      vertex 8.53786 0.811958 0.618267
      vertex 8.5412 0.91753 0.618267
      vertex 8.5412 0.832939 0.618267
    endloop
  endfacet
  facet normal 0 0 -1
    outer loop
      vertex 8.53786 0.811958 0.618267
      vertex 8.53786 0.938511 0.618267
      vertex 8.5412 0.91753 0.618267
    endloop
  endfacet
  facet normal 0 0 -1
    outer loop
      vertex 8.53329 0.791264 0.618267
      vertex 8.53786 0.938511 0.618267
      vertex 8.53786 0.811958 0.618267
    endloop
  endfacet
  facet normal 0 0 -1
    outer loop
      vertex 8.53329 0.791264 0.618267
      vertex 8.53329 0.959206 0.618267
      vertex 8.53786 0.938511 0.618267
    endloop
  endfacet
  facet normal 0 0 -1
    outer loop
      vertex 8.52737 0.770855 0.618267
      vertex 8.53329 0.959206 0.618267
      vertex 8.53329 0.791264 0.618267
    endloop
  endfacet
  facet normal 0 0 -1
    outer loop
      vertex 8.52737 0.770855 0.618267
      vertex 8.52737 0.979614 0.618267
      vertex 8.53329 0.959206 0.618267
    endloop
  endfacet
  facet normal 0 0 -1
    outer loop
      vertex 8.52013 0.750923 0.618267
      vertex 8.52737 0.979614 0.618267
      vertex 8.52737 0.770855 0.618267
    endloop
  endfacet
  facet normal 0 0 -1
    outer loop
      vertex 8.5193 1.00145 0.618267
      vertex 8.52737 0.979614 0.618267
      vertex 8.52013 0.750923 0.618267
    endloop
  endfacet
  facet normal 0 0 -1
    outer loop
      vertex 8.52737 0.979614 0.618267
      vertex 8.5193 1.00145 0.618267
      vertex 8.52013 0.999546 0.618267
    endloop
  endfacet
  facet normal 0 0 -1
    outer loop
      vertex 8.51173 0.731468 0.618267
      vertex 8.5193 1.00145 0.618267
      vertex 8.52013 0.750923 0.618267
    endloop
  endfacet
  facet normal 0 0 -1
    outer loop
      vertex 8.5021 0.712585 0.618267
      vertex 8.5193 1.00145 0.618267
      vertex 8.51173 0.731468 0.618267
    endloop
  endfacet
  facet normal 0 0 -1
    outer loop
      vertex 8.49133 0.694275 0.618267
      vertex 8.5193 1.00145 0.618267
      vertex 8.5021 0.712585 0.618267
    endloop
  endfacet
  facet normal 0 0 -1
    outer loop
      vertex 8.4794 0.676727 0.618267
      vertex 8.5193 1.00145 0.618267
      vertex 8.49133 0.694275 0.618267
    endloop
  endfacet
  facet normal 0 0 -1
    outer loop
      vertex 8.46634 0.659943 0.618267
      vertex 8.5193 1.00145 0.618267
      vertex 8.4794 0.676727 0.618267
    endloop
  endfacet
  facet normal 0 0 -1
    outer loop
      vertex 8.45232 0.644016 0.618267
      vertex 8.5193 1.00145 0.618267
      vertex 8.46634 0.659943 0.618267
    endloop
  endfacet
  facet normal 0 0 -1
    outer loop
      vertex 8.43735 0.629044 0.618267
      vertex 8.5193 1.00145 0.618267
      vertex 8.45232 0.644016 0.618267
    endloop
  endfacet
  facet normal 0 0 -1
    outer loop
      vertex 8.42142 0.615025 0.618267
      vertex 8.5193 1.00145 0.618267
      vertex 8.43735 0.629044 0.618267
    endloop
  endfacet
  facet normal 0 0 -1
    outer loop
      vertex 8.40464 0.602055 0.618267
      vertex 8.5193 1.00145 0.618267
      vertex 8.42142 0.615025 0.618267
    endloop
  endfacet
  facet normal 0 0 -1
    outer loop
      vertex 8.38709 0.590134 0.618267
      vertex 8.5193 1.00145 0.618267
      vertex 8.40464 0.602055 0.618267
    endloop
  endfacet
  facet normal 0 0 -1
    outer loop
      vertex 8.36887 0.579262 0.618267
      vertex 8.5193 1.00145 0.618267
      vertex 8.38709 0.590134 0.618267
    endloop
  endfacet
  facet normal 0 0 -1
    outer loop
      vertex 8.34999 0.56963 0.618267
      vertex 8.5193 1.00145 0.618267
      vertex 8.36887 0.579262 0.618267
    endloop
  endfacet
  facet normal 0 0 -1
    outer loop
      vertex 8.33054 0.561237 0.618267
      vertex 8.5193 1.00145 0.618267
      vertex 8.34999 0.56963 0.618267
    endloop
  endfacet
  facet normal 0 0 -1
    outer loop
      vertex 8.31051 0.554085 0.618267
      vertex 8.5193 1.00145 0.618267
      vertex 8.33054 0.561237 0.618267
    endloop
  endfacet
  facet normal 0 0 -1
    outer loop
      vertex 8.2902 0.548172 0.618267
      vertex 8.5193 1.00145 0.618267
      vertex 8.31051 0.554085 0.618267
    endloop
  endfacet
  facet normal 0 0 -1
    outer loop
      vertex 8.2695 0.543499 0.618267
      vertex 8.5193 1.00145 0.618267
      vertex 8.2902 0.548172 0.618267
    endloop
  endfacet
  facet normal 0 0 -1
    outer loop
      vertex 8.24852 0.540161 0.618267
      vertex 8.5193 1.00145 0.618267
      vertex 8.2695 0.543499 0.618267
    endloop
  endfacet
  facet normal 0 0 -1
    outer loop
      vertex 8.22735 0.538158 0.618267
      vertex 8.5193 1.00145 0.618267
      vertex 8.24852 0.540161 0.618267
    endloop
  endfacet
  facet normal 0 0 -1
    outer loop
      vertex 8.20618 0.537491 0.618267
      vertex 8.5193 1.00145 0.618267
      vertex 8.22735 0.538158 0.618267
    endloop
  endfacet
  facet normal 0 0 -1
    outer loop
      vertex 8.18501 0.538158 0.618267
      vertex 8.5193 1.00145 0.618267
      vertex 8.20618 0.537491 0.618267
    endloop
  endfacet
  facet normal 0 0 -1
    outer loop
      vertex 8.16383 0.540161 0.618267
      vertex 8.5193 1.00145 0.618267
      vertex 8.18501 0.538158 0.618267
    endloop
  endfacet
  facet normal 0 0 -1
    outer loop
      vertex 8.14295 0.543499 0.618267
      vertex 8.5193 1.00145 0.618267
      vertex 8.16383 0.540161 0.618267
    endloop
  endfacet
  facet normal 0 0 -1
    outer loop
      vertex 8.12216 0.548172 0.618267
      vertex 8.5193 1.00145 0.618267
      vertex 8.14295 0.543499 0.618267
    endloop
  endfacet
  facet normal 0 0 -1
    outer loop
      vertex 8.10184 0.554085 0.618267
      vertex 8.5193 1.00145 0.618267
      vertex 8.12216 0.548172 0.618267
    endloop
  endfacet
  facet normal 0 0 -1
    outer loop
      vertex 8.08191 0.561237 0.618267
      vertex 8.5193 1.00145 0.618267
      vertex 8.10184 0.554085 0.618267
    endloop
  endfacet
  facet normal 0 0 -1
    outer loop
      vertex 8.06236 0.56963 0.618267
      vertex 8.5193 1.00145 0.618267
      vertex 8.08191 0.561237 0.618267
    endloop
  endfacet
  facet normal 0 0 -1
    outer loop
      vertex 8.04348 0.579262 0.618267
      vertex 8.5193 1.00145 0.618267
      vertex 8.06236 0.56963 0.618267
    endloop
  endfacet
  facet normal 0 0 -1
    outer loop
      vertex 8.02526 0.590134 0.618267
      vertex 8.5193 1.00145 0.618267
      vertex 8.04348 0.579262 0.618267
    endloop
  endfacet
  facet normal 0 0 -1
    outer loop
      vertex 8.00772 0.602055 0.618267
      vertex 8.5193 1.00145 0.618267
      vertex 8.02526 0.590134 0.618267
    endloop
  endfacet
  facet normal 0 0 -1
    outer loop
      vertex 7.99093 0.615025 0.618267
      vertex 8.5193 1.00145 0.618267
      vertex 8.00772 0.602055 0.618267
    endloop
  endfacet
  facet normal 0 0 -1
    outer loop
      vertex 7.97501 0.629044 0.618267
      vertex 8.5193 1.00145 0.618267
      vertex 7.99093 0.615025 0.618267
    endloop
  endfacet
  facet normal 0 0 -1
    outer loop
      vertex 7.96003 0.644016 0.618267
      vertex 8.5193 1.00145 0.618267
      vertex 7.97501 0.629044 0.618267
    endloop
  endfacet
  facet normal 0 0 -1
    outer loop
      vertex 7.94601 0.659943 0.618267
      vertex 8.5193 1.00145 0.618267
      vertex 7.96003 0.644016 0.618267
    endloop
  endfacet
  facet normal 0 0 -1
    outer loop
      vertex 7.93295 0.676727 0.618267
      vertex 8.5193 1.00145 0.618267
      vertex 7.94601 0.659943 0.618267
    endloop
  endfacet
  facet normal 0 0 -1
    outer loop
      vertex 7.92103 0.694275 0.618267
      vertex 8.5193 1.00145 0.618267
      vertex 7.93295 0.676727 0.618267
    endloop
  endfacet
  facet normal 0 0 -1
    outer loop
      vertex 7.91025 0.712585 0.618267
      vertex 8.5193 1.00145 0.618267
      vertex 7.92103 0.694275 0.618267
    endloop
  endfacet
  facet normal 0 0 -1
    outer loop
      vertex 7.90062 0.731468 0.618267
      vertex 8.5193 1.00145 0.618267
      vertex 7.91025 0.712585 0.618267
    endloop
  endfacet
  facet normal 0 0 -1
    outer loop
      vertex 7.90062 0.731468 0.618267
      vertex 7.89305 1.00145 0.618267
      vertex 8.5193 1.00145 0.618267
    endloop
  endfacet
  facet normal 0 0 -1
    outer loop
      vertex 7.89223 0.750923 0.618267
      vertex 7.89305 1.00145 0.618267
      vertex 7.90062 0.731468 0.618267
    endloop
  endfacet
  facet normal 0 0 -1
    outer loop
      vertex 7.88498 0.770855 0.618267
      vertex 7.89305 1.00145 0.618267
      vertex 7.89223 0.750923 0.618267
    endloop
  endfacet
  facet normal 0 0 -1
    outer loop
      vertex 7.88498 0.979614 0.618267
      vertex 7.89305 1.00145 0.618267
      vertex 7.88498 0.770855 0.618267
    endloop
  endfacet
  facet normal 0 0 -1
    outer loop
      vertex 7.89305 1.00145 0.618267
      vertex 7.88498 0.979614 0.618267
      vertex 7.89223 0.999546 0.618267
    endloop
  endfacet
  facet normal 0 0 -1
    outer loop
      vertex 7.87907 0.791264 0.618267
      vertex 7.88498 0.979614 0.618267
      vertex 7.88498 0.770855 0.618267
    endloop
  endfacet
  facet normal 0 0 -1
    outer loop
      vertex 7.87907 0.791264 0.618267
      vertex 7.87907 0.959206 0.618267
      vertex 7.88498 0.979614 0.618267
    endloop
  endfacet
  facet normal 0 0 -1
    outer loop
      vertex 7.87449 0.811958 0.618267
      vertex 7.87907 0.959206 0.618267
      vertex 7.87907 0.791264 0.618267
    endloop
  endfacet
  facet normal 0 0 -1
    outer loop
      vertex 7.87449 0.811958 0.618267
      vertex 7.87449 0.938511 0.618267
      vertex 7.87907 0.959206 0.618267
    endloop
  endfacet
  facet normal 0 0 -1
    outer loop
      vertex 7.87115 0.832939 0.618267
      vertex 7.87449 0.938511 0.618267
      vertex 7.87449 0.811958 0.618267
    endloop
  endfacet
  facet normal 0 0 -1
    outer loop
      vertex 7.87115 0.832939 0.618267
      vertex 7.87115 0.91753 0.618267
      vertex 7.87449 0.938511 0.618267
    endloop
  endfacet
  facet normal 0 0 -1
    outer loop
      vertex 7.86915 0.854015 0.618267
      vertex 7.87115 0.91753 0.618267
      vertex 7.87115 0.832939 0.618267
    endloop
  endfacet
  facet normal 0 0 -1
    outer loop
      vertex 7.86915 0.854015 0.618267
      vertex 7.86915 0.896454 0.618267
      vertex 7.87115 0.91753 0.618267
    endloop
  endfacet
  facet normal 0 -0 -1
    outer loop
      vertex 7.86915 0.896454 0.618267
      vertex 7.86915 0.854015 0.618267
      vertex 7.86848 0.875187 0.618267
    endloop
  endfacet
  facet normal 0.867937 -0.0272446 -0.495927
    outer loop
      vertex 7.86915 0.896454 0.618267
      vertex 7.51624 0.907993 0
      vertex 7.51657 0.918627 0
    endloop
  endfacet
  facet normal 0.867937 -0.0272446 -0.495927
    outer loop
      vertex 7.51624 0.907993 0
      vertex 7.86915 0.896454 0.618267
      vertex 7.86848 0.875187 0.618267
    endloop
  endfacet
  facet normal 0.864471 -0.0821443 -0.495926
    outer loop
      vertex 7.87115 0.91753 0.618267
      vertex 7.51967 0.95129 0
      vertex 7.52068 0.961828 0
    endloop
  endfacet
  facet normal 0.864471 -0.0821443 -0.495926
    outer loop
      vertex 7.51967 0.95129 0
      vertex 7.87115 0.91753 0.618267
      vertex 7.86915 0.896454 0.618267
    endloop
  endfacet
  facet normal 0.833937 -0.242197 -0.495873
    outer loop
      vertex 7.81776 1.00145 0.49456
      vertex 7.88498 0.979614 0.618267
      vertex 7.7879 1.00145 0.444332
    endloop
  endfacet
  facet normal 0.834086 -0.241651 -0.495888
    outer loop
      vertex 7.87907 0.959206 0.618267
      vertex 7.7879 1.00145 0.444332
      vertex 7.88498 0.979614 0.618267
    endloop
  endfacet
  facet normal 0.834084 -0.241659 -0.495889
    outer loop
      vertex 7.7879 1.00145 0.444332
      vertex 7.87907 0.959206 0.618267
      vertex 7.7145 1.00145 0.320881
    endloop
  endfacet
  facet normal 0.857591 -0.136406 -0.495914
    outer loop
      vertex 7.52583 0.994205 0
      vertex 7.87115 0.91753 0.618267
      vertex 7.52068 0.961828 0
    endloop
  endfacet
  facet normal 0.847867 -0.187547 -0.495931
    outer loop
      vertex 7.87449 0.938511 0.618267
      vertex 7.61479 1.00145 0.150475
      vertex 7.87907 0.959206 0.618267
    endloop
  endfacet
  facet normal 0.847868 -0.187543 -0.495931
    outer loop
      vertex 7.61479 1.00145 0.150475
      vertex 7.87449 0.938511 0.618267
      vertex 7.54449 1.00145 0.0302897
    endloop
  endfacet
  facet normal 0.0817808 0.86454 -0.495866
    outer loop
      vertex 8.13017 0.188732 0
      vertex 8.16383 0.540161 0.618267
      vertex 8.18501 0.538158 0.618267
    endloop
  endfacet
  facet normal 0.0817808 0.86454 -0.495866
    outer loop
      vertex 8.16383 0.540161 0.618267
      vertex 8.13017 0.188732 0
      vertex 8.11958 0.189734 0
    endloop
  endfacet
  facet normal 0.29383 0.817176 -0.495871
    outer loop
      vertex 8.08191 0.561237 0.618267
      vertex 7.98273 0.221729 0
      vertex 7.95183 0.23284 0
    endloop
  endfacet
  facet normal 0.574335 0.651334 -0.495886
    outer loop
      vertex 7.97501 0.629044 0.618267
      vertex 7.75781 0.349855 0
      vertex 7.7332 0.371552 0
    endloop
  endfacet
  facet normal 0.797181 0.344352 -0.495907
    outer loop
      vertex 7.90062 0.731468 0.618267
      vertex 7.581 0.581026 0
      vertex 7.56798 0.611162 0
    endloop
  endfacet
  facet normal 0.857586 0.136434 -0.495914
    outer loop
      vertex 7.87449 0.811958 0.618267
      vertex 7.52583 0.756264 0
      vertex 7.87115 0.832939 0.618267
    endloop
  endfacet
  facet normal 0.857586 0.136434 -0.495914
    outer loop
      vertex 7.52583 0.756264 0
      vertex 7.87449 0.811958 0.618267
      vertex 7.52749 0.745773 0
    endloop
  endfacet
  facet normal 0.847867 0.187547 -0.495931
    outer loop
      vertex 7.87907 0.791264 0.618267
      vertex 7.52749 0.745773 0
      vertex 7.87449 0.811958 0.618267
    endloop
  endfacet
  facet normal 0.847867 0.187547 -0.495931
    outer loop
      vertex 7.52749 0.745773 0
      vertex 7.87907 0.791264 0.618267
      vertex 7.52978 0.735426 0
    endloop
  endfacet
  facet normal 0.651808 0.573747 -0.495944
    outer loop
      vertex 7.96003 0.644016 0.618267
      vertex 7.67379 0.43478 0
      vertex 7.94601 0.659943 0.618267
    endloop
  endfacet
  facet normal 0.651808 0.573747 -0.495944
    outer loop
      vertex 7.67379 0.43478 0
      vertex 7.96003 0.644016 0.618267
      vertex 7.6808 0.426817 0
    endloop
  endfacet
  facet normal 0.686751 0.531474 -0.495892
    outer loop
      vertex 7.93295 0.676727 0.618267
      vertex 7.66726 0.443172 0
      vertex 7.64718 0.469112 0
    endloop
  endfacet
  facet normal 0.773541 0.394584 -0.49592
    outer loop
      vertex 7.91025 0.712585 0.618267
      vertex 7.59587 0.551844 0
      vertex 7.90062 0.731468 0.618267
    endloop
  endfacet
  facet normal 0.773541 0.394584 -0.49592
    outer loop
      vertex 7.59587 0.551844 0
      vertex 7.91025 0.712585 0.618267
      vertex 7.60069 0.542402 0
    endloop
  endfacet
  facet normal 0.748367 0.440445 -0.495939
    outer loop
      vertex 7.92103 0.694275 0.618267
      vertex 7.60069 0.542402 0
      vertex 7.91025 0.712585 0.618267
    endloop
  endfacet
  facet normal 0.748367 0.440445 -0.495939
    outer loop
      vertex 7.60069 0.542402 0
      vertex 7.92103 0.694275 0.618267
      vertex 7.60608 0.533247 0
    endloop
  endfacet
  facet normal 0.717643 0.488957 -0.495893
    outer loop
      vertex 7.93295 0.676727 0.618267
      vertex 7.64718 0.469112 0
      vertex 7.62873 0.496197 0
    endloop
  endfacet
  facet normal 0.718292 0.48797 -0.495925
    outer loop
      vertex 7.93295 0.676727 0.618267
      vertex 7.62277 0.504971 0
      vertex 7.92103 0.694275 0.618267
    endloop
  endfacet
  facet normal 0.718292 0.48797 -0.495925
    outer loop
      vertex 7.62277 0.504971 0
      vertex 7.93295 0.676727 0.618267
      vertex 7.62873 0.496197 0
    endloop
  endfacet
  facet normal -0.574323 0.65132 -0.495919
    outer loop
      vertex 8.6792 0.371552 0
      vertex 8.65459 0.349855 0
      vertex 8.43735 0.629044 0.618267
    endloop
  endfacet
  facet normal -0.53225 0.686123 -0.495928
    outer loop
      vertex 8.64663 0.342846 0
      vertex 8.62069 0.322723 0
      vertex 8.42142 0.615025 0.618267
    endloop
  endfacet
  facet normal -0.614029 0.614029 -0.495921
    outer loop
      vertex 8.70986 0.402212 0
      vertex 8.43735 0.629044 0.618267
      vertex 8.45232 0.644016 0.618267
    endloop
  endfacet
  facet normal -0.614029 0.614029 -0.495921
    outer loop
      vertex 8.43735 0.629044 0.618267
      vertex 8.70986 0.402212 0
      vertex 8.6792 0.371552 0
    endloop
  endfacet
  facet normal -0.445047 0.74565 -0.495923
    outer loop
      vertex 8.56729 0.286484 0
      vertex 8.38709 0.590134 0.618267
      vertex 8.57639 0.29192 0
    endloop
  endfacet
  facet normal -0.445047 0.74565 -0.495923
    outer loop
      vertex 8.38709 0.590134 0.618267
      vertex 8.56729 0.286484 0
      vertex 8.36887 0.579262 0.618267
    endloop
  endfacet
  facet normal -0.486636 0.719211 -0.495904
    outer loop
      vertex 8.60353 0.310278 0
      vertex 8.57639 0.29192 0
      vertex 8.38709 0.590134 0.618267
    endloop
  endfacet
  facet normal -0.344825 0.797014 -0.495848
    outer loop
      vertex 8.50039 0.250053 0
      vertex 8.4703 0.237036 0
      vertex 8.34999 0.56963 0.618267
    endloop
  endfacet
  facet normal -0.0817808 0.86454 -0.495866
    outer loop
      vertex 8.28218 0.188732 0
      vertex 8.24852 0.540161 0.618267
      vertex 8.29277 0.189734 0
    endloop
  endfacet
  facet normal -0.0817808 0.86454 -0.495866
    outer loop
      vertex 8.24852 0.540161 0.618267
      vertex 8.28218 0.188732 0
      vertex 8.22735 0.538158 0.618267
    endloop
  endfacet
  facet normal -0.242229 0.833923 -0.49588
    outer loop
      vertex 8.40955 0.215197 0
      vertex 8.37803 0.206041 0
      vertex 8.2902 0.548172 0.618267
    endloop
  endfacet
  facet normal -0.343964 0.79737 -0.495872
    outer loop
      vertex 8.46057 0.23284 0
      vertex 8.34999 0.56963 0.618267
      vertex 8.4703 0.237036 0
    endloop
  endfacet
  facet normal -0.343964 0.79737 -0.495872
    outer loop
      vertex 8.34999 0.56963 0.618267
      vertex 8.46057 0.23284 0
      vertex 8.33054 0.561237 0.618267
    endloop
  endfacet
  facet normal -0.685222 0.533383 -0.495956
    outer loop
      vertex 8.7451 0.443172 0
      vertex 8.46634 0.659943 0.618267
      vertex 8.4794 0.676727 0.618267
    endloop
  endfacet
  facet normal -0.685222 0.533383 -0.495956
    outer loop
      vertex 8.46634 0.659943 0.618267
      vertex 8.7451 0.443172 0
      vertex 8.73857 0.43478 0
    endloop
  endfacet
  facet normal -0.796713 0.34541 -0.495923
    outer loop
      vertex 8.84442 0.611162 0
      vertex 8.83136 0.581026 0
      vertex 8.51173 0.731468 0.618267
    endloop
  endfacet
  facet normal -0.797322 0.343943 -0.495965
    outer loop
      vertex 8.84862 0.62089 0
      vertex 8.51173 0.731468 0.618267
      vertex 8.52013 0.750923 0.618267
    endloop
  endfacet
  facet normal -0.797322 0.343943 -0.495965
    outer loop
      vertex 8.51173 0.731468 0.618267
      vertex 8.84862 0.62089 0
      vertex 8.84442 0.611162 0
    endloop
  endfacet
  facet normal -0.84784 0.187541 -0.49598
    outer loop
      vertex 8.88491 0.745773 0
      vertex 8.53329 0.791264 0.618267
      vertex 8.53786 0.811958 0.618267
    endloop
  endfacet
  facet normal -0.84784 0.187541 -0.49598
    outer loop
      vertex 8.53329 0.791264 0.618267
      vertex 8.88491 0.745773 0
      vertex 8.88262 0.735426 0
    endloop
  endfacet
  facet normal -0.857558 0.13643 -0.495964
    outer loop
      vertex 8.88658 0.756264 0
      vertex 8.53786 0.811958 0.618267
      vertex 8.5412 0.832939 0.618267
    endloop
  endfacet
  facet normal -0.857558 0.13643 -0.495964
    outer loop
      vertex 8.53786 0.811958 0.618267
      vertex 8.88658 0.756264 0
      vertex 8.88491 0.745773 0
    endloop
  endfacet
  facet normal -0.817005 0.294223 -0.495919
    outer loop
      vertex 8.86335 0.661707 0
      vertex 8.85224 0.630856 0
      vertex 8.52737 0.770855 0.618267
    endloop
  endfacet
  facet normal -0.8338 0.24256 -0.495926
    outer loop
      vertex 8.87251 0.693178 0
      vertex 8.86335 0.661707 0
      vertex 8.52737 0.770855 0.618267
    endloop
  endfacet
  facet normal -0.816042 -0.296762 -0.495992
    outer loop
      vertex 8.52737 0.979614 0.618267
      vertex 8.52494 1.00145 0.609198
      vertex 8.57805 1.00145 0.521821
    endloop
  endfacet
  facet normal -0.816066 -0.296751 -0.49596
    outer loop
      vertex 8.52494 1.00145 0.609198
      vertex 8.52737 0.979614 0.618267
      vertex 8.52013 0.999546 0.618267
    endloop
  endfacet
  facet normal -0.833912 -0.242184 -0.495922
    outer loop
      vertex 8.5946 1.00145 0.49456
      vertex 8.62447 1.00145 0.444332
      vertex 8.52737 0.979614 0.618267
    endloop
  endfacet
  facet normal 0.81701 -0.294289 -0.495872
    outer loop
      vertex 7.83431 1.00145 0.521821
      vertex 7.88498 0.979614 0.618267
      vertex 7.81776 1.00145 0.49456
    endloop
  endfacet
  facet normal 0.797388 -0.343874 -0.495906
    outer loop
      vertex 7.89305 1.00145 0.618267
      vertex 7.89223 0.999546 0.618267
      vertex 7.88741 1.00145 0.609198
    endloop
  endfacet
  facet normal 0.857587 -0.136424 -0.495917
    outer loop
      vertex 7.54449 1.00145 0.0302897
      vertex 7.52583 0.994205 0
      vertex 7.52698 1.00145 0
    endloop
  endfacet
  facet normal 0.857586 -0.136434 -0.495914
    outer loop
      vertex 7.87115 0.91753 0.618267
      vertex 7.54449 1.00145 0.0302897
      vertex 7.87449 0.938511 0.618267
    endloop
  endfacet
  facet normal 0.857587 -0.136434 -0.495914
    outer loop
      vertex 7.54449 1.00145 0.0302897
      vertex 7.87115 0.91753 0.618267
      vertex 7.52583 0.994205 0
    endloop
  endfacet
  facet normal 0.137045 0.857509 -0.495881
    outer loop
      vertex 8.08716 0.194883 0
      vertex 8.14295 0.543499 0.618267
      vertex 8.16383 0.540161 0.618267
    endloop
  endfacet
  facet normal 0.137045 0.857509 -0.495881
    outer loop
      vertex 8.14295 0.543499 0.618267
      vertex 8.08716 0.194883 0
      vertex 8.07672 0.196552 0
    endloop
  endfacet
  facet normal 0.0277953 0.867973 -0.495834
    outer loop
      vertex 8.18501 0.538158 0.618267
      vertex 8.19559 0.184631 0
      vertex 8.16283 0.18568 0
    endloop
  endfacet
  facet normal 0.0807847 0.864649 -0.495839
    outer loop
      vertex 8.18501 0.538158 0.618267
      vertex 8.16283 0.18568 0
      vertex 8.13017 0.188732 0
    endloop
  endfacet
  facet normal -0.0273687 0.86798 -0.495845
    outer loop
      vertex 8.21676 0.184631 0
      vertex 8.20618 0.537491 0.618267
      vertex 8.22735 0.538158 0.618267
    endloop
  endfacet
  facet normal -0.0273687 0.86798 -0.495845
    outer loop
      vertex 8.20618 0.537491 0.618267
      vertex 8.21676 0.184631 0
      vertex 8.20618 0.184298 0
    endloop
  endfacet
  facet normal 0.342539 0.797959 -0.495912
    outer loop
      vertex 7.95183 0.23284 0
      vertex 8.06236 0.56963 0.618267
      vertex 8.08191 0.561237 0.618267
    endloop
  endfacet
  facet normal 0.342539 0.797959 -0.495912
    outer loop
      vertex 8.06236 0.56963 0.618267
      vertex 7.95183 0.23284 0
      vertex 7.94206 0.237036 0
    endloop
  endfacet
  facet normal 0.242568 0.833827 -0.495876
    outer loop
      vertex 8.12216 0.548172 0.618267
      vertex 8.03432 0.206041 0
      vertex 8.00285 0.215197 0
    endloop
  endfacet
  facet normal 0.445047 0.74565 -0.495923
    outer loop
      vertex 7.84507 0.286484 0
      vertex 8.02526 0.590134 0.618267
      vertex 8.04348 0.579262 0.618267
    endloop
  endfacet
  facet normal 0.445047 0.74565 -0.495923
    outer loop
      vertex 8.02526 0.590134 0.618267
      vertex 7.84507 0.286484 0
      vertex 7.83596 0.29192 0
    endloop
  endfacet
  facet normal 0.486636 0.719211 -0.495904
    outer loop
      vertex 8.02526 0.590134 0.618267
      vertex 7.83596 0.29192 0
      vertex 7.80883 0.310278 0
    endloop
  endfacet
  facet normal 0.573762 0.651824 -0.495906
    outer loop
      vertex 7.76577 0.342846 0
      vertex 7.97501 0.629044 0.618267
      vertex 7.99093 0.615025 0.618267
    endloop
  endfacet
  facet normal 0.573762 0.651824 -0.495906
    outer loop
      vertex 7.97501 0.629044 0.618267
      vertex 7.76577 0.342846 0
      vertex 7.75781 0.349855 0
    endloop
  endfacet
  facet normal 0.532869 0.685658 -0.495908
    outer loop
      vertex 7.99093 0.615025 0.618267
      vertex 7.79166 0.322723 0
      vertex 7.76577 0.342846 0
    endloop
  endfacet
  facet normal 0.816075 0.296755 -0.495941
    outer loop
      vertex 7.89223 0.750923 0.618267
      vertex 7.56016 0.630856 0
      vertex 7.88498 0.770855 0.618267
    endloop
  endfacet
  facet normal 0.816075 0.296755 -0.495941
    outer loop
      vertex 7.56016 0.630856 0
      vertex 7.89223 0.750923 0.618267
      vertex 7.56378 0.62089 0
    endloop
  endfacet
  facet normal 0.81703 0.294232 -0.495872
    outer loop
      vertex 7.88498 0.770855 0.618267
      vertex 7.56016 0.630856 0
      vertex 7.54905 0.661707 0
    endloop
  endfacet
  facet normal -0.487963 0.718281 -0.495948
    outer loop
      vertex 8.60353 0.310278 0
      vertex 8.40464 0.602055 0.618267
      vertex 8.6123 0.316238 0
    endloop
  endfacet
  facet normal -0.487963 0.718281 -0.495948
    outer loop
      vertex 8.40464 0.602055 0.618267
      vertex 8.60353 0.310278 0
      vertex 8.38709 0.590134 0.618267
    endloop
  endfacet
  facet normal -0.394596 0.773564 -0.495875
    outer loop
      vertex 8.52962 0.264931 0
      vertex 8.36887 0.579262 0.618267
      vertex 8.53906 0.269747 0
    endloop
  endfacet
  facet normal -0.394596 0.773564 -0.495875
    outer loop
      vertex 8.36887 0.579262 0.618267
      vertex 8.52962 0.264931 0
      vertex 8.34999 0.56963 0.618267
    endloop
  endfacet
  facet normal -0.442887 0.746978 -0.495858
    outer loop
      vertex 8.56729 0.286484 0
      vertex 8.53906 0.269747 0
      vertex 8.36887 0.579262 0.618267
    endloop
  endfacet
  facet normal -0.292064 0.817779 -0.495919
    outer loop
      vertex 8.4197 0.218153 0
      vertex 8.33054 0.561237 0.618267
      vertex 8.42972 0.221729 0
    endloop
  endfacet
  facet normal -0.292064 0.817779 -0.495919
    outer loop
      vertex 8.33054 0.561237 0.618267
      vertex 8.4197 0.218153 0
      vertex 8.31051 0.554085 0.618267
    endloop
  endfacet
  facet normal -0.773541 0.394584 -0.49592
    outer loop
      vertex 8.81648 0.551844 0
      vertex 8.5021 0.712585 0.618267
      vertex 8.51173 0.731468 0.618267
    endloop
  endfacet
  facet normal -0.773541 0.394584 -0.49592
    outer loop
      vertex 8.5021 0.712585 0.618267
      vertex 8.81648 0.551844 0
      vertex 8.81166 0.542402 0
    endloop
  endfacet
  facet normal 0.816083 -0.296757 -0.495927
    outer loop
      vertex 7.88498 0.979614 0.618267
      vertex 7.88741 1.00145 0.609198
      vertex 7.89223 0.999546 0.618267
    endloop
  endfacet
  facet normal 0.816073 -0.296762 -0.49594
    outer loop
      vertex 7.88741 1.00145 0.609198
      vertex 7.88498 0.979614 0.618267
      vertex 7.83431 1.00145 0.521821
    endloop
  endfacet
  facet normal 0.190436 0.847245 -0.495894
    outer loop
      vertex 8.04472 0.203705 0
      vertex 8.12216 0.548172 0.618267
      vertex 8.14295 0.543499 0.618267
    endloop
  endfacet
  facet normal 0.190436 0.847245 -0.495894
    outer loop
      vertex 8.12216 0.548172 0.618267
      vertex 8.04472 0.203705 0
      vertex 8.03432 0.206041 0
    endloop
  endfacet
  facet normal 0.189452 0.847481 -0.495867
    outer loop
      vertex 8.14295 0.543499 0.618267
      vertex 8.07672 0.196552 0
      vertex 8.04472 0.203705 0
    endloop
  endfacet
  facet normal 0.344825 0.797014 -0.495848
    outer loop
      vertex 8.06236 0.56963 0.618267
      vertex 7.94206 0.237036 0
      vertex 7.91197 0.250053 0
    endloop
  endfacet
  facet normal 0.393908 0.773928 -0.495855
    outer loop
      vertex 8.06236 0.56963 0.618267
      vertex 7.91197 0.250053 0
      vertex 7.88274 0.264931 0
    endloop
  endfacet
  facet normal 0.293309 0.817354 -0.495885
    outer loop
      vertex 7.9927 0.218153 0
      vertex 8.08191 0.561237 0.618267
      vertex 8.10184 0.554085 0.618267
    endloop
  endfacet
  facet normal 0.293309 0.817354 -0.495885
    outer loop
      vertex 8.08191 0.561237 0.618267
      vertex 7.9927 0.218153 0
      vertex 7.98273 0.221729 0
    endloop
  endfacet
  facet normal 0.242699 0.833787 -0.495879
    outer loop
      vertex 8.00285 0.215197 0
      vertex 8.10184 0.554085 0.618267
      vertex 8.12216 0.548172 0.618267
    endloop
  endfacet
  facet normal 0.242699 0.833787 -0.495879
    outer loop
      vertex 8.10184 0.554085 0.618267
      vertex 8.00285 0.215197 0
      vertex 7.9927 0.218153 0
    endloop
  endfacet
  facet normal 0.442887 0.746978 -0.495858
    outer loop
      vertex 8.04348 0.579262 0.618267
      vertex 7.8733 0.269747 0
      vertex 7.84507 0.286484 0
    endloop
  endfacet
  facet normal 0.797346 0.343953 -0.495919
    outer loop
      vertex 7.90062 0.731468 0.618267
      vertex 7.56378 0.62089 0
      vertex 7.89223 0.750923 0.618267
    endloop
  endfacet
  facet normal 0.797346 0.343953 -0.495919
    outer loop
      vertex 7.56378 0.62089 0
      vertex 7.90062 0.731468 0.618267
      vertex 7.56798 0.611162 0
    endloop
  endfacet
endsolid OpenSCAD_Model
