solid OpenSCAD_Model
  facet normal -1 0 0
    outer loop
      vertex 0 -1.20859 0
      vertex 0 1.20859 2.23427
      vertex 0 1.20859 0
    endloop
  endfacet
  facet normal -1 -0 0
    outer loop
      vertex 0 1.20859 2.23427
      vertex 0 -1.20859 0
      vertex 0 -1.20859 2.23427
    endloop
  endfacet
  facet normal -0 0 1
    outer loop
      vertex 0 1.20859 2.23427
      vertex 10.0206 -1.20859 2.23427
      vertex 10.0206 1.20859 2.23427
    endloop
  endfacet
  facet normal 0 0 1
    outer loop
      vertex 10.0206 -1.20859 2.23427
      vertex 0 1.20859 2.23427
      vertex 0 -1.20859 2.23427
    endloop
  endfacet
  facet normal 1 -0 0
    outer loop
      vertex 10.3053 -1.20859 0.546598
      vertex 10.3053 -1.20859 0.290494
      vertex 10.3053 -0.928068 0.546598
    endloop
  endfacet
  facet normal 1 0 0
    outer loop
      vertex 10.3053 1.20859 0.546598
      vertex 10.3053 1.00748 0.546598
      vertex 10.3053 1.20859 0.362995
    endloop
  endfacet
  facet normal 0 1 0
    outer loop
      vertex 9.41576 1.20859 0
      vertex 10.0206 1.20859 2.23427
      vertex 10.3053 1.20859 0.546598
    endloop
  endfacet
  facet normal 0 1 0
    outer loop
      vertex 9.41576 1.20859 0
      vertex 10.3053 1.20859 0.546598
      vertex 10.3053 1.20859 0.362995
    endloop
  endfacet
  facet normal 0 1 0
    outer loop
      vertex 10.0206 1.20859 2.23427
      vertex 9.41576 1.20859 0
      vertex 0 1.20859 2.23427
    endloop
  endfacet
  facet normal 0 1 0
    outer loop
      vertex 0 1.20859 2.23427
      vertex 9.41576 1.20859 0
      vertex 0 1.20859 0
    endloop
  endfacet
  facet normal 0 0 -1
    outer loop
      vertex 0 1.20859 0
      vertex 4.00792 -1.20859 0
      vertex 0 -1.20859 0
    endloop
  endfacet
  facet normal 0 0 -1
    outer loop
      vertex 4.00792 -1.20859 0
      vertex 0 1.20859 0
      vertex 9.41576 1.20859 0
    endloop
  endfacet
  facet normal 0 -1 0
    outer loop
      vertex 0 -1.20859 2.23427
      vertex 7.51255 -1.20859 1.43013
      vertex 10.0206 -1.20859 2.23427
    endloop
  endfacet
  facet normal 0 -1 0
    outer loop
      vertex 4.00792 -1.20859 0
      vertex 0 -1.20859 2.23427
      vertex 0 -1.20859 0
    endloop
  endfacet
  facet normal 0 -1 0
    outer loop
      vertex 0 -1.20859 2.23427
      vertex 4.00792 -1.20859 0
      vertex 7.51255 -1.20859 1.43013
    endloop
  endfacet
  facet normal 0 -1 0
    outer loop
      vertex 7.51255 -1.20859 1.43013
      vertex 10.3053 -1.20859 0.546598
      vertex 10.0206 -1.20859 2.23427
    endloop
  endfacet
  facet normal -0 -1 -0
    outer loop
      vertex 10.3053 -1.20859 0.546598
      vertex 7.51255 -1.20859 1.43013
      vertex 10.3053 -1.20859 0.290494
    endloop
  endfacet
  facet normal 0.986067 0 0.166348
    outer loop
      vertex 10.0206 1.20859 2.23427
      vertex 10.3053 1.00748 0.546598
      vertex 10.3053 1.20859 0.546598
    endloop
  endfacet
  facet normal 0.986067 7.5512e-08 0.166348
    outer loop
      vertex 10.0206 1.20859 2.23427
      vertex 10.1563 -0.0269152 1.43013
      vertex 10.3053 1.00748 0.546598
    endloop
  endfacet
  facet normal 0.986067 -0 0.166349
    outer loop
      vertex 10.0206 -1.20859 2.23427
      vertex 10.1563 -0.0269152 1.43013
      vertex 10.0206 1.20859 2.23427
    endloop
  endfacet
  facet normal 0.986067 -8.21171e-08 0.166348
    outer loop
      vertex 10.0206 -1.20859 2.23427
      vertex 10.3053 -0.928068 0.546598
      vertex 10.1563 -0.0269152 1.43013
    endloop
  endfacet
  facet normal 0.986067 0 0.166348
    outer loop
      vertex 10.3053 -0.928068 0.546598
      vertex 10.0206 -1.20859 2.23427
      vertex 10.3053 -1.20859 0.546598
    endloop
  endfacet
  facet normal 0.288548 -0.645554 -0.707107
    outer loop
      vertex 9.41576 1.20859 0
      vertex 10.3053 1.00748 0.546598
      vertex 10.1563 -0.0269152 1.43013
    endloop
  endfacet
  facet normal 0.288548 -0.645554 -0.707107
    outer loop
      vertex 10.3053 1.00748 0.546598
      vertex 9.41576 1.20859 0
      vertex 10.3053 1.20859 0.362995
    endloop
  endfacet
  facet normal 0.288548 -0.645554 -0.707107
    outer loop
      vertex 7.51255 -1.20859 1.43013
      vertex 9.41576 1.20859 0
      vertex 10.1563 -0.0269152 1.43013
    endloop
  endfacet
  facet normal 0.288548 -0.645554 -0.707107
    outer loop
      vertex 9.41576 1.20859 0
      vertex 7.51255 -1.20859 1.43013
      vertex 4.00792 -1.20859 0
    endloop
  endfacet
  facet normal -0.288548 0.645554 -0.707107
    outer loop
      vertex 7.51255 -1.20859 1.43013
      vertex 10.3053 -0.928068 0.546598
      vertex 10.3053 -1.20859 0.290494
    endloop
  endfacet
  facet normal -0.288548 0.645554 -0.707107
    outer loop
      vertex 10.3053 -0.928068 0.546598
      vertex 7.51255 -1.20859 1.43013
      vertex 10.1563 -0.0269152 1.43013
    endloop
  endfacet
endsolid OpenSCAD_Model
