solid OpenSCAD_Model
  facet normal -1 0 0
    outer loop
      vertex 0 1.13065 0.709534
      vertex 0 1.14489 2.64769
      vertex 0 1.14489 0.713065
    endloop
  endfacet
  facet normal -1 0 0
    outer loop
      vertex 0 0.987412 0.668291
      vertex 0 1.14489 2.64769
      vertex 0 1.13065 0.709534
    endloop
  endfacet
  facet normal -1 0 0
    outer loop
      vertex 0 0.844225 0.627041
      vertex 0 1.14489 2.64769
      vertex 0 0.987412 0.668291
    endloop
  endfacet
  facet normal -1 0 0
    outer loop
      vertex 0 0.718864 0.584599
      vertex 0 1.14489 2.64769
      vertex 0 0.844225 0.627041
    endloop
  endfacet
  facet normal -1 0 0
    outer loop
      vertex 0 0.593597 0.542164
      vertex 0 1.14489 2.64769
      vertex 0 0.718864 0.584599
    endloop
  endfacet
  facet normal -1 0 0
    outer loop
      vertex 0 0.486704 0.498632
      vertex 0 1.14489 2.64769
      vertex 0 0.593597 0.542164
    endloop
  endfacet
  facet normal -1 0 0
    outer loop
      vertex 0 -1.14489 2.64769
      vertex 0 0.486704 0.498632
      vertex 0 0.379865 0.455093
    endloop
  endfacet
  facet normal -1 0 0
    outer loop
      vertex 0 -1.14489 2.64769
      vertex 0 0.379865 0.455093
      vertex 0 0.291835 0.410649
    endloop
  endfacet
  facet normal -1 0 0
    outer loop
      vertex 0 -1.14489 2.64769
      vertex 0 0.291835 0.410649
      vertex 0 0.203891 0.366211
    endloop
  endfacet
  facet normal -1 0 0
    outer loop
      vertex 0 -1.14489 2.64769
      vertex 0 0.203891 0.366211
      vertex 0 0.0662749 0.275898
    endloop
  endfacet
  facet normal -1 0 0
    outer loop
      vertex 0 -1.14489 0
      vertex 0 0.0662749 0.275898
      vertex 0 0.0169003 0.23022
    endloop
  endfacet
  facet normal -1 0 0
    outer loop
      vertex 0 -1.14489 0
      vertex 0 0.0169003 0.23022
      vertex 0 -0.0324095 0.184536
    endloop
  endfacet
  facet normal -1 0 0
    outer loop
      vertex 0 -1.14489 0
      vertex 0 -0.0324095 0.184536
      vertex 0 -0.0621439 0.13847
    endloop
  endfacet
  facet normal -1 0 0
    outer loop
      vertex 0 -1.14489 0
      vertex 0 -0.0621439 0.13847
      vertex 0 -0.0918019 0.092411
    endloop
  endfacet
  facet normal -1 0 0
    outer loop
      vertex 0 -1.14489 0
      vertex 0 -0.0918019 0.092411
      vertex 0 -0.11164 0
    endloop
  endfacet
  facet normal -1 -0 0
    outer loop
      vertex 0 0.0662749 0.275898
      vertex 0 -1.14489 0
      vertex 0 -1.14489 2.64769
    endloop
  endfacet
  facet normal -1 0 0
    outer loop
      vertex 0 0.486704 0.498632
      vertex 0 -1.14489 2.64769
      vertex 0 1.14489 2.64769
    endloop
  endfacet
  facet normal -0 0 1
    outer loop
      vertex 0 1.14489 2.64769
      vertex 5.89653 -1.14489 2.64769
      vertex 5.89653 1.14489 2.64769
    endloop
  endfacet
  facet normal 0 0 1
    outer loop
      vertex 5.89653 -1.14489 2.64769
      vertex 0 1.14489 2.64769
      vertex 0 -1.14489 2.64769
    endloop
  endfacet
  facet normal 0 1 0
    outer loop
      vertex 5.60817 1.14489 1.47138
      vertex 5.89653 1.14489 2.64769
      vertex 5.8169 1.14489 1.47285
    endloop
  endfacet
  facet normal 0 1 0
    outer loop
      vertex 5.89653 1.14489 2.64769
      vertex 6.02562 1.14489 1.47138
      vertex 5.8169 1.14489 1.47285
    endloop
  endfacet
  facet normal 0 1 0
    outer loop
      vertex 5.89653 1.14489 2.64769
      vertex 6.23433 1.14489 1.4699
      vertex 6.02562 1.14489 1.47138
    endloop
  endfacet
  facet normal 0 1 0
    outer loop
      vertex 5.89653 1.14489 2.64769
      vertex 6.6502 1.14489 1.46122
      vertex 6.23433 1.14489 1.4699
    endloop
  endfacet
  facet normal 0 1 0
    outer loop
      vertex 5.89653 1.14489 2.64769
      vertex 6.85648 1.14489 1.45397
      vertex 6.6502 1.14489 1.46122
    endloop
  endfacet
  facet normal 0 1 0
    outer loop
      vertex 5.89653 1.14489 2.64769
      vertex 7.06275 1.14489 1.44672
      vertex 6.85648 1.14489 1.45397
    endloop
  endfacet
  facet normal 0 1 0
    outer loop
      vertex 5.89653 1.14489 2.64769
      vertex 7.26659 1.14489 1.43666
      vertex 7.06275 1.14489 1.44672
    endloop
  endfacet
  facet normal 0 1 0
    outer loop
      vertex 5.89653 1.14489 2.64769
      vertex 7.47039 1.14489 1.4266
      vertex 7.26659 1.14489 1.43666
    endloop
  endfacet
  facet normal 0 1 0
    outer loop
      vertex 5.89653 1.14489 2.64769
      vertex 7.87148 1.14489 1.40076
      vertex 7.47039 1.14489 1.4266
    endloop
  endfacet
  facet normal 0 1 0
    outer loop
      vertex 5.89653 1.14489 2.64769
      vertex 8.06802 1.14489 1.38507
      vertex 7.87148 1.14489 1.40076
    endloop
  endfacet
  facet normal 0 1 0
    outer loop
      vertex 5.89653 1.14489 2.64769
      vertex 8.26448 1.14489 1.36938
      vertex 8.06802 1.14489 1.38507
    endloop
  endfacet
  facet normal 0 1 0
    outer loop
      vertex 5.89653 1.14489 2.64769
      vertex 8.45619 1.14489 1.35102
      vertex 8.26448 1.14489 1.36938
    endloop
  endfacet
  facet normal 0 1 0
    outer loop
      vertex 5.89653 1.14489 2.64769
      vertex 8.64782 1.14489 1.33266
      vertex 8.45619 1.14489 1.35102
    endloop
  endfacet
  facet normal 0 1 0
    outer loop
      vertex 5.89653 1.14489 2.64769
      vertex 8.83393 1.14489 1.31164
      vertex 8.64782 1.14489 1.33266
    endloop
  endfacet
  facet normal 0 1 0
    outer loop
      vertex 5.89653 1.14489 2.64769
      vertex 9.01999 1.14489 1.29061
      vertex 8.83393 1.14489 1.31164
    endloop
  endfacet
  facet normal -0 1 -0
    outer loop
      vertex 9.01999 1.14489 1.29061
      vertex 5.89653 1.14489 2.64769
      vertex 9.16463 1.14489 1.27165
    endloop
  endfacet
  facet normal 0 1 0
    outer loop
      vertex 5.39947 1.14489 1.4699
      vertex 5.89653 1.14489 2.64769
      vertex 5.60817 1.14489 1.47138
    endloop
  endfacet
  facet normal 0 1 0
    outer loop
      vertex 4.9836 1.14489 1.46122
      vertex 5.89653 1.14489 2.64769
      vertex 5.39947 1.14489 1.4699
    endloop
  endfacet
  facet normal 0 1 0
    outer loop
      vertex 4.77733 1.14489 1.45397
      vertex 5.89653 1.14489 2.64769
      vertex 4.9836 1.14489 1.46122
    endloop
  endfacet
  facet normal 0 1 0
    outer loop
      vertex 4.57105 1.14489 1.44672
      vertex 5.89653 1.14489 2.64769
      vertex 4.77733 1.14489 1.45397
    endloop
  endfacet
  facet normal 0 1 0
    outer loop
      vertex 4.36722 1.14489 1.43666
      vertex 5.89653 1.14489 2.64769
      vertex 4.57105 1.14489 1.44672
    endloop
  endfacet
  facet normal 0 1 0
    outer loop
      vertex 4.1634 1.14489 1.4266
      vertex 5.89653 1.14489 2.64769
      vertex 4.36722 1.14489 1.43666
    endloop
  endfacet
  facet normal 0 1 0
    outer loop
      vertex 3.76232 1.14489 1.40076
      vertex 5.89653 1.14489 2.64769
      vertex 4.1634 1.14489 1.4266
    endloop
  endfacet
  facet normal 0 1 0
    outer loop
      vertex 3.56582 1.14489 1.38507
      vertex 5.89653 1.14489 2.64769
      vertex 3.76232 1.14489 1.40076
    endloop
  endfacet
  facet normal 0 1 0
    outer loop
      vertex 3.36936 1.14489 1.36938
      vertex 5.89653 1.14489 2.64769
      vertex 3.56582 1.14489 1.38507
    endloop
  endfacet
  facet normal 0 1 0
    outer loop
      vertex 5.89653 1.14489 2.64769
      vertex 3.36936 1.14489 1.36938
      vertex 0 1.14489 2.64769
    endloop
  endfacet
  facet normal 0 1 -0
    outer loop
      vertex 3.17767 1.14489 1.35102
      vertex 0 1.14489 2.64769
      vertex 3.36936 1.14489 1.36938
    endloop
  endfacet
  facet normal 0 1 -0
    outer loop
      vertex 2.98598 1.14489 1.33266
      vertex 0 1.14489 2.64769
      vertex 3.17767 1.14489 1.35102
    endloop
  endfacet
  facet normal 0 1 -0
    outer loop
      vertex 2.61386 1.14489 1.29061
      vertex 0 1.14489 2.64769
      vertex 2.98598 1.14489 1.33266
    endloop
  endfacet
  facet normal 0 1 -0
    outer loop
      vertex 2.43405 1.14489 1.26705
      vertex 0 1.14489 2.64769
      vertex 2.61386 1.14489 1.29061
    endloop
  endfacet
  facet normal 0 1 -0
    outer loop
      vertex 2.25432 1.14489 1.2435
      vertex 0 1.14489 2.64769
      vertex 2.43405 1.14489 1.26705
    endloop
  endfacet
  facet normal 0 1 -0
    outer loop
      vertex 2.08159 1.14489 1.21751
      vertex 0 1.14489 2.64769
      vertex 2.25432 1.14489 1.2435
    endloop
  endfacet
  facet normal 0 1 -0
    outer loop
      vertex 1.90889 1.14489 1.19152
      vertex 0 1.14489 2.64769
      vertex 2.08159 1.14489 1.21751
    endloop
  endfacet
  facet normal 0 1 -0
    outer loop
      vertex 1.57886 1.14489 1.13478
      vertex 0 1.14489 2.64769
      vertex 1.90889 1.14489 1.19152
    endloop
  endfacet
  facet normal 0 1 -0
    outer loop
      vertex 1.26559 1.14489 1.07365
      vertex 0 1.14489 2.64769
      vertex 1.57886 1.14489 1.13478
    endloop
  endfacet
  facet normal 0 1 -0
    outer loop
      vertex 1.11785 1.14489 1.04093
      vertex 0 1.14489 2.64769
      vertex 1.26559 1.14489 1.07365
    endloop
  endfacet
  facet normal 0 1 -0
    outer loop
      vertex 0.970184 1.14489 1.00822
      vertex 0 1.14489 2.64769
      vertex 1.11785 1.14489 1.04093
    endloop
  endfacet
  facet normal 0 1 -0
    outer loop
      vertex 0.693957 1.14489 0.938797
      vertex 0 1.14489 2.64769
      vertex 0.970184 1.14489 1.00822
    endloop
  endfacet
  facet normal 0 1 -0
    outer loop
      vertex 0.437968 1.14489 0.86565
      vertex 0 1.14489 2.64769
      vertex 0.693957 1.14489 0.938797
    endloop
  endfacet
  facet normal 0 1 -0
    outer loop
      vertex 0.203168 1.14489 0.789165
      vertex 0 1.14489 2.64769
      vertex 0.437968 1.14489 0.86565
    endloop
  endfacet
  facet normal 0 1 0
    outer loop
      vertex 0 1.14489 2.64769
      vertex 0.203168 1.14489 0.789165
      vertex 0 1.14489 0.713065
    endloop
  endfacet
  facet normal 0 0 -1
    outer loop
      vertex 0.684016 -1.14489 0
      vertex 0 -1.14489 0
      vertex 0 -0.11164 0
    endloop
  endfacet
  facet normal 0 -1 0
    outer loop
      vertex 3.59743 -1.14489 1.21751
      vertex 5.89653 -1.14489 2.64769
      vertex 0 -1.14489 2.64769
    endloop
  endfacet
  facet normal 0 -1 0
    outer loop
      vertex 5.89653 -1.14489 2.64769
      vertex 7.12402 -1.14489 1.47138
      vertex 7.33274 -1.14489 1.47285
    endloop
  endfacet
  facet normal 0 -1 0
    outer loop
      vertex 5.89653 -1.14489 2.64769
      vertex 6.91531 -1.14489 1.4699
      vertex 7.12402 -1.14489 1.47138
    endloop
  endfacet
  facet normal 0 -1 0
    outer loop
      vertex 5.89653 -1.14489 2.64769
      vertex 6.49945 -1.14489 1.46122
      vertex 6.91531 -1.14489 1.4699
    endloop
  endfacet
  facet normal 0 -1 0
    outer loop
      vertex 5.89653 -1.14489 2.64769
      vertex 6.29316 -1.14489 1.45397
      vertex 6.49945 -1.14489 1.46122
    endloop
  endfacet
  facet normal 0 -1 0
    outer loop
      vertex 5.89653 -1.14489 2.64769
      vertex 6.0869 -1.14489 1.44672
      vertex 6.29316 -1.14489 1.45397
    endloop
  endfacet
  facet normal 0 -1 -0
    outer loop
      vertex 5.89653 -1.14489 2.64769
      vertex 5.88306 -1.14489 1.43666
      vertex 6.0869 -1.14489 1.44672
    endloop
  endfacet
  facet normal 0 -1 0
    outer loop
      vertex 5.89653 -1.14489 2.64769
      vertex 5.67925 -1.14489 1.4266
      vertex 5.88306 -1.14489 1.43666
    endloop
  endfacet
  facet normal 0 -1 0
    outer loop
      vertex 5.89653 -1.14489 2.64769
      vertex 5.27817 -1.14489 1.40076
      vertex 5.67925 -1.14489 1.4266
    endloop
  endfacet
  facet normal 0 -1 0
    outer loop
      vertex 5.89653 -1.14489 2.64769
      vertex 5.08167 -1.14489 1.38507
      vertex 5.27817 -1.14489 1.40076
    endloop
  endfacet
  facet normal 0 -1 0
    outer loop
      vertex 5.89653 -1.14489 2.64769
      vertex 4.88521 -1.14489 1.36938
      vertex 5.08167 -1.14489 1.38507
    endloop
  endfacet
  facet normal 0 -1 0
    outer loop
      vertex 5.89653 -1.14489 2.64769
      vertex 4.6935 -1.14489 1.35102
      vertex 4.88521 -1.14489 1.36938
    endloop
  endfacet
  facet normal 0 -1 0
    outer loop
      vertex 5.89653 -1.14489 2.64769
      vertex 4.50183 -1.14489 1.33266
      vertex 4.6935 -1.14489 1.35102
    endloop
  endfacet
  facet normal 0 -1 0
    outer loop
      vertex 5.89653 -1.14489 2.64769
      vertex 4.12971 -1.14489 1.29061
      vertex 4.50183 -1.14489 1.33266
    endloop
  endfacet
  facet normal 0 -1 0
    outer loop
      vertex 5.89653 -1.14489 2.64769
      vertex 3.94991 -1.14489 1.26705
      vertex 4.12971 -1.14489 1.29061
    endloop
  endfacet
  facet normal 0 -1 0
    outer loop
      vertex 5.89653 -1.14489 2.64769
      vertex 3.77016 -1.14489 1.2435
      vertex 3.94991 -1.14489 1.26705
    endloop
  endfacet
  facet normal 0 -1 0
    outer loop
      vertex 5.89653 -1.14489 2.64769
      vertex 3.59743 -1.14489 1.21751
      vertex 3.77016 -1.14489 1.2435
    endloop
  endfacet
  facet normal 0 -1 0
    outer loop
      vertex 0 -1.14489 2.64769
      vertex 3.42474 -1.14489 1.19152
      vertex 3.59743 -1.14489 1.21751
    endloop
  endfacet
  facet normal 0 -1 0
    outer loop
      vertex 0 -1.14489 2.64769
      vertex 3.09471 -1.14489 1.13478
      vertex 3.42474 -1.14489 1.19152
    endloop
  endfacet
  facet normal 0 -1 0
    outer loop
      vertex 0 -1.14489 2.64769
      vertex 2.78143 -1.14489 1.07365
      vertex 3.09471 -1.14489 1.13478
    endloop
  endfacet
  facet normal 0 -1 0
    outer loop
      vertex 0 -1.14489 2.64769
      vertex 2.6337 -1.14489 1.04093
      vertex 2.78143 -1.14489 1.07365
    endloop
  endfacet
  facet normal 0 -1 0
    outer loop
      vertex 0 -1.14489 2.64769
      vertex 2.48603 -1.14489 1.00822
      vertex 2.6337 -1.14489 1.04093
    endloop
  endfacet
  facet normal 0 -1 0
    outer loop
      vertex 0 -1.14489 2.64769
      vertex 2.2098 -1.14489 0.938797
      vertex 2.48603 -1.14489 1.00822
    endloop
  endfacet
  facet normal 0 -1 0
    outer loop
      vertex 0 -1.14489 2.64769
      vertex 1.95381 -1.14489 0.86565
      vertex 2.2098 -1.14489 0.938797
    endloop
  endfacet
  facet normal 0 -1 0
    outer loop
      vertex 0 -1.14489 2.64769
      vertex 1.71901 -1.14489 0.789165
      vertex 1.95381 -1.14489 0.86565
    endloop
  endfacet
  facet normal 0 -1 0
    outer loop
      vertex 0 -1.14489 2.64769
      vertex 1.50642 -1.14489 0.709534
      vertex 1.71901 -1.14489 0.789165
    endloop
  endfacet
  facet normal 0 -1 0
    outer loop
      vertex 0 -1.14489 2.64769
      vertex 1.41159 -1.14489 0.668289
      vertex 1.50642 -1.14489 0.709534
    endloop
  endfacet
  facet normal 0 -1 0
    outer loop
      vertex 0 -1.14489 2.64769
      vertex 1.3168 -1.14489 0.627041
      vertex 1.41159 -1.14489 0.668289
    endloop
  endfacet
  facet normal 0 -1 0
    outer loop
      vertex 0 -1.14489 2.64769
      vertex 1.23382 -1.14489 0.584601
      vertex 1.3168 -1.14489 0.627041
    endloop
  endfacet
  facet normal 0 -1 0
    outer loop
      vertex 0 -1.14489 2.64769
      vertex 1.15089 -1.14489 0.542164
      vertex 1.23382 -1.14489 0.584601
    endloop
  endfacet
  facet normal 0 -1 0
    outer loop
      vertex 0 -1.14489 2.64769
      vertex 1.08012 -1.14489 0.49863
      vertex 1.15089 -1.14489 0.542164
    endloop
  endfacet
  facet normal 0 -1 0
    outer loop
      vertex 0 -1.14489 2.64769
      vertex 1.0094 -1.14489 0.455093
      vertex 1.08012 -1.14489 0.49863
    endloop
  endfacet
  facet normal 0 -1 0
    outer loop
      vertex 0 -1.14489 2.64769
      vertex 0.951121 -1.14489 0.41065
      vertex 1.0094 -1.14489 0.455093
    endloop
  endfacet
  facet normal 0 -1 0
    outer loop
      vertex 0 -1.14489 2.64769
      vertex 0.8929 -1.14489 0.366211
      vertex 0.951121 -1.14489 0.41065
    endloop
  endfacet
  facet normal 0 -1 0
    outer loop
      vertex 0 -1.14489 0
      vertex 0.8929 -1.14489 0.366211
      vertex 0 -1.14489 2.64769
    endloop
  endfacet
  facet normal 0 -1 0
    outer loop
      vertex 0.8929 -1.14489 0.366211
      vertex 0 -1.14489 0
      vertex 0.801797 -1.14489 0.275898
    endloop
  endfacet
  facet normal 0 -1 0
    outer loop
      vertex 0.801797 -1.14489 0.275898
      vertex 0 -1.14489 0
      vertex 0.769109 -1.14489 0.230219
    endloop
  endfacet
  facet normal 0 -1 0
    outer loop
      vertex 0.769109 -1.14489 0.230219
      vertex 0 -1.14489 0
      vertex 0.736467 -1.14489 0.184536
    endloop
  endfacet
  facet normal 0 -1 0
    outer loop
      vertex 0.736467 -1.14489 0.184536
      vertex 0 -1.14489 0
      vertex 0.716783 -1.14489 0.138471
    endloop
  endfacet
  facet normal 0 -1 0
    outer loop
      vertex 0.716783 -1.14489 0.138471
      vertex 0 -1.14489 0
      vertex 0.697149 -1.14489 0.092411
    endloop
  endfacet
  facet normal 0 -1 0
    outer loop
      vertex 0.697149 -1.14489 0.092411
      vertex 0 -1.14489 0
      vertex 0.684016 -1.14489 0
    endloop
  endfacet
  facet normal 0 -1 0
    outer loop
      vertex 7.54147 -1.14489 1.47138
      vertex 5.89653 -1.14489 2.64769
      vertex 7.33274 -1.14489 1.47285
    endloop
  endfacet
  facet normal 0 -1 0
    outer loop
      vertex 7.75018 -1.14489 1.4699
      vertex 5.89653 -1.14489 2.64769
      vertex 7.54147 -1.14489 1.47138
    endloop
  endfacet
  facet normal 0 -1 0
    outer loop
      vertex 8.16604 -1.14489 1.46122
      vertex 5.89653 -1.14489 2.64769
      vertex 7.75018 -1.14489 1.4699
    endloop
  endfacet
  facet normal 0 -1 0
    outer loop
      vertex 8.37232 -1.14489 1.45397
      vertex 5.89653 -1.14489 2.64769
      vertex 8.16604 -1.14489 1.46122
    endloop
  endfacet
  facet normal 0 -1 0
    outer loop
      vertex 8.57859 -1.14489 1.44672
      vertex 5.89653 -1.14489 2.64769
      vertex 8.37232 -1.14489 1.45397
    endloop
  endfacet
  facet normal 0 -1 0
    outer loop
      vertex 5.89653 -1.14489 2.64769
      vertex 8.57859 -1.14489 1.44672
      vertex 8.77144 -1.14489 1.43721
    endloop
  endfacet
  facet normal 0.388055 -1.68978e-06 0.921636
    outer loop
      vertex 5.89653 1.14489 2.64769
      vertex 9.11961 0.994397 1.29061
      vertex 9.16463 1.14489 1.27165
    endloop
  endfacet
  facet normal 0.388056 1.63383e-07 0.921636
    outer loop
      vertex 5.89653 1.14489 2.64769
      vertex 9.06967 0.788787 1.31164
      vertex 9.11961 0.994397 1.29061
    endloop
  endfacet
  facet normal 0.388056 -2.19803e-07 0.921636
    outer loop
      vertex 5.89653 1.14489 2.64769
      vertex 9.01972 0.583099 1.33266
      vertex 9.06967 0.788787 1.31164
    endloop
  endfacet
  facet normal 0.388056 1.34801e-06 0.921636
    outer loop
      vertex 5.89653 1.14489 2.64769
      vertex 8.97612 0.359492 1.35102
      vertex 9.01972 0.583099 1.33266
    endloop
  endfacet
  facet normal 0.388055 1.16195e-07 0.921636
    outer loop
      vertex 5.89653 1.14489 2.64769
      vertex 8.93252 0.135775 1.36938
      vertex 8.97612 0.359492 1.35102
    endloop
  endfacet
  facet normal 0.388055 -3.70886e-07 0.921636
    outer loop
      vertex 5.89653 1.14489 2.64769
      vertex 8.89526 -0.104708 1.38507
      vertex 8.93252 0.135775 1.36938
    endloop
  endfacet
  facet normal 0.388056 1.71129e-07 0.921636
    outer loop
      vertex 5.89653 1.14489 2.64769
      vertex 8.858 -0.345324 1.40076
      vertex 8.89526 -0.104708 1.38507
    endloop
  endfacet
  facet normal 0.388055 -0 0.921636
    outer loop
      vertex 5.89653 -1.14489 2.64769
      vertex 8.858 -0.345324 1.40076
      vertex 5.89653 1.14489 2.64769
    endloop
  endfacet
  facet normal 0.388055 -1.48656e-07 0.921636
    outer loop
      vertex 8.858 -0.345324 1.40076
      vertex 5.89653 -1.14489 2.64769
      vertex 8.79662 -0.858462 1.4266
    endloop
  endfacet
  facet normal 0.388056 -6.14197e-07 0.921636
    outer loop
      vertex 8.79662 -0.858462 1.4266
      vertex 5.89653 -1.14489 2.64769
      vertex 8.77273 -1.13024 1.43666
    endloop
  endfacet
  facet normal 0.388055 2.26697e-05 0.921636
    outer loop
      vertex 8.77273 -1.13024 1.43666
      vertex 5.89653 -1.14489 2.64769
      vertex 8.77144 -1.14489 1.43721
    endloop
  endfacet
  facet normal 0.828046 0.548172 -0.117675
    outer loop
      vertex 0.697149 -1.14489 0.092411
      vertex 0 -0.11164 0
      vertex 0 -0.0918019 0.092411
    endloop
  endfacet
  facet normal 0.828046 0.548172 -0.117675
    outer loop
      vertex 0 -0.11164 0
      vertex 0.697149 -1.14489 0.092411
      vertex 0.684016 -1.14489 0
    endloop
  endfacet
  facet normal 0.00708214 0.00468846 -0.999964
    outer loop
      vertex 6.91531 -1.14489 1.4699
      vertex 5.60817 1.14489 1.47138
      vertex 7.12402 -1.14489 1.47138
    endloop
  endfacet
  facet normal 0.00708253 0.00468868 -0.999964
    outer loop
      vertex 5.60817 1.14489 1.47138
      vertex 6.91531 -1.14489 1.4699
      vertex 5.39947 1.14489 1.4699
    endloop
  endfacet
  facet normal -0.111968 -0.0741234 -0.990943
    outer loop
      vertex 8.64782 1.14489 1.33266
      vertex 9.06967 0.788787 1.31164
      vertex 9.01972 0.583099 1.33266
    endloop
  endfacet
  facet normal -0.111968 -0.0741233 -0.990943
    outer loop
      vertex 9.06967 0.788787 1.31164
      vertex 8.64782 1.14489 1.33266
      vertex 8.83393 1.14489 1.31164
    endloop
  endfacet
  facet normal -0.095176 -0.0630072 -0.993464
    outer loop
      vertex 8.45619 1.14489 1.35102
      vertex 9.01972 0.583099 1.33266
      vertex 8.97612 0.359492 1.35102
    endloop
  endfacet
  facet normal -0.0951755 -0.0630067 -0.993465
    outer loop
      vertex 9.01972 0.583099 1.33266
      vertex 8.45619 1.14489 1.35102
      vertex 8.64782 1.14489 1.33266
    endloop
  endfacet
  facet normal 0.240647 0.15931 -0.957449
    outer loop
      vertex 2.2098 -1.14489 0.938797
      vertex 0.970184 1.14489 1.00822
      vertex 2.48603 -1.14489 1.00822
    endloop
  endfacet
  facet normal 0.240647 0.15931 -0.957449
    outer loop
      vertex 0.970184 1.14489 1.00822
      vertex 2.2098 -1.14489 0.938797
      vertex 0.693957 1.14489 0.938797
    endloop
  endfacet
  facet normal -0.111996 -0.0741419 -0.990939
    outer loop
      vertex 8.83393 1.14489 1.31164
      vertex 9.11961 0.994397 1.29061
      vertex 9.06967 0.788787 1.31164
    endloop
  endfacet
  facet normal -0.111996 -0.0741419 -0.990939
    outer loop
      vertex 9.11961 0.994397 1.29061
      vertex 8.83393 1.14489 1.31164
      vertex 9.01999 1.14489 1.29061
    endloop
  endfacet
  facet normal 0.00708195 0.0046883 -0.999964
    outer loop
      vertex 7.12402 -1.14489 1.47138
      vertex 5.8169 1.14489 1.47285
      vertex 7.33274 -1.14489 1.47285
    endloop
  endfacet
  facet normal 0.00708156 0.00468807 -0.999964
    outer loop
      vertex 5.8169 1.14489 1.47285
      vertex 7.12402 -1.14489 1.47138
      vertex 5.60817 1.14489 1.47138
    endloop
  endfacet
  facet normal 0.385638 0.255295 -0.886627
    outer loop
      vertex 0 0.987412 0.668291
      vertex 1.50642 -1.14489 0.709534
      vertex 1.41159 -1.14489 0.668289
    endloop
  endfacet
  facet normal 0.385638 0.255295 -0.886627
    outer loop
      vertex 1.50642 -1.14489 0.709534
      vertex 0 0.987412 0.668291
      vertex 0 1.13065 0.709534
    endloop
  endfacet
  facet normal 0.436134 0.288723 -0.852306
    outer loop
      vertex 0 0.593597 0.542164
      vertex 1.23382 -1.14489 0.584601
      vertex 1.15089 -1.14489 0.542164
    endloop
  endfacet
  facet normal 0.436134 0.288723 -0.852306
    outer loop
      vertex 1.23382 -1.14489 0.584601
      vertex 0 0.593597 0.542164
      vertex 0 0.718864 0.584599
    endloop
  endfacet
  facet normal 0.189999 0.125781 -0.973694
    outer loop
      vertex 2.78143 -1.14489 1.07365
      vertex 1.57886 1.14489 1.13478
      vertex 3.09471 -1.14489 1.13478
    endloop
  endfacet
  facet normal 0.189999 0.125781 -0.973694
    outer loop
      vertex 1.57886 1.14489 1.13478
      vertex 2.78143 -1.14489 1.07365
      vertex 1.26559 1.14489 1.07365
    endloop
  endfacet
  facet normal 0.0208619 0.0138107 -0.999687
    outer loop
      vertex 6.49945 -1.14489 1.46122
      vertex 5.39947 1.14489 1.4699
      vertex 6.91531 -1.14489 1.4699
    endloop
  endfacet
  facet normal 0.0208619 0.0138107 -0.999687
    outer loop
      vertex 5.39947 1.14489 1.4699
      vertex 6.49945 -1.14489 1.46122
      vertex 4.9836 1.14489 1.46122
    endloop
  endfacet
  facet normal 0.214078 0.141721 -0.966481
    outer loop
      vertex 2.48603 -1.14489 1.00822
      vertex 1.11785 1.14489 1.04093
      vertex 2.6337 -1.14489 1.04093
    endloop
  endfacet
  facet normal 0.214078 0.141721 -0.966481
    outer loop
      vertex 1.11785 1.14489 1.04093
      vertex 2.48603 -1.14489 1.00822
      vertex 0.970184 1.14489 1.00822
    endloop
  endfacet
  facet normal 0.0492724 0.0326187 -0.998253
    outer loop
      vertex 5.88306 -1.14489 1.43666
      vertex 4.57105 1.14489 1.44672
      vertex 6.0869 -1.14489 1.44672
    endloop
  endfacet
  facet normal 0.0492722 0.0326185 -0.998253
    outer loop
      vertex 4.57105 1.14489 1.44672
      vertex 5.88306 -1.14489 1.43666
      vertex 4.36722 1.14489 1.43666
    endloop
  endfacet
  facet normal 0.0351048 0.0232396 -0.999113
    outer loop
      vertex 6.29316 -1.14489 1.45397
      vertex 4.9836 1.14489 1.46122
      vertex 6.49945 -1.14489 1.46122
    endloop
  endfacet
  facet normal 0.035105 0.0232397 -0.999113
    outer loop
      vertex 4.9836 1.14489 1.46122
      vertex 6.29316 -1.14489 1.45397
      vertex 4.77733 1.14489 1.45397
    endloop
  endfacet
  facet normal 0.34168 0.226194 -0.91219
    outer loop
      vertex 1.50642 -1.14489 0.709534
      vertex 0.203168 1.14489 0.789165
      vertex 1.71901 -1.14489 0.789165
    endloop
  endfacet
  facet normal 0.34168 0.226194 -0.91219
    outer loop
      vertex 0 1.13065 0.709534
      vertex 0.203168 1.14489 0.789165
      vertex 1.50642 -1.14489 0.709534
    endloop
  endfacet
  facet normal 0.34168 0.226194 -0.91219
    outer loop
      vertex 0.203168 1.14489 0.789165
      vertex 0 1.13065 0.709534
      vertex 0 1.14489 0.713065
    endloop
  endfacet
  facet normal 0.214014 0.141679 -0.966501
    outer loop
      vertex 2.6337 -1.14489 1.04093
      vertex 1.26559 1.14489 1.07365
      vertex 2.78143 -1.14489 1.07365
    endloop
  endfacet
  facet normal 0.214014 0.141679 -0.966501
    outer loop
      vertex 1.26559 1.14489 1.07365
      vertex 2.6337 -1.14489 1.04093
      vertex 1.11785 1.14489 1.04093
    endloop
  endfacet
  facet normal 0.563015 0.37272 -0.737627
    outer loop
      vertex 0 0.203891 0.366211
      vertex 0.951121 -1.14489 0.41065
      vertex 0.8929 -1.14489 0.366211
    endloop
  endfacet
  facet normal 0.563015 0.37272 -0.737627
    outer loop
      vertex 0.951121 -1.14489 0.41065
      vertex 0 0.203891 0.366211
      vertex 0 0.291835 0.410649
    endloop
  endfacet
  facet normal 0.303414 0.200862 -0.931448
    outer loop
      vertex 1.71901 -1.14489 0.789165
      vertex 0.437968 1.14489 0.86565
      vertex 1.95381 -1.14489 0.86565
    endloop
  endfacet
  facet normal 0.303414 0.200862 -0.931448
    outer loop
      vertex 0.437968 1.14489 0.86565
      vertex 1.71901 -1.14489 0.789165
      vertex 0.203168 1.14489 0.789165
    endloop
  endfacet
  facet normal 0.0351075 0.0232414 -0.999113
    outer loop
      vertex 6.0869 -1.14489 1.44672
      vertex 4.77733 1.14489 1.45397
      vertex 6.29316 -1.14489 1.45397
    endloop
  endfacet
  facet normal 0.0351074 0.0232413 -0.999113
    outer loop
      vertex 4.77733 1.14489 1.45397
      vertex 6.0869 -1.14489 1.44672
      vertex 4.57105 1.14489 1.44672
    endloop
  endfacet
  facet normal 0.716331 0.474216 -0.511849
    outer loop
      vertex 0.769109 -1.14489 0.230219
      vertex 0 -0.0324095 0.184536
      vertex 0 0.0169003 0.23022
    endloop
  endfacet
  facet normal 0.716331 0.474216 -0.511849
    outer loop
      vertex 0 -0.0324095 0.184536
      vertex 0.769109 -1.14489 0.230219
      vertex 0.736467 -1.14489 0.184536
    endloop
  endfacet
  facet normal -0.00708156 -0.00468807 -0.999964
    outer loop
      vertex 7.33274 -1.14489 1.47285
      vertex 6.02562 1.14489 1.47138
      vertex 7.54147 -1.14489 1.47138
    endloop
  endfacet
  facet normal -0.00708195 -0.0046883 -0.999964
    outer loop
      vertex 6.02562 1.14489 1.47138
      vertex 7.33274 -1.14489 1.47285
      vertex 5.8169 1.14489 1.47285
    endloop
  endfacet
  facet normal -0.0351051 -0.0232398 -0.999113
    outer loop
      vertex 8.16604 -1.14489 1.46122
      vertex 6.85648 1.14489 1.45397
      vertex 8.37232 -1.14489 1.45397
    endloop
  endfacet
  facet normal -0.0351048 -0.0232396 -0.999113
    outer loop
      vertex 6.85648 1.14489 1.45397
      vertex 8.16604 -1.14489 1.46122
      vertex 6.6502 1.14489 1.46122
    endloop
  endfacet
  facet normal 0.129426 0.0856811 -0.98788
    outer loop
      vertex 3.94991 -1.14489 1.26705
      vertex 2.61386 1.14489 1.29061
      vertex 4.12971 -1.14489 1.29061
    endloop
  endfacet
  facet normal 0.129427 0.0856812 -0.98788
    outer loop
      vertex 2.61386 1.14489 1.29061
      vertex 3.94991 -1.14489 1.26705
      vertex 2.43405 1.14489 1.26705
    endloop
  endfacet
  facet normal 0.148095 0.0980398 -0.984102
    outer loop
      vertex 3.42474 -1.14489 1.19152
      vertex 2.08159 1.14489 1.21751
      vertex 3.59743 -1.14489 1.21751
    endloop
  endfacet
  facet normal 0.148095 0.0980399 -0.984102
    outer loop
      vertex 2.08159 1.14489 1.21751
      vertex 3.42474 -1.14489 1.19152
      vertex 1.90889 1.14489 1.19152
    endloop
  endfacet
  facet normal 0.638119 0.422439 -0.6437
    outer loop
      vertex 0 0.0662749 0.275898
      vertex 0.8929 -1.14489 0.366211
      vertex 0.801797 -1.14489 0.275898
    endloop
  endfacet
  facet normal 0.638119 0.422439 -0.6437
    outer loop
      vertex 0.8929 -1.14489 0.366211
      vertex 0 0.0662749 0.275898
      vertex 0 0.203891 0.366211
    endloop
  endfacet
  facet normal 0.495028 0.327712 -0.804706
    outer loop
      vertex 0 0.486704 0.498632
      vertex 1.15089 -1.14489 0.542164
      vertex 1.08012 -1.14489 0.49863
    endloop
  endfacet
  facet normal 0.495028 0.327712 -0.804706
    outer loop
      vertex 1.15089 -1.14489 0.542164
      vertex 0 0.486704 0.498632
      vertex 0 0.593597 0.542164
    endloop
  endfacet
  facet normal -0.079456 -0.0526004 -0.99545
    outer loop
      vertex 7.87148 1.14489 1.40076
      vertex 8.89526 -0.104708 1.38507
      vertex 8.858 -0.345324 1.40076
    endloop
  endfacet
  facet normal -0.0794559 -0.0526003 -0.99545
    outer loop
      vertex 8.89526 -0.104708 1.38507
      vertex 7.87148 1.14489 1.40076
      vertex 8.06802 1.14489 1.38507
    endloop
  endfacet
  facet normal -0.0642456 -0.042531 -0.997027
    outer loop
      vertex 7.47039 1.14489 1.4266
      vertex 8.858 -0.345324 1.40076
      vertex 8.79662 -0.858462 1.4266
    endloop
  endfacet
  facet normal -0.0642457 -0.0425311 -0.997027
    outer loop
      vertex 8.858 -0.345324 1.40076
      vertex 7.47039 1.14489 1.4266
      vertex 7.87148 1.14489 1.40076
    endloop
  endfacet
  facet normal -0.129459 -0.0857027 -0.987874
    outer loop
      vertex 9.16463 1.14489 1.27165
      vertex 9.11961 0.994397 1.29061
      vertex 9.01999 1.14489 1.29061
    endloop
  endfacet
  facet normal 0.785469 0.519986 -0.335639
    outer loop
      vertex 0.736467 -1.14489 0.184536
      vertex 0 -0.0621439 0.13847
      vertex 0 -0.0324095 0.184536
    endloop
  endfacet
  facet normal 0.785469 0.519986 -0.335639
    outer loop
      vertex 0 -0.0621439 0.13847
      vertex 0.736467 -1.14489 0.184536
      vertex 0.716783 -1.14489 0.138471
    endloop
  endfacet
  facet normal 0.270311 0.178948 -0.945997
    outer loop
      vertex 1.95381 -1.14489 0.86565
      vertex 0.693957 1.14489 0.938797
      vertex 2.2098 -1.14489 0.938797
    endloop
  endfacet
  facet normal 0.270311 0.178948 -0.945997
    outer loop
      vertex 0.693957 1.14489 0.938797
      vertex 1.95381 -1.14489 0.86565
      vertex 0.437968 1.14489 0.86565
    endloop
  endfacet
  facet normal 0.12946 0.0857034 -0.987874
    outer loop
      vertex 3.77016 -1.14489 1.2435
      vertex 2.43405 1.14489 1.26705
      vertex 3.94991 -1.14489 1.26705
    endloop
  endfacet
  facet normal 0.12946 0.0857033 -0.987874
    outer loop
      vertex 2.43405 1.14489 1.26705
      vertex 3.77016 -1.14489 1.2435
      vertex 2.25432 1.14489 1.2435
    endloop
  endfacet
  facet normal 0.716057 0.474034 -0.512401
    outer loop
      vertex 0.801797 -1.14489 0.275898
      vertex 0 0.0169003 0.23022
      vertex 0 0.0662749 0.275898
    endloop
  endfacet
  facet normal 0.716057 0.474034 -0.512401
    outer loop
      vertex 0 0.0169003 0.23022
      vertex 0.801797 -1.14489 0.275898
      vertex 0.769109 -1.14489 0.230219
    endloop
  endfacet
  facet normal -0.0951369 -0.0629813 -0.99347
    outer loop
      vertex 8.26448 1.14489 1.36938
      vertex 8.97612 0.359492 1.35102
      vertex 8.93252 0.135775 1.36938
    endloop
  endfacet
  facet normal -0.0951368 -0.0629812 -0.99347
    outer loop
      vertex 8.97612 0.359492 1.35102
      vertex 8.26448 1.14489 1.36938
      vertex 8.45619 1.14489 1.35102
    endloop
  endfacet
  facet normal -0.0208619 -0.0138107 -0.999687
    outer loop
      vertex 7.75018 -1.14489 1.4699
      vertex 6.6502 1.14489 1.46122
      vertex 8.16604 -1.14489 1.46122
    endloop
  endfacet
  facet normal -0.0208619 -0.0138107 -0.999687
    outer loop
      vertex 6.6502 1.14489 1.46122
      vertex 7.75018 -1.14489 1.4699
      vertex 6.23433 1.14489 1.4699
    endloop
  endfacet
  facet normal -0.00708253 -0.00468868 -0.999964
    outer loop
      vertex 7.54147 -1.14489 1.47138
      vertex 6.23433 1.14489 1.4699
      vertex 7.75018 -1.14489 1.4699
    endloop
  endfacet
  facet normal -0.00708214 -0.00468846 -0.999964
    outer loop
      vertex 6.23433 1.14489 1.4699
      vertex 7.54147 -1.14489 1.47138
      vertex 6.02562 1.14489 1.47138
    endloop
  endfacet
  facet normal 0.38579 0.255396 -0.886532
    outer loop
      vertex 0 0.844225 0.627041
      vertex 1.41159 -1.14489 0.668289
      vertex 1.3168 -1.14489 0.627041
    endloop
  endfacet
  facet normal 0.385791 0.255396 -0.886532
    outer loop
      vertex 1.41159 -1.14489 0.668289
      vertex 0 0.844225 0.627041
      vertex 0 0.987412 0.668291
    endloop
  endfacet
  facet normal 0.435952 0.288603 -0.85244
    outer loop
      vertex 0 0.718864 0.584599
      vertex 1.3168 -1.14489 0.627041
      vertex 1.23382 -1.14489 0.584601
    endloop
  endfacet
  facet normal 0.435951 0.288603 -0.852441
    outer loop
      vertex 1.3168 -1.14489 0.627041
      vertex 0 0.718864 0.584599
      vertex 0 0.844225 0.627041
    endloop
  endfacet
  facet normal 0.785683 0.520128 -0.334917
    outer loop
      vertex 0.716783 -1.14489 0.138471
      vertex 0 -0.0918019 0.092411
      vertex 0 -0.0621439 0.13847
    endloop
  endfacet
  facet normal 0.785683 0.520128 -0.334917
    outer loop
      vertex 0 -0.0918019 0.092411
      vertex 0.716783 -1.14489 0.138471
      vertex 0.697149 -1.14489 0.092411
    endloop
  endfacet
  facet normal 0.04928 0.0326237 -0.998252
    outer loop
      vertex 5.67925 -1.14489 1.4266
      vertex 4.36722 1.14489 1.43666
      vertex 5.88306 -1.14489 1.43666
    endloop
  endfacet
  facet normal 0.0492803 0.0326239 -0.998252
    outer loop
      vertex 4.36722 1.14489 1.43666
      vertex 5.67925 -1.14489 1.4266
      vertex 4.1634 1.14489 1.4266
    endloop
  endfacet
  facet normal 0.168394 0.111478 -0.979396
    outer loop
      vertex 3.09471 -1.14489 1.13478
      vertex 1.90889 1.14489 1.19152
      vertex 3.42474 -1.14489 1.19152
    endloop
  endfacet
  facet normal 0.168394 0.111478 -0.979396
    outer loop
      vertex 1.90889 1.14489 1.19152
      vertex 3.09471 -1.14489 1.13478
      vertex 1.57886 1.14489 1.13478
    endloop
  endfacet
  facet normal 0.095137 0.0629813 -0.99347
    outer loop
      vertex 4.6935 -1.14489 1.35102
      vertex 3.36936 1.14489 1.36938
      vertex 4.88521 -1.14489 1.36938
    endloop
  endfacet
  facet normal 0.0951368 0.0629812 -0.99347
    outer loop
      vertex 3.36936 1.14489 1.36938
      vertex 4.6935 -1.14489 1.35102
      vertex 3.17767 1.14489 1.35102
    endloop
  endfacet
  facet normal 0.562764 0.372554 -0.737902
    outer loop
      vertex 0 0.291835 0.410649
      vertex 1.0094 -1.14489 0.455093
      vertex 0.951121 -1.14489 0.41065
    endloop
  endfacet
  facet normal 0.562764 0.372554 -0.737902
    outer loop
      vertex 1.0094 -1.14489 0.455093
      vertex 0 0.291835 0.410649
      vertex 0 0.379865 0.455093
    endloop
  endfacet
  facet normal 0.495244 0.327855 -0.804515
    outer loop
      vertex 0 0.379865 0.455093
      vertex 1.08012 -1.14489 0.49863
      vertex 1.0094 -1.14489 0.455093
    endloop
  endfacet
  facet normal 0.495244 0.327855 -0.804515
    outer loop
      vertex 1.08012 -1.14489 0.49863
      vertex 0 0.379865 0.455093
      vertex 0 0.486704 0.498632
    endloop
  endfacet
  facet normal -0.0794873 -0.0526211 -0.995446
    outer loop
      vertex 8.06802 1.14489 1.38507
      vertex 8.93252 0.135775 1.36938
      vertex 8.89526 -0.104708 1.38507
    endloop
  endfacet
  facet normal -0.0794876 -0.0526214 -0.995446
    outer loop
      vertex 8.93252 0.135775 1.36938
      vertex 8.06802 1.14489 1.38507
      vertex 8.26448 1.14489 1.36938
    endloop
  endfacet
  facet normal -0.0492801 -0.0326238 -0.998252
    outer loop
      vertex 7.26659 1.14489 1.43666
      vertex 8.79662 -0.858462 1.4266
      vertex 8.77273 -1.13024 1.43666
    endloop
  endfacet
  facet normal -0.04928 -0.0326237 -0.998252
    outer loop
      vertex 8.79662 -0.858462 1.4266
      vertex 7.26659 1.14489 1.43666
      vertex 7.47039 1.14489 1.4266
    endloop
  endfacet
  facet normal 0.111996 0.0741421 -0.990939
    outer loop
      vertex 4.12971 -1.14489 1.29061
      vertex 2.98598 1.14489 1.33266
      vertex 4.50183 -1.14489 1.33266
    endloop
  endfacet
  facet normal 0.111996 0.074142 -0.990939
    outer loop
      vertex 2.98598 1.14489 1.33266
      vertex 4.12971 -1.14489 1.29061
      vertex 2.61386 1.14489 1.29061
    endloop
  endfacet
  facet normal -0.0351072 -0.0232412 -0.999113
    outer loop
      vertex 8.37232 -1.14489 1.45397
      vertex 7.06275 1.14489 1.44672
      vertex 8.57859 -1.14489 1.44672
    endloop
  endfacet
  facet normal -0.0351075 -0.0232414 -0.999113
    outer loop
      vertex 7.06275 1.14489 1.44672
      vertex 8.37232 -1.14489 1.45397
      vertex 6.85648 1.14489 1.45397
    endloop
  endfacet
  facet normal -0.0492722 -0.0326214 -0.998253
    outer loop
      vertex 8.57859 -1.14489 1.44672
      vertex 8.77273 -1.13024 1.43666
      vertex 8.77144 -1.14489 1.43721
    endloop
  endfacet
  facet normal -0.0492724 -0.0326187 -0.998253
    outer loop
      vertex 8.57859 -1.14489 1.44672
      vertex 7.26659 1.14489 1.43666
      vertex 8.77273 -1.13024 1.43666
    endloop
  endfacet
  facet normal -0.0492724 -0.0326187 -0.998253
    outer loop
      vertex 7.26659 1.14489 1.43666
      vertex 8.57859 -1.14489 1.44672
      vertex 7.06275 1.14489 1.44672
    endloop
  endfacet
  facet normal 0.0642457 0.0425311 -0.997027
    outer loop
      vertex 5.27817 -1.14489 1.40076
      vertex 4.1634 1.14489 1.4266
      vertex 5.67925 -1.14489 1.4266
    endloop
  endfacet
  facet normal 0.0642457 0.0425311 -0.997027
    outer loop
      vertex 4.1634 1.14489 1.4266
      vertex 5.27817 -1.14489 1.40076
      vertex 3.76232 1.14489 1.40076
    endloop
  endfacet
  facet normal 0.0794872 0.0526211 -0.995446
    outer loop
      vertex 4.88521 -1.14489 1.36938
      vertex 3.56582 1.14489 1.38507
      vertex 5.08167 -1.14489 1.38507
    endloop
  endfacet
  facet normal 0.0794874 0.0526212 -0.995446
    outer loop
      vertex 3.56582 1.14489 1.38507
      vertex 4.88521 -1.14489 1.36938
      vertex 3.36936 1.14489 1.36938
    endloop
  endfacet
  facet normal 0.0794752 0.0526131 -0.995447
    outer loop
      vertex 5.08167 -1.14489 1.38507
      vertex 3.76232 1.14489 1.40076
      vertex 5.27817 -1.14489 1.40076
    endloop
  endfacet
  facet normal 0.079475 0.052613 -0.995447
    outer loop
      vertex 3.76232 1.14489 1.40076
      vertex 5.08167 -1.14489 1.38507
      vertex 3.56582 1.14489 1.38507
    endloop
  endfacet
  facet normal 0.0951522 0.0629914 -0.993468
    outer loop
      vertex 4.50183 -1.14489 1.33266
      vertex 3.17767 1.14489 1.35102
      vertex 4.6935 -1.14489 1.35102
    endloop
  endfacet
  facet normal 0.0951525 0.0629916 -0.993468
    outer loop
      vertex 3.17767 1.14489 1.35102
      vertex 4.50183 -1.14489 1.33266
      vertex 2.98598 1.14489 1.33266
    endloop
  endfacet
  facet normal 0.148055 0.0980136 -0.98411
    outer loop
      vertex 3.59743 -1.14489 1.21751
      vertex 2.25432 1.14489 1.2435
      vertex 3.77016 -1.14489 1.2435
    endloop
  endfacet
  facet normal 0.148055 0.0980135 -0.98411
    outer loop
      vertex 2.25432 1.14489 1.2435
      vertex 3.59743 -1.14489 1.21751
      vertex 2.08159 1.14489 1.21751
    endloop
  endfacet
endsolid OpenSCAD_Model
