solid OpenSCAD_Model
  facet normal -1 0 0
    outer loop
      vertex 0 -1.21717 0
      vertex 0 1.21717 2.17361
      vertex 0 1.21717 0
    endloop
  endfacet
  facet normal -1 -0 0
    outer loop
      vertex 0 1.21717 2.17361
      vertex 0 -1.21717 0
      vertex 0 -1.21717 2.17361
    endloop
  endfacet
  facet normal -0 0 1
    outer loop
      vertex 0 1.21717 2.17361
      vertex 12.1114 -1.21717 2.17361
      vertex 12.1114 1.21717 2.17361
    endloop
  endfacet
  facet normal 0 0 1
    outer loop
      vertex 12.1114 -1.21717 2.17361
      vertex 0 1.21717 2.17361
      vertex 0 -1.21717 2.17361
    endloop
  endfacet
  facet normal 1 -0 0
    outer loop
      vertex 12.2272 -1.21717 1.73735
      vertex 12.2272 1.21717 0
      vertex 12.2272 1.21717 1.73735
    endloop
  endfacet
  facet normal 1 0 0
    outer loop
      vertex 12.2272 1.21717 0
      vertex 12.2272 -1.21717 1.73735
      vertex 12.2272 -1.21717 0
    endloop
  endfacet
  facet normal 0 1 0
    outer loop
      vertex 12.1114 1.21717 2.17361
      vertex 8.49788 1.21717 1.62358
      vertex 8.41282 1.21717 1.62516
    endloop
  endfacet
  facet normal 0 1 0
    outer loop
      vertex 12.1114 1.21717 2.17361
      vertex 8.58288 1.21717 1.62201
      vertex 8.49788 1.21717 1.62358
    endloop
  endfacet
  facet normal 0 1 0
    outer loop
      vertex 12.1114 1.21717 2.17361
      vertex 8.66759 1.21717 1.61719
      vertex 8.58288 1.21717 1.62201
    endloop
  endfacet
  facet normal 0 1 0
    outer loop
      vertex 12.1114 1.21717 2.17361
      vertex 8.75222 1.21717 1.61238
      vertex 8.66759 1.21717 1.61719
    endloop
  endfacet
  facet normal 0 1 0
    outer loop
      vertex 12.1114 1.21717 2.17361
      vertex 8.83628 1.21717 1.60437
      vertex 8.75222 1.21717 1.61238
    endloop
  endfacet
  facet normal 0 1 0
    outer loop
      vertex 12.1114 1.21717 2.17361
      vertex 8.92028 1.21717 1.59636
      vertex 8.83628 1.21717 1.60437
    endloop
  endfacet
  facet normal 0 1 0
    outer loop
      vertex 12.1114 1.21717 2.17361
      vertex 9.0033 1.21717 1.58525
      vertex 8.92028 1.21717 1.59636
    endloop
  endfacet
  facet normal 0 1 0
    outer loop
      vertex 12.1114 1.21717 2.17361
      vertex 9.08627 1.21717 1.57413
      vertex 9.0033 1.21717 1.58525
    endloop
  endfacet
  facet normal 0 1 0
    outer loop
      vertex 12.1114 1.21717 2.17361
      vertex 9.16802 1.21717 1.55988
      vertex 9.08627 1.21717 1.57413
    endloop
  endfacet
  facet normal 0 1 0
    outer loop
      vertex 12.1114 1.21717 2.17361
      vertex 9.24966 1.21717 1.54562
      vertex 9.16802 1.21717 1.55988
    endloop
  endfacet
  facet normal 0 1 0
    outer loop
      vertex 12.1114 1.21717 2.17361
      vertex 9.3297 1.21717 1.52836
      vertex 9.24966 1.21717 1.54562
    endloop
  endfacet
  facet normal 0 1 0
    outer loop
      vertex 12.1114 1.21717 2.17361
      vertex 9.40969 1.21717 1.5111
      vertex 9.3297 1.21717 1.52836
    endloop
  endfacet
  facet normal 0 1 0
    outer loop
      vertex 12.1114 1.21717 2.17361
      vertex 9.48775 1.21717 1.49078
      vertex 9.40969 1.21717 1.5111
    endloop
  endfacet
  facet normal 0 1 0
    outer loop
      vertex 12.1114 1.21717 2.17361
      vertex 9.56581 1.21717 1.47047
      vertex 9.48775 1.21717 1.49078
    endloop
  endfacet
  facet normal 0 1 0
    outer loop
      vertex 12.1114 1.21717 2.17361
      vertex 9.64165 1.21717 1.44729
      vertex 9.56581 1.21717 1.47047
    endloop
  endfacet
  facet normal 0 1 0
    outer loop
      vertex 12.1114 1.21717 2.17361
      vertex 9.71743 1.21717 1.42412
      vertex 9.64165 1.21717 1.44729
    endloop
  endfacet
  facet normal 0 1 0
    outer loop
      vertex 12.1114 1.21717 2.17361
      vertex 9.79066 1.21717 1.39814
      vertex 9.71743 1.21717 1.42412
    endloop
  endfacet
  facet normal 0 1 0
    outer loop
      vertex 12.1114 1.21717 2.17361
      vertex 9.86381 1.21717 1.37215
      vertex 9.79066 1.21717 1.39814
    endloop
  endfacet
  facet normal 0 1 0
    outer loop
      vertex 12.1114 1.21717 2.17361
      vertex 9.93421 1.21717 1.34349
      vertex 9.86381 1.21717 1.37215
    endloop
  endfacet
  facet normal 0 1 0
    outer loop
      vertex 12.1114 1.21717 2.17361
      vertex 10.0045 1.21717 1.31483
      vertex 9.93421 1.21717 1.34349
    endloop
  endfacet
  facet normal 0 1 0
    outer loop
      vertex 12.1114 1.21717 2.17361
      vertex 10.0717 1.21717 1.2835
      vertex 10.0045 1.21717 1.31483
    endloop
  endfacet
  facet normal 0 1 0
    outer loop
      vertex 12.1114 1.21717 2.17361
      vertex 10.1389 1.21717 1.25217
      vertex 10.0717 1.21717 1.2835
    endloop
  endfacet
  facet normal 0 1 0
    outer loop
      vertex 12.1114 1.21717 2.17361
      vertex 10.2665 1.21717 1.18465
      vertex 10.1389 1.21717 1.25217
    endloop
  endfacet
  facet normal 0 1 0
    outer loop
      vertex 12.1114 1.21717 2.17361
      vertex 10.3267 1.21717 1.14856
      vertex 10.2665 1.21717 1.18465
    endloop
  endfacet
  facet normal 0 1 0
    outer loop
      vertex 12.1114 1.21717 2.17361
      vertex 10.3868 1.21717 1.11246
      vertex 10.3267 1.21717 1.14856
    endloop
  endfacet
  facet normal 0 1 0
    outer loop
      vertex 12.1114 1.21717 2.17361
      vertex 10.4994 1.21717 1.03588
      vertex 10.3868 1.21717 1.11246
    endloop
  endfacet
  facet normal 0 1 0
    outer loop
      vertex 12.1114 1.21717 2.17361
      vertex 10.5515 1.21717 0.995538
      vertex 10.4994 1.21717 1.03588
    endloop
  endfacet
  facet normal 0 1 0
    outer loop
      vertex 12.1114 1.21717 2.17361
      vertex 10.6036 1.21717 0.9552
      vertex 10.5515 1.21717 0.995538
    endloop
  endfacet
  facet normal 0 1 0
    outer loop
      vertex 12.2272 1.21717 1.73735
      vertex 10.6992 1.21717 0.8708
      vertex 10.6036 1.21717 0.9552
    endloop
  endfacet
  facet normal 0 1 0
    outer loop
      vertex 12.2272 1.21717 1.73735
      vertex 10.7858 1.21717 0.782871
      vertex 10.6992 1.21717 0.8708
    endloop
  endfacet
  facet normal 0 1 0
    outer loop
      vertex 12.2272 1.21717 1.73735
      vertex 10.8244 1.21717 0.737432
      vertex 10.7858 1.21717 0.782871
    endloop
  endfacet
  facet normal 0 1 0
    outer loop
      vertex 12.2272 1.21717 1.73735
      vertex 10.863 1.21717 0.691986
      vertex 10.8244 1.21717 0.737432
    endloop
  endfacet
  facet normal 0 1 0
    outer loop
      vertex 12.2272 1.21717 1.73735
      vertex 10.9306 1.21717 0.59824
      vertex 10.863 1.21717 0.691986
    endloop
  endfacet
  facet normal 0 1 0
    outer loop
      vertex 12.2272 1.21717 1.73735
      vertex 10.9594 1.21717 0.550219
      vertex 10.9306 1.21717 0.59824
    endloop
  endfacet
  facet normal 0 1 0
    outer loop
      vertex 12.2272 1.21717 1.73735
      vertex 10.9882 1.21717 0.502205
      vertex 10.9594 1.21717 0.550219
    endloop
  endfacet
  facet normal 0 1 0
    outer loop
      vertex 12.2272 1.21717 1.73735
      vertex 11.012 1.21717 0.453189
      vertex 10.9882 1.21717 0.502205
    endloop
  endfacet
  facet normal 0 1 -0
    outer loop
      vertex 12.2272 1.21717 0
      vertex 11.012 1.21717 0.453189
      vertex 12.2272 1.21717 1.73735
    endloop
  endfacet
  facet normal 0 1 0
    outer loop
      vertex 11.012 1.21717 0.453189
      vertex 12.2272 1.21717 0
      vertex 11.0357 1.21717 0.404167
    endloop
  endfacet
  facet normal 0 1 0
    outer loop
      vertex 11.0357 1.21717 0.404167
      vertex 12.2272 1.21717 0
      vertex 11.0543 1.21717 0.354334
    endloop
  endfacet
  facet normal 0 1 0
    outer loop
      vertex 11.0543 1.21717 0.354334
      vertex 12.2272 1.21717 0
      vertex 11.0728 1.21717 0.304508
    endloop
  endfacet
  facet normal 0 1 0
    outer loop
      vertex 11.0728 1.21717 0.304508
      vertex 12.2272 1.21717 0
      vertex 11.0862 1.21717 0.254062
    endloop
  endfacet
  facet normal 0 1 0
    outer loop
      vertex 11.0862 1.21717 0.254062
      vertex 12.2272 1.21717 0
      vertex 11.0994 1.21717 0.203609
    endloop
  endfacet
  facet normal 0 1 0
    outer loop
      vertex 11.0994 1.21717 0.203609
      vertex 12.2272 1.21717 0
      vertex 11.1074 1.21717 0.15283
    endloop
  endfacet
  facet normal 0 1 0
    outer loop
      vertex 11.1074 1.21717 0.15283
      vertex 12.2272 1.21717 0
      vertex 11.1154 1.21717 0.102043
    endloop
  endfacet
  facet normal 0 1 0
    outer loop
      vertex 11.1154 1.21717 0.102043
      vertex 12.2272 1.21717 0
      vertex 11.1181 1.21717 0.0510179
    endloop
  endfacet
  facet normal 0 1 0
    outer loop
      vertex 11.1181 1.21717 0.0510179
      vertex 12.2272 1.21717 0
      vertex 11.1207 1.21717 0
    endloop
  endfacet
  facet normal 0 1 0
    outer loop
      vertex 10.6036 1.21717 0.9552
      vertex 12.1114 1.21717 2.17361
      vertex 12.2272 1.21717 1.73735
    endloop
  endfacet
  facet normal 0 1 0
    outer loop
      vertex 8.32778 1.21717 1.62358
      vertex 12.1114 1.21717 2.17361
      vertex 8.41282 1.21717 1.62516
    endloop
  endfacet
  facet normal 0 1 0
    outer loop
      vertex 8.24277 1.21717 1.62201
      vertex 12.1114 1.21717 2.17361
      vertex 8.32778 1.21717 1.62358
    endloop
  endfacet
  facet normal 0 1 0
    outer loop
      vertex 8.1581 1.21717 1.61719
      vertex 12.1114 1.21717 2.17361
      vertex 8.24277 1.21717 1.62201
    endloop
  endfacet
  facet normal 0 1 0
    outer loop
      vertex 8.07348 1.21717 1.61238
      vertex 12.1114 1.21717 2.17361
      vertex 8.1581 1.21717 1.61719
    endloop
  endfacet
  facet normal 0 1 0
    outer loop
      vertex 12.1114 1.21717 2.17361
      vertex 8.07348 1.21717 1.61238
      vertex 0 1.21717 2.17361
    endloop
  endfacet
  facet normal 0 1 -0
    outer loop
      vertex 7.98942 1.21717 1.60437
      vertex 0 1.21717 2.17361
      vertex 8.07348 1.21717 1.61238
    endloop
  endfacet
  facet normal 0 1 -0
    outer loop
      vertex 7.90541 1.21717 1.59636
      vertex 0 1.21717 2.17361
      vertex 7.98942 1.21717 1.60437
    endloop
  endfacet
  facet normal 0 1 -0
    outer loop
      vertex 7.8224 1.21717 1.58525
      vertex 0 1.21717 2.17361
      vertex 7.90541 1.21717 1.59636
    endloop
  endfacet
  facet normal 0 1 -0
    outer loop
      vertex 7.73943 1.21717 1.57413
      vertex 0 1.21717 2.17361
      vertex 7.8224 1.21717 1.58525
    endloop
  endfacet
  facet normal 0 1 -0
    outer loop
      vertex 7.65773 1.21717 1.55988
      vertex 0 1.21717 2.17361
      vertex 7.73943 1.21717 1.57413
    endloop
  endfacet
  facet normal 0 1 -0
    outer loop
      vertex 7.57604 1.21717 1.54562
      vertex 0 1.21717 2.17361
      vertex 7.65773 1.21717 1.55988
    endloop
  endfacet
  facet normal 0 1 -0
    outer loop
      vertex 7.496 1.21717 1.52836
      vertex 0 1.21717 2.17361
      vertex 7.57604 1.21717 1.54562
    endloop
  endfacet
  facet normal 0 1 -0
    outer loop
      vertex 7.416 1.21717 1.5111
      vertex 0 1.21717 2.17361
      vertex 7.496 1.21717 1.52836
    endloop
  endfacet
  facet normal 0 1 -0
    outer loop
      vertex 7.3379 1.21717 1.49078
      vertex 0 1.21717 2.17361
      vertex 7.416 1.21717 1.5111
    endloop
  endfacet
  facet normal 0 1 -0
    outer loop
      vertex 7.25984 1.21717 1.47047
      vertex 0 1.21717 2.17361
      vertex 7.3379 1.21717 1.49078
    endloop
  endfacet
  facet normal 0 1 -0
    outer loop
      vertex 7.18406 1.21717 1.4473
      vertex 0 1.21717 2.17361
      vertex 7.25984 1.21717 1.47047
    endloop
  endfacet
  facet normal 0 1 -0
    outer loop
      vertex 7.10831 1.21717 1.42412
      vertex 0 1.21717 2.17361
      vertex 7.18406 1.21717 1.4473
    endloop
  endfacet
  facet normal 0 1 -0
    outer loop
      vertex 7.03508 1.21717 1.39813
      vertex 0 1.21717 2.17361
      vertex 7.10831 1.21717 1.42412
    endloop
  endfacet
  facet normal 0 1 -0
    outer loop
      vertex 6.96189 1.21717 1.37215
      vertex 0 1.21717 2.17361
      vertex 7.03508 1.21717 1.39813
    endloop
  endfacet
  facet normal 0 1 -0
    outer loop
      vertex 6.89153 1.21717 1.34349
      vertex 0 1.21717 2.17361
      vertex 6.96189 1.21717 1.37215
    endloop
  endfacet
  facet normal 0 1 -0
    outer loop
      vertex 6.82118 1.21717 1.31483
      vertex 0 1.21717 2.17361
      vertex 6.89153 1.21717 1.34349
    endloop
  endfacet
  facet normal 0 1 -0
    outer loop
      vertex 6.75394 1.21717 1.2835
      vertex 0 1.21717 2.17361
      vertex 6.82118 1.21717 1.31483
    endloop
  endfacet
  facet normal 0 1 -0
    outer loop
      vertex 6.68675 1.21717 1.25217
      vertex 0 1.21717 2.17361
      vertex 6.75394 1.21717 1.2835
    endloop
  endfacet
  facet normal 0 1 -0
    outer loop
      vertex 6.62292 1.21717 1.21841
      vertex 0 1.21717 2.17361
      vertex 6.68675 1.21717 1.25217
    endloop
  endfacet
  facet normal 0 1 -0
    outer loop
      vertex 6.55913 1.21717 1.18465
      vertex 0 1.21717 2.17361
      vertex 6.62292 1.21717 1.21841
    endloop
  endfacet
  facet normal 0 1 -0
    outer loop
      vertex 6.49899 1.21717 1.14856
      vertex 0 1.21717 2.17361
      vertex 6.55913 1.21717 1.18465
    endloop
  endfacet
  facet normal 0 1 -0
    outer loop
      vertex 6.43888 1.21717 1.11246
      vertex 0 1.21717 2.17361
      vertex 6.49899 1.21717 1.14856
    endloop
  endfacet
  facet normal 0 1 -0
    outer loop
      vertex 6.32634 1.21717 1.03588
      vertex 0 1.21717 2.17361
      vertex 6.43888 1.21717 1.11246
    endloop
  endfacet
  facet normal 0 1 -0
    outer loop
      vertex 6.27417 1.21717 0.99554
      vertex 0 1.21717 2.17361
      vertex 6.32634 1.21717 1.03588
    endloop
  endfacet
  facet normal 0 1 -0
    outer loop
      vertex 6.2221 1.21717 0.9552
      vertex 0 1.21717 2.17361
      vertex 6.27417 1.21717 0.99554
    endloop
  endfacet
  facet normal 0 1 -0
    outer loop
      vertex 6.12647 1.21717 0.8708
      vertex 0 1.21717 2.17361
      vertex 6.2221 1.21717 0.9552
    endloop
  endfacet
  facet normal 0 1 -0
    outer loop
      vertex 6.08314 1.21717 0.826836
      vertex 0 1.21717 2.17361
      vertex 6.12647 1.21717 0.8708
    endloop
  endfacet
  facet normal 0 1 -0
    outer loop
      vertex 6.03986 1.21717 0.782871
      vertex 0 1.21717 2.17361
      vertex 6.08314 1.21717 0.826836
    endloop
  endfacet
  facet normal 0 1 -0
    outer loop
      vertex 5.96266 1.21717 0.691986
      vertex 0 1.21717 2.17361
      vertex 6.03986 1.21717 0.782871
    endloop
  endfacet
  facet normal 0 1 -0
    outer loop
      vertex 5.89509 1.21717 0.59824
      vertex 0 1.21717 2.17361
      vertex 5.96266 1.21717 0.691986
    endloop
  endfacet
  facet normal 0 1 -0
    outer loop
      vertex 5.86627 1.21717 0.550222
      vertex 0 1.21717 2.17361
      vertex 5.89509 1.21717 0.59824
    endloop
  endfacet
  facet normal 0 1 -0
    outer loop
      vertex 5.83749 1.21717 0.502205
      vertex 0 1.21717 2.17361
      vertex 5.86627 1.21717 0.550222
    endloop
  endfacet
  facet normal 0 1 -0
    outer loop
      vertex 5.81373 1.21717 0.453186
      vertex 0 1.21717 2.17361
      vertex 5.83749 1.21717 0.502205
    endloop
  endfacet
  facet normal 0 1 -0
    outer loop
      vertex 5.79001 1.21717 0.404167
      vertex 0 1.21717 2.17361
      vertex 5.81373 1.21717 0.453186
    endloop
  endfacet
  facet normal 0 1 -0
    outer loop
      vertex 5.77144 1.21717 0.354338
      vertex 0 1.21717 2.17361
      vertex 5.79001 1.21717 0.404167
    endloop
  endfacet
  facet normal 0 1 -0
    outer loop
      vertex 5.75287 1.21717 0.304508
      vertex 0 1.21717 2.17361
      vertex 5.77144 1.21717 0.354338
    endloop
  endfacet
  facet normal 0 1 0
    outer loop
      vertex 0 1.21717 0
      vertex 5.75287 1.21717 0.304508
      vertex 5.73954 1.21717 0.254059
    endloop
  endfacet
  facet normal 0 1 0
    outer loop
      vertex 0 1.21717 0
      vertex 5.73954 1.21717 0.254059
      vertex 5.72627 1.21717 0.203609
    endloop
  endfacet
  facet normal 0 1 0
    outer loop
      vertex 0 1.21717 0
      vertex 5.72627 1.21717 0.203609
      vertex 5.71824 1.21717 0.152826
    endloop
  endfacet
  facet normal 0 1 0
    outer loop
      vertex 0 1.21717 0
      vertex 5.71824 1.21717 0.152826
      vertex 5.7103 1.21717 0.102043
    endloop
  endfacet
  facet normal 0 1 0
    outer loop
      vertex 0 1.21717 0
      vertex 5.7103 1.21717 0.102043
      vertex 5.7076 1.21717 0.0510218
    endloop
  endfacet
  facet normal 0 1 0
    outer loop
      vertex 0 1.21717 0
      vertex 5.7076 1.21717 0.0510218
      vertex 5.70496 1.21717 0
    endloop
  endfacet
  facet normal 0 1 0
    outer loop
      vertex 5.75287 1.21717 0.304508
      vertex 0 1.21717 0
      vertex 0 1.21717 2.17361
    endloop
  endfacet
  facet normal 0 0 -1
    outer loop
      vertex 0 1.21717 0
      vertex 3.31536 -1.21717 0
      vertex 0 -1.21717 0
    endloop
  endfacet
  facet normal 0 0 -1
    outer loop
      vertex 3.31536 -1.21717 0
      vertex 0 1.21717 0
      vertex 5.70496 1.21717 0
    endloop
  endfacet
  facet normal 0 0 -1
    outer loop
      vertex 12.2272 -1.21717 0
      vertex 11.1207 1.21717 0
      vertex 12.2272 1.21717 0
    endloop
  endfacet
  facet normal 0 -0 -1
    outer loop
      vertex 11.1207 1.21717 0
      vertex 12.2272 -1.21717 0
      vertex 8.73114 -1.21717 0
    endloop
  endfacet
  facet normal 0 -1 0
    outer loop
      vertex 6.02323 -1.21717 1.62516
      vertex 12.1114 -1.21717 2.17361
      vertex 0 -1.21717 2.17361
    endloop
  endfacet
  facet normal 0 -1 0
    outer loop
      vertex 12.1114 -1.21717 2.17361
      vertex 6.02323 -1.21717 1.62516
      vertex 6.10828 -1.21717 1.62358
    endloop
  endfacet
  facet normal 0 -1 0
    outer loop
      vertex 0 -1.21717 2.17361
      vertex 5.93818 -1.21717 1.62358
      vertex 6.02323 -1.21717 1.62516
    endloop
  endfacet
  facet normal 0 -1 0
    outer loop
      vertex 0 -1.21717 2.17361
      vertex 5.85318 -1.21717 1.62201
      vertex 5.93818 -1.21717 1.62358
    endloop
  endfacet
  facet normal 0 -1 0
    outer loop
      vertex 0 -1.21717 2.17361
      vertex 5.76851 -1.21717 1.61719
      vertex 5.85318 -1.21717 1.62201
    endloop
  endfacet
  facet normal 0 -1 0
    outer loop
      vertex 0 -1.21717 2.17361
      vertex 5.68388 -1.21717 1.61238
      vertex 5.76851 -1.21717 1.61719
    endloop
  endfacet
  facet normal 0 -1 0
    outer loop
      vertex 0 -1.21717 2.17361
      vertex 5.59983 -1.21717 1.60437
      vertex 5.68388 -1.21717 1.61238
    endloop
  endfacet
  facet normal 0 -1 0
    outer loop
      vertex 0 -1.21717 2.17361
      vertex 5.51582 -1.21717 1.59636
      vertex 5.59983 -1.21717 1.60437
    endloop
  endfacet
  facet normal 0 -1 0
    outer loop
      vertex 0 -1.21717 2.17361
      vertex 5.4328 -1.21717 1.58524
      vertex 5.51582 -1.21717 1.59636
    endloop
  endfacet
  facet normal 0 -1 0
    outer loop
      vertex 0 -1.21717 2.17361
      vertex 5.34983 -1.21717 1.57413
      vertex 5.4328 -1.21717 1.58524
    endloop
  endfacet
  facet normal 0 -1 0
    outer loop
      vertex 0 -1.21717 2.17361
      vertex 5.26814 -1.21717 1.55988
      vertex 5.34983 -1.21717 1.57413
    endloop
  endfacet
  facet normal 0 -1 0
    outer loop
      vertex 0 -1.21717 2.17361
      vertex 5.18644 -1.21717 1.54562
      vertex 5.26814 -1.21717 1.55988
    endloop
  endfacet
  facet normal 0 -1 0
    outer loop
      vertex 0 -1.21717 2.17361
      vertex 5.1064 -1.21717 1.52836
      vertex 5.18644 -1.21717 1.54562
    endloop
  endfacet
  facet normal 0 -1 0
    outer loop
      vertex 0 -1.21717 2.17361
      vertex 5.02641 -1.21717 1.5111
      vertex 5.1064 -1.21717 1.52836
    endloop
  endfacet
  facet normal 0 -1 0
    outer loop
      vertex 0 -1.21717 2.17361
      vertex 4.94831 -1.21717 1.49078
      vertex 5.02641 -1.21717 1.5111
    endloop
  endfacet
  facet normal 0 -1 0
    outer loop
      vertex 0 -1.21717 2.17361
      vertex 4.87025 -1.21717 1.47047
      vertex 4.94831 -1.21717 1.49078
    endloop
  endfacet
  facet normal 0 -1 0
    outer loop
      vertex 0 -1.21717 2.17361
      vertex 4.79446 -1.21717 1.44729
      vertex 4.87025 -1.21717 1.47047
    endloop
  endfacet
  facet normal 0 -1 0
    outer loop
      vertex 0 -1.21717 2.17361
      vertex 4.71872 -1.21717 1.42412
      vertex 4.79446 -1.21717 1.44729
    endloop
  endfacet
  facet normal 0 -1 0
    outer loop
      vertex 0 -1.21717 2.17361
      vertex 4.64549 -1.21717 1.39814
      vertex 4.71872 -1.21717 1.42412
    endloop
  endfacet
  facet normal 0 -1 0
    outer loop
      vertex 0 -1.21717 2.17361
      vertex 4.57229 -1.21717 1.37215
      vertex 4.64549 -1.21717 1.39814
    endloop
  endfacet
  facet normal 0 -1 0
    outer loop
      vertex 0 -1.21717 2.17361
      vertex 4.50194 -1.21717 1.34349
      vertex 4.57229 -1.21717 1.37215
    endloop
  endfacet
  facet normal 0 -1 0
    outer loop
      vertex 0 -1.21717 2.17361
      vertex 4.43158 -1.21717 1.31483
      vertex 4.50194 -1.21717 1.34349
    endloop
  endfacet
  facet normal 0 -1 0
    outer loop
      vertex 0 -1.21717 2.17361
      vertex 4.36435 -1.21717 1.2835
      vertex 4.43158 -1.21717 1.31483
    endloop
  endfacet
  facet normal 0 -1 0
    outer loop
      vertex 0 -1.21717 2.17361
      vertex 4.29716 -1.21717 1.25217
      vertex 4.36435 -1.21717 1.2835
    endloop
  endfacet
  facet normal 0 -1 0
    outer loop
      vertex 0 -1.21717 2.17361
      vertex 4.23332 -1.21717 1.21841
      vertex 4.29716 -1.21717 1.25217
    endloop
  endfacet
  facet normal 0 -1 0
    outer loop
      vertex 0 -1.21717 2.17361
      vertex 4.16954 -1.21717 1.18465
      vertex 4.23332 -1.21717 1.21841
    endloop
  endfacet
  facet normal 0 -1 0
    outer loop
      vertex 0 -1.21717 2.17361
      vertex 4.10939 -1.21717 1.14856
      vertex 4.16954 -1.21717 1.18465
    endloop
  endfacet
  facet normal 0 -1 0
    outer loop
      vertex 0 -1.21717 2.17361
      vertex 4.04929 -1.21717 1.11246
      vertex 4.10939 -1.21717 1.14856
    endloop
  endfacet
  facet normal 0 -1 0
    outer loop
      vertex 0 -1.21717 2.17361
      vertex 3.93674 -1.21717 1.03588
      vertex 4.04929 -1.21717 1.11246
    endloop
  endfacet
  facet normal 0 -1 0
    outer loop
      vertex 0 -1.21717 2.17361
      vertex 3.88458 -1.21717 0.995543
      vertex 3.93674 -1.21717 1.03588
    endloop
  endfacet
  facet normal 0 -1 0
    outer loop
      vertex 0 -1.21717 2.17361
      vertex 3.83251 -1.21717 0.9552
      vertex 3.88458 -1.21717 0.995543
    endloop
  endfacet
  facet normal 0 -1 0
    outer loop
      vertex 0 -1.21717 2.17361
      vertex 3.73687 -1.21717 0.8708
      vertex 3.83251 -1.21717 0.9552
    endloop
  endfacet
  facet normal 0 -1 0
    outer loop
      vertex 0 -1.21717 2.17361
      vertex 3.69354 -1.21717 0.826833
      vertex 3.73687 -1.21717 0.8708
    endloop
  endfacet
  facet normal 0 -1 0
    outer loop
      vertex 0 -1.21717 2.17361
      vertex 3.65027 -1.21717 0.782871
      vertex 3.69354 -1.21717 0.826833
    endloop
  endfacet
  facet normal 0 -1 0
    outer loop
      vertex 0 -1.21717 2.17361
      vertex 3.57306 -1.21717 0.691986
      vertex 3.65027 -1.21717 0.782871
    endloop
  endfacet
  facet normal 0 -1 0
    outer loop
      vertex 0 -1.21717 2.17361
      vertex 3.50549 -1.21717 0.59824
      vertex 3.57306 -1.21717 0.691986
    endloop
  endfacet
  facet normal 0 -1 0
    outer loop
      vertex 0 -1.21717 2.17361
      vertex 3.47667 -1.21717 0.550226
      vertex 3.50549 -1.21717 0.59824
    endloop
  endfacet
  facet normal 0 -1 0
    outer loop
      vertex 0 -1.21717 2.17361
      vertex 3.4479 -1.21717 0.502205
      vertex 3.47667 -1.21717 0.550226
    endloop
  endfacet
  facet normal 0 -1 0
    outer loop
      vertex 0 -1.21717 2.17361
      vertex 3.42413 -1.21717 0.453183
      vertex 3.4479 -1.21717 0.502205
    endloop
  endfacet
  facet normal 0 -1 0
    outer loop
      vertex 0 -1.21717 2.17361
      vertex 3.40041 -1.21717 0.404167
      vertex 3.42413 -1.21717 0.453183
    endloop
  endfacet
  facet normal 0 -1 0
    outer loop
      vertex 0 -1.21717 0
      vertex 3.40041 -1.21717 0.404167
      vertex 0 -1.21717 2.17361
    endloop
  endfacet
  facet normal 0 -1 0
    outer loop
      vertex 3.40041 -1.21717 0.404167
      vertex 0 -1.21717 0
      vertex 3.38184 -1.21717 0.354341
    endloop
  endfacet
  facet normal 0 -1 0
    outer loop
      vertex 3.38184 -1.21717 0.354341
      vertex 0 -1.21717 0
      vertex 3.36327 -1.21717 0.304508
    endloop
  endfacet
  facet normal 0 -1 0
    outer loop
      vertex 3.36327 -1.21717 0.304508
      vertex 0 -1.21717 0
      vertex 3.34995 -1.21717 0.254062
    endloop
  endfacet
  facet normal 0 -1 0
    outer loop
      vertex 3.34995 -1.21717 0.254062
      vertex 0 -1.21717 0
      vertex 3.33667 -1.21717 0.203609
    endloop
  endfacet
  facet normal 0 -1 0
    outer loop
      vertex 3.33667 -1.21717 0.203609
      vertex 0 -1.21717 0
      vertex 3.32864 -1.21717 0.152823
    endloop
  endfacet
  facet normal 0 -1 0
    outer loop
      vertex 3.32864 -1.21717 0.152823
      vertex 0 -1.21717 0
      vertex 3.3207 -1.21717 0.102043
    endloop
  endfacet
  facet normal 0 -1 0
    outer loop
      vertex 3.3207 -1.21717 0.102043
      vertex 0 -1.21717 0
      vertex 3.31801 -1.21717 0.0510252
    endloop
  endfacet
  facet normal 0 -1 0
    outer loop
      vertex 3.31801 -1.21717 0.0510252
      vertex 0 -1.21717 0
      vertex 3.31536 -1.21717 0
    endloop
  endfacet
  facet normal 0 -1 0
    outer loop
      vertex 12.1114 -1.21717 2.17361
      vertex 6.10828 -1.21717 1.62358
      vertex 6.19328 -1.21717 1.62201
    endloop
  endfacet
  facet normal 0 -1 0
    outer loop
      vertex 6.278 -1.21717 1.61719
      vertex 12.1114 -1.21717 2.17361
      vertex 6.19328 -1.21717 1.62201
    endloop
  endfacet
  facet normal 0 -1 0
    outer loop
      vertex 6.36262 -1.21717 1.61238
      vertex 12.1114 -1.21717 2.17361
      vertex 6.278 -1.21717 1.61719
    endloop
  endfacet
  facet normal 0 -1 0
    outer loop
      vertex 6.44668 -1.21717 1.60437
      vertex 12.1114 -1.21717 2.17361
      vertex 6.36262 -1.21717 1.61238
    endloop
  endfacet
  facet normal 0 -1 0
    outer loop
      vertex 6.53069 -1.21717 1.59636
      vertex 12.1114 -1.21717 2.17361
      vertex 6.44668 -1.21717 1.60437
    endloop
  endfacet
  facet normal 0 -1 0
    outer loop
      vertex 6.61371 -1.21717 1.58524
      vertex 12.1114 -1.21717 2.17361
      vertex 6.53069 -1.21717 1.59636
    endloop
  endfacet
  facet normal 0 -1 0
    outer loop
      vertex 6.69668 -1.21717 1.57413
      vertex 12.1114 -1.21717 2.17361
      vertex 6.61371 -1.21717 1.58524
    endloop
  endfacet
  facet normal 0 -1 0
    outer loop
      vertex 6.77842 -1.21717 1.55988
      vertex 12.1114 -1.21717 2.17361
      vertex 6.69668 -1.21717 1.57413
    endloop
  endfacet
  facet normal 0 -1 0
    outer loop
      vertex 6.86006 -1.21717 1.54562
      vertex 12.1114 -1.21717 2.17361
      vertex 6.77842 -1.21717 1.55988
    endloop
  endfacet
  facet normal 0 -1 0
    outer loop
      vertex 6.94011 -1.21717 1.52836
      vertex 12.1114 -1.21717 2.17361
      vertex 6.86006 -1.21717 1.54562
    endloop
  endfacet
  facet normal 0 -1 0
    outer loop
      vertex 7.0201 -1.21717 1.5111
      vertex 12.1114 -1.21717 2.17361
      vertex 6.94011 -1.21717 1.52836
    endloop
  endfacet
  facet normal 0 -1 0
    outer loop
      vertex 7.09815 -1.21717 1.49078
      vertex 12.1114 -1.21717 2.17361
      vertex 7.0201 -1.21717 1.5111
    endloop
  endfacet
  facet normal 0 -1 0
    outer loop
      vertex 7.17621 -1.21717 1.47047
      vertex 12.1114 -1.21717 2.17361
      vertex 7.09815 -1.21717 1.49078
    endloop
  endfacet
  facet normal 0 -1 0
    outer loop
      vertex 7.25204 -1.21717 1.4473
      vertex 12.1114 -1.21717 2.17361
      vertex 7.17621 -1.21717 1.47047
    endloop
  endfacet
  facet normal 0 -1 0
    outer loop
      vertex 7.32783 -1.21717 1.42412
      vertex 12.1114 -1.21717 2.17361
      vertex 7.25204 -1.21717 1.4473
    endloop
  endfacet
  facet normal 0 -1 0
    outer loop
      vertex 7.40107 -1.21717 1.39813
      vertex 12.1114 -1.21717 2.17361
      vertex 7.32783 -1.21717 1.42412
    endloop
  endfacet
  facet normal 0 -1 0
    outer loop
      vertex 7.47421 -1.21717 1.37215
      vertex 12.1114 -1.21717 2.17361
      vertex 7.40107 -1.21717 1.39813
    endloop
  endfacet
  facet normal 0 -1 0
    outer loop
      vertex 7.54461 -1.21717 1.34349
      vertex 12.1114 -1.21717 2.17361
      vertex 7.47421 -1.21717 1.37215
    endloop
  endfacet
  facet normal 0 -1 0
    outer loop
      vertex 7.61492 -1.21717 1.31483
      vertex 12.1114 -1.21717 2.17361
      vertex 7.54461 -1.21717 1.34349
    endloop
  endfacet
  facet normal 0 -1 0
    outer loop
      vertex 7.68216 -1.21717 1.2835
      vertex 12.1114 -1.21717 2.17361
      vertex 7.61492 -1.21717 1.31483
    endloop
  endfacet
  facet normal 0 -1 0
    outer loop
      vertex 7.74935 -1.21717 1.25217
      vertex 12.1114 -1.21717 2.17361
      vertex 7.68216 -1.21717 1.2835
    endloop
  endfacet
  facet normal 0 -1 0
    outer loop
      vertex 7.87692 -1.21717 1.18465
      vertex 12.1114 -1.21717 2.17361
      vertex 7.74935 -1.21717 1.25217
    endloop
  endfacet
  facet normal 0 -1 0
    outer loop
      vertex 7.93707 -1.21717 1.14856
      vertex 12.1114 -1.21717 2.17361
      vertex 7.87692 -1.21717 1.18465
    endloop
  endfacet
  facet normal 0 -1 0
    outer loop
      vertex 7.99722 -1.21717 1.11246
      vertex 12.1114 -1.21717 2.17361
      vertex 7.93707 -1.21717 1.14856
    endloop
  endfacet
  facet normal 0 -1 0
    outer loop
      vertex 8.10977 -1.21717 1.03588
      vertex 12.1114 -1.21717 2.17361
      vertex 7.99722 -1.21717 1.11246
    endloop
  endfacet
  facet normal 0 -1 0
    outer loop
      vertex 8.16188 -1.21717 0.995541
      vertex 12.1114 -1.21717 2.17361
      vertex 8.10977 -1.21717 1.03588
    endloop
  endfacet
  facet normal 0 -1 0
    outer loop
      vertex 8.214 -1.21717 0.9552
      vertex 12.1114 -1.21717 2.17361
      vertex 8.16188 -1.21717 0.995541
    endloop
  endfacet
  facet normal 0 -1 0
    outer loop
      vertex 8.30963 -1.21717 0.8708
      vertex 12.1114 -1.21717 2.17361
      vertex 8.214 -1.21717 0.9552
    endloop
  endfacet
  facet normal 0 -1 0
    outer loop
      vertex 8.39619 -1.21717 0.782871
      vertex 12.1114 -1.21717 2.17361
      vertex 8.30963 -1.21717 0.8708
    endloop
  endfacet
  facet normal 0 -1 0
    outer loop
      vertex 8.43484 -1.21717 0.737429
      vertex 12.1114 -1.21717 2.17361
      vertex 8.39619 -1.21717 0.782871
    endloop
  endfacet
  facet normal 0 -1 0
    outer loop
      vertex 8.47344 -1.21717 0.691986
      vertex 12.1114 -1.21717 2.17361
      vertex 8.43484 -1.21717 0.737429
    endloop
  endfacet
  facet normal 0 -1 0
    outer loop
      vertex 8.54101 -1.21717 0.59824
      vertex 12.1114 -1.21717 2.17361
      vertex 8.47344 -1.21717 0.691986
    endloop
  endfacet
  facet normal 0 -1 0
    outer loop
      vertex 8.56983 -1.21717 0.550222
      vertex 12.1114 -1.21717 2.17361
      vertex 8.54101 -1.21717 0.59824
    endloop
  endfacet
  facet normal 0 -1 0
    outer loop
      vertex 8.59861 -1.21717 0.502205
      vertex 12.1114 -1.21717 2.17361
      vertex 8.56983 -1.21717 0.550222
    endloop
  endfacet
  facet normal 0 -1 -0
    outer loop
      vertex 12.1114 -1.21717 2.17361
      vertex 8.59861 -1.21717 0.502205
      vertex 12.2272 -1.21717 1.73735
    endloop
  endfacet
  facet normal 0 -1 0
    outer loop
      vertex 8.62238 -1.21717 0.453186
      vertex 12.2272 -1.21717 1.73735
      vertex 8.59861 -1.21717 0.502205
    endloop
  endfacet
  facet normal 0 -1 0
    outer loop
      vertex 8.64609 -1.21717 0.404167
      vertex 12.2272 -1.21717 1.73735
      vertex 8.62238 -1.21717 0.453186
    endloop
  endfacet
  facet normal 0 -1 0
    outer loop
      vertex 8.66471 -1.21717 0.354338
      vertex 12.2272 -1.21717 1.73735
      vertex 8.64609 -1.21717 0.404167
    endloop
  endfacet
  facet normal 0 -1 0
    outer loop
      vertex 8.68323 -1.21717 0.304508
      vertex 12.2272 -1.21717 1.73735
      vertex 8.66471 -1.21717 0.354338
    endloop
  endfacet
  facet normal 0 -1 0
    outer loop
      vertex 12.2272 -1.21717 0
      vertex 8.68323 -1.21717 0.304508
      vertex 8.69656 -1.21717 0.254059
    endloop
  endfacet
  facet normal 0 -1 0
    outer loop
      vertex 12.2272 -1.21717 0
      vertex 8.69656 -1.21717 0.254059
      vertex 8.70983 -1.21717 0.203609
    endloop
  endfacet
  facet normal 0 -1 0
    outer loop
      vertex 12.2272 -1.21717 0
      vertex 8.70983 -1.21717 0.203609
      vertex 8.71782 -1.21717 0.152826
    endloop
  endfacet
  facet normal 0 -1 0
    outer loop
      vertex 12.2272 -1.21717 0
      vertex 8.71782 -1.21717 0.152826
      vertex 8.72581 -1.21717 0.102043
    endloop
  endfacet
  facet normal 0 -1 0
    outer loop
      vertex 12.2272 -1.21717 0
      vertex 8.72581 -1.21717 0.102043
      vertex 8.7285 -1.21717 0.0510214
    endloop
  endfacet
  facet normal 0 -1 0
    outer loop
      vertex 12.2272 -1.21717 0
      vertex 8.7285 -1.21717 0.0510214
      vertex 8.73114 -1.21717 0
    endloop
  endfacet
  facet normal 0 -1 0
    outer loop
      vertex 8.68323 -1.21717 0.304508
      vertex 12.2272 -1.21717 0
      vertex 12.2272 -1.21717 1.73735
    endloop
  endfacet
  facet normal 0.96652 -0 0.256592
    outer loop
      vertex 12.1114 -1.21717 2.17361
      vertex 12.2272 1.21717 1.73735
      vertex 12.1114 1.21717 2.17361
    endloop
  endfacet
  facet normal 0.96652 0 0.256592
    outer loop
      vertex 12.2272 1.21717 1.73735
      vertex 12.1114 -1.21717 2.17361
      vertex 12.2272 -1.21717 1.73735
    endloop
  endfacet
  facet normal -0.71313 0.70002 -0.0376532
    outer loop
      vertex 8.7285 -1.21717 0.0510214
      vertex 11.1154 1.21717 0.102043
      vertex 11.1181 1.21717 0.0510179
    endloop
  endfacet
  facet normal -0.71313 0.70002 -0.0376425
    outer loop
      vertex 11.1154 1.21717 0.102043
      vertex 8.7285 -1.21717 0.0510214
      vertex 8.72581 -1.21717 0.102043
    endloop
  endfacet
  facet normal -0.713148 0.700037 -0.0369797
    outer loop
      vertex 8.73114 -1.21717 0
      vertex 11.1181 1.21717 0.0510179
      vertex 11.1207 1.21717 0
    endloop
  endfacet
  facet normal -0.713148 0.700038 -0.0369772
    outer loop
      vertex 11.1181 1.21717 0.0510179
      vertex 8.73114 -1.21717 0
      vertex 8.7285 -1.21717 0.0510214
    endloop
  endfacet
  facet normal 0.583939 -0.573204 -0.57485
    outer loop
      vertex 3.69354 -1.21717 0.826833
      vertex 6.03986 1.21717 0.782871
      vertex 6.08314 1.21717 0.826836
    endloop
  endfacet
  facet normal 0.583938 -0.573203 -0.574853
    outer loop
      vertex 6.03986 1.21717 0.782871
      vertex 3.69354 -1.21717 0.826833
      vertex 3.65027 -1.21717 0.782871
    endloop
  endfacet
  facet normal -0.701287 0.688395 -0.185225
    outer loop
      vertex 8.69656 -1.21717 0.254059
      vertex 11.0728 1.21717 0.304508
      vertex 11.0862 1.21717 0.254062
    endloop
  endfacet
  facet normal -0.701289 0.688396 -0.185213
    outer loop
      vertex 11.0728 1.21717 0.304508
      vertex 8.69656 -1.21717 0.254059
      vertex 8.68323 -1.21717 0.304508
    endloop
  endfacet
  facet normal -0.554916 0.544714 -0.628773
    outer loop
      vertex 8.30963 -1.21717 0.8708
      vertex 10.6036 1.21717 0.9552
      vertex 10.6992 1.21717 0.8708
    endloop
  endfacet
  facet normal -0.554916 0.544714 -0.628773
    outer loop
      vertex 10.6036 1.21717 0.9552
      vertex 8.30963 -1.21717 0.8708
      vertex 8.214 -1.21717 0.9552
    endloop
  endfacet
  facet normal -0.524677 0.515032 -0.677832
    outer loop
      vertex 8.214 -1.21717 0.9552
      vertex 10.5515 1.21717 0.995538
      vertex 10.6036 1.21717 0.9552
    endloop
  endfacet
  facet normal -0.524681 0.515035 -0.677827
    outer loop
      vertex 10.5515 1.21717 0.995538
      vertex 8.214 -1.21717 0.9552
      vertex 8.16188 -1.21717 0.995541
    endloop
  endfacet
  facet normal -0.656152 0.644089 -0.39321
    outer loop
      vertex 8.59861 -1.21717 0.502205
      vertex 10.9594 1.21717 0.550219
      vertex 10.9882 1.21717 0.502205
    endloop
  endfacet
  facet normal -0.656155 0.644092 -0.393199
    outer loop
      vertex 10.9594 1.21717 0.550219
      vertex 8.59861 -1.21717 0.502205
      vertex 8.56983 -1.21717 0.550222
    endloop
  endfacet
  facet normal -0.709185 0.696147 -0.11152
    outer loop
      vertex 8.71782 -1.21717 0.152826
      vertex 11.0994 1.21717 0.203609
      vertex 11.1074 1.21717 0.15283
    endloop
  endfacet
  facet normal -0.709184 0.696146 -0.111525
    outer loop
      vertex 11.0994 1.21717 0.203609
      vertex 8.71782 -1.21717 0.152826
      vertex 8.70983 -1.21717 0.203609
    endloop
  endfacet
  facet normal -0.0566672 0.0556254 -0.996842
    outer loop
      vertex 6.278 -1.21717 1.61719
      vertex 8.58288 1.21717 1.62201
      vertex 8.66759 1.21717 1.61719
    endloop
  endfacet
  facet normal -0.0566682 0.0556264 -0.996842
    outer loop
      vertex 8.58288 1.21717 1.62201
      vertex 6.278 -1.21717 1.61719
      vertex 6.19328 -1.21717 1.62201
    endloop
  endfacet
  facet normal 0.524895 -0.515245 -0.677502
    outer loop
      vertex 3.88458 -1.21717 0.995543
      vertex 6.2221 1.21717 0.9552
      vertex 6.27417 1.21717 0.99554
    endloop
  endfacet
  facet normal 0.524894 -0.515245 -0.677502
    outer loop
      vertex 6.2221 1.21717 0.9552
      vertex 3.88458 -1.21717 0.995543
      vertex 3.83251 -1.21717 0.9552
    endloop
  endfacet
  facet normal 0.655987 -0.643927 -0.393749
    outer loop
      vertex 3.50549 -1.21717 0.59824
      vertex 5.86627 1.21717 0.550222
      vertex 5.89509 1.21717 0.59824
    endloop
  endfacet
  facet normal 0.655986 -0.643926 -0.393753
    outer loop
      vertex 5.86627 1.21717 0.550222
      vertex 3.50549 -1.21717 0.59824
      vertex 3.47667 -1.21717 0.550226
    endloop
  endfacet
  facet normal 0.169525 -0.166408 -0.971375
    outer loop
      vertex 5.34983 -1.21717 1.57413
      vertex 7.65773 1.21717 1.55988
      vertex 7.73943 1.21717 1.57413
    endloop
  endfacet
  facet normal 0.169525 -0.166409 -0.971375
    outer loop
      vertex 7.65773 1.21717 1.55988
      vertex 5.34983 -1.21717 1.57413
      vertex 5.26814 -1.21717 1.55988
    endloop
  endfacet
  facet normal -0.425112 0.417296 -0.803209
    outer loop
      vertex 7.87692 -1.21717 1.18465
      vertex 10.1389 1.21717 1.25217
      vertex 10.2665 1.21717 1.18465
    endloop
  endfacet
  facet normal -0.425111 0.417295 -0.80321
    outer loop
      vertex 10.1389 1.21717 1.25217
      vertex 7.87692 -1.21717 1.18465
      vertex 7.74935 -1.21717 1.25217
    endloop
  endfacet
  facet normal 0.0567314 -0.0556885 -0.996835
    outer loop
      vertex 5.76851 -1.21717 1.61719
      vertex 8.07348 1.21717 1.61238
      vertex 8.1581 1.21717 1.61719
    endloop
  endfacet
  facet normal 0.0567318 -0.0556888 -0.996835
    outer loop
      vertex 8.07348 1.21717 1.61238
      vertex 5.76851 -1.21717 1.61719
      vertex 5.68388 -1.21717 1.61238
    endloop
  endfacet
  facet normal 0.13161 -0.129191 -0.982847
    outer loop
      vertex 5.4328 -1.21717 1.58524
      vertex 7.73943 1.21717 1.57413
      vertex 7.8224 1.21717 1.58525
    endloop
  endfacet
  facet normal 0.131611 -0.129191 -0.982847
    outer loop
      vertex 7.73943 1.21717 1.57413
      vertex 5.4328 -1.21717 1.58524
      vertex 5.34983 -1.21717 1.57413
    endloop
  endfacet
  facet normal -0.169433 0.166318 -0.971407
    outer loop
      vertex 6.77842 -1.21717 1.55988
      vertex 9.08627 1.21717 1.57413
      vertex 9.16802 1.21717 1.55988
    endloop
  endfacet
  facet normal -0.169433 0.166318 -0.971407
    outer loop
      vertex 9.08627 1.21717 1.57413
      vertex 6.77842 -1.21717 1.55988
      vertex 6.69668 -1.21717 1.57413
    endloop
  endfacet
  facet normal -0.0567318 0.0556888 -0.996835
    outer loop
      vertex 6.36262 -1.21717 1.61238
      vertex 8.66759 1.21717 1.61719
      vertex 8.75222 1.21717 1.61238
    endloop
  endfacet
  facet normal -0.0567314 0.0556885 -0.996835
    outer loop
      vertex 8.66759 1.21717 1.61719
      vertex 6.36262 -1.21717 1.61238
      vertex 6.278 -1.21717 1.61719
    endloop
  endfacet
  facet normal 0.459518 -0.45107 -0.765101
    outer loop
      vertex 4.10939 -1.21717 1.14856
      vertex 6.43888 1.21717 1.11246
      vertex 6.49899 1.21717 1.14856
    endloop
  endfacet
  facet normal 0.459515 -0.451067 -0.765104
    outer loop
      vertex 6.43888 1.21717 1.11246
      vertex 4.10939 -1.21717 1.14856
      vertex 4.04929 -1.21717 1.11246
    endloop
  endfacet
  facet normal 0.689665 -0.676987 -0.257004
    outer loop
      vertex 3.38184 -1.21717 0.354341
      vertex 5.75287 1.21717 0.304508
      vertex 5.77144 1.21717 0.354338
    endloop
  endfacet
  facet normal 0.689666 -0.676987 -0.257
    outer loop
      vertex 5.75287 1.21717 0.304508
      vertex 3.38184 -1.21717 0.354341
      vertex 3.36327 -1.21717 0.304508
    endloop
  endfacet
  facet normal 0.71313 -0.70002 -0.0376428
    outer loop
      vertex 3.3207 -1.21717 0.102043
      vertex 5.7076 1.21717 0.0510218
      vertex 5.7103 1.21717 0.102043
    endloop
  endfacet
  facet normal 0.71313 -0.70002 -0.0376453
    outer loop
      vertex 5.7076 1.21717 0.0510218
      vertex 3.3207 -1.21717 0.102043
      vertex 3.31801 -1.21717 0.0510252
    endloop
  endfacet
  facet normal 0.390338 -0.383162 -0.837152
    outer loop
      vertex 4.36435 -1.21717 1.2835
      vertex 6.68675 1.21717 1.25217
      vertex 6.75394 1.21717 1.2835
    endloop
  endfacet
  facet normal 0.390338 -0.383162 -0.837152
    outer loop
      vertex 6.68675 1.21717 1.25217
      vertex 4.36435 -1.21717 1.2835
      vertex 4.29716 -1.21717 1.25217
    endloop
  endfacet
  facet normal 0.281066 -0.275899 -0.919175
    outer loop
      vertex 4.87025 -1.21717 1.47047
      vertex 7.18406 1.21717 1.4473
      vertex 7.25984 1.21717 1.47047
    endloop
  endfacet
  facet normal 0.281065 -0.275898 -0.919175
    outer loop
      vertex 7.18406 1.21717 1.4473
      vertex 4.87025 -1.21717 1.47047
      vertex 4.79446 -1.21717 1.44729
    endloop
  endfacet
  facet normal -0.701373 0.688479 -0.184585
    outer loop
      vertex 8.70983 -1.21717 0.203609
      vertex 11.0862 1.21717 0.254062
      vertex 11.0994 1.21717 0.203609
    endloop
  endfacet
  facet normal -0.701374 0.688479 -0.184584
    outer loop
      vertex 11.0862 1.21717 0.254062
      vertex 8.70983 -1.21717 0.203609
      vertex 8.69656 -1.21717 0.254059
    endloop
  endfacet
  facet normal -0.674408 0.66201 -0.32698
    outer loop
      vertex 8.62238 -1.21717 0.453186
      vertex 10.9882 1.21717 0.502205
      vertex 11.012 1.21717 0.453189
    endloop
  endfacet
  facet normal -0.674408 0.662009 -0.326983
    outer loop
      vertex 10.9882 1.21717 0.502205
      vertex 8.62238 -1.21717 0.453186
      vertex 8.59861 -1.21717 0.502205
    endloop
  endfacet
  facet normal -0.709186 0.696148 -0.111504
    outer loop
      vertex 8.72581 -1.21717 0.102043
      vertex 11.1074 1.21717 0.15283
      vertex 11.1154 1.21717 0.102043
    endloop
  endfacet
  facet normal -0.709185 0.696148 -0.111512
    outer loop
      vertex 11.1074 1.21717 0.15283
      vertex 8.72581 -1.21717 0.102043
      vertex 8.71782 -1.21717 0.152826
    endloop
  endfacet
  facet normal -0.610255 0.599036 -0.518406
    outer loop
      vertex 8.47344 -1.21717 0.691986
      vertex 10.8244 1.21717 0.737432
      vertex 10.863 1.21717 0.691986
    endloop
  endfacet
  facet normal -0.610256 0.599037 -0.518404
    outer loop
      vertex 10.8244 1.21717 0.737432
      vertex 8.47344 -1.21717 0.691986
      vertex 8.43484 -1.21717 0.737429
    endloop
  endfacet
  facet normal -0.634612 0.622945 -0.457392
    outer loop
      vertex 8.54101 -1.21717 0.59824
      vertex 10.863 1.21717 0.691986
      vertex 10.9306 1.21717 0.59824
    endloop
  endfacet
  facet normal -0.634612 0.622945 -0.457392
    outer loop
      vertex 10.863 1.21717 0.691986
      vertex 8.54101 -1.21717 0.59824
      vertex 8.47344 -1.21717 0.691986
    endloop
  endfacet
  facet normal -0.524677 0.515031 -0.677832
    outer loop
      vertex 8.16188 -1.21717 0.995541
      vertex 10.4994 1.21717 1.03588
      vertex 10.5515 1.21717 0.995538
    endloop
  endfacet
  facet normal -0.524674 0.515028 -0.677837
    outer loop
      vertex 10.4994 1.21717 1.03588
      vertex 8.16188 -1.21717 0.995541
      vertex 8.10977 -1.21717 1.03588
    endloop
  endfacet
  facet normal -0.583939 0.573204 -0.57485
    outer loop
      vertex 8.39619 -1.21717 0.782871
      vertex 10.6992 1.21717 0.8708
      vertex 10.7858 1.21717 0.782871
    endloop
  endfacet
  facet normal -0.583937 0.573202 -0.574855
    outer loop
      vertex 10.6992 1.21717 0.8708
      vertex 8.39619 -1.21717 0.782871
      vertex 8.30963 -1.21717 0.8708
    endloop
  endfacet
  facet normal -0.094516 0.0927784 -0.991191
    outer loop
      vertex 6.53069 -1.21717 1.59636
      vertex 8.83628 1.21717 1.60437
      vertex 8.92028 1.21717 1.59636
    endloop
  endfacet
  facet normal -0.0945171 0.0927794 -0.99119
    outer loop
      vertex 8.83628 1.21717 1.60437
      vertex 6.53069 -1.21717 1.59636
      vertex 6.44668 -1.21717 1.60437
    endloop
  endfacet
  facet normal 0.0566999 -0.0556575 -0.996839
    outer loop
      vertex 5.85318 -1.21717 1.62201
      vertex 8.1581 1.21717 1.61719
      vertex 8.24277 1.21717 1.62201
    endloop
  endfacet
  facet normal 0.0566992 -0.0556569 -0.996839
    outer loop
      vertex 8.1581 1.21717 1.61719
      vertex 5.85318 -1.21717 1.62201
      vertex 5.76851 -1.21717 1.61719
    endloop
  endfacet
  facet normal 0.244359 -0.239867 -0.939549
    outer loop
      vertex 5.02641 -1.21717 1.5111
      vertex 7.3379 1.21717 1.49078
      vertex 7.416 1.21717 1.5111
    endloop
  endfacet
  facet normal 0.244359 -0.239867 -0.939549
    outer loop
      vertex 7.3379 1.21717 1.49078
      vertex 5.02641 -1.21717 1.5111
      vertex 4.94831 -1.21717 1.49078
    endloop
  endfacet
  facet normal 0.131538 -0.12912 -0.982866
    outer loop
      vertex 5.51582 -1.21717 1.59636
      vertex 7.8224 1.21717 1.58525
      vertex 7.90541 1.21717 1.59636
    endloop
  endfacet
  facet normal 0.131538 -0.12912 -0.982866
    outer loop
      vertex 7.8224 1.21717 1.58525
      vertex 5.51582 -1.21717 1.59636
      vertex 5.4328 -1.21717 1.58524
    endloop
  endfacet
  facet normal 0.674406 -0.662008 -0.326988
    outer loop
      vertex 3.4479 -1.21717 0.502205
      vertex 5.81373 1.21717 0.453186
      vertex 5.83749 1.21717 0.502205
    endloop
  endfacet
  facet normal 0.674408 -0.662009 -0.326983
    outer loop
      vertex 5.81373 1.21717 0.453186
      vertex 3.4479 -1.21717 0.502205
      vertex 3.42413 -1.21717 0.453183
    endloop
  endfacet
  facet normal -0.0944653 0.0927286 -0.9912
    outer loop
      vertex 6.44668 -1.21717 1.60437
      vertex 8.75222 1.21717 1.61238
      vertex 8.83628 1.21717 1.60437
    endloop
  endfacet
  facet normal -0.0944636 0.092727 -0.9912
    outer loop
      vertex 8.75222 1.21717 1.61238
      vertex 6.44668 -1.21717 1.60437
      vertex 6.36262 -1.21717 1.61238
    endloop
  endfacet
  facet normal 0.353762 -0.347258 -0.868484
    outer loop
      vertex 4.57229 -1.21717 1.37215
      vertex 6.89153 1.21717 1.34349
      vertex 6.96189 1.21717 1.37215
    endloop
  endfacet
  facet normal 0.353762 -0.347259 -0.868483
    outer loop
      vertex 6.89153 1.21717 1.34349
      vertex 4.57229 -1.21717 1.37215
      vertex 4.50194 -1.21717 1.34349
    endloop
  endfacet
  facet normal 0.524458 -0.514816 -0.678166
    outer loop
      vertex 3.93674 -1.21717 1.03588
      vertex 6.27417 1.21717 0.99554
      vertex 6.32634 1.21717 1.03588
    endloop
  endfacet
  facet normal 0.524459 -0.514817 -0.678164
    outer loop
      vertex 6.27417 1.21717 0.99554
      vertex 3.93674 -1.21717 1.03588
      vertex 3.88458 -1.21717 0.995543
    endloop
  endfacet
  facet normal 0.317732 -0.311891 -0.895416
    outer loop
      vertex 4.71872 -1.21717 1.42412
      vertex 7.03508 1.21717 1.39813
      vertex 7.10831 1.21717 1.42412
    endloop
  endfacet
  facet normal 0.317735 -0.311894 -0.895414
    outer loop
      vertex 7.03508 1.21717 1.39813
      vertex 4.71872 -1.21717 1.42412
      vertex 4.64549 -1.21717 1.39814
    endloop
  endfacet
  facet normal 0.24449 -0.239995 -0.939482
    outer loop
      vertex 4.94831 -1.21717 1.49078
      vertex 7.25984 1.21717 1.47047
      vertex 7.3379 1.21717 1.49078
    endloop
  endfacet
  facet normal 0.244489 -0.239994 -0.939483
    outer loop
      vertex 7.25984 1.21717 1.47047
      vertex 4.94831 -1.21717 1.49078
      vertex 4.87025 -1.21717 1.47047
    endloop
  endfacet
  facet normal -0.674552 0.662151 -0.3264
    outer loop
      vertex 8.64609 -1.21717 0.404167
      vertex 11.012 1.21717 0.453189
      vertex 11.0357 1.21717 0.404167
    endloop
  endfacet
  facet normal -0.674553 0.662151 -0.326396
    outer loop
      vertex 11.012 1.21717 0.453189
      vertex 8.64609 -1.21717 0.404167
      vertex 8.62238 -1.21717 0.453186
    endloop
  endfacet
  facet normal -0.689781 0.6771 -0.256392
    outer loop
      vertex 8.68323 -1.21717 0.304508
      vertex 11.0543 1.21717 0.354334
      vertex 11.0728 1.21717 0.304508
    endloop
  endfacet
  facet normal -0.68978 0.677099 -0.256401
    outer loop
      vertex 11.0543 1.21717 0.354334
      vertex 8.68323 -1.21717 0.304508
      vertex 8.66471 -1.21717 0.354338
    endloop
  endfacet
  facet normal -0.610054 0.598839 -0.51887
    outer loop
      vertex 8.43484 -1.21717 0.737429
      vertex 10.7858 1.21717 0.782871
      vertex 10.8244 1.21717 0.737432
    endloop
  endfacet
  facet normal -0.610057 0.598842 -0.518862
    outer loop
      vertex 10.7858 1.21717 0.782871
      vertex 8.43484 -1.21717 0.737429
      vertex 8.39619 -1.21717 0.782871
    endloop
  endfacet
  facet normal -0.655988 0.643928 -0.393748
    outer loop
      vertex 8.56983 -1.21717 0.550222
      vertex 10.9306 1.21717 0.59824
      vertex 10.9594 1.21717 0.550219
    endloop
  endfacet
  facet normal -0.655984 0.643924 -0.393759
    outer loop
      vertex 10.9306 1.21717 0.59824
      vertex 8.56983 -1.21717 0.550222
      vertex 8.54101 -1.21717 0.59824
    endloop
  endfacet
  facet normal 0.0185052 -0.0181651 -0.999664
    outer loop
      vertex 5.93818 -1.21717 1.62358
      vertex 8.24277 1.21717 1.62201
      vertex 8.32778 1.21717 1.62358
    endloop
  endfacet
  facet normal 0.0185065 -0.0181662 -0.999664
    outer loop
      vertex 8.24277 1.21717 1.62201
      vertex 5.93818 -1.21717 1.62358
      vertex 5.85318 -1.21717 1.62201
    endloop
  endfacet
  facet normal 0.713148 -0.700037 -0.0369836
    outer loop
      vertex 3.31801 -1.21717 0.0510252
      vertex 5.70496 1.21717 0
      vertex 5.7076 1.21717 0.0510218
    endloop
  endfacet
  facet normal 0.713148 -0.700037 -0.0369811
    outer loop
      vertex 5.70496 1.21717 0
      vertex 3.31801 -1.21717 0.0510252
      vertex 3.31536 -1.21717 0
    endloop
  endfacet
  facet normal 0.610257 -0.599038 -0.518401
    outer loop
      vertex 3.65027 -1.21717 0.782871
      vertex 5.96266 1.21717 0.691986
      vertex 6.03986 1.21717 0.782871
    endloop
  endfacet
  facet normal 0.610257 -0.599038 -0.518401
    outer loop
      vertex 5.96266 1.21717 0.691986
      vertex 3.65027 -1.21717 0.782871
      vertex 3.57306 -1.21717 0.691986
    endloop
  endfacet
  facet normal -0.492452 0.483399 -0.723751
    outer loop
      vertex 8.10977 -1.21717 1.03588
      vertex 10.3868 1.21717 1.11246
      vertex 10.4994 1.21717 1.03588
    endloop
  endfacet
  facet normal -0.492453 0.4834 -0.72375
    outer loop
      vertex 10.3868 1.21717 1.11246
      vertex 8.10977 -1.21717 1.03588
      vertex 7.99722 -1.21717 1.11246
    endloop
  endfacet
  facet normal -0.459304 0.45086 -0.765353
    outer loop
      vertex 7.93707 -1.21717 1.14856
      vertex 10.2665 1.21717 1.18465
      vertex 10.3267 1.21717 1.14856
    endloop
  endfacet
  facet normal -0.459304 0.45086 -0.765353
    outer loop
      vertex 10.2665 1.21717 1.18465
      vertex 7.93707 -1.21717 1.14856
      vertex 7.87692 -1.21717 1.18465
    endloop
  endfacet
  facet normal -0.317733 0.311892 -0.895416
    outer loop
      vertex 7.40107 -1.21717 1.39813
      vertex 9.71743 1.21717 1.42412
      vertex 9.79066 1.21717 1.39814
    endloop
  endfacet
  facet normal -0.317732 0.311891 -0.895416
    outer loop
      vertex 9.71743 1.21717 1.42412
      vertex 7.40107 -1.21717 1.39813
      vertex 7.32783 -1.21717 1.42412
    endloop
  endfacet
  facet normal -0.353583 0.347083 -0.868627
    outer loop
      vertex 7.54461 -1.21717 1.34349
      vertex 9.86381 1.21717 1.37215
      vertex 9.93421 1.21717 1.34349
    endloop
  endfacet
  facet normal -0.353584 0.347083 -0.868626
    outer loop
      vertex 9.86381 1.21717 1.37215
      vertex 7.54461 -1.21717 1.34349
      vertex 7.47421 -1.21717 1.37215
    endloop
  endfacet
  facet normal -0.353945 0.347438 -0.868337
    outer loop
      vertex 7.61492 -1.21717 1.31483
      vertex 9.93421 1.21717 1.34349
      vertex 10.0045 1.21717 1.31483
    endloop
  endfacet
  facet normal -0.353943 0.347436 -0.868339
    outer loop
      vertex 9.93421 1.21717 1.34349
      vertex 7.61492 -1.21717 1.31483
      vertex 7.54461 -1.21717 1.34349
    endloop
  endfacet
  facet normal -0.16962 0.166501 -0.971343
    outer loop
      vertex 6.86006 -1.21717 1.54562
      vertex 9.16802 1.21717 1.55988
      vertex 9.24966 1.21717 1.54562
    endloop
  endfacet
  facet normal -0.169619 0.166501 -0.971343
    outer loop
      vertex 9.16802 1.21717 1.55988
      vertex 6.86006 -1.21717 1.54562
      vertex 6.77842 -1.21717 1.55988
    endloop
  endfacet
  facet normal -0.280916 0.275752 -0.919265
    outer loop
      vertex 7.25204 -1.21717 1.4473
      vertex 9.56581 1.21717 1.47047
      vertex 9.64165 1.21717 1.44729
    endloop
  endfacet
  facet normal -0.280916 0.275752 -0.919264
    outer loop
      vertex 9.56581 1.21717 1.47047
      vertex 7.25204 -1.21717 1.4473
      vertex 7.17621 -1.21717 1.47047
    endloop
  endfacet
  facet normal 0.554916 -0.544714 -0.628773
    outer loop
      vertex 3.83251 -1.21717 0.9552
      vertex 6.12647 1.21717 0.8708
      vertex 6.2221 1.21717 0.9552
    endloop
  endfacet
  facet normal 0.554916 -0.544714 -0.628773
    outer loop
      vertex 6.12647 1.21717 0.8708
      vertex 3.83251 -1.21717 0.9552
      vertex 3.73687 -1.21717 0.8708
    endloop
  endfacet
  facet normal 0.583726 -0.572995 -0.575275
    outer loop
      vertex 3.73687 -1.21717 0.8708
      vertex 6.08314 1.21717 0.826836
      vertex 6.12647 1.21717 0.8708
    endloop
  endfacet
  facet normal 0.583726 -0.572995 -0.575274
    outer loop
      vertex 6.08314 1.21717 0.826836
      vertex 3.73687 -1.21717 0.8708
      vertex 3.69354 -1.21717 0.826833
    endloop
  endfacet
  facet normal 0.424906 -0.417094 -0.803422
    outer loop
      vertex 4.29716 -1.21717 1.25217
      vertex 6.62292 1.21717 1.21841
      vertex 6.68675 1.21717 1.25217
    endloop
  endfacet
  facet normal 0.424907 -0.417095 -0.803421
    outer loop
      vertex 6.62292 1.21717 1.21841
      vertex 4.29716 -1.21717 1.25217
      vertex 4.23332 -1.21717 1.21841
    endloop
  endfacet
  facet normal 0.674552 -0.662151 -0.326397
    outer loop
      vertex 3.42413 -1.21717 0.453183
      vertex 5.79001 1.21717 0.404167
      vertex 5.81373 1.21717 0.453186
    endloop
  endfacet
  facet normal 0.674552 -0.662151 -0.3264
    outer loop
      vertex 5.79001 1.21717 0.404167
      vertex 3.42413 -1.21717 0.453183
      vertex 3.40041 -1.21717 0.404167
    endloop
  endfacet
  facet normal -0.689549 0.676872 -0.257616
    outer loop
      vertex 8.66471 -1.21717 0.354338
      vertex 11.0357 1.21717 0.404167
      vertex 11.0543 1.21717 0.354334
    endloop
  endfacet
  facet normal -0.689548 0.676872 -0.25762
    outer loop
      vertex 11.0357 1.21717 0.404167
      vertex 8.66471 -1.21717 0.354338
      vertex 8.64609 -1.21717 0.404167
    endloop
  endfacet
  facet normal -0.459306 0.450862 -0.765351
    outer loop
      vertex 7.99722 -1.21717 1.11246
      vertex 10.3267 1.21717 1.14856
      vertex 10.3868 1.21717 1.11246
    endloop
  endfacet
  facet normal -0.459307 0.450863 -0.765349
    outer loop
      vertex 10.3267 1.21717 1.14856
      vertex 7.99722 -1.21717 1.11246
      vertex 7.93707 -1.21717 1.14856
    endloop
  endfacet
  facet normal 0.353764 -0.347261 -0.868482
    outer loop
      vertex 4.50194 -1.21717 1.34349
      vertex 6.82118 1.21717 1.31483
      vertex 6.89153 1.21717 1.34349
    endloop
  endfacet
  facet normal 0.353766 -0.347262 -0.868481
    outer loop
      vertex 6.82118 1.21717 1.31483
      vertex 4.50194 -1.21717 1.34349
      vertex 4.43158 -1.21717 1.31483
    endloop
  endfacet
  facet normal -0.0185067 0.0181664 -0.999664
    outer loop
      vertex 6.19328 -1.21717 1.62201
      vertex 8.49788 1.21717 1.62358
      vertex 8.58288 1.21717 1.62201
    endloop
  endfacet
  facet normal -0.0185052 0.0181651 -0.999664
    outer loop
      vertex 8.49788 1.21717 1.62358
      vertex 6.19328 -1.21717 1.62201
      vertex 6.10828 -1.21717 1.62358
    endloop
  endfacet
  facet normal 0.206551 -0.202754 -0.957198
    outer loop
      vertex 5.1064 -1.21717 1.52836
      vertex 7.416 1.21717 1.5111
      vertex 7.496 1.21717 1.52836
    endloop
  endfacet
  facet normal 0.206552 -0.202755 -0.957197
    outer loop
      vertex 7.416 1.21717 1.5111
      vertex 5.1064 -1.21717 1.52836
      vertex 5.02641 -1.21717 1.5111
    endloop
  endfacet
  facet normal 0.0945168 -0.0927792 -0.99119
    outer loop
      vertex 5.59983 -1.21717 1.60437
      vertex 7.90541 1.21717 1.59636
      vertex 7.98942 1.21717 1.60437
    endloop
  endfacet
  facet normal 0.0945174 -0.0927798 -0.99119
    outer loop
      vertex 7.90541 1.21717 1.59636
      vertex 5.59983 -1.21717 1.60437
      vertex 5.51582 -1.21717 1.59636
    endloop
  endfacet
  facet normal 0.0944639 -0.0927273 -0.9912
    outer loop
      vertex 5.68388 -1.21717 1.61238
      vertex 7.98942 1.21717 1.60437
      vertex 8.07348 1.21717 1.61238
    endloop
  endfacet
  facet normal 0.0944638 -0.0927272 -0.9912
    outer loop
      vertex 7.98942 1.21717 1.60437
      vertex 5.68388 -1.21717 1.61238
      vertex 5.59983 -1.21717 1.60437
    endloop
  endfacet
  facet normal 0.634611 -0.622944 -0.457394
    outer loop
      vertex 3.57306 -1.21717 0.691986
      vertex 5.89509 1.21717 0.59824
      vertex 5.96266 1.21717 0.691986
    endloop
  endfacet
  facet normal 0.634611 -0.622945 -0.457393
    outer loop
      vertex 5.89509 1.21717 0.59824
      vertex 3.57306 -1.21717 0.691986
      vertex 3.50549 -1.21717 0.59824
    endloop
  endfacet
  facet normal -0.281062 0.275895 -0.919177
    outer loop
      vertex 7.32783 -1.21717 1.42412
      vertex 9.64165 1.21717 1.44729
      vertex 9.71743 1.21717 1.42412
    endloop
  endfacet
  facet normal -0.281061 0.275894 -0.919177
    outer loop
      vertex 9.64165 1.21717 1.44729
      vertex 7.32783 -1.21717 1.42412
      vertex 7.25204 -1.21717 1.4473
    endloop
  endfacet
  facet normal -0.390147 0.382975 -0.837326
    outer loop
      vertex 7.68216 -1.21717 1.2835
      vertex 10.0045 1.21717 1.31483
      vertex 10.0717 1.21717 1.2835
    endloop
  endfacet
  facet normal -0.390149 0.382976 -0.837325
    outer loop
      vertex 10.0045 1.21717 1.31483
      vertex 7.68216 -1.21717 1.2835
      vertex 7.61492 -1.21717 1.31483
    endloop
  endfacet
  facet normal -0.390338 0.383162 -0.837152
    outer loop
      vertex 7.74935 -1.21717 1.25217
      vertex 10.0717 1.21717 1.2835
      vertex 10.1389 1.21717 1.25217
    endloop
  endfacet
  facet normal -0.390338 0.383162 -0.837152
    outer loop
      vertex 10.0717 1.21717 1.2835
      vertex 7.74935 -1.21717 1.25217
      vertex 7.68216 -1.21717 1.2835
    endloop
  endfacet
  facet normal -0.318063 0.312216 -0.895185
    outer loop
      vertex 7.47421 -1.21717 1.37215
      vertex 9.79066 1.21717 1.39814
      vertex 9.86381 1.21717 1.37215
    endloop
  endfacet
  facet normal -0.318064 0.312217 -0.895185
    outer loop
      vertex 9.79066 1.21717 1.39814
      vertex 7.47421 -1.21717 1.37215
      vertex 7.40107 -1.21717 1.39813
    endloop
  endfacet
  facet normal -0.131611 0.129191 -0.982847
    outer loop
      vertex 6.69668 -1.21717 1.57413
      vertex 9.0033 1.21717 1.58525
      vertex 9.08627 1.21717 1.57413
    endloop
  endfacet
  facet normal -0.131611 0.129192 -0.982847
    outer loop
      vertex 9.0033 1.21717 1.58525
      vertex 6.69668 -1.21717 1.57413
      vertex 6.61371 -1.21717 1.58524
    endloop
  endfacet
  facet normal -0.131537 0.129119 -0.982866
    outer loop
      vertex 6.61371 -1.21717 1.58524
      vertex 8.92028 1.21717 1.59636
      vertex 9.0033 1.21717 1.58525
    endloop
  endfacet
  facet normal -0.131537 0.129119 -0.982866
    outer loop
      vertex 8.92028 1.21717 1.59636
      vertex 6.61371 -1.21717 1.58524
      vertex 6.53069 -1.21717 1.59636
    endloop
  endfacet
  facet normal 0.492453 -0.4834 -0.72375
    outer loop
      vertex 4.04929 -1.21717 1.11246
      vertex 6.32634 1.21717 1.03588
      vertex 6.43888 1.21717 1.11246
    endloop
  endfacet
  facet normal 0.492454 -0.483401 -0.723749
    outer loop
      vertex 6.32634 1.21717 1.03588
      vertex 4.04929 -1.21717 1.11246
      vertex 3.93674 -1.21717 1.03588
    endloop
  endfacet
  facet normal 0.390149 -0.382976 -0.837325
    outer loop
      vertex 4.43158 -1.21717 1.31483
      vertex 6.75394 1.21717 1.2835
      vertex 6.82118 1.21717 1.31483
    endloop
  endfacet
  facet normal 0.390147 -0.382975 -0.837326
    outer loop
      vertex 6.75394 1.21717 1.2835
      vertex 4.43158 -1.21717 1.31483
      vertex 4.36435 -1.21717 1.2835
    endloop
  endfacet
  facet normal 0.689664 -0.676985 -0.257011
    outer loop
      vertex 3.40041 -1.21717 0.404167
      vertex 5.77144 1.21717 0.354338
      vertex 5.79001 1.21717 0.404167
    endloop
  endfacet
  facet normal 0.689664 -0.676985 -0.257012
    outer loop
      vertex 5.77144 1.21717 0.354338
      vertex 3.40041 -1.21717 0.404167
      vertex 3.38184 -1.21717 0.354341
    endloop
  endfacet
  facet normal 0.701289 -0.688397 -0.185213
    outer loop
      vertex 3.36327 -1.21717 0.304508
      vertex 5.73954 1.21717 0.254059
      vertex 5.75287 1.21717 0.304508
    endloop
  endfacet
  facet normal 0.701288 -0.688396 -0.185218
    outer loop
      vertex 5.73954 1.21717 0.254059
      vertex 3.36327 -1.21717 0.304508
      vertex 3.34995 -1.21717 0.254062
    endloop
  endfacet
  facet normal 0.281211 -0.276041 -0.919088
    outer loop
      vertex 4.79446 -1.21717 1.44729
      vertex 7.10831 1.21717 1.42412
      vertex 7.18406 1.21717 1.4473
    endloop
  endfacet
  facet normal 0.28121 -0.27604 -0.919088
    outer loop
      vertex 7.10831 1.21717 1.42412
      vertex 4.79446 -1.21717 1.44729
      vertex 4.71872 -1.21717 1.42412
    endloop
  endfacet
  facet normal 0.42511 -0.417295 -0.80321
    outer loop
      vertex 4.23332 -1.21717 1.21841
      vertex 6.55913 1.21717 1.18465
      vertex 6.62292 1.21717 1.21841
    endloop
  endfacet
  facet normal 0.425111 -0.417296 -0.803209
    outer loop
      vertex 6.55913 1.21717 1.18465
      vertex 4.23332 -1.21717 1.21841
      vertex 4.16954 -1.21717 1.18465
    endloop
  endfacet
  facet normal 0.459307 -0.450863 -0.765349
    outer loop
      vertex 4.16954 -1.21717 1.18465
      vertex 6.49899 1.21717 1.14856
      vertex 6.55913 1.21717 1.18465
    endloop
  endfacet
  facet normal 0.459308 -0.450864 -0.765348
    outer loop
      vertex 6.49899 1.21717 1.14856
      vertex 4.16954 -1.21717 1.18465
      vertex 4.10939 -1.21717 1.14856
    endloop
  endfacet
  facet normal -0.0184949 0.0181549 -0.999664
    outer loop
      vertex 6.10828 -1.21717 1.62358
      vertex 8.41282 1.21717 1.62516
      vertex 8.49788 1.21717 1.62358
    endloop
  endfacet
  facet normal -0.0184962 0.0181562 -0.999664
    outer loop
      vertex 8.41282 1.21717 1.62516
      vertex 6.10828 -1.21717 1.62358
      vertex 6.02323 -1.21717 1.62516
    endloop
  endfacet
  facet normal 0.0184963 -0.0181563 -0.999664
    outer loop
      vertex 6.02323 -1.21717 1.62516
      vertex 8.32778 1.21717 1.62358
      vertex 8.41282 1.21717 1.62516
    endloop
  endfacet
  facet normal 0.0184951 -0.0181551 -0.999664
    outer loop
      vertex 8.32778 1.21717 1.62358
      vertex 6.02323 -1.21717 1.62516
      vertex 5.93818 -1.21717 1.62358
    endloop
  endfacet
  facet normal 0.169527 -0.16641 -0.971374
    outer loop
      vertex 5.26814 -1.21717 1.55988
      vertex 7.57604 1.21717 1.54562
      vertex 7.65773 1.21717 1.55988
    endloop
  endfacet
  facet normal 0.169526 -0.16641 -0.971375
    outer loop
      vertex 7.57604 1.21717 1.54562
      vertex 5.26814 -1.21717 1.55988
      vertex 5.18644 -1.21717 1.54562
    endloop
  endfacet
  facet normal 0.206439 -0.202644 -0.957245
    outer loop
      vertex 5.18644 -1.21717 1.54562
      vertex 7.496 1.21717 1.52836
      vertex 7.57604 1.21717 1.54562
    endloop
  endfacet
  facet normal 0.206438 -0.202643 -0.957246
    outer loop
      vertex 7.496 1.21717 1.52836
      vertex 5.18644 -1.21717 1.54562
      vertex 5.1064 -1.21717 1.52836
    endloop
  endfacet
  facet normal 0.656154 -0.644091 -0.393203
    outer loop
      vertex 3.47667 -1.21717 0.550226
      vertex 5.83749 1.21717 0.502205
      vertex 5.86627 1.21717 0.550222
    endloop
  endfacet
  facet normal 0.656154 -0.644091 -0.393202
    outer loop
      vertex 5.83749 1.21717 0.502205
      vertex 3.47667 -1.21717 0.550226
      vertex 3.4479 -1.21717 0.502205
    endloop
  endfacet
  facet normal -0.206438 0.202643 -0.957246
    outer loop
      vertex 6.94011 -1.21717 1.52836
      vertex 9.24966 1.21717 1.54562
      vertex 9.3297 1.21717 1.52836
    endloop
  endfacet
  facet normal -0.206439 0.202643 -0.957245
    outer loop
      vertex 9.24966 1.21717 1.54562
      vertex 6.94011 -1.21717 1.52836
      vertex 6.86006 -1.21717 1.54562
    endloop
  endfacet
  facet normal -0.206551 0.202754 -0.957198
    outer loop
      vertex 7.0201 -1.21717 1.5111
      vertex 9.3297 1.21717 1.52836
      vertex 9.40969 1.21717 1.5111
    endloop
  endfacet
  facet normal -0.206551 0.202754 -0.957198
    outer loop
      vertex 9.3297 1.21717 1.52836
      vertex 7.0201 -1.21717 1.5111
      vertex 6.94011 -1.21717 1.52836
    endloop
  endfacet
  facet normal 0.709237 -0.696198 -0.110868
    outer loop
      vertex 3.32864 -1.21717 0.152823
      vertex 5.7103 1.21717 0.102043
      vertex 5.71824 1.21717 0.152826
    endloop
  endfacet
  facet normal 0.709237 -0.696198 -0.110865
    outer loop
      vertex 5.7103 1.21717 0.102043
      vertex 3.32864 -1.21717 0.152823
      vertex 3.3207 -1.21717 0.102043
    endloop
  endfacet
  facet normal 0.317898 -0.312054 -0.895301
    outer loop
      vertex 4.64549 -1.21717 1.39814
      vertex 6.96189 1.21717 1.37215
      vertex 7.03508 1.21717 1.39813
    endloop
  endfacet
  facet normal 0.317896 -0.312051 -0.895302
    outer loop
      vertex 6.96189 1.21717 1.37215
      vertex 4.64549 -1.21717 1.39814
      vertex 4.57229 -1.21717 1.37215
    endloop
  endfacet
  facet normal -0.244489 0.239994 -0.939483
    outer loop
      vertex 7.09815 -1.21717 1.49078
      vertex 9.40969 1.21717 1.5111
      vertex 9.48775 1.21717 1.49078
    endloop
  endfacet
  facet normal -0.24449 0.239995 -0.939482
    outer loop
      vertex 9.40969 1.21717 1.5111
      vertex 7.09815 -1.21717 1.49078
      vertex 7.0201 -1.21717 1.5111
    endloop
  endfacet
  facet normal -0.244493 0.239998 -0.939481
    outer loop
      vertex 7.17621 -1.21717 1.47047
      vertex 9.48775 1.21717 1.49078
      vertex 9.56581 1.21717 1.47047
    endloop
  endfacet
  facet normal -0.244491 0.239996 -0.939482
    outer loop
      vertex 9.48775 1.21717 1.49078
      vertex 7.17621 -1.21717 1.47047
      vertex 7.09815 -1.21717 1.49078
    endloop
  endfacet
  facet normal 0.701373 -0.688479 -0.18459
    outer loop
      vertex 3.34995 -1.21717 0.254062
      vertex 5.72627 1.21717 0.203609
      vertex 5.73954 1.21717 0.254059
    endloop
  endfacet
  facet normal 0.701373 -0.688479 -0.184588
    outer loop
      vertex 5.72627 1.21717 0.203609
      vertex 3.34995 -1.21717 0.254062
      vertex 3.33667 -1.21717 0.203609
    endloop
  endfacet
  facet normal 0.709133 -0.696096 -0.112162
    outer loop
      vertex 3.33667 -1.21717 0.203609
      vertex 5.71824 1.21717 0.152826
      vertex 5.72627 1.21717 0.203609
    endloop
  endfacet
  facet normal 0.709133 -0.696096 -0.112165
    outer loop
      vertex 5.71824 1.21717 0.152826
      vertex 3.33667 -1.21717 0.203609
      vertex 3.32864 -1.21717 0.152823
    endloop
  endfacet
endsolid OpenSCAD_Model
