solid OpenSCAD_Model
  facet normal -1 0 0
    outer loop
      vertex 0 -0.731676 0.868988
      vertex 0 1.18408 2.31428
      vertex 0 1.18408 0.869311
    endloop
  endfacet
  facet normal -1 0 0
    outer loop
      vertex 0 -1.18408 2.31428
      vertex 0 -0.731676 0.868988
      vertex 0 -1.18408 0.868912
    endloop
  endfacet
  facet normal -1 0 0
    outer loop
      vertex 0 -0.731676 0.868988
      vertex 0 -1.18408 2.31428
      vertex 0 1.18408 2.31428
    endloop
  endfacet
  facet normal -0 0 1
    outer loop
      vertex 0 1.18408 2.31428
      vertex 8.5818 -1.18408 2.31428
      vertex 8.5818 1.18408 2.31428
    endloop
  endfacet
  facet normal 0 0 1
    outer loop
      vertex 8.5818 -1.18408 2.31428
      vertex 0 1.18408 2.31428
      vertex 0 -1.18408 2.31428
    endloop
  endfacet
  facet normal 0 1 0
    outer loop
      vertex 6.75195 1.18408 0.872421
      vertex 8.5818 1.18408 2.31428
      vertex 10.361 1.18408 0.87328
    endloop
  endfacet
  facet normal -0 1 -0
    outer loop
      vertex 10.361 1.18408 0.87328
      vertex 8.5818 1.18408 2.31428
      vertex 11.2557 1.18408 0.873067
    endloop
  endfacet
  facet normal 0 1 0
    outer loop
      vertex 3.14325 1.18408 0.871563
      vertex 8.5818 1.18408 2.31428
      vertex 6.75195 1.18408 0.872421
    endloop
  endfacet
  facet normal 0 1 0
    outer loop
      vertex 8.5818 1.18408 2.31428
      vertex 3.14325 1.18408 0.871563
      vertex 0 1.18408 2.31428
    endloop
  endfacet
  facet normal 0 1 0
    outer loop
      vertex 0 1.18408 2.31428
      vertex 3.14325 1.18408 0.871563
      vertex 0 1.18408 0.869311
    endloop
  endfacet
  facet normal 0 -1 0
    outer loop
      vertex 3.70105 -1.18408 0.871563
      vertex 8.5818 -1.18408 2.31428
      vertex 0 -1.18408 2.31428
    endloop
  endfacet
  facet normal 0 -1 -0
    outer loop
      vertex 8.5818 -1.18408 2.31428
      vertex 7.30993 -1.18408 0.872421
      vertex 10.9188 -1.18408 0.87328
    endloop
  endfacet
  facet normal 0 -1 0
    outer loop
      vertex 8.5818 -1.18408 2.31428
      vertex 3.70105 -1.18408 0.871563
      vertex 7.30993 -1.18408 0.872421
    endloop
  endfacet
  facet normal 0 -1 0
    outer loop
      vertex 0 -1.18408 2.31428
      vertex 0.106527 -1.18408 0.868988
      vertex 3.70105 -1.18408 0.871563
    endloop
  endfacet
  facet normal -0 -1 0
    outer loop
      vertex 0.106527 -1.18408 0.868988
      vertex 0 -1.18408 2.31428
      vertex 0 -1.18408 0.868912
    endloop
  endfacet
  facet normal 0 -1 0
    outer loop
      vertex 8.5818 -1.18408 2.31428
      vertex 10.9188 -1.18408 0.87328
      vertex 11.2554 -1.18408 0.8732
    endloop
  endfacet
  facet normal 0.474465 4.48496e-08 0.880275
    outer loop
      vertex 8.5818 1.18408 2.31428
      vertex 11.2554 -1.18408 0.8732
      vertex 11.2557 1.18408 0.873067
    endloop
  endfacet
  facet normal 0.474465 0 0.880275
    outer loop
      vertex 11.2554 -1.18408 0.8732
      vertex 8.5818 1.18408 2.31428
      vertex 8.5818 -1.18408 2.31428
    endloop
  endfacet
  facet normal 0.000237832 5.60116e-05 -1
    outer loop
      vertex 3.70105 -1.18408 0.871563
      vertex 6.75195 1.18408 0.872421
      vertex 7.30993 -1.18408 0.872421
    endloop
  endfacet
  facet normal 0.000237827 5.60179e-05 -1
    outer loop
      vertex 6.75195 1.18408 0.872421
      vertex 3.70105 -1.18408 0.871563
      vertex 3.14325 1.18408 0.871563
    endloop
  endfacet
  facet normal 0.000716329 0.000168672 -1
    outer loop
      vertex 0 -0.731676 0.868988
      vertex 3.70105 -1.18408 0.871563
      vertex 0.106527 -1.18408 0.868988
    endloop
  endfacet
  facet normal 0.000716336 0.000168726 -1
    outer loop
      vertex 3.70105 -1.18408 0.871563
      vertex 0 -0.731676 0.868988
      vertex 3.14325 1.18408 0.871563
    endloop
  endfacet
  facet normal 0.000716336 0.000168725 -1
    outer loop
      vertex 3.14325 1.18408 0.871563
      vertex 0 -0.731676 0.868988
      vertex 0 1.18408 0.869311
    endloop
  endfacet
  facet normal 0.000716196 0.00016864 -1
    outer loop
      vertex 0 -0.731676 0.868988
      vertex 0.106527 -1.18408 0.868988
      vertex 0 -1.18408 0.868912
    endloop
  endfacet
  facet normal 0.000237835 5.60198e-05 -1
    outer loop
      vertex 7.30993 -1.18408 0.872421
      vertex 10.361 1.18408 0.87328
      vertex 10.9188 -1.18408 0.87328
    endloop
  endfacet
  facet normal 0.00023784 5.60134e-05 -1
    outer loop
      vertex 10.361 1.18408 0.87328
      vertex 7.30993 -1.18408 0.872421
      vertex 6.75195 1.18408 0.872421
    endloop
  endfacet
  facet normal -0.00023776 -5.6027e-05 -1
    outer loop
      vertex 10.9188 -1.18408 0.87328
      vertex 11.2557 1.18408 0.873067
      vertex 11.2554 -1.18408 0.8732
    endloop
  endfacet
  facet normal -0.000237826 -5.60176e-05 -1
    outer loop
      vertex 11.2557 1.18408 0.873067
      vertex 10.9188 -1.18408 0.87328
      vertex 10.361 1.18408 0.87328
    endloop
  endfacet
endsolid OpenSCAD_Model
