solid OpenSCAD_Model
  facet normal -1 0 0
    outer loop
      vertex 0 -0.860983 0.00419552
      vertex 0 1.41077 0
      vertex 0 -0.857968 0
    endloop
  endfacet
  facet normal -1 0 0
    outer loop
      vertex 0 -0.864046 0.00839233
      vertex 0 1.41077 0
      vertex 0 -0.860983 0.00419552
    endloop
  endfacet
  facet normal -1 0 0
    outer loop
      vertex 0 1.41077 0
      vertex 0 -0.864046 0.00839233
      vertex 0 1.41077 2.18859
    endloop
  endfacet
  facet normal -1 0 0
    outer loop
      vertex 0 -1.41077 2.18859
      vertex 0 -0.864046 0.00839233
      vertex 0 -0.873213 0.0125891
    endloop
  endfacet
  facet normal -1 0 0
    outer loop
      vertex 0 -1.41077 2.18859
      vertex 0 -0.873213 0.0125891
      vertex 0 -0.882425 0.0167847
    endloop
  endfacet
  facet normal -1 0 0
    outer loop
      vertex 0 -1.41077 2.18859
      vertex 0 -0.882425 0.0167847
      vertex 0 -0.912959 0.0250816
    endloop
  endfacet
  facet normal -1 0 0
    outer loop
      vertex 0 -1.41077 2.18859
      vertex 0 -0.912959 0.0250816
      vertex 0 -0.955604 0.0333786
    endloop
  endfacet
  facet normal -1 0 0
    outer loop
      vertex 0 -1.41077 2.18859
      vertex 0 -0.955604 0.0333786
      vertex 0 -1.01012 0.0414848
    endloop
  endfacet
  facet normal -1 0 0
    outer loop
      vertex 0 -1.41077 2.18859
      vertex 0 -1.01012 0.0414848
      vertex 0 -1.07622 0.0494003
    endloop
  endfacet
  facet normal -1 0 0
    outer loop
      vertex 0 -1.41077 2.18859
      vertex 0 -1.07622 0.0494003
      vertex 0 -1.15377 0.0571251
    endloop
  endfacet
  facet normal -1 0 0
    outer loop
      vertex 0 -1.41077 2.18859
      vertex 0 -1.15377 0.0571251
      vertex 0 -1.24244 0.0646591
    endloop
  endfacet
  facet normal -1 0 0
    outer loop
      vertex 0 -1.41077 2.18859
      vertex 0 -1.24244 0.0646591
      vertex 0 -1.34188 0.071907
    endloop
  endfacet
  facet normal -1 0 0
    outer loop
      vertex 0 -1.41077 2.18859
      vertex 0 -1.34188 0.071907
      vertex 0 -1.41077 0.0763392
    endloop
  endfacet
  facet normal -1 0 0
    outer loop
      vertex 0 -0.864046 0.00839233
      vertex 0 -1.41077 2.18859
      vertex 0 1.41077 2.18859
    endloop
  endfacet
  facet normal -0 0 1
    outer loop
      vertex 0 1.41077 2.18859
      vertex 11.0997 -1.41077 2.18859
      vertex 11.0997 1.41077 2.18859
    endloop
  endfacet
  facet normal 0 0 1
    outer loop
      vertex 11.0997 -1.41077 2.18859
      vertex 0 1.41077 2.18859
      vertex 0 -1.41077 2.18859
    endloop
  endfacet
  facet normal 1 0 0
    outer loop
      vertex 11.2201 1.41077 1.58644
      vertex 11.2201 1.33144 0.134087
      vertex 11.2201 1.41077 0.134164
    endloop
  endfacet
  facet normal 1 0 0
    outer loop
      vertex 11.2201 1.41077 1.58644
      vertex 11.2201 1.13698 0.133228
      vertex 11.2201 1.33144 0.134087
    endloop
  endfacet
  facet normal 1 0 0
    outer loop
      vertex 11.2201 1.41077 1.58644
      vertex 11.2201 0.944125 0.131893
      vertex 11.2201 1.13698 0.133228
    endloop
  endfacet
  facet normal 1 0 0
    outer loop
      vertex 11.2201 1.41077 1.58644
      vertex 11.2201 0.753554 0.130081
      vertex 11.2201 0.944125 0.131893
    endloop
  endfacet
  facet normal 1 0 0
    outer loop
      vertex 11.2201 1.41077 1.58644
      vertex 11.2201 0.566068 0.127697
      vertex 11.2201 0.753554 0.130081
    endloop
  endfacet
  facet normal 1 0 0
    outer loop
      vertex 11.2201 1.41077 1.58644
      vertex 11.2201 0.38224 0.124836
      vertex 11.2201 0.566068 0.127697
    endloop
  endfacet
  facet normal 1 0 0
    outer loop
      vertex 11.2201 1.41077 1.58644
      vertex 11.2201 0.202971 0.121498
      vertex 11.2201 0.38224 0.124836
    endloop
  endfacet
  facet normal 1 0 0
    outer loop
      vertex 11.2201 1.41077 1.58644
      vertex 11.2201 0.029068 0.117683
      vertex 11.2201 0.202971 0.121498
    endloop
  endfacet
  facet normal 1 -0 0
    outer loop
      vertex 11.2201 -1.41077 1.58644
      vertex 11.2201 0.029068 0.117683
      vertex 11.2201 1.41077 1.58644
    endloop
  endfacet
  facet normal 1 0 0
    outer loop
      vertex 11.2201 0.029068 0.117683
      vertex 11.2201 -1.41077 1.58644
      vertex 11.2201 -0.139042 0.113392
    endloop
  endfacet
  facet normal 1 0 0
    outer loop
      vertex 11.2201 -0.139042 0.113392
      vertex 11.2201 -1.41077 1.58644
      vertex 11.2201 -0.30055 0.108624
    endloop
  endfacet
  facet normal 1 0 0
    outer loop
      vertex 11.2201 -0.30055 0.108624
      vertex 11.2201 -1.41077 1.58644
      vertex 11.2201 -0.454936 0.103474
    endloop
  endfacet
  facet normal 1 0 0
    outer loop
      vertex 11.2201 -0.454936 0.103474
      vertex 11.2201 -1.41077 1.58644
      vertex 11.2201 -0.601438 0.0979424
    endloop
  endfacet
  facet normal 1 0 0
    outer loop
      vertex 11.2201 -0.601438 0.0979424
      vertex 11.2201 -1.41077 1.58644
      vertex 11.2201 -0.739534 0.0919342
    endloop
  endfacet
  facet normal 1 0 0
    outer loop
      vertex 11.2201 -0.739534 0.0919342
      vertex 11.2201 -1.41077 1.58644
      vertex 11.2201 -0.868655 0.08564
    endloop
  endfacet
  facet normal 1 0 0
    outer loop
      vertex 11.2201 -0.868655 0.08564
      vertex 11.2201 -1.41077 1.58644
      vertex 11.2201 -0.988375 0.0789642
    endloop
  endfacet
  facet normal 1 0 0
    outer loop
      vertex 11.2201 -0.988375 0.0789642
      vertex 11.2201 -1.41077 1.58644
      vertex 11.2201 -1.09812 0.071907
    endloop
  endfacet
  facet normal 1 0 0
    outer loop
      vertex 11.2201 -1.09812 0.071907
      vertex 11.2201 -1.41077 1.58644
      vertex 11.2201 -1.19751 0.0646591
    endloop
  endfacet
  facet normal 1 0 0
    outer loop
      vertex 11.2201 -1.19751 0.0646591
      vertex 11.2201 -1.41077 1.58644
      vertex 11.2201 -1.28622 0.0571251
    endloop
  endfacet
  facet normal 1 0 0
    outer loop
      vertex 11.2201 -1.28622 0.0571251
      vertex 11.2201 -1.41077 1.58644
      vertex 11.2201 -1.36377 0.0494003
    endloop
  endfacet
  facet normal 1 0 0
    outer loop
      vertex 11.2201 -1.36377 0.0494003
      vertex 11.2201 -1.41077 1.58644
      vertex 11.2201 -1.41077 0.0437725
    endloop
  endfacet
  facet normal 0 1 0
    outer loop
      vertex 11.2201 1.41077 1.58644
      vertex 11.2201 1.41077 0.134164
      vertex 10.9834 1.41077 0.134277
    endloop
  endfacet
  facet normal 0 1 0
    outer loop
      vertex 9.7936 1.41077 0.131893
      vertex 11.0997 1.41077 2.18859
      vertex 11.2201 1.41077 1.58644
    endloop
  endfacet
  facet normal 0 1 0
    outer loop
      vertex 10.5847 1.41077 0.134087
      vertex 11.2201 1.41077 1.58644
      vertex 10.9834 1.41077 0.134277
    endloop
  endfacet
  facet normal 0 1 0
    outer loop
      vertex 10.1875 1.41077 0.133228
      vertex 11.2201 1.41077 1.58644
      vertex 10.5847 1.41077 0.134087
    endloop
  endfacet
  facet normal 0 1 0
    outer loop
      vertex 9.7936 1.41077 0.131893
      vertex 11.2201 1.41077 1.58644
      vertex 10.1875 1.41077 0.133228
    endloop
  endfacet
  facet normal 0 1 0
    outer loop
      vertex 11.0997 1.41077 2.18859
      vertex 9.7936 1.41077 0.131893
      vertex 9.40436 1.41077 0.130081
    endloop
  endfacet
  facet normal 0 1 0
    outer loop
      vertex 11.0997 1.41077 2.18859
      vertex 9.40436 1.41077 0.130081
      vertex 9.02132 1.41077 0.127697
    endloop
  endfacet
  facet normal 0 1 0
    outer loop
      vertex 11.0997 1.41077 2.18859
      vertex 9.02132 1.41077 0.127697
      vertex 8.64585 1.41077 0.124836
    endloop
  endfacet
  facet normal 0 1 0
    outer loop
      vertex 11.0997 1.41077 2.18859
      vertex 8.64585 1.41077 0.124836
      vertex 8.27979 1.41077 0.121498
    endloop
  endfacet
  facet normal 0 1 0
    outer loop
      vertex 11.0997 1.41077 2.18859
      vertex 8.27979 1.41077 0.121498
      vertex 7.9245 1.41077 0.117683
    endloop
  endfacet
  facet normal 0 1 0
    outer loop
      vertex 11.0997 1.41077 2.18859
      vertex 7.9245 1.41077 0.117683
      vertex 7.58113 1.41077 0.113392
    endloop
  endfacet
  facet normal 0 1 0
    outer loop
      vertex 11.0997 1.41077 2.18859
      vertex 7.58113 1.41077 0.113392
      vertex 7.25125 1.41077 0.108624
    endloop
  endfacet
  facet normal 0 1 0
    outer loop
      vertex 11.0997 1.41077 2.18859
      vertex 7.25125 1.41077 0.108624
      vertex 6.93592 1.41077 0.103474
    endloop
  endfacet
  facet normal 0 1 0
    outer loop
      vertex 11.0997 1.41077 2.18859
      vertex 6.93592 1.41077 0.103474
      vertex 6.63678 1.41077 0.0979424
    endloop
  endfacet
  facet normal 0 1 0
    outer loop
      vertex 11.0997 1.41077 2.18859
      vertex 6.63678 1.41077 0.0979424
      vertex 6.35472 1.41077 0.0919342
    endloop
  endfacet
  facet normal 0 1 0
    outer loop
      vertex 6.09099 1.41077 0.08564
      vertex 11.0997 1.41077 2.18859
      vertex 6.35472 1.41077 0.0919342
    endloop
  endfacet
  facet normal 0 1 0
    outer loop
      vertex 5.84636 1.41077 0.0789642
      vertex 11.0997 1.41077 2.18859
      vertex 6.09099 1.41077 0.08564
    endloop
  endfacet
  facet normal 0 1 0
    outer loop
      vertex 11.0997 1.41077 2.18859
      vertex 5.84636 1.41077 0.0789642
      vertex 0 1.41077 2.18859
    endloop
  endfacet
  facet normal 0 1 -0
    outer loop
      vertex 5.6223 1.41077 0.071907
      vertex 0 1.41077 2.18859
      vertex 5.84636 1.41077 0.0789642
    endloop
  endfacet
  facet normal 0 1 -0
    outer loop
      vertex 5.41919 1.41077 0.0646591
      vertex 0 1.41077 2.18859
      vertex 5.6223 1.41077 0.071907
    endloop
  endfacet
  facet normal 0 1 -0
    outer loop
      vertex 5.2381 1.41077 0.0571251
      vertex 0 1.41077 2.18859
      vertex 5.41919 1.41077 0.0646591
    endloop
  endfacet
  facet normal 0 1 -0
    outer loop
      vertex 5.07971 1.41077 0.0494003
      vertex 0 1.41077 2.18859
      vertex 5.2381 1.41077 0.0571251
    endloop
  endfacet
  facet normal 0 1 -0
    outer loop
      vertex 4.94469 1.41077 0.0414848
      vertex 0 1.41077 2.18859
      vertex 5.07971 1.41077 0.0494003
    endloop
  endfacet
  facet normal 0 1 -0
    outer loop
      vertex 4.83334 1.41077 0.0333786
      vertex 0 1.41077 2.18859
      vertex 4.94469 1.41077 0.0414848
    endloop
  endfacet
  facet normal 0 1 -0
    outer loop
      vertex 4.74624 1.41077 0.0250816
      vertex 0 1.41077 2.18859
      vertex 4.83334 1.41077 0.0333786
    endloop
  endfacet
  facet normal 0 1 -0
    outer loop
      vertex 4.68387 1.41077 0.0167847
      vertex 0 1.41077 2.18859
      vertex 4.74624 1.41077 0.0250816
    endloop
  endfacet
  facet normal 0 1 -0
    outer loop
      vertex 4.66505 1.41077 0.0125887
      vertex 0 1.41077 2.18859
      vertex 4.68387 1.41077 0.0167847
    endloop
  endfacet
  facet normal 0 1 -0
    outer loop
      vertex 4.64633 1.41077 0.00839233
      vertex 0 1.41077 2.18859
      vertex 4.66505 1.41077 0.0125887
    endloop
  endfacet
  facet normal 0 1 -0
    outer loop
      vertex 4.64007 1.41077 0.00419596
      vertex 0 1.41077 2.18859
      vertex 4.64633 1.41077 0.00839233
    endloop
  endfacet
  facet normal 0 1 -0
    outer loop
      vertex 4.63391 1.41077 0
      vertex 0 1.41077 2.18859
      vertex 4.64007 1.41077 0.00419596
    endloop
  endfacet
  facet normal 0 1 0
    outer loop
      vertex 0 1.41077 2.18859
      vertex 4.63391 1.41077 0
      vertex 0 1.41077 0
    endloop
  endfacet
  facet normal -0 0 -1
    outer loop
      vertex 4.63391 1.41077 0
      vertex 0 -0.857968 0
      vertex 0 1.41077 0
    endloop
  endfacet
  facet normal 0 -1 0
    outer loop
      vertex 5.61908 -1.41077 0.134087
      vertex 11.0997 -1.41077 2.18859
      vertex 0 -1.41077 2.18859
    endloop
  endfacet
  facet normal 0 -1 0
    outer loop
      vertex 5.61908 -1.41077 0.134087
      vertex 0 -1.41077 2.18859
      vertex 5.22034 -1.41077 0.134277
    endloop
  endfacet
  facet normal 0 -1 0
    outer loop
      vertex 0 -1.41077 2.18859
      vertex 4.82168 -1.41077 0.134087
      vertex 5.22034 -1.41077 0.134277
    endloop
  endfacet
  facet normal 0 -1 0
    outer loop
      vertex 0 -1.41077 2.18859
      vertex 4.42448 -1.41077 0.133228
      vertex 4.82168 -1.41077 0.134087
    endloop
  endfacet
  facet normal 0 -1 0
    outer loop
      vertex 0 -1.41077 2.18859
      vertex 4.03059 -1.41077 0.131893
      vertex 4.42448 -1.41077 0.133228
    endloop
  endfacet
  facet normal 0 -1 0
    outer loop
      vertex 0 -1.41077 2.18859
      vertex 3.64134 -1.41077 0.130081
      vertex 4.03059 -1.41077 0.131893
    endloop
  endfacet
  facet normal 0 -1 0
    outer loop
      vertex 0 -1.41077 2.18859
      vertex 3.25831 -1.41077 0.127697
      vertex 3.64134 -1.41077 0.130081
    endloop
  endfacet
  facet normal 0 -1 0
    outer loop
      vertex 0 -1.41077 2.18859
      vertex 2.88283 -1.41077 0.124836
      vertex 3.25831 -1.41077 0.127697
    endloop
  endfacet
  facet normal 0 -1 0
    outer loop
      vertex 0 -1.41077 2.18859
      vertex 2.51677 -1.41077 0.121498
      vertex 2.88283 -1.41077 0.124836
    endloop
  endfacet
  facet normal 0 -1 0
    outer loop
      vertex 0 -1.41077 2.18859
      vertex 2.16148 -1.41077 0.117683
      vertex 2.51677 -1.41077 0.121498
    endloop
  endfacet
  facet normal 0 -1 0
    outer loop
      vertex 0 -1.41077 2.18859
      vertex 1.81811 -1.41077 0.113392
      vertex 2.16148 -1.41077 0.117683
    endloop
  endfacet
  facet normal 0 -1 0
    outer loop
      vertex 0 -1.41077 2.18859
      vertex 1.48823 -1.41077 0.108624
      vertex 1.81811 -1.41077 0.113392
    endloop
  endfacet
  facet normal 0 -1 0
    outer loop
      vertex 0 -1.41077 2.18859
      vertex 1.1729 -1.41077 0.103474
      vertex 1.48823 -1.41077 0.108624
    endloop
  endfacet
  facet normal 0 -1 0
    outer loop
      vertex 0 -1.41077 2.18859
      vertex 0.873761 -1.41077 0.0979424
      vertex 1.1729 -1.41077 0.103474
    endloop
  endfacet
  facet normal 0 -1 0
    outer loop
      vertex 0 -1.41077 2.18859
      vertex 0.591697 -1.41077 0.0919342
      vertex 0.873761 -1.41077 0.0979424
    endloop
  endfacet
  facet normal 0 -1 0
    outer loop
      vertex 0 -1.41077 2.18859
      vertex 0.327967 -1.41077 0.08564
      vertex 0.591697 -1.41077 0.0919342
    endloop
  endfacet
  facet normal 0 -1 0
    outer loop
      vertex 0 -1.41077 2.18859
      vertex 0.0833434 -1.41077 0.0789642
      vertex 0.327967 -1.41077 0.08564
    endloop
  endfacet
  facet normal -0 -1 0
    outer loop
      vertex 0.0833434 -1.41077 0.0789642
      vertex 0 -1.41077 2.18859
      vertex 0 -1.41077 0.0763392
    endloop
  endfacet
  facet normal 0 -1 0
    outer loop
      vertex 11.0997 -1.41077 2.18859
      vertex 5.61908 -1.41077 0.134087
      vertex 6.01628 -1.41077 0.133228
    endloop
  endfacet
  facet normal 0 -1 0
    outer loop
      vertex 6.41018 -1.41077 0.131893
      vertex 11.0997 -1.41077 2.18859
      vertex 6.01628 -1.41077 0.133228
    endloop
  endfacet
  facet normal 0 -1 0
    outer loop
      vertex 6.79943 -1.41077 0.130081
      vertex 11.0997 -1.41077 2.18859
      vertex 6.41018 -1.41077 0.131893
    endloop
  endfacet
  facet normal 0 -1 0
    outer loop
      vertex 7.18237 -1.41077 0.127697
      vertex 11.0997 -1.41077 2.18859
      vertex 6.79943 -1.41077 0.130081
    endloop
  endfacet
  facet normal 0 -1 0
    outer loop
      vertex 7.55784 -1.41077 0.124836
      vertex 11.0997 -1.41077 2.18859
      vertex 7.18237 -1.41077 0.127697
    endloop
  endfacet
  facet normal 0 -1 0
    outer loop
      vertex 7.92399 -1.41077 0.121498
      vertex 11.0997 -1.41077 2.18859
      vertex 7.55784 -1.41077 0.124836
    endloop
  endfacet
  facet normal 0 -1 0
    outer loop
      vertex 8.27919 -1.41077 0.117683
      vertex 11.0997 -1.41077 2.18859
      vertex 7.92399 -1.41077 0.121498
    endloop
  endfacet
  facet normal 0 -1 0
    outer loop
      vertex 8.62256 -1.41077 0.113392
      vertex 11.0997 -1.41077 2.18859
      vertex 8.27919 -1.41077 0.117683
    endloop
  endfacet
  facet normal 0 -1 0
    outer loop
      vertex 8.95244 -1.41077 0.108624
      vertex 11.0997 -1.41077 2.18859
      vertex 8.62256 -1.41077 0.113392
    endloop
  endfacet
  facet normal 0 -1 0
    outer loop
      vertex 9.26777 -1.41077 0.103474
      vertex 11.0997 -1.41077 2.18859
      vertex 8.95244 -1.41077 0.108624
    endloop
  endfacet
  facet normal 0 -1 0
    outer loop
      vertex 9.56701 -1.41077 0.0979424
      vertex 11.0997 -1.41077 2.18859
      vertex 9.26777 -1.41077 0.103474
    endloop
  endfacet
  facet normal 0 -1 -0
    outer loop
      vertex 11.0997 -1.41077 2.18859
      vertex 9.56701 -1.41077 0.0979424
      vertex 11.2201 -1.41077 1.58644
    endloop
  endfacet
  facet normal 0 -1 0
    outer loop
      vertex 9.84907 -1.41077 0.0919342
      vertex 11.2201 -1.41077 1.58644
      vertex 9.56701 -1.41077 0.0979424
    endloop
  endfacet
  facet normal 0 -1 0
    outer loop
      vertex 10.1128 -1.41077 0.08564
      vertex 11.2201 -1.41077 1.58644
      vertex 9.84907 -1.41077 0.0919342
    endloop
  endfacet
  facet normal 0 -1 0
    outer loop
      vertex 10.3573 -1.41077 0.0789642
      vertex 11.2201 -1.41077 1.58644
      vertex 10.1128 -1.41077 0.08564
    endloop
  endfacet
  facet normal 0 -1 0
    outer loop
      vertex 10.5815 -1.41077 0.071907
      vertex 11.2201 -1.41077 1.58644
      vertex 10.3573 -1.41077 0.0789642
    endloop
  endfacet
  facet normal 0 -1 0
    outer loop
      vertex 10.7845 -1.41077 0.0646591
      vertex 11.2201 -1.41077 1.58644
      vertex 10.5815 -1.41077 0.071907
    endloop
  endfacet
  facet normal 0 -1 0
    outer loop
      vertex 10.9657 -1.41077 0.0571251
      vertex 11.2201 -1.41077 1.58644
      vertex 10.7845 -1.41077 0.0646591
    endloop
  endfacet
  facet normal 0 -1 0
    outer loop
      vertex 11.1241 -1.41077 0.0494003
      vertex 11.2201 -1.41077 1.58644
      vertex 10.9657 -1.41077 0.0571251
    endloop
  endfacet
  facet normal 0 -1 -0
    outer loop
      vertex 11.2201 -1.41077 1.58644
      vertex 11.1241 -1.41077 0.0494003
      vertex 11.2201 -1.41077 0.0437725
    endloop
  endfacet
  facet normal 0.980589 -0 0.196076
    outer loop
      vertex 11.0997 -1.41077 2.18859
      vertex 11.2201 1.41077 1.58644
      vertex 11.0997 1.41077 2.18859
    endloop
  endfacet
  facet normal 0.980589 0 0.196076
    outer loop
      vertex 11.2201 1.41077 1.58644
      vertex 11.0997 -1.41077 2.18859
      vertex 11.2201 -1.41077 1.58644
    endloop
  endfacet
  facet normal 0.000478448 -0.000977234 -0.999999
    outer loop
      vertex 5.22034 -1.41077 0.134277
      vertex 10.5847 1.41077 0.134087
      vertex 10.9834 1.41077 0.134277
    endloop
  endfacet
  facet normal 0.000478448 -0.000977234 -0.999999
    outer loop
      vertex 10.5847 1.41077 0.134087
      vertex 5.22034 -1.41077 0.134277
      vertex 4.82168 -1.41077 0.134087
    endloop
  endfacet
  facet normal 0.0212757 -0.0434559 -0.998829
    outer loop
      vertex 0.873761 -1.41077 0.0979424
      vertex 6.35472 1.41077 0.0919342
      vertex 6.63678 1.41077 0.0979424
    endloop
  endfacet
  facet normal 0.0212758 -0.0434559 -0.998829
    outer loop
      vertex 6.35472 1.41077 0.0919342
      vertex 0.873761 -1.41077 0.0979424
      vertex 0.591697 -1.41077 0.0919342
    endloop
  endfacet
  facet normal -0.027248 0.0556542 -0.998078
    outer loop
      vertex 10.3573 -1.41077 0.0789642
      vertex 11.2201 -0.868655 0.08564
      vertex 11.2201 -0.988375 0.0789642
    endloop
  endfacet
  facet normal -0.027248 0.0556542 -0.998078
    outer loop
      vertex 11.2201 -0.868655 0.08564
      vertex 10.3573 -1.41077 0.0789642
      vertex 10.1128 -1.41077 0.08564
    endloop
  endfacet
  facet normal 0.0184746 -0.0377346 -0.999117
    outer loop
      vertex 1.1729 -1.41077 0.103474
      vertex 6.63678 1.41077 0.0979424
      vertex 6.93592 1.41077 0.103474
    endloop
  endfacet
  facet normal 0.0184746 -0.0377346 -0.999117
    outer loop
      vertex 6.63678 1.41077 0.0979424
      vertex 1.1729 -1.41077 0.103474
      vertex 0.873761 -1.41077 0.0979424
    endloop
  endfacet
  facet normal -0.0163201 0.033334 -0.999311
    outer loop
      vertex 9.26777 -1.41077 0.103474
      vertex 11.2201 -0.30055 0.108624
      vertex 11.2201 -0.454936 0.103474
    endloop
  endfacet
  facet normal -0.0163201 0.033334 -0.999311
    outer loop
      vertex 11.2201 -0.30055 0.108624
      vertex 9.26777 -1.41077 0.103474
      vertex 8.95244 -1.41077 0.108624
    endloop
  endfacet
  facet normal 0.093095 -0.190147 -0.977332
    outer loop
      vertex 0 -0.955604 0.0333786
      vertex 4.74624 1.41077 0.0250816
      vertex 4.83334 1.41077 0.0333786
    endloop
  endfacet
  facet normal 0.093095 -0.190147 -0.977332
    outer loop
      vertex 4.74624 1.41077 0.0250816
      vertex 0 -0.955604 0.0333786
      vertex 0 -0.912959 0.0250816
    endloop
  endfacet
  facet normal -0.0355846 0.0726818 -0.99672
    outer loop
      vertex 10.7845 -1.41077 0.0646591
      vertex 11.2201 -1.09812 0.071907
      vertex 11.2201 -1.19751 0.0646591
    endloop
  endfacet
  facet normal -0.0355846 0.0726818 -0.99672
    outer loop
      vertex 11.2201 -1.09812 0.071907
      vertex 10.7845 -1.41077 0.0646591
      vertex 10.5815 -1.41077 0.071907
    endloop
  endfacet
  facet normal -0.00465486 0.0095076 -0.999944
    outer loop
      vertex 6.79943 -1.41077 0.130081
      vertex 11.2201 0.944125 0.131893
      vertex 11.2201 0.753554 0.130081
    endloop
  endfacet
  facet normal -0.00465487 0.0095076 -0.999944
    outer loop
      vertex 11.2201 0.944125 0.131893
      vertex 6.79943 -1.41077 0.130081
      vertex 6.41018 -1.41077 0.131893
    endloop
  endfacet
  facet normal -0.00911395 0.0186153 -0.999785
    outer loop
      vertex 7.92399 -1.41077 0.121498
      vertex 11.2201 0.38224 0.124836
      vertex 11.2201 0.202971 0.121498
    endloop
  endfacet
  facet normal -0.00911395 0.0186153 -0.999785
    outer loop
      vertex 11.2201 0.38224 0.124836
      vertex 7.92399 -1.41077 0.121498
      vertex 7.55784 -1.41077 0.124836
    endloop
  endfacet
  facet normal -0.00216088 0.00441361 -0.999988
    outer loop
      vertex 6.01628 -1.41077 0.133228
      vertex 11.2201 1.33144 0.134087
      vertex 11.2201 1.13698 0.133228
    endloop
  endfacet
  facet normal -0.00216088 0.00441361 -0.999988
    outer loop
      vertex 11.2201 1.33144 0.134087
      vertex 6.01628 -1.41077 0.133228
      vertex 5.61908 -1.41077 0.134087
    endloop
  endfacet
  facet normal -0.00622538 0.0127154 -0.9999
    outer loop
      vertex 7.18237 -1.41077 0.127697
      vertex 11.2201 0.753554 0.130081
      vertex 11.2201 0.566068 0.127697
    endloop
  endfacet
  facet normal -0.00622537 0.0127154 -0.9999
    outer loop
      vertex 11.2201 0.753554 0.130081
      vertex 7.18237 -1.41077 0.127697
      vertex 6.79943 -1.41077 0.130081
    endloop
  endfacet
  facet normal 0.0163201 -0.033334 -0.999311
    outer loop
      vertex 1.48823 -1.41077 0.108624
      vertex 6.93592 1.41077 0.103474
      vertex 7.25125 1.41077 0.108624
    endloop
  endfacet
  facet normal 0.0163201 -0.033334 -0.999311
    outer loop
      vertex 6.93592 1.41077 0.103474
      vertex 1.48823 -1.41077 0.108624
      vertex 1.1729 -1.41077 0.103474
    endloop
  endfacet
  facet normal 0.0718216 -0.146696 -0.986571
    outer loop
      vertex 0 -1.01012 0.0414848
      vertex 4.83334 1.41077 0.0333786
      vertex 4.94469 1.41077 0.0414848
    endloop
  endfacet
  facet normal 0.0718215 -0.146696 -0.986571
    outer loop
      vertex 4.83334 1.41077 0.0333786
      vertex 0 -1.01012 0.0414848
      vertex 0 -0.955604 0.0333786
    endloop
  endfacet
  facet normal 0.0124934 -0.0255179 -0.999596
    outer loop
      vertex 2.16148 -1.41077 0.117683
      vertex 7.58113 1.41077 0.113392
      vertex 7.9245 1.41077 0.117683
    endloop
  endfacet
  facet normal 0.0124934 -0.0255179 -0.999596
    outer loop
      vertex 7.58113 1.41077 0.113392
      vertex 2.16148 -1.41077 0.117683
      vertex 1.81811 -1.41077 0.113392
    endloop
  endfacet
  facet normal -0.031403 0.0641409 -0.997447
    outer loop
      vertex 10.5815 -1.41077 0.071907
      vertex 11.2201 -0.988375 0.0789642
      vertex 11.2201 -1.09812 0.071907
    endloop
  endfacet
  facet normal -0.0314029 0.0641408 -0.997447
    outer loop
      vertex 11.2201 -0.988375 0.0789642
      vertex 10.5815 -1.41077 0.071907
      vertex 10.3573 -1.41077 0.0789642
    endloop
  endfacet
  facet normal 0.0107335 -0.0219233 -0.999702
    outer loop
      vertex 2.51677 -1.41077 0.121498
      vertex 7.9245 1.41077 0.117683
      vertex 8.27979 1.41077 0.121498
    endloop
  endfacet
  facet normal 0.0107335 -0.0219233 -0.999702
    outer loop
      vertex 7.9245 1.41077 0.117683
      vertex 2.51677 -1.41077 0.121498
      vertex 2.16148 -1.41077 0.117683
    endloop
  endfacet
  facet normal 0.0238311 -0.0486752 -0.99853
    outer loop
      vertex 0.591697 -1.41077 0.0919342
      vertex 6.09099 1.41077 0.08564
      vertex 6.35472 1.41077 0.0919342
    endloop
  endfacet
  facet normal 0.0238311 -0.0486752 -0.99853
    outer loop
      vertex 6.09099 1.41077 0.08564
      vertex 0.591697 -1.41077 0.0919342
      vertex 0.327967 -1.41077 0.08564
    endloop
  endfacet
  facet normal 0.0414185 -0.0845976 -0.995554
    outer loop
      vertex 0 -1.24244 0.0646591
      vertex 5.2381 1.41077 0.0571251
      vertex 5.41919 1.41077 0.0646591
    endloop
  endfacet
  facet normal 0.0414185 -0.0845976 -0.995554
    outer loop
      vertex 5.2381 1.41077 0.0571251
      vertex 0 -1.24244 0.0646591
      vertex 0 -1.15377 0.0571251
    endloop
  endfacet
  facet normal -0.00338946 0.006923 -0.99997
    outer loop
      vertex 6.41018 -1.41077 0.131893
      vertex 11.2201 1.13698 0.133228
      vertex 11.2201 0.944125 0.131893
    endloop
  endfacet
  facet normal -0.00338946 0.006923 -0.99997
    outer loop
      vertex 11.2201 1.13698 0.133228
      vertex 6.41018 -1.41077 0.131893
      vertex 6.01628 -1.41077 0.133228
    endloop
  endfacet
  facet normal -0.0581114 0.118693 -0.991229
    outer loop
      vertex 11.2201 -1.36377 0.0494003
      vertex 11.2201 -1.41077 0.0437725
      vertex 11.1241 -1.41077 0.0494003
    endloop
  endfacet
  facet normal -0.0238311 0.0486752 -0.99853
    outer loop
      vertex 10.1128 -1.41077 0.08564
      vertex 11.2201 -0.739534 0.0919342
      vertex 11.2201 -0.868655 0.08564
    endloop
  endfacet
  facet normal -0.0238311 0.0486752 -0.99853
    outer loop
      vertex 11.2201 -0.739534 0.0919342
      vertex 10.1128 -1.41077 0.08564
      vertex 9.84907 -1.41077 0.0919342
    endloop
  endfacet
  facet normal -0.0184688 0.0377226 -0.999118
    outer loop
      vertex 9.56701 -1.41077 0.0979424
      vertex 11.2201 -0.454936 0.103474
      vertex 11.2201 -0.601438 0.0979424
    endloop
  endfacet
  facet normal -0.0184688 0.0377227 -0.999118
    outer loop
      vertex 11.2201 -0.454936 0.103474
      vertex 9.56701 -1.41077 0.0979424
      vertex 9.26777 -1.41077 0.103474
    endloop
  endfacet
  facet normal -0.0124934 0.0255179 -0.999596
    outer loop
      vertex 8.62256 -1.41077 0.113392
      vertex 11.2201 0.029068 0.117683
      vertex 11.2201 -0.139042 0.113392
    endloop
  endfacet
  facet normal -0.0124934 0.0255179 -0.999596
    outer loop
      vertex 11.2201 0.029068 0.117683
      vertex 8.62256 -1.41077 0.113392
      vertex 8.27919 -1.41077 0.117683
    endloop
  endfacet
  facet normal -0.0107364 0.0219292 -0.999702
    outer loop
      vertex 8.27919 -1.41077 0.117683
      vertex 11.2201 0.202971 0.121498
      vertex 11.2201 0.029068 0.117683
    endloop
  endfacet
  facet normal -0.0107364 0.0219292 -0.999702
    outer loop
      vertex 11.2201 0.202971 0.121498
      vertex 8.27919 -1.41077 0.117683
      vertex 7.92399 -1.41077 0.121498
    endloop
  endfacet
  facet normal 0.369451 -0.754607 -0.542286
    outer loop
      vertex 4.63391 1.41077 0
      vertex 0 -0.860983 0.00419552
      vertex 0 -0.857968 0
    endloop
  endfacet
  facet normal 0.369452 -0.754609 -0.542282
    outer loop
      vertex 0 -0.860983 0.00419552
      vertex 4.63391 1.41077 0
      vertex 4.64007 1.41077 0.00419596
    endloop
  endfacet
  facet normal 0.367729 -0.751089 -0.548307
    outer loop
      vertex 0 -0.864046 0.00839233
      vertex 4.64007 1.41077 0.00419596
      vertex 4.64633 1.41077 0.00839233
    endloop
  endfacet
  facet normal 0.367731 -0.751093 -0.5483
    outer loop
      vertex 4.64007 1.41077 0.00419596
      vertex 0 -0.864046 0.00839233
      vertex 0 -0.860983 0.00419552
    endloop
  endfacet
  facet normal 0.0272374 -0.0556326 -0.99808
    outer loop
      vertex 0.327967 -1.41077 0.08564
      vertex 5.84636 1.41077 0.0789642
      vertex 6.09099 1.41077 0.08564
    endloop
  endfacet
  facet normal 0.0272374 -0.0556326 -0.99808
    outer loop
      vertex 5.84636 1.41077 0.0789642
      vertex 0.327967 -1.41077 0.08564
      vertex 0.0833434 -1.41077 0.0789642
    endloop
  endfacet
  facet normal 0.0581113 -0.118693 -0.991229
    outer loop
      vertex 0 -1.07622 0.0494003
      vertex 4.94469 1.41077 0.0414848
      vertex 5.07971 1.41077 0.0494003
    endloop
  endfacet
  facet normal 0.0581115 -0.118693 -0.991229
    outer loop
      vertex 4.94469 1.41077 0.0414848
      vertex 0 -1.07622 0.0494003
      vertex 0 -1.01012 0.0414848
    endloop
  endfacet
  facet normal 0.048472 -0.0990044 -0.993906
    outer loop
      vertex 0 -1.15377 0.0571251
      vertex 5.07971 1.41077 0.0494003
      vertex 5.2381 1.41077 0.0571251
    endloop
  endfacet
  facet normal 0.048472 -0.0990043 -0.993906
    outer loop
      vertex 5.07971 1.41077 0.0494003
      vertex 0 -1.15377 0.0571251
      vertex 0 -1.07622 0.0494003
    endloop
  endfacet
  facet normal -0.0484719 0.0990043 -0.993906
    outer loop
      vertex 11.1241 -1.41077 0.0494003
      vertex 11.2201 -1.28622 0.0571251
      vertex 11.2201 -1.36377 0.0494003
    endloop
  endfacet
  facet normal -0.0484721 0.0990045 -0.993906
    outer loop
      vertex 11.2201 -1.28622 0.0571251
      vertex 11.1241 -1.41077 0.0494003
      vertex 10.9657 -1.41077 0.0571251
    endloop
  endfacet
  facet normal -0.041397 0.0845535 -0.995559
    outer loop
      vertex 10.9657 -1.41077 0.0571251
      vertex 11.2201 -1.19751 0.0646591
      vertex 11.2201 -1.28622 0.0571251
    endloop
  endfacet
  facet normal -0.0413969 0.0845534 -0.995559
    outer loop
      vertex 11.2201 -1.19751 0.0646591
      vertex 10.9657 -1.41077 0.0571251
      vertex 10.7845 -1.41077 0.0646591
    endloop
  endfacet
  facet normal -0.0212758 0.0434559 -0.998829
    outer loop
      vertex 9.84907 -1.41077 0.0919342
      vertex 11.2201 -0.601438 0.0979424
      vertex 11.2201 -0.739534 0.0919342
    endloop
  endfacet
  facet normal -0.0212757 0.0434559 -0.998829
    outer loop
      vertex 11.2201 -0.601438 0.0979424
      vertex 9.84907 -1.41077 0.0919342
      vertex 9.56701 -1.41077 0.0979424
    endloop
  endfacet
  facet normal -0.014447 0.029508 -0.99946
    outer loop
      vertex 8.95244 -1.41077 0.108624
      vertex 11.2201 -0.139042 0.113392
      vertex 11.2201 -0.30055 0.108624
    endloop
  endfacet
  facet normal -0.0144469 0.029508 -0.99946
    outer loop
      vertex 11.2201 -0.139042 0.113392
      vertex 8.95244 -1.41077 0.108624
      vertex 8.62256 -1.41077 0.113392
    endloop
  endfacet
  facet normal 0.198882 -0.406218 -0.891871
    outer loop
      vertex 0 -0.882425 0.0167847
      vertex 4.66505 1.41077 0.0125887
      vertex 4.68387 1.41077 0.0167847
    endloop
  endfacet
  facet normal 0.198882 -0.406218 -0.891871
    outer loop
      vertex 4.66505 1.41077 0.0125887
      vertex 0 -0.882425 0.0167847
      vertex 0 -0.873213 0.0125891
    endloop
  endfacet
  facet normal 0.127335 -0.260082 -0.957154
    outer loop
      vertex 0 -0.912959 0.0250816
      vertex 4.68387 1.41077 0.0167847
      vertex 4.74624 1.41077 0.0250816
    endloop
  endfacet
  facet normal 0.127334 -0.260081 -0.957154
    outer loop
      vertex 4.68387 1.41077 0.0167847
      vertex 0 -0.912959 0.0250816
      vertex 0 -0.882425 0.0167847
    endloop
  endfacet
  facet normal 0.199702 -0.407893 -0.890922
    outer loop
      vertex 0 -0.873213 0.0125891
      vertex 4.64633 1.41077 0.00839233
      vertex 4.66505 1.41077 0.0125887
    endloop
  endfacet
  facet normal 0.199703 -0.407894 -0.890921
    outer loop
      vertex 4.64633 1.41077 0.00839233
      vertex 0 -0.873213 0.0125891
      vertex 0 -0.864046 0.00839233
    endloop
  endfacet
  facet normal -0.000478347 0.000976963 -0.999999
    outer loop
      vertex 11.2201 1.33144 0.134087
      vertex 10.9834 1.41077 0.134277
      vertex 11.2201 1.41077 0.134164
    endloop
  endfacet
  facet normal -0.000478334 0.000977001 -0.999999
    outer loop
      vertex 5.61908 -1.41077 0.134087
      vertex 10.9834 1.41077 0.134277
      vertex 11.2201 1.33144 0.134087
    endloop
  endfacet
  facet normal -0.000478334 0.000977 -0.999999
    outer loop
      vertex 10.9834 1.41077 0.134277
      vertex 5.61908 -1.41077 0.134087
      vertex 5.22034 -1.41077 0.134277
    endloop
  endfacet
  facet normal 0.00338946 -0.006923 -0.99997
    outer loop
      vertex 4.42448 -1.41077 0.133228
      vertex 9.7936 1.41077 0.131893
      vertex 10.1875 1.41077 0.133228
    endloop
  endfacet
  facet normal 0.00338946 -0.006923 -0.99997
    outer loop
      vertex 9.7936 1.41077 0.131893
      vertex 4.42448 -1.41077 0.133228
      vertex 4.03059 -1.41077 0.131893
    endloop
  endfacet
  facet normal 0.00216087 -0.0044136 -0.999988
    outer loop
      vertex 4.82168 -1.41077 0.134087
      vertex 10.1875 1.41077 0.133228
      vertex 10.5847 1.41077 0.134087
    endloop
  endfacet
  facet normal 0.00216088 -0.00441361 -0.999988
    outer loop
      vertex 10.1875 1.41077 0.133228
      vertex 4.82168 -1.41077 0.134087
      vertex 4.42448 -1.41077 0.133228
    endloop
  endfacet
  facet normal 0.014447 -0.029508 -0.99946
    outer loop
      vertex 1.81811 -1.41077 0.113392
      vertex 7.25125 1.41077 0.108624
      vertex 7.58113 1.41077 0.113392
    endloop
  endfacet
  facet normal 0.014447 -0.029508 -0.99946
    outer loop
      vertex 7.25125 1.41077 0.108624
      vertex 1.81811 -1.41077 0.113392
      vertex 1.48823 -1.41077 0.108624
    endloop
  endfacet
  facet normal 0.00622383 -0.0127122 -0.9999
    outer loop
      vertex 3.64134 -1.41077 0.130081
      vertex 9.02132 1.41077 0.127697
      vertex 9.40436 1.41077 0.130081
    endloop
  endfacet
  facet normal 0.00622383 -0.0127122 -0.9999
    outer loop
      vertex 9.02132 1.41077 0.127697
      vertex 3.64134 -1.41077 0.130081
      vertex 3.25831 -1.41077 0.127697
    endloop
  endfacet
  facet normal 0.035568 -0.0726479 -0.996723
    outer loop
      vertex 0 -1.34188 0.071907
      vertex 5.41919 1.41077 0.0646591
      vertex 5.6223 1.41077 0.071907
    endloop
  endfacet
  facet normal 0.035568 -0.072648 -0.996723
    outer loop
      vertex 5.41919 1.41077 0.0646591
      vertex 0 -1.34188 0.071907
      vertex 0 -1.24244 0.0646591
    endloop
  endfacet
  facet normal 0.0314163 -0.0641681 -0.997444
    outer loop
      vertex 0.0833434 -1.41077 0.0789642
      vertex 5.6223 1.41077 0.071907
      vertex 5.84636 1.41077 0.0789642
    endloop
  endfacet
  facet normal 0.0314163 -0.064168 -0.997444
    outer loop
      vertex 0 -1.34188 0.071907
      vertex 0.0833434 -1.41077 0.0789642
      vertex 0 -1.41077 0.0763392
    endloop
  endfacet
  facet normal 0.0314163 -0.064168 -0.997444
    outer loop
      vertex 0.0833434 -1.41077 0.0789642
      vertex 0 -1.34188 0.071907
      vertex 5.6223 1.41077 0.071907
    endloop
  endfacet
  facet normal -0.00761868 0.0155612 -0.99985
    outer loop
      vertex 7.55784 -1.41077 0.124836
      vertex 11.2201 0.566068 0.127697
      vertex 11.2201 0.38224 0.124836
    endloop
  endfacet
  facet normal -0.00761868 0.0155612 -0.99985
    outer loop
      vertex 11.2201 0.566068 0.127697
      vertex 7.55784 -1.41077 0.124836
      vertex 7.18237 -1.41077 0.127697
    endloop
  endfacet
  facet normal 0.00911633 -0.0186202 -0.999785
    outer loop
      vertex 2.88283 -1.41077 0.124836
      vertex 8.27979 1.41077 0.121498
      vertex 8.64585 1.41077 0.124836
    endloop
  endfacet
  facet normal 0.00911632 -0.0186202 -0.999785
    outer loop
      vertex 8.27979 1.41077 0.121498
      vertex 2.88283 -1.41077 0.124836
      vertex 2.51677 -1.41077 0.121498
    endloop
  endfacet
  facet normal 0.00761868 -0.0155612 -0.99985
    outer loop
      vertex 3.25831 -1.41077 0.127697
      vertex 8.64585 1.41077 0.124836
      vertex 9.02132 1.41077 0.127697
    endloop
  endfacet
  facet normal 0.00761868 -0.0155612 -0.99985
    outer loop
      vertex 8.64585 1.41077 0.124836
      vertex 3.25831 -1.41077 0.127697
      vertex 2.88283 -1.41077 0.124836
    endloop
  endfacet
  facet normal 0.00465487 -0.0095076 -0.999944
    outer loop
      vertex 4.03059 -1.41077 0.131893
      vertex 9.40436 1.41077 0.130081
      vertex 9.7936 1.41077 0.131893
    endloop
  endfacet
  facet normal 0.00465486 -0.0095076 -0.999944
    outer loop
      vertex 9.40436 1.41077 0.130081
      vertex 4.03059 -1.41077 0.131893
      vertex 3.64134 -1.41077 0.130081
    endloop
  endfacet
endsolid OpenSCAD_Model
