solid OpenSCAD_Model
  facet normal -1 0 0
    outer loop
      vertex 0 0.617665 0.00510332
      vertex 0 1.03254 0
      vertex 0 0.617713 0
    endloop
  endfacet
  facet normal -1 0 0
    outer loop
      vertex 0 0.61757 0.0102043
      vertex 0 1.03254 0
      vertex 0 0.617665 0.00510332
    endloop
  endfacet
  facet normal -1 0 0
    outer loop
      vertex 0 0.617188 0.020504
      vertex 0 1.03254 0
      vertex 0 0.61757 0.0102043
    endloop
  endfacet
  facet normal -1 0 0
    outer loop
      vertex 0 0.6169 0.025605
      vertex 0 1.03254 0
      vertex 0 0.617188 0.020504
    endloop
  endfacet
  facet normal -1 0 0
    outer loop
      vertex 0 0.616566 0.0307083
      vertex 0 1.03254 0
      vertex 0 0.6169 0.025605
    endloop
  endfacet
  facet normal -1 0 0
    outer loop
      vertex 0 0.616137 0.035714
      vertex 0 1.03254 0
      vertex 0 0.616566 0.0307083
    endloop
  endfacet
  facet normal -1 0 0
    outer loop
      vertex 0 0.615705 0.0407219
      vertex 0 1.03254 0
      vertex 0 0.616137 0.035714
    endloop
  endfacet
  facet normal -1 0 0
    outer loop
      vertex 0 0.615133 0.0456821
      vertex 0 1.03254 0
      vertex 0 0.615705 0.0407219
    endloop
  endfacet
  facet normal -1 0 0
    outer loop
      vertex 0 0.614559 0.0506401
      vertex 0 1.03254 0
      vertex 0 0.615133 0.0456821
    endloop
  endfacet
  facet normal -1 0 0
    outer loop
      vertex 0 0.613891 0.0555027
      vertex 0 1.03254 0
      vertex 0 0.614559 0.0506401
    endloop
  endfacet
  facet normal -1 0 0
    outer loop
      vertex 0 0.613221 0.0603676
      vertex 0 1.03254 0
      vertex 0 0.613891 0.0555027
    endloop
  endfacet
  facet normal -1 0 0
    outer loop
      vertex 0 0.611595 0.069809
      vertex 0 1.03254 0
      vertex 0 0.613221 0.0603676
    endloop
  endfacet
  facet normal -1 0 0
    outer loop
      vertex 0 0.609779 0.0789642
      vertex 0 1.03254 0
      vertex 0 0.611595 0.069809
    endloop
  endfacet
  facet normal -1 0 0
    outer loop
      vertex 0 0.607771 0.0878334
      vertex 0 1.03254 0
      vertex 0 0.609779 0.0789642
    endloop
  endfacet
  facet normal -1 0 0
    outer loop
      vertex 0 0.605478 0.0963211
      vertex 0 1.03254 0
      vertex 0 0.607771 0.0878334
    endloop
  endfacet
  facet normal -1 0 0
    outer loop
      vertex 0 0.602994 0.104523
      vertex 0 1.03254 0
      vertex 0 0.605478 0.0963211
    endloop
  endfacet
  facet normal -1 0 0
    outer loop
      vertex 0 0.601704 0.108386
      vertex 0 1.03254 0
      vertex 0 0.602994 0.104523
    endloop
  endfacet
  facet normal -1 0 0
    outer loop
      vertex 0 0.600364 0.112247
      vertex 0 1.03254 0
      vertex 0 0.601704 0.108386
    endloop
  endfacet
  facet normal -1 0 0
    outer loop
      vertex 0 0.598979 0.115871
      vertex 0 1.03254 0
      vertex 0 0.600364 0.112247
    endloop
  endfacet
  facet normal -1 0 0
    outer loop
      vertex 0 0.597544 0.119495
      vertex 0 1.03254 0
      vertex 0 0.598979 0.115871
    endloop
  endfacet
  facet normal -1 0 0
    outer loop
      vertex 0 0.596015 0.122882
      vertex 0 1.03254 0
      vertex 0 0.597544 0.119495
    endloop
  endfacet
  facet normal -1 0 0
    outer loop
      vertex 0 0.594485 0.126266
      vertex 0 1.03254 0
      vertex 0 0.596015 0.122882
    endloop
  endfacet
  facet normal -1 0 0
    outer loop
      vertex 0 0.59291 0.129461
      vertex 0 1.03254 0
      vertex 0 0.594485 0.126266
    endloop
  endfacet
  facet normal -1 0 0
    outer loop
      vertex 0 0.591331 0.132656
      vertex 0 1.03254 0
      vertex 0 0.59291 0.129461
    endloop
  endfacet
  facet normal -1 0 0
    outer loop
      vertex 0 0.587984 0.138378
      vertex 0 1.03254 0
      vertex 0 0.591331 0.132656
    endloop
  endfacet
  facet normal -1 0 0
    outer loop
      vertex 0 0.584541 0.143623
      vertex 0 1.03254 0
      vertex 0 0.587984 0.138378
    endloop
  endfacet
  facet normal -1 0 0
    outer loop
      vertex 0 0.582774 0.14596
      vertex 0 1.03254 0
      vertex 0 0.584541 0.143623
    endloop
  endfacet
  facet normal -1 0 0
    outer loop
      vertex 0 0.580958 0.148296
      vertex 0 1.03254 0
      vertex 0 0.582774 0.14596
    endloop
  endfacet
  facet normal -1 0 0
    outer loop
      vertex 0 0.579142 0.150346
      vertex 0 1.03254 0
      vertex 0 0.580958 0.148296
    endloop
  endfacet
  facet normal -1 0 0
    outer loop
      vertex 0 0.577277 0.152397
      vertex 0 1.03254 0
      vertex 0 0.579142 0.150346
    endloop
  endfacet
  facet normal -1 0 0
    outer loop
      vertex 0 0.575368 0.154161
      vertex 0 1.03254 0
      vertex 0 0.577277 0.152397
    endloop
  endfacet
  facet normal -1 0 0
    outer loop
      vertex 0 0.573455 0.155926
      vertex 0 1.03254 0
      vertex 0 0.575368 0.154161
    endloop
  endfacet
  facet normal -1 0 0
    outer loop
      vertex 0 0.569631 0.158787
      vertex 0 1.03254 0
      vertex 0 0.573455 0.155926
    endloop
  endfacet
  facet normal -1 0 0
    outer loop
      vertex 0 1.03254 0
      vertex 0 0.569631 0.158787
      vertex 0 1.03254 2.47393
    endloop
  endfacet
  facet normal -1 0 0
    outer loop
      vertex 0 0.565712 0.161076
      vertex 0 1.03254 2.47393
      vertex 0 0.569631 0.158787
    endloop
  endfacet
  facet normal -1 0 0
    outer loop
      vertex 0 0.561697 0.162697
      vertex 0 1.03254 2.47393
      vertex 0 0.565712 0.161076
    endloop
  endfacet
  facet normal -1 0 0
    outer loop
      vertex 0 0.559737 0.163174
      vertex 0 1.03254 2.47393
      vertex 0 0.561697 0.162697
    endloop
  endfacet
  facet normal -1 0 0
    outer loop
      vertex 0 0.557728 0.163651
      vertex 0 1.03254 2.47393
      vertex 0 0.559737 0.163174
    endloop
  endfacet
  facet normal -1 0 0
    outer loop
      vertex 0 0.553713 0.163937
      vertex 0 1.03254 2.47393
      vertex 0 0.557728 0.163651
    endloop
  endfacet
  facet normal -1 0 0
    outer loop
      vertex 0 0.549699 0.163651
      vertex 0 1.03254 2.47393
      vertex 0 0.553713 0.163937
    endloop
  endfacet
  facet normal -1 0 0
    outer loop
      vertex 0 0.547691 0.163174
      vertex 0 1.03254 2.47393
      vertex 0 0.549699 0.163651
    endloop
  endfacet
  facet normal -1 0 0
    outer loop
      vertex 0 0.545732 0.162697
      vertex 0 1.03254 2.47393
      vertex 0 0.547691 0.163174
    endloop
  endfacet
  facet normal -1 0 0
    outer loop
      vertex 0 0.541717 0.161076
      vertex 0 1.03254 2.47393
      vertex 0 0.545732 0.162697
    endloop
  endfacet
  facet normal -1 0 0
    outer loop
      vertex 0 -1.03254 2.47393
      vertex 0 0.541717 0.161076
      vertex 0 0.537798 0.158787
    endloop
  endfacet
  facet normal -1 0 0
    outer loop
      vertex 0 -1.03254 2.47393
      vertex 0 0.537798 0.158787
      vertex 0 0.533974 0.155926
    endloop
  endfacet
  facet normal -1 0 0
    outer loop
      vertex 0 -1.03254 0
      vertex 0 0.533974 0.155926
      vertex 0 0.53015 0.152397
    endloop
  endfacet
  facet normal -1 0 0
    outer loop
      vertex 0 -1.03254 0
      vertex 0 0.53015 0.152397
      vertex 0 0.528288 0.150347
    endloop
  endfacet
  facet normal -1 0 0
    outer loop
      vertex 0 -1.03254 0
      vertex 0 0.528288 0.150347
      vertex 0 0.526471 0.148296
    endloop
  endfacet
  facet normal -1 0 0
    outer loop
      vertex 0 -1.03254 0
      vertex 0 0.526471 0.148296
      vertex 0 0.524654 0.145959
    endloop
  endfacet
  facet normal -1 0 0
    outer loop
      vertex 0 -1.03254 0
      vertex 0 0.524654 0.145959
      vertex 0 0.522885 0.143623
    endloop
  endfacet
  facet normal -1 0 0
    outer loop
      vertex 0 -1.03254 0
      vertex 0 0.522885 0.143623
      vertex 0 0.519443 0.138378
    endloop
  endfacet
  facet normal -1 0 0
    outer loop
      vertex 0 -1.03254 0
      vertex 0 0.519443 0.138378
      vertex 0 0.51777 0.135518
    endloop
  endfacet
  facet normal -1 0 0
    outer loop
      vertex 0 -1.03254 0
      vertex 0 0.51777 0.135518
      vertex 0 0.516098 0.132656
    endloop
  endfacet
  facet normal -1 0 0
    outer loop
      vertex 0 -1.03254 0
      vertex 0 0.516098 0.132656
      vertex 0 0.514519 0.129461
    endloop
  endfacet
  facet normal -1 0 0
    outer loop
      vertex 0 -1.03254 0
      vertex 0 0.514519 0.129461
      vertex 0 0.512944 0.126266
    endloop
  endfacet
  facet normal -1 0 0
    outer loop
      vertex 0 -1.03254 0
      vertex 0 0.512944 0.126266
      vertex 0 0.509883 0.119495
    endloop
  endfacet
  facet normal -1 0 0
    outer loop
      vertex 0 -1.03254 0
      vertex 0 0.509883 0.119495
      vertex 0 0.50845 0.115872
    endloop
  endfacet
  facet normal -1 0 0
    outer loop
      vertex 0 -1.03254 0
      vertex 0 0.50845 0.115872
      vertex 0 0.507065 0.112247
    endloop
  endfacet
  facet normal -1 0 0
    outer loop
      vertex 0 -1.03254 0
      vertex 0 0.507065 0.112247
      vertex 0 0.505727 0.108384
    endloop
  endfacet
  facet normal -1 0 0
    outer loop
      vertex 0 -1.03254 0
      vertex 0 0.505727 0.108384
      vertex 0 0.504435 0.104523
    endloop
  endfacet
  facet normal -1 0 0
    outer loop
      vertex 0 -1.03254 0
      vertex 0 0.504435 0.104523
      vertex 0 0.503191 0.100421
    endloop
  endfacet
  facet normal -1 0 0
    outer loop
      vertex 0 -1.03254 0
      vertex 0 0.503191 0.100421
      vertex 0 0.501949 0.0963211
    endloop
  endfacet
  facet normal -1 0 0
    outer loop
      vertex 0 -1.03254 0
      vertex 0 0.501949 0.0963211
      vertex 0 0.499655 0.0878334
    endloop
  endfacet
  facet normal -1 0 0
    outer loop
      vertex 0 -1.03254 0
      vertex 0 0.499655 0.0878334
      vertex 0 0.497648 0.0789642
    endloop
  endfacet
  facet normal -1 0 0
    outer loop
      vertex 0 -1.03254 0
      vertex 0 0.489762 0.005101
      vertex 0 0.489714 0
    endloop
  endfacet
  facet normal -1 0 0
    outer loop
      vertex 0 -1.03254 0
      vertex 0 0.489857 0.0102043
      vertex 0 0.489762 0.005101
    endloop
  endfacet
  facet normal -1 0 0
    outer loop
      vertex 0 -1.03254 0
      vertex 0 0.490238 0.020504
      vertex 0 0.489857 0.0102043
    endloop
  endfacet
  facet normal -1 0 0
    outer loop
      vertex 0 -1.03254 0
      vertex 0 0.490527 0.0256073
      vertex 0 0.490238 0.020504
    endloop
  endfacet
  facet normal -1 0 0
    outer loop
      vertex 0 -1.03254 0
      vertex 0 0.490861 0.0307083
      vertex 0 0.490527 0.0256073
    endloop
  endfacet
  facet normal -1 0 0
    outer loop
      vertex 0 -1.03254 0
      vertex 0 0.49129 0.0357162
      vertex 0 0.490861 0.0307083
    endloop
  endfacet
  facet normal -1 0 0
    outer loop
      vertex 0 -1.03254 0
      vertex 0 0.491721 0.0407219
      vertex 0 0.49129 0.0357162
    endloop
  endfacet
  facet normal -1 0 0
    outer loop
      vertex 0 -1.03254 0
      vertex 0 0.492293 0.0456799
      vertex 0 0.491721 0.0407219
    endloop
  endfacet
  facet normal -1 0 0
    outer loop
      vertex 0 -1.03254 0
      vertex 0 0.492868 0.0506401
      vertex 0 0.492293 0.0456799
    endloop
  endfacet
  facet normal -1 0 0
    outer loop
      vertex 0 -1.03254 0
      vertex 0 0.493536 0.055505
      vertex 0 0.492868 0.0506401
    endloop
  endfacet
  facet normal -1 0 0
    outer loop
      vertex 0 -1.03254 0
      vertex 0 0.494206 0.0603676
      vertex 0 0.493536 0.055505
    endloop
  endfacet
  facet normal -1 0 0
    outer loop
      vertex 0 -1.03254 0
      vertex 0 0.495831 0.069809
      vertex 0 0.494206 0.0603676
    endloop
  endfacet
  facet normal -1 0 0
    outer loop
      vertex 0 -1.03254 0
      vertex 0 0.497648 0.0789642
      vertex 0 0.495831 0.069809
    endloop
  endfacet
  facet normal -1 -0 0
    outer loop
      vertex 0 0.533974 0.155926
      vertex 0 -1.03254 0
      vertex 0 -1.03254 2.47393
    endloop
  endfacet
  facet normal -1 0 0
    outer loop
      vertex 0 0.541717 0.161076
      vertex 0 -1.03254 2.47393
      vertex 0 1.03254 2.47393
    endloop
  endfacet
  facet normal -0 0 1
    outer loop
      vertex 0 1.03254 2.47393
      vertex 10.3964 -1.03254 2.47393
      vertex 10.3964 1.03254 2.47393
    endloop
  endfacet
  facet normal 0 0 1
    outer loop
      vertex 10.3964 -1.03254 2.47393
      vertex 0 1.03254 2.47393
      vertex 0 -1.03254 2.47393
    endloop
  endfacet
  facet normal 1 -0 0
    outer loop
      vertex 11.5333 0.0541893 0.0407219
      vertex 11.5333 1.03254 0
      vertex 11.5333 1.03254 0.208807
    endloop
  endfacet
  facet normal 1 0 0
    outer loop
      vertex 11.5333 1.03254 0
      vertex 11.5333 0.0561489 0.00510214
      vertex 11.5333 0.0561966 0
    endloop
  endfacet
  facet normal 1 0 0
    outer loop
      vertex 11.5333 1.03254 0
      vertex 11.5333 0.0560536 0.0102043
      vertex 11.5333 0.0561489 0.00510214
    endloop
  endfacet
  facet normal 1 0 0
    outer loop
      vertex 11.5333 1.03254 0
      vertex 11.5333 0.0556721 0.020504
      vertex 11.5333 0.0560536 0.0102043
    endloop
  endfacet
  facet normal 1 0 0
    outer loop
      vertex 11.5333 1.03254 0
      vertex 11.5333 0.0553837 0.0256062
      vertex 11.5333 0.0556721 0.020504
    endloop
  endfacet
  facet normal 1 0 0
    outer loop
      vertex 11.5333 1.03254 0
      vertex 11.5333 0.0550499 0.0307083
      vertex 11.5333 0.0553837 0.0256062
    endloop
  endfacet
  facet normal 1 0 0
    outer loop
      vertex 11.5333 1.03254 0
      vertex 11.5333 0.0546207 0.0357151
      vertex 11.5333 0.0550499 0.0307083
    endloop
  endfacet
  facet normal 1 0 0
    outer loop
      vertex 11.5333 1.03254 0
      vertex 11.5333 0.0541893 0.0407219
      vertex 11.5333 0.0546207 0.0357151
    endloop
  endfacet
  facet normal 1 0 0
    outer loop
      vertex 11.5333 1.03254 0.208807
      vertex 11.5333 0.0536171 0.045681
      vertex 11.5333 0.0541893 0.0407219
    endloop
  endfacet
  facet normal 1 0 0
    outer loop
      vertex 11.5333 1.03254 0.208807
      vertex 11.5333 0.0530425 0.0506401
      vertex 11.5333 0.0536171 0.045681
    endloop
  endfacet
  facet normal 1 0 0
    outer loop
      vertex 11.5333 1.03254 0.208807
      vertex 11.5333 0.052375 0.0555039
      vertex 11.5333 0.0530425 0.0506401
    endloop
  endfacet
  facet normal 1 0 0
    outer loop
      vertex 11.5333 1.03254 0.208807
      vertex 11.5333 0.0517051 0.0603676
      vertex 11.5333 0.052375 0.0555039
    endloop
  endfacet
  facet normal 1 0 0
    outer loop
      vertex 11.5333 1.03254 0.208807
      vertex 11.5333 0.0500792 0.069809
      vertex 11.5333 0.0517051 0.0603676
    endloop
  endfacet
  facet normal 1 0 0
    outer loop
      vertex 11.5333 1.03254 0.208807
      vertex 11.5333 0.0482626 0.0789642
      vertex 11.5333 0.0500792 0.069809
    endloop
  endfacet
  facet normal 1 0 0
    outer loop
      vertex 11.5333 1.03254 0.208807
      vertex 11.5333 0.0462552 0.0878334
      vertex 11.5333 0.0482626 0.0789642
    endloop
  endfacet
  facet normal 1 0 0
    outer loop
      vertex 11.5333 1.03254 0.208807
      vertex 11.5333 0.0439617 0.0963211
      vertex 11.5333 0.0462552 0.0878334
    endloop
  endfacet
  facet normal 1 0 0
    outer loop
      vertex 11.5333 1.03254 0.208807
      vertex 11.5333 0.0414775 0.104523
      vertex 11.5333 0.0439617 0.0963211
    endloop
  endfacet
  facet normal 1 0 0
    outer loop
      vertex 11.5333 1.03254 0.208807
      vertex 11.5333 0.0401878 0.108385
      vertex 11.5333 0.0414775 0.104523
    endloop
  endfacet
  facet normal 1 0 0
    outer loop
      vertex 11.5333 1.03254 0.208807
      vertex 11.5333 0.038848 0.112247
      vertex 11.5333 0.0401878 0.108385
    endloop
  endfacet
  facet normal 1 0 0
    outer loop
      vertex 11.5333 1.03254 0.208807
      vertex 11.5333 0.0374628 0.115871
      vertex 11.5333 0.038848 0.112247
    endloop
  endfacet
  facet normal 1 0 0
    outer loop
      vertex 11.5333 1.03254 0.208807
      vertex 11.5333 0.0360277 0.119495
      vertex 11.5333 0.0374628 0.115871
    endloop
  endfacet
  facet normal 1 0 0
    outer loop
      vertex 11.5333 1.03254 0.208807
      vertex 11.5333 0.0344995 0.122881
      vertex 11.5333 0.0360277 0.119495
    endloop
  endfacet
  facet normal 1 0 0
    outer loop
      vertex 11.5333 1.03254 0.208807
      vertex 11.5333 0.0329689 0.126266
      vertex 11.5333 0.0344995 0.122881
    endloop
  endfacet
  facet normal 1 0 0
    outer loop
      vertex 11.5333 1.03254 0.208807
      vertex 11.5333 0.0313931 0.129461
      vertex 11.5333 0.0329689 0.126266
    endloop
  endfacet
  facet normal 1 0 0
    outer loop
      vertex 11.5333 1.03254 0.208807
      vertex 11.5333 0.0298149 0.132656
      vertex 11.5333 0.0313931 0.129461
    endloop
  endfacet
  facet normal 1 0 0
    outer loop
      vertex 11.5333 1.03254 0.208807
      vertex 11.5333 0.0264677 0.138378
      vertex 11.5333 0.0298149 0.132656
    endloop
  endfacet
  facet normal 1 0 0
    outer loop
      vertex 11.5333 1.03254 0.208807
      vertex 11.5333 0.0230252 0.143623
      vertex 11.5333 0.0264677 0.138378
    endloop
  endfacet
  facet normal 1 0 0
    outer loop
      vertex 11.5333 1.03254 0.208807
      vertex 11.5333 0.0212586 0.14596
      vertex 11.5333 0.0230252 0.143623
    endloop
  endfacet
  facet normal 1 0 0
    outer loop
      vertex 11.5333 1.03254 0.208807
      vertex 11.5333 0.019442 0.148296
      vertex 11.5333 0.0212586 0.14596
    endloop
  endfacet
  facet normal 1 0 0
    outer loop
      vertex 11.5333 1.03254 0.208807
      vertex 11.5333 0.0176253 0.150347
      vertex 11.5333 0.019442 0.148296
    endloop
  endfacet
  facet normal 1 0 0
    outer loop
      vertex 11.5333 1.03254 0.208807
      vertex 11.5333 0.015761 0.152397
      vertex 11.5333 0.0176253 0.150347
    endloop
  endfacet
  facet normal 1 0 0
    outer loop
      vertex 11.5333 1.03254 0.208807
      vertex 11.5333 0.0138513 0.154161
      vertex 11.5333 0.015761 0.152397
    endloop
  endfacet
  facet normal 1 0 0
    outer loop
      vertex 11.5333 1.03254 0.208807
      vertex 11.5333 0.0119394 0.155926
      vertex 11.5333 0.0138513 0.154161
    endloop
  endfacet
  facet normal 1 0 0
    outer loop
      vertex 11.5333 1.03254 0.208807
      vertex 11.5333 0.00811538 0.158787
      vertex 11.5333 0.0119394 0.155926
    endloop
  endfacet
  facet normal 1 0 0
    outer loop
      vertex 11.5333 1.03254 0.208807
      vertex 11.5333 0.00419602 0.161076
      vertex 11.5333 0.00811538 0.158787
    endloop
  endfacet
  facet normal 1 0 0
    outer loop
      vertex 11.5333 1.03254 0.208807
      vertex 11.5333 0.000181306 0.162697
      vertex 11.5333 0.00419602 0.161076
    endloop
  endfacet
  facet normal 1 0 0
    outer loop
      vertex 11.5333 1.03254 0.208807
      vertex 11.5333 -0.00177836 0.163174
      vertex 11.5333 0.000181306 0.162697
    endloop
  endfacet
  facet normal 1 0 0
    outer loop
      vertex 11.5333 1.03254 0.208807
      vertex 11.5333 -0.00378805 0.163651
      vertex 11.5333 -0.00177836 0.163174
    endloop
  endfacet
  facet normal 1 0 0
    outer loop
      vertex 11.5333 1.03254 0.208807
      vertex 11.5333 -0.00780277 0.163937
      vertex 11.5333 -0.00378805 0.163651
    endloop
  endfacet
  facet normal 1 -0 0
    outer loop
      vertex 11.5333 -1.03254 0.208807
      vertex 11.5333 -0.00780277 0.163937
      vertex 11.5333 1.03254 0.208807
    endloop
  endfacet
  facet normal 1 0 0
    outer loop
      vertex 11.5333 -1.03254 0.208807
      vertex 11.5333 -0.0118175 0.163651
      vertex 11.5333 -0.00780277 0.163937
    endloop
  endfacet
  facet normal 1 0 0
    outer loop
      vertex 11.5333 -1.03254 0.208807
      vertex 11.5333 -0.0138248 0.163174
      vertex 11.5333 -0.0118175 0.163651
    endloop
  endfacet
  facet normal 1 0 0
    outer loop
      vertex 11.5333 -1.03254 0.208807
      vertex 11.5333 -0.0157845 0.162697
      vertex 11.5333 -0.0138248 0.163174
    endloop
  endfacet
  facet normal 1 0 0
    outer loop
      vertex 11.5333 -1.03254 0.208807
      vertex 11.5333 -0.0197992 0.161076
      vertex 11.5333 -0.0157845 0.162697
    endloop
  endfacet
  facet normal 1 0 0
    outer loop
      vertex 11.5333 -1.03254 0.208807
      vertex 11.5333 -0.0237186 0.158787
      vertex 11.5333 -0.0197992 0.161076
    endloop
  endfacet
  facet normal 1 0 0
    outer loop
      vertex 11.5333 -1.03254 0.208807
      vertex 11.5333 -0.0275426 0.155926
      vertex 11.5333 -0.0237186 0.158787
    endloop
  endfacet
  facet normal 1 0 0
    outer loop
      vertex 11.5333 -1.03254 0.208807
      vertex 11.5333 -0.0313666 0.152397
      vertex 11.5333 -0.0275426 0.155926
    endloop
  endfacet
  facet normal 1 0 0
    outer loop
      vertex 11.5333 -1.03254 0.208807
      vertex 11.5333 -0.0332286 0.150347
      vertex 11.5333 -0.0313666 0.152397
    endloop
  endfacet
  facet normal 1 0 0
    outer loop
      vertex 11.5333 -1.03254 0.208807
      vertex 11.5333 -0.0350452 0.148296
      vertex 11.5333 -0.0332286 0.150347
    endloop
  endfacet
  facet normal 1 0 0
    outer loop
      vertex 11.5333 -1.03254 0.208807
      vertex 11.5333 -0.0368618 0.14596
      vertex 11.5333 -0.0350452 0.148296
    endloop
  endfacet
  facet normal 1 0 0
    outer loop
      vertex 11.5333 -1.03254 0.208807
      vertex 11.5333 -0.0386307 0.143623
      vertex 11.5333 -0.0368618 0.14596
    endloop
  endfacet
  facet normal 1 0 0
    outer loop
      vertex 11.5333 -1.03254 0.208807
      vertex 11.5333 -0.0420732 0.138378
      vertex 11.5333 -0.0386307 0.143623
    endloop
  endfacet
  facet normal 1 0 0
    outer loop
      vertex 11.5333 -1.03254 0.208807
      vertex 11.5333 -0.0437468 0.135517
      vertex 11.5333 -0.0420732 0.138378
    endloop
  endfacet
  facet normal 1 0 0
    outer loop
      vertex 11.5333 -1.03254 0.208807
      vertex 11.5333 -0.0454181 0.132656
      vertex 11.5333 -0.0437468 0.135517
    endloop
  endfacet
  facet normal 1 0 0
    outer loop
      vertex 11.5333 -1.03254 0.208807
      vertex 11.5333 -0.0469963 0.129461
      vertex 11.5333 -0.0454181 0.132656
    endloop
  endfacet
  facet normal 1 0 0
    outer loop
      vertex 11.5333 -1.03254 0.208807
      vertex 11.5333 -0.0485722 0.126266
      vertex 11.5333 -0.0469963 0.129461
    endloop
  endfacet
  facet normal 1 0 0
    outer loop
      vertex 11.5333 -1.03254 0.208807
      vertex 11.5333 -0.0516332 0.119495
      vertex 11.5333 -0.0485722 0.126266
    endloop
  endfacet
  facet normal 1 0 0
    outer loop
      vertex 11.5333 -1.03254 0.208807
      vertex 11.5333 -0.053066 0.115871
      vertex 11.5333 -0.0516332 0.119495
    endloop
  endfacet
  facet normal 1 0 0
    outer loop
      vertex 11.5333 -1.03254 0.208807
      vertex 11.5333 -0.0544512 0.112247
      vertex 11.5333 -0.053066 0.115871
    endloop
  endfacet
  facet normal 1 0 0
    outer loop
      vertex 11.5333 -1.03254 0.208807
      vertex 11.5333 -0.0557887 0.108385
      vertex 11.5333 -0.0544512 0.112247
    endloop
  endfacet
  facet normal 1 0 0
    outer loop
      vertex 11.5333 -1.03254 0.208807
      vertex 11.5333 -0.0570808 0.104523
      vertex 11.5333 -0.0557887 0.108385
    endloop
  endfacet
  facet normal 1 0 0
    outer loop
      vertex 11.5333 -1.03254 0.208807
      vertex 11.5333 -0.0583252 0.100422
      vertex 11.5333 -0.0570808 0.104523
    endloop
  endfacet
  facet normal 1 0 0
    outer loop
      vertex 11.5333 -1.03254 0.208807
      vertex 11.5333 -0.0595673 0.0963211
      vertex 11.5333 -0.0583252 0.100422
    endloop
  endfacet
  facet normal 1 0 0
    outer loop
      vertex 11.5333 -1.03254 0.208807
      vertex 11.5333 -0.0618607 0.0878334
      vertex 11.5333 -0.0595673 0.0963211
    endloop
  endfacet
  facet normal 1 0 0
    outer loop
      vertex 11.5333 -1.03254 0.208807
      vertex 11.5333 -0.0638681 0.0789642
      vertex 11.5333 -0.0618607 0.0878334
    endloop
  endfacet
  facet normal 1 0 0
    outer loop
      vertex 11.5333 -1.03254 0.208807
      vertex 11.5333 -0.0656847 0.069809
      vertex 11.5333 -0.0638681 0.0789642
    endloop
  endfacet
  facet normal 1 0 0
    outer loop
      vertex 11.5333 -1.03254 0.208807
      vertex 11.5333 -0.0673106 0.0603676
      vertex 11.5333 -0.0656847 0.069809
    endloop
  endfacet
  facet normal 1 0 0
    outer loop
      vertex 11.5333 -1.03254 0.208807
      vertex 11.5333 -0.0679805 0.0555038
      vertex 11.5333 -0.0673106 0.0603676
    endloop
  endfacet
  facet normal 1 0 0
    outer loop
      vertex 11.5333 -1.03254 0.208807
      vertex 11.5333 -0.0686481 0.0506401
      vertex 11.5333 -0.0679805 0.0555038
    endloop
  endfacet
  facet normal 1 0 0
    outer loop
      vertex 11.5333 -1.03254 0.208807
      vertex 11.5333 -0.0692226 0.045681
      vertex 11.5333 -0.0686481 0.0506401
    endloop
  endfacet
  facet normal 1 0 0
    outer loop
      vertex 11.5333 -1.03254 0
      vertex 11.5333 -0.0692226 0.045681
      vertex 11.5333 -1.03254 0.208807
    endloop
  endfacet
  facet normal 1 0 0
    outer loop
      vertex 11.5333 -0.0692226 0.045681
      vertex 11.5333 -1.03254 0
      vertex 11.5333 -0.0697948 0.0407219
    endloop
  endfacet
  facet normal 1 0 0
    outer loop
      vertex 11.5333 -0.0697948 0.0407219
      vertex 11.5333 -1.03254 0
      vertex 11.5333 -0.0702263 0.0357151
    endloop
  endfacet
  facet normal 1 0 0
    outer loop
      vertex 11.5333 -0.0702263 0.0357151
      vertex 11.5333 -1.03254 0
      vertex 11.5333 -0.0706554 0.0307083
    endloop
  endfacet
  facet normal 1 0 0
    outer loop
      vertex 11.5333 -0.0706554 0.0307083
      vertex 11.5333 -1.03254 0
      vertex 11.5333 -0.0709892 0.0256061
    endloop
  endfacet
  facet normal 1 0 0
    outer loop
      vertex 11.5333 -0.0709892 0.0256061
      vertex 11.5333 -1.03254 0
      vertex 11.5333 -0.0712776 0.020504
    endloop
  endfacet
  facet normal 1 0 0
    outer loop
      vertex 11.5333 -0.0712776 0.020504
      vertex 11.5333 -1.03254 0
      vertex 11.5333 -0.0716591 0.0102043
    endloop
  endfacet
  facet normal 1 0 0
    outer loop
      vertex 11.5333 -0.0716591 0.0102043
      vertex 11.5333 -1.03254 0
      vertex 11.5333 -0.0717545 0.00510217
    endloop
  endfacet
  facet normal 1 0 0
    outer loop
      vertex 11.5333 -0.0717545 0.00510217
      vertex 11.5333 -1.03254 0
      vertex 11.5333 -0.0718022 0
    endloop
  endfacet
  facet normal 0 1 -0
    outer loop
      vertex 11.5333 1.03254 0
      vertex 10.3964 1.03254 2.47393
      vertex 11.5333 1.03254 0.208807
    endloop
  endfacet
  facet normal 0 1 0
    outer loop
      vertex 10.3964 1.03254 2.47393
      vertex 11.5333 1.03254 0
      vertex 0 1.03254 0
    endloop
  endfacet
  facet normal 0 1 0
    outer loop
      vertex 10.3964 1.03254 2.47393
      vertex 0 1.03254 0
      vertex 0 1.03254 2.47393
    endloop
  endfacet
  facet normal 0 0 -1
    outer loop
      vertex 0 0.617713 0
      vertex 11.5333 1.03254 0
      vertex 11.5333 0.0561966 0
    endloop
  endfacet
  facet normal -0 0 -1
    outer loop
      vertex 11.5333 1.03254 0
      vertex 0 0.617713 0
      vertex 0 1.03254 0
    endloop
  endfacet
  facet normal 0 0 -1
    outer loop
      vertex 0 -1.03254 0
      vertex 11.5333 -0.0718022 0
      vertex 11.5333 -1.03254 0
    endloop
  endfacet
  facet normal -0 0 -1
    outer loop
      vertex 11.5333 -0.0718022 0
      vertex 0 -1.03254 0
      vertex 0 0.489714 0
    endloop
  endfacet
  facet normal 0 -1 0
    outer loop
      vertex 0 -1.03254 0
      vertex 10.3964 -1.03254 2.47393
      vertex 0 -1.03254 2.47393
    endloop
  endfacet
  facet normal 0 -1 0
    outer loop
      vertex 11.5333 -1.03254 0
      vertex 10.3964 -1.03254 2.47393
      vertex 0 -1.03254 0
    endloop
  endfacet
  facet normal 0 -1 0
    outer loop
      vertex 10.3964 -1.03254 2.47393
      vertex 11.5333 -1.03254 0
      vertex 11.5333 -1.03254 0.208807
    endloop
  endfacet
  facet normal 0.893742 -0 0.448582
    outer loop
      vertex 10.3964 -1.03254 2.47393
      vertex 11.5333 1.03254 0.208807
      vertex 10.3964 1.03254 2.47393
    endloop
  endfacet
  facet normal 0.893742 0 0.448582
    outer loop
      vertex 11.5333 1.03254 0.208807
      vertex 10.3964 -1.03254 2.47393
      vertex 11.5333 -1.03254 0.208807
    endloop
  endfacet
  facet normal -0.0486206 -0.998643 -0.0186705
    outer loop
      vertex 0 0.617665 0.00510332
      vertex 11.5333 0.0560536 0.0102043
      vertex 0 0.61757 0.0102043
    endloop
  endfacet
  facet normal -0.0486206 -0.998643 -0.0186662
    outer loop
      vertex 11.5333 0.0560536 0.0102043
      vertex 0 0.617665 0.00510332
      vertex 11.5333 0.0561489 0.00510214
    endloop
  endfacet
  facet normal -0.032999 -0.677784 -0.73452
    outer loop
      vertex 0 0.573455 0.155926
      vertex 11.5333 0.0138513 0.154161
      vertex 11.5333 0.0119394 0.155926
    endloop
  endfacet
  facet normal -0.0329991 -0.677785 -0.734519
    outer loop
      vertex 11.5333 0.0138513 0.154161
      vertex 0 0.573455 0.155926
      vertex 0 0.575368 0.154161
    endloop
  endfacet
  facet normal -0.048627 -0.998773 -0.00933221
    outer loop
      vertex 0 0.617713 0
      vertex 11.5333 0.0561489 0.00510214
      vertex 0 0.617665 0.00510332
    endloop
  endfacet
  facet normal -0.048627 -0.998773 -0.00933436
    outer loop
      vertex 11.5333 0.0561489 0.00510214
      vertex 0 0.617713 0
      vertex 11.5333 0.0561966 0
    endloop
  endfacet
  facet normal 0.0454309 0.933129 -0.35666
    outer loop
      vertex 11.5333 -0.0544512 0.112247
      vertex 0 0.50845 0.115872
      vertex 11.5333 -0.053066 0.115871
    endloop
  endfacet
  facet normal 0.045431 0.93313 -0.356657
    outer loop
      vertex 0 0.50845 0.115872
      vertex 11.5333 -0.0544512 0.112247
      vertex 0 0.507065 0.112247
    endloop
  endfacet
  facet normal 0.01151 0.23641 -0.971585
    outer loop
      vertex 0 0.545732 0.162697
      vertex 11.5333 -0.0138248 0.163174
      vertex 11.5333 -0.0157845 0.162697
    endloop
  endfacet
  facet normal 0.0115103 0.236415 -0.971584
    outer loop
      vertex 11.5333 -0.0138248 0.163174
      vertex 0 0.545732 0.162697
      vertex 0 0.547691 0.163174
    endloop
  endfacet
  facet normal 0.0112515 0.231099 -0.972865
    outer loop
      vertex 0 0.547691 0.163174
      vertex 11.5333 -0.0118175 0.163651
      vertex 11.5333 -0.0138248 0.163174
    endloop
  endfacet
  facet normal 0.0112512 0.231094 -0.972866
    outer loop
      vertex 11.5333 -0.0118175 0.163651
      vertex 0 0.547691 0.163174
      vertex 0 0.549699 0.163651
    endloop
  endfacet
  facet normal 0.0387877 0.79668 -0.603156
    outer loop
      vertex 11.5333 -0.0386307 0.143623
      vertex 0 0.524654 0.145959
      vertex 11.5333 -0.0368618 0.14596
    endloop
  endfacet
  facet normal 0.0387877 0.79668 -0.603156
    outer loop
      vertex 0 0.524654 0.145959
      vertex 11.5333 -0.0386307 0.143623
      vertex 0 0.522885 0.143623
    endloop
  endfacet
  facet normal -0.0461307 -0.947502 -0.316405
    outer loop
      vertex 0 0.602994 0.104523
      vertex 11.5333 0.0401878 0.108385
      vertex 0 0.601704 0.108386
    endloop
  endfacet
  facet normal -0.0461307 -0.947502 -0.316404
    outer loop
      vertex 11.5333 0.0401878 0.108385
      vertex 0 0.602994 0.104523
      vertex 11.5333 0.0414775 0.104523
    endloop
  endfacet
  facet normal -0.0483067 -0.992196 -0.114952
    outer loop
      vertex 0 0.615133 0.0456821
      vertex 11.5333 0.0530425 0.0506401
      vertex 0 0.614559 0.0506401
    endloop
  endfacet
  facet normal -0.0483067 -0.992196 -0.114949
    outer loop
      vertex 11.5333 0.0530425 0.0506401
      vertex 0 0.615133 0.0456821
      vertex 11.5333 0.0536171 0.045681
    endloop
  endfacet
  facet normal 0.0291542 0.598812 -0.800359
    outer loop
      vertex 0 0.533974 0.155926
      vertex 11.5333 -0.0237186 0.158787
      vertex 11.5333 -0.0275426 0.155926
    endloop
  endfacet
  facet normal 0.0291541 0.59881 -0.80036
    outer loop
      vertex 11.5333 -0.0237186 0.158787
      vertex 0 0.533974 0.155926
      vertex 0 0.537798 0.158787
    endloop
  endfacet
  facet normal 0.0459578 0.943951 -0.326872
    outer loop
      vertex 11.5333 -0.0557887 0.108385
      vertex 0 0.507065 0.112247
      vertex 11.5333 -0.0544512 0.112247
    endloop
  endfacet
  facet normal 0.0459578 0.943951 -0.326871
    outer loop
      vertex 0 0.507065 0.112247
      vertex 11.5333 -0.0557887 0.108385
      vertex 0 0.505727 0.108384
    endloop
  endfacet
  facet normal -0.0485517 -0.997228 -0.0563749
    outer loop
      vertex 0 0.617188 0.020504
      vertex 11.5333 0.0553837 0.0256062
      vertex 0 0.6169 0.025605
    endloop
  endfacet
  facet normal -0.0485517 -0.997229 -0.0563735
    outer loop
      vertex 11.5333 0.0553837 0.0256062
      vertex 0 0.617188 0.020504
      vertex 11.5333 0.0556721 0.020504
    endloop
  endfacet
  facet normal 0.0481784 0.989561 -0.135823
    outer loop
      vertex 11.5333 -0.0686481 0.0506401
      vertex 0 0.493536 0.055505
      vertex 11.5333 -0.0679805 0.0555038
    endloop
  endfacet
  facet normal 0.0481784 0.989561 -0.135822
    outer loop
      vertex 0 0.493536 0.055505
      vertex 11.5333 -0.0686481 0.0506401
      vertex 0 0.492868 0.0506401
    endloop
  endfacet
  facet normal 0.0477013 0.97976 -0.194408
    outer loop
      vertex 11.5333 -0.0656847 0.069809
      vertex 0 0.497648 0.0789642
      vertex 11.5333 -0.0638681 0.0789642
    endloop
  endfacet
  facet normal 0.0477013 0.979761 -0.194405
    outer loop
      vertex 0 0.497648 0.0789642
      vertex 11.5333 -0.0656847 0.069809
      vertex 0 0.495831 0.069809
    endloop
  endfacet
  facet normal 0.0245447 0.504135 -0.863276
    outer loop
      vertex 0 0.537798 0.158787
      vertex 11.5333 -0.0197992 0.161076
      vertex 11.5333 -0.0237186 0.158787
    endloop
  endfacet
  facet normal 0.0245446 0.504134 -0.863277
    outer loop
      vertex 11.5333 -0.0197992 0.161076
      vertex 0 0.537798 0.158787
      vertex 0 0.541717 0.161076
    endloop
  endfacet
  facet normal 0.0483093 0.992249 -0.11449
    outer loop
      vertex 11.5333 -0.0697948 0.0407219
      vertex 0 0.492293 0.0456799
      vertex 11.5333 -0.0692226 0.045681
    endloop
  endfacet
  facet normal 0.0483093 0.992249 -0.114492
    outer loop
      vertex 0 0.492293 0.0456799
      vertex 11.5333 -0.0697948 0.0407219
      vertex 0 0.491721 0.0407219
    endloop
  endfacet
  facet normal -0.00346078 -0.0710827 -0.997464
    outer loop
      vertex 0 0.553713 0.163937
      vertex 11.5333 -0.00378805 0.163651
      vertex 11.5333 -0.00780277 0.163937
    endloop
  endfacet
  facet normal -0.00346082 -0.0710835 -0.997464
    outer loop
      vertex 11.5333 -0.00378805 0.163651
      vertex 0 0.553713 0.163937
      vertex 0 0.557728 0.163651
    endloop
  endfacet
  facet normal 0.0484499 0.995137 -0.0857612
    outer loop
      vertex 11.5333 -0.0697948 0.0407219
      vertex 0 0.49129 0.0357162
      vertex 0 0.491721 0.0407219
    endloop
  endfacet
  facet normal 0.0484499 0.995137 -0.0857592
    outer loop
      vertex 0 0.49129 0.0357162
      vertex 11.5333 -0.0697948 0.0407219
      vertex 11.5333 -0.0702263 0.0357151
    endloop
  endfacet
  facet normal -0.0483093 -0.992249 -0.114488
    outer loop
      vertex 0 0.615705 0.0407219
      vertex 11.5333 0.0536171 0.045681
      vertex 0 0.615133 0.0456821
    endloop
  endfacet
  facet normal -0.0483093 -0.992249 -0.11449
    outer loop
      vertex 11.5333 0.0536171 0.045681
      vertex 0 0.615705 0.0407219
      vertex 11.5333 0.0541893 0.0407219
    endloop
  endfacet
  facet normal -0.0484499 -0.995137 -0.085759
    outer loop
      vertex 0 0.615705 0.0407219
      vertex 11.5333 0.0546207 0.0357151
      vertex 11.5333 0.0541893 0.0407219
    endloop
  endfacet
  facet normal -0.0484499 -0.995137 -0.0857636
    outer loop
      vertex 11.5333 0.0546207 0.0357151
      vertex 0 0.615705 0.0407219
      vertex 0 0.616137 0.035714
    endloop
  endfacet
  facet normal -0.0112391 -0.230845 -0.972926
    outer loop
      vertex 0 0.557728 0.163651
      vertex 11.5333 -0.00177836 0.163174
      vertex 11.5333 -0.00378805 0.163651
    endloop
  endfacet
  facet normal -0.0112393 -0.230849 -0.972925
    outer loop
      vertex 11.5333 -0.00177836 0.163174
      vertex 0 0.557728 0.163651
      vertex 0 0.559737 0.163174
    endloop
  endfacet
  facet normal -0.0477013 -0.97976 -0.194408
    outer loop
      vertex 0 0.611595 0.069809
      vertex 11.5333 0.0482626 0.0789642
      vertex 0 0.609779 0.0789642
    endloop
  endfacet
  facet normal -0.0477013 -0.97976 -0.194408
    outer loop
      vertex 11.5333 0.0482626 0.0789642
      vertex 0 0.611595 0.069809
      vertex 11.5333 0.0500792 0.069809
    endloop
  endfacet
  facet normal -0.04522 -0.928797 -0.36782
    outer loop
      vertex 0 0.597544 0.119495
      vertex 11.5333 0.0374628 0.115871
      vertex 11.5333 0.0360277 0.119495
    endloop
  endfacet
  facet normal -0.0452201 -0.928799 -0.367815
    outer loop
      vertex 11.5333 0.0374628 0.115871
      vertex 0 0.597544 0.119495
      vertex 0 0.598979 0.115871
    endloop
  endfacet
  facet normal 0.0485256 0.996692 -0.0652015
    outer loop
      vertex 11.5333 -0.0706554 0.0307083
      vertex 0 0.490527 0.0256073
      vertex 0 0.490861 0.0307083
    endloop
  endfacet
  facet normal 0.0485256 0.996691 -0.0652039
    outer loop
      vertex 0 0.490527 0.0256073
      vertex 11.5333 -0.0706554 0.0307083
      vertex 11.5333 -0.0709892 0.0256061
    endloop
  endfacet
  facet normal 0.0420025 0.862711 -0.50395
    outer loop
      vertex 11.5333 -0.0454181 0.132656
      vertex 0 0.51777 0.135518
      vertex 11.5333 -0.0437468 0.135517
    endloop
  endfacet
  facet normal 0.0420023 0.862707 -0.503957
    outer loop
      vertex 0 0.51777 0.135518
      vertex 11.5333 -0.0454181 0.132656
      vertex 0 0.516098 0.132656
    endloop
  endfacet
  facet normal 0.0406695 0.835331 -0.548241
    outer loop
      vertex 11.5333 -0.0420732 0.138378
      vertex 0 0.522885 0.143623
      vertex 11.5333 -0.0386307 0.143623
    endloop
  endfacet
  facet normal 0.0406694 0.83533 -0.548242
    outer loop
      vertex 0 0.522885 0.143623
      vertex 11.5333 -0.0420732 0.138378
      vertex 0 0.519443 0.138378
    endloop
  endfacet
  facet normal -0.0115101 -0.236411 -0.971585
    outer loop
      vertex 0 0.559737 0.163174
      vertex 11.5333 0.000181306 0.162697
      vertex 11.5333 -0.00177836 0.163174
    endloop
  endfacet
  facet normal -0.0115097 -0.236404 -0.971587
    outer loop
      vertex 11.5333 0.000181306 0.162697
      vertex 0 0.559737 0.163174
      vertex 0 0.561697 0.162697
    endloop
  endfacet
  facet normal 0.00346078 0.0710827 -0.997464
    outer loop
      vertex 0 0.549699 0.163651
      vertex 11.5333 -0.00780277 0.163937
      vertex 11.5333 -0.0118175 0.163651
    endloop
  endfacet
  facet normal 0.00346077 0.0710824 -0.997464
    outer loop
      vertex 11.5333 -0.00780277 0.163937
      vertex 0 0.549699 0.163651
      vertex 0 0.553713 0.163937
    endloop
  endfacet
  facet normal -0.0485958 -0.998134 -0.0369679
    outer loop
      vertex 0 0.61757 0.0102043
      vertex 11.5333 0.0556721 0.020504
      vertex 0 0.617188 0.020504
    endloop
  endfacet
  facet normal -0.0485958 -0.998134 -0.0369679
    outer loop
      vertex 11.5333 0.0556721 0.020504
      vertex 0 0.61757 0.0102043
      vertex 11.5333 0.0560536 0.0102043
    endloop
  endfacet
  facet normal 0.0360194 0.73982 -0.67184
    outer loop
      vertex 11.5333 -0.0313666 0.152397
      vertex 0 0.528288 0.150347
      vertex 0 0.53015 0.152397
    endloop
  endfacet
  facet normal 0.0360194 0.73982 -0.67184
    outer loop
      vertex 0 0.528288 0.150347
      vertex 11.5333 -0.0313666 0.152397
      vertex 11.5333 -0.0332286 0.150347
    endloop
  endfacet
  facet normal 0.0182275 0.374385 -0.927094
    outer loop
      vertex 0 0.541717 0.161076
      vertex 11.5333 -0.0157845 0.162697
      vertex 11.5333 -0.0197992 0.161076
    endloop
  endfacet
  facet normal 0.0182275 0.374384 -0.927095
    outer loop
      vertex 11.5333 -0.0157845 0.162697
      vertex 0 0.541717 0.161076
      vertex 0 0.545732 0.162697
    endloop
  endfacet
  facet normal 0.0384077 0.788876 -0.613351
    outer loop
      vertex 11.5333 -0.0368618 0.14596
      vertex 0 0.526471 0.148296
      vertex 11.5333 -0.0350452 0.148296
    endloop
  endfacet
  facet normal 0.0384077 0.788876 -0.613351
    outer loop
      vertex 0 0.526471 0.148296
      vertex 11.5333 -0.0368618 0.14596
      vertex 0 0.524654 0.145959
    endloop
  endfacet
  facet normal 0.0364172 0.747992 -0.662708
    outer loop
      vertex 11.5333 -0.0350452 0.148296
      vertex 0 0.528288 0.150347
      vertex 11.5333 -0.0332286 0.150347
    endloop
  endfacet
  facet normal 0.0364171 0.747988 -0.662712
    outer loop
      vertex 0 0.528288 0.150347
      vertex 11.5333 -0.0350452 0.148296
      vertex 0 0.526471 0.148296
    endloop
  endfacet
  facet normal 0.0469492 0.964314 -0.260567
    outer loop
      vertex 11.5333 -0.0618607 0.0878334
      vertex 0 0.501949 0.0963211
      vertex 11.5333 -0.0595673 0.0963211
    endloop
  endfacet
  facet normal 0.0469492 0.964313 -0.260568
    outer loop
      vertex 0 0.501949 0.0963211
      vertex 11.5333 -0.0618607 0.0878334
      vertex 0 0.499655 0.0878334
    endloop
  endfacet
  facet normal 0.0483067 0.992196 -0.114948
    outer loop
      vertex 11.5333 -0.0692226 0.045681
      vertex 0 0.492868 0.0506401
      vertex 11.5333 -0.0686481 0.0506401
    endloop
  endfacet
  facet normal 0.0483067 0.992196 -0.114947
    outer loop
      vertex 0 0.492868 0.0506401
      vertex 11.5333 -0.0692226 0.045681
      vertex 0 0.492293 0.0456799
    endloop
  endfacet
  facet normal 0.0474322 0.974233 -0.220498
    outer loop
      vertex 11.5333 -0.0638681 0.0789642
      vertex 0 0.499655 0.0878334
      vertex 11.5333 -0.0618607 0.0878334
    endloop
  endfacet
  facet normal 0.0474322 0.974233 -0.220499
    outer loop
      vertex 0 0.499655 0.0878334
      vertex 11.5333 -0.0638681 0.0789642
      vertex 0 0.497648 0.0789642
    endloop
  endfacet
  facet normal 0.0465456 0.956024 -0.289571
    outer loop
      vertex 11.5333 -0.0595673 0.0963211
      vertex 0 0.503191 0.100421
      vertex 11.5333 -0.0583252 0.100422
    endloop
  endfacet
  facet normal 0.0465457 0.956025 -0.289569
    outer loop
      vertex 0 0.503191 0.100421
      vertex 11.5333 -0.0595673 0.0963211
      vertex 0 0.501949 0.0963211
    endloop
  endfacet
  facet normal -0.0245447 -0.504135 -0.863276
    outer loop
      vertex 0 0.565712 0.161076
      vertex 11.5333 0.00811538 0.158787
      vertex 11.5333 0.00419602 0.161076
    endloop
  endfacet
  facet normal -0.0245449 -0.50414 -0.863273
    outer loop
      vertex 11.5333 0.00811538 0.158787
      vertex 0 0.565712 0.161076
      vertex 0 0.569631 0.158787
    endloop
  endfacet
  facet normal -0.0384078 -0.788876 -0.613351
    outer loop
      vertex 0 0.582774 0.14596
      vertex 11.5333 0.019442 0.148296
      vertex 0 0.580958 0.148296
    endloop
  endfacet
  facet normal -0.0384077 -0.788876 -0.613351
    outer loop
      vertex 11.5333 0.019442 0.148296
      vertex 0 0.582774 0.14596
      vertex 11.5333 0.0212586 0.14596
    endloop
  endfacet
  facet normal -0.038806 -0.797057 -0.602656
    outer loop
      vertex 0 0.584541 0.143623
      vertex 11.5333 0.0212586 0.14596
      vertex 0 0.582774 0.14596
    endloop
  endfacet
  facet normal -0.0388062 -0.79706 -0.602652
    outer loop
      vertex 11.5333 0.0212586 0.14596
      vertex 0 0.584541 0.143623
      vertex 11.5333 0.0230252 0.143623
    endloop
  endfacet
  facet normal -0.0479253 -0.984361 -0.169516
    outer loop
      vertex 0 0.613221 0.0603676
      vertex 11.5333 0.0500792 0.069809
      vertex 0 0.611595 0.069809
    endloop
  endfacet
  facet normal -0.0479253 -0.984361 -0.169516
    outer loop
      vertex 11.5333 0.0500792 0.069809
      vertex 0 0.613221 0.0603676
      vertex 11.5333 0.0517051 0.0603676
    endloop
  endfacet
  facet normal 0.032999 0.677783 -0.734521
    outer loop
      vertex 0 0.53015 0.152397
      vertex 11.5333 -0.0275426 0.155926
      vertex 11.5333 -0.0313666 0.152397
    endloop
  endfacet
  facet normal 0.0329992 0.677787 -0.734517
    outer loop
      vertex 11.5333 -0.0275426 0.155926
      vertex 0 0.53015 0.152397
      vertex 0 0.533974 0.155926
    endloop
  endfacet
  facet normal 0.0485517 0.997229 -0.0563739
    outer loop
      vertex 11.5333 -0.0712776 0.020504
      vertex 0 0.490527 0.0256073
      vertex 11.5333 -0.0709892 0.0256061
    endloop
  endfacet
  facet normal 0.0485517 0.997229 -0.0563725
    outer loop
      vertex 0 0.490527 0.0256073
      vertex 11.5333 -0.0712776 0.020504
      vertex 0 0.490238 0.020504
    endloop
  endfacet
  facet normal 0.0486206 0.998643 -0.0186663
    outer loop
      vertex 11.5333 -0.0717545 0.00510217
      vertex 0 0.489857 0.0102043
      vertex 11.5333 -0.0716591 0.0102043
    endloop
  endfacet
  facet normal 0.0486206 0.998643 -0.0186678
    outer loop
      vertex 0 0.489857 0.0102043
      vertex 11.5333 -0.0717545 0.00510217
      vertex 0 0.489762 0.005101
    endloop
  endfacet
  facet normal -0.0459492 -0.943775 -0.327381
    outer loop
      vertex 0 0.601704 0.108386
      vertex 11.5333 0.038848 0.112247
      vertex 0 0.600364 0.112247
    endloop
  endfacet
  facet normal -0.0459493 -0.943776 -0.327378
    outer loop
      vertex 11.5333 0.038848 0.112247
      vertex 0 0.601704 0.108386
      vertex 11.5333 0.0401878 0.108385
    endloop
  endfacet
  facet normal -0.0454309 -0.933127 -0.356665
    outer loop
      vertex 0 0.600364 0.112247
      vertex 11.5333 0.0374628 0.115871
      vertex 0 0.598979 0.115871
    endloop
  endfacet
  facet normal -0.045431 -0.933129 -0.35666
    outer loop
      vertex 11.5333 0.0374628 0.115871
      vertex 0 0.600364 0.112247
      vertex 11.5333 0.038848 0.112247
    endloop
  endfacet
  facet normal -0.0469492 -0.964313 -0.260568
    outer loop
      vertex 0 0.607771 0.0878334
      vertex 11.5333 0.0439617 0.0963211
      vertex 0 0.605478 0.0963211
    endloop
  endfacet
  facet normal -0.0469492 -0.964313 -0.260567
    outer loop
      vertex 11.5333 0.0439617 0.0963211
      vertex 0 0.607771 0.0878334
      vertex 11.5333 0.0462552 0.0878334
    endloop
  endfacet
  facet normal -0.0406694 -0.83533 -0.548242
    outer loop
      vertex 0 0.587984 0.138378
      vertex 11.5333 0.0230252 0.143623
      vertex 0 0.584541 0.143623
    endloop
  endfacet
  facet normal -0.0406695 -0.835331 -0.548241
    outer loop
      vertex 11.5333 0.0230252 0.143623
      vertex 0 0.587984 0.138378
      vertex 11.5333 0.0264677 0.138378
    endloop
  endfacet
  facet normal -0.0443203 -0.910317 -0.411531
    outer loop
      vertex 0 0.596015 0.122882
      vertex 11.5333 0.0329689 0.126266
      vertex 0 0.594485 0.126266
    endloop
  endfacet
  facet normal -0.0443203 -0.910317 -0.411533
    outer loop
      vertex 11.5333 0.0329689 0.126266
      vertex 0 0.596015 0.122882
      vertex 11.5333 0.0344995 0.122881
    endloop
  endfacet
  facet normal 0.0484518 0.995176 -0.0853011
    outer loop
      vertex 11.5333 -0.0706554 0.0307083
      vertex 0 0.49129 0.0357162
      vertex 11.5333 -0.0702263 0.0357151
    endloop
  endfacet
  facet normal 0.0484518 0.995177 -0.0852992
    outer loop
      vertex 0 0.49129 0.0357162
      vertex 11.5333 -0.0706554 0.0307083
      vertex 0 0.490861 0.0307083
    endloop
  endfacet
  facet normal -0.0364172 -0.747991 -0.662709
    outer loop
      vertex 0 0.580958 0.148296
      vertex 11.5333 0.0176253 0.150347
      vertex 0 0.579142 0.150346
    endloop
  endfacet
  facet normal -0.0364171 -0.74799 -0.66271
    outer loop
      vertex 11.5333 0.0176253 0.150347
      vertex 0 0.580958 0.148296
      vertex 11.5333 0.019442 0.148296
    endloop
  endfacet
  facet normal -0.0485256 -0.996691 -0.0652043
    outer loop
      vertex 0 0.616566 0.0307083
      vertex 11.5333 0.0553837 0.0256062
      vertex 11.5333 0.0550499 0.0307083
    endloop
  endfacet
  facet normal -0.0485256 -0.996692 -0.0652009
    outer loop
      vertex 11.5333 0.0553837 0.0256062
      vertex 0 0.616566 0.0307083
      vertex 0 0.6169 0.025605
    endloop
  endfacet
  facet normal -0.0484519 -0.995177 -0.0852966
    outer loop
      vertex 0 0.616566 0.0307083
      vertex 11.5333 0.0546207 0.0357151
      vertex 0 0.616137 0.035714
    endloop
  endfacet
  facet normal -0.0484518 -0.995176 -0.0853006
    outer loop
      vertex 11.5333 0.0546207 0.0357151
      vertex 0 0.616566 0.0307083
      vertex 11.5333 0.0550499 0.0307083
    endloop
  endfacet
  facet normal -0.0474322 -0.974235 -0.220493
    outer loop
      vertex 0 0.609779 0.0789642
      vertex 11.5333 0.0462552 0.0878334
      vertex 0 0.607771 0.0878334
    endloop
  endfacet
  facet normal -0.0474322 -0.974233 -0.220498
    outer loop
      vertex 11.5333 0.0462552 0.0878334
      vertex 0 0.609779 0.0789642
      vertex 11.5333 0.0482626 0.0789642
    endloop
  endfacet
  facet normal -0.0481785 -0.989562 -0.135817
    outer loop
      vertex 0 0.614559 0.0506401
      vertex 11.5333 0.052375 0.0555039
      vertex 0 0.613891 0.0555027
    endloop
  endfacet
  facet normal -0.0481784 -0.989561 -0.135822
    outer loop
      vertex 11.5333 0.052375 0.0555039
      vertex 0 0.614559 0.0506401
      vertex 11.5333 0.0530425 0.0506401
    endloop
  endfacet
  facet normal 0.0485958 0.998134 -0.0369679
    outer loop
      vertex 11.5333 -0.0716591 0.0102043
      vertex 0 0.490238 0.020504
      vertex 11.5333 -0.0712776 0.020504
    endloop
  endfacet
  facet normal 0.0485958 0.998134 -0.0369679
    outer loop
      vertex 0 0.490238 0.020504
      vertex 11.5333 -0.0716591 0.0102043
      vertex 0 0.489857 0.0102043
    endloop
  endfacet
  facet normal -0.0291541 -0.598812 -0.800359
    outer loop
      vertex 0 0.569631 0.158787
      vertex 11.5333 0.0119394 0.155926
      vertex 11.5333 0.00811538 0.158787
    endloop
  endfacet
  facet normal -0.0291541 -0.59881 -0.80036
    outer loop
      vertex 11.5333 0.0119394 0.155926
      vertex 0 0.569631 0.158787
      vertex 0 0.573455 0.155926
    endloop
  endfacet
  facet normal -0.0182275 -0.374384 -0.927094
    outer loop
      vertex 0 0.561697 0.162697
      vertex 11.5333 0.00419602 0.161076
      vertex 11.5333 0.000181306 0.162697
    endloop
  endfacet
  facet normal -0.0182275 -0.374384 -0.927095
    outer loop
      vertex 11.5333 0.00419602 0.161076
      vertex 0 0.561697 0.162697
      vertex 0 0.565712 0.161076
    endloop
  endfacet
  facet normal -0.0443316 -0.910549 -0.411017
    outer loop
      vertex 0 0.597544 0.119495
      vertex 11.5333 0.0344995 0.122881
      vertex 0 0.596015 0.122882
    endloop
  endfacet
  facet normal -0.0443317 -0.910551 -0.411013
    outer loop
      vertex 11.5333 0.0344995 0.122881
      vertex 0 0.597544 0.119495
      vertex 11.5333 0.0360277 0.119495
    endloop
  endfacet
  facet normal -0.0436221 -0.895976 -0.441954
    outer loop
      vertex 0 0.594485 0.126266
      vertex 11.5333 0.0313931 0.129461
      vertex 0 0.59291 0.129461
    endloop
  endfacet
  facet normal -0.0436222 -0.895977 -0.441952
    outer loop
      vertex 11.5333 0.0313931 0.129461
      vertex 0 0.594485 0.126266
      vertex 11.5333 0.0329689 0.126266
    endloop
  endfacet
  facet normal 0.0461224 0.947332 -0.316915
    outer loop
      vertex 11.5333 -0.0570808 0.104523
      vertex 0 0.505727 0.108384
      vertex 11.5333 -0.0557887 0.108385
    endloop
  endfacet
  facet normal 0.0461224 0.947331 -0.316916
    outer loop
      vertex 0 0.505727 0.108384
      vertex 11.5333 -0.0570808 0.104523
      vertex 0 0.504435 0.104523
    endloop
  endfacet
  facet normal 0.0465383 0.955874 -0.290068
    outer loop
      vertex 11.5333 -0.0583252 0.100422
      vertex 0 0.504435 0.104523
      vertex 11.5333 -0.0570808 0.104523
    endloop
  endfacet
  facet normal 0.0465383 0.955873 -0.290072
    outer loop
      vertex 0 0.504435 0.104523
      vertex 11.5333 -0.0583252 0.100422
      vertex 0 0.503191 0.100421
    endloop
  endfacet
  facet normal 0.0443203 0.910317 -0.411532
    outer loop
      vertex 11.5333 -0.0516332 0.119495
      vertex 0 0.512944 0.126266
      vertex 11.5333 -0.0485722 0.126266
    endloop
  endfacet
  facet normal 0.0443204 0.910319 -0.411527
    outer loop
      vertex 0 0.512944 0.126266
      vertex 11.5333 -0.0516332 0.119495
      vertex 0 0.509883 0.119495
    endloop
  endfacet
  facet normal 0.0479253 0.984362 -0.169516
    outer loop
      vertex 11.5333 -0.0673106 0.0603676
      vertex 0 0.495831 0.069809
      vertex 11.5333 -0.0656847 0.069809
    endloop
  endfacet
  facet normal 0.0479253 0.984361 -0.169516
    outer loop
      vertex 0 0.495831 0.069809
      vertex 11.5333 -0.0673106 0.0603676
      vertex 0 0.494206 0.0603676
    endloop
  endfacet
  facet normal 0.0481753 0.989497 -0.136287
    outer loop
      vertex 11.5333 -0.0673106 0.0603676
      vertex 0 0.493536 0.055505
      vertex 0 0.494206 0.0603676
    endloop
  endfacet
  facet normal 0.0481753 0.989497 -0.136286
    outer loop
      vertex 0 0.493536 0.055505
      vertex 11.5333 -0.0673106 0.0603676
      vertex 11.5333 -0.0679805 0.0555038
    endloop
  endfacet
  facet normal -0.0359992 -0.739406 -0.672296
    outer loop
      vertex 0 0.577277 0.152397
      vertex 11.5333 0.0176253 0.150347
      vertex 11.5333 0.015761 0.152397
    endloop
  endfacet
  facet normal -0.0359991 -0.739405 -0.672298
    outer loop
      vertex 11.5333 0.0176253 0.150347
      vertex 0 0.577277 0.152397
      vertex 0 0.579142 0.150346
    endloop
  endfacet
  facet normal -0.0330205 -0.678225 -0.734112
    outer loop
      vertex 0 0.575368 0.154161
      vertex 11.5333 0.015761 0.152397
      vertex 11.5333 0.0138513 0.154161
    endloop
  endfacet
  facet normal -0.0330204 -0.678223 -0.734114
    outer loop
      vertex 11.5333 0.015761 0.152397
      vertex 0 0.575368 0.154161
      vertex 0 0.577277 0.152397
    endloop
  endfacet
  facet normal -0.0481753 -0.989498 -0.136285
    outer loop
      vertex 0 0.613221 0.0603676
      vertex 11.5333 0.052375 0.0555039
      vertex 11.5333 0.0517051 0.0603676
    endloop
  endfacet
  facet normal -0.0481753 -0.989497 -0.136292
    outer loop
      vertex 11.5333 0.052375 0.0555039
      vertex 0 0.613221 0.0603676
      vertex 0 0.613891 0.0555027
    endloop
  endfacet
  facet normal 0.048627 0.998773 -0.0093343
    outer loop
      vertex 11.5333 -0.0718022 0
      vertex 0 0.489762 0.005101
      vertex 11.5333 -0.0717545 0.00510217
    endloop
  endfacet
  facet normal 0.048627 0.998773 -0.00933646
    outer loop
      vertex 0 0.489762 0.005101
      vertex 11.5333 -0.0718022 0
      vertex 0 0.489714 0
    endloop
  endfacet
  facet normal -0.0465456 -0.956024 -0.289572
    outer loop
      vertex 0 0.605478 0.0963211
      vertex 11.5333 0.0414775 0.104523
      vertex 0 0.602994 0.104523
    endloop
  endfacet
  facet normal -0.0465456 -0.956024 -0.289572
    outer loop
      vertex 11.5333 0.0414775 0.104523
      vertex 0 0.605478 0.0963211
      vertex 11.5333 0.0439617 0.0963211
    endloop
  endfacet
  facet normal -0.0436096 -0.895719 -0.442478
    outer loop
      vertex 0 0.591331 0.132656
      vertex 11.5333 0.0313931 0.129461
      vertex 11.5333 0.0298149 0.132656
    endloop
  endfacet
  facet normal -0.0436096 -0.895719 -0.442477
    outer loop
      vertex 11.5333 0.0313931 0.129461
      vertex 0 0.591331 0.132656
      vertex 0 0.59291 0.129461
    endloop
  endfacet
  facet normal 0.0452298 0.928997 -0.367313
    outer loop
      vertex 11.5333 -0.0516332 0.119495
      vertex 0 0.50845 0.115872
      vertex 0 0.509883 0.119495
    endloop
  endfacet
  facet normal 0.0452299 0.929 -0.367306
    outer loop
      vertex 0 0.50845 0.115872
      vertex 11.5333 -0.0516332 0.119495
      vertex 11.5333 -0.053066 0.115871
    endloop
  endfacet
  facet normal 0.0436096 0.895719 -0.442477
    outer loop
      vertex 11.5333 -0.0469963 0.129461
      vertex 0 0.516098 0.132656
      vertex 11.5333 -0.0454181 0.132656
    endloop
  endfacet
  facet normal 0.0436096 0.895719 -0.442477
    outer loop
      vertex 0 0.516098 0.132656
      vertex 11.5333 -0.0469963 0.129461
      vertex 0 0.514519 0.129461
    endloop
  endfacet
  facet normal 0.0436221 0.895977 -0.441953
    outer loop
      vertex 11.5333 -0.0485722 0.126266
      vertex 0 0.514519 0.129461
      vertex 11.5333 -0.0469963 0.129461
    endloop
  endfacet
  facet normal 0.0436221 0.895976 -0.441954
    outer loop
      vertex 0 0.514519 0.129461
      vertex 11.5333 -0.0485722 0.126266
      vertex 0 0.512944 0.126266
    endloop
  endfacet
  facet normal -0.0419879 -0.86241 -0.504465
    outer loop
      vertex 0 0.591331 0.132656
      vertex 11.5333 0.0264677 0.138378
      vertex 0 0.587984 0.138378
    endloop
  endfacet
  facet normal -0.0419878 -0.862407 -0.50447
    outer loop
      vertex 11.5333 0.0264677 0.138378
      vertex 0 0.591331 0.132656
      vertex 11.5333 0.0298149 0.132656
    endloop
  endfacet
  facet normal 0.0419879 0.862411 -0.504464
    outer loop
      vertex 11.5333 -0.0420732 0.138378
      vertex 0 0.51777 0.135518
      vertex 0 0.519443 0.138378
    endloop
  endfacet
  facet normal 0.0419878 0.862408 -0.50447
    outer loop
      vertex 0 0.51777 0.135518
      vertex 11.5333 -0.0420732 0.138378
      vertex 11.5333 -0.0437468 0.135517
    endloop
  endfacet
endsolid OpenSCAD_Model
