solid OpenSCAD_Model
  facet normal -1 0 0
    outer loop
      vertex 0 -0.853709 0.107384
      vertex 0 1.49193 0
      vertex 0 -0.850259 0
    endloop
  endfacet
  facet normal -1 0 0
    outer loop
      vertex 0 -0.864173 0.214291
      vertex 0 1.49193 0
      vertex 0 -0.853709 0.107384
    endloop
  endfacet
  facet normal -1 0 0
    outer loop
      vertex 0 -0.881537 0.320435
      vertex 0 1.49193 0
      vertex 0 -0.864173 0.214291
    endloop
  endfacet
  facet normal -1 0 0
    outer loop
      vertex 0 -0.905726 0.425339
      vertex 0 1.49193 0
      vertex 0 -0.881537 0.320435
    endloop
  endfacet
  facet normal -1 0 0
    outer loop
      vertex 0 -0.936776 0.528526
      vertex 0 1.49193 0
      vertex 0 -0.905726 0.425339
    endloop
  endfacet
  facet normal -1 0 0
    outer loop
      vertex 0 -0.974325 0.629616
      vertex 0 1.49193 0
      vertex 0 -0.936776 0.528526
    endloop
  endfacet
  facet normal -1 0 0
    outer loop
      vertex 0 1.49193 0
      vertex 0 -0.974325 0.629616
      vertex 0 1.49193 2.73695
    endloop
  endfacet
  facet normal -1 0 0
    outer loop
      vertex 0 -1.01841 0.728226
      vertex 0 1.49193 2.73695
      vertex 0 -0.974325 0.629616
    endloop
  endfacet
  facet normal -1 0 0
    outer loop
      vertex 0 -1.06881 0.823975
      vertex 0 1.49193 2.73695
      vertex 0 -1.01841 0.728226
    endloop
  endfacet
  facet normal -1 0 0
    outer loop
      vertex 0 -1.12534 0.916481
      vertex 0 1.49193 2.73695
      vertex 0 -1.06881 0.823975
    endloop
  endfacet
  facet normal -1 0 0
    outer loop
      vertex 0 -1.18767 1.00536
      vertex 0 1.49193 2.73695
      vertex 0 -1.12534 0.916481
    endloop
  endfacet
  facet normal -1 0 0
    outer loop
      vertex 0 -1.25572 1.09024
      vertex 0 1.49193 2.73695
      vertex 0 -1.18767 1.00536
    endloop
  endfacet
  facet normal -1 0 0
    outer loop
      vertex 0 -1.49193 2.73695
      vertex 0 -1.25572 1.09024
      vertex 0 -1.3292 1.17083
    endloop
  endfacet
  facet normal -1 0 0
    outer loop
      vertex 0 -1.49193 2.73695
      vertex 0 -1.3292 1.17083
      vertex 0 -1.40762 1.24683
    endloop
  endfacet
  facet normal -1 0 0
    outer loop
      vertex 0 -1.49193 2.73695
      vertex 0 -1.40762 1.24683
      vertex 0 -1.49091 1.31788
    endloop
  endfacet
  facet normal -1 0 0
    outer loop
      vertex 0 -1.49193 2.73695
      vertex 0 -1.49091 1.31788
      vertex 0 -1.49193 1.31865
    endloop
  endfacet
  facet normal -1 0 0
    outer loop
      vertex 0 -1.25572 1.09024
      vertex 0 -1.49193 2.73695
      vertex 0 1.49193 2.73695
    endloop
  endfacet
  facet normal -0 0 1
    outer loop
      vertex 0 1.49193 2.73695
      vertex 6.04259 -1.49193 2.73695
      vertex 6.04259 1.49193 2.73695
    endloop
  endfacet
  facet normal 0 0 1
    outer loop
      vertex 6.04259 -1.49193 2.73695
      vertex 0 1.49193 2.73695
      vertex 0 -1.49193 2.73695
    endloop
  endfacet
  facet normal 1 0 0
    outer loop
      vertex 8.89282 1.49193 2.51327
      vertex 8.89282 1.46875 1.62668
      vertex 8.89282 1.49193 1.61859
    endloop
  endfacet
  facet normal 1 0 0
    outer loop
      vertex 8.89282 1.49193 2.51327
      vertex 8.89282 1.36214 1.65663
      vertex 8.89282 1.46875 1.62668
    endloop
  endfacet
  facet normal 1 0 0
    outer loop
      vertex 8.89282 1.49193 2.51327
      vertex 8.89282 1.25387 1.68009
      vertex 8.89282 1.36214 1.65663
    endloop
  endfacet
  facet normal 1 0 0
    outer loop
      vertex 8.89282 1.49193 2.51327
      vertex 8.89282 1.19902 1.68848
      vertex 8.89282 1.25387 1.68009
    endloop
  endfacet
  facet normal 1 0 0
    outer loop
      vertex 8.89282 1.49193 2.51327
      vertex 8.89282 1.14416 1.69687
      vertex 8.89282 1.19902 1.68848
    endloop
  endfacet
  facet normal 1 0 0
    outer loop
      vertex 8.89282 1.49193 2.51327
      vertex 8.89282 1.08892 1.70193
      vertex 8.89282 1.14416 1.69687
    endloop
  endfacet
  facet normal 1 0 0
    outer loop
      vertex 8.89282 1.49193 2.51327
      vertex 8.89282 1.03366 1.70698
      vertex 8.89282 1.08892 1.70193
    endloop
  endfacet
  facet normal 1 0 0
    outer loop
      vertex 8.89282 1.49193 2.51327
      vertex 8.89282 0.922768 1.71041
      vertex 8.89282 1.03366 1.70698
    endloop
  endfacet
  facet normal 1 0 0
    outer loop
      vertex 8.89282 1.49193 2.51327
      vertex 8.89282 0.811834 1.70698
      vertex 8.89282 0.922768 1.71041
    endloop
  endfacet
  facet normal 1 0 0
    outer loop
      vertex 8.89282 1.49193 2.51327
      vertex 8.89282 0.701358 1.69687
      vertex 8.89282 0.811834 1.70698
    endloop
  endfacet
  facet normal 1 0 0
    outer loop
      vertex 8.89282 1.49193 2.51327
      vertex 8.89282 0.591663 1.68009
      vertex 8.89282 0.701358 1.69687
    endloop
  endfacet
  facet normal 1 0 0
    outer loop
      vertex 8.89282 1.49193 2.51327
      vertex 8.89282 0.483359 1.65663
      vertex 8.89282 0.591663 1.68009
    endloop
  endfacet
  facet normal 1 -0 0
    outer loop
      vertex 8.89282 -1.49193 2.51327
      vertex 8.89282 0.483359 1.65663
      vertex 8.89282 1.49193 2.51327
    endloop
  endfacet
  facet normal 1 0 0
    outer loop
      vertex 8.89282 0.483359 1.65663
      vertex 8.89282 -1.49193 2.51327
      vertex 8.89282 0.376752 1.62668
    endloop
  endfacet
  facet normal 1 0 0
    outer loop
      vertex 8.89282 0.376752 1.62668
      vertex 8.89282 -1.49193 2.51327
      vertex 8.89282 0.272356 1.59025
    endloop
  endfacet
  facet normal 1 0 0
    outer loop
      vertex 8.89282 0.272356 1.59025
      vertex 8.89282 -1.49193 2.51327
      vertex 8.89282 0.22138 1.56894
    endloop
  endfacet
  facet normal 1 0 0
    outer loop
      vertex 8.89282 0.22138 1.56894
      vertex 8.89282 -1.49193 2.51327
      vertex 8.89282 0.170448 1.54762
    endloop
  endfacet
  facet normal 1 0 0
    outer loop
      vertex 8.89282 0.170448 1.54762
      vertex 8.89282 -1.49193 2.51327
      vertex 8.89282 0.120964 1.52321
    endloop
  endfacet
  facet normal 1 0 0
    outer loop
      vertex 8.89282 0.120964 1.52321
      vertex 8.89282 -1.49193 2.51327
      vertex 8.89282 0.0715315 1.49879
    endloop
  endfacet
  facet normal 1 0 0
    outer loop
      vertex 8.89282 0.0715315 1.49879
      vertex 8.89282 -1.49193 2.51327
      vertex 8.89282 0.0237387 1.47147
    endloop
  endfacet
  facet normal 1 0 0
    outer loop
      vertex 8.89282 0.0237387 1.47147
      vertex 8.89282 -1.49193 2.51327
      vertex 8.89282 -0.0240106 1.44415
    endloop
  endfacet
  facet normal 1 0 0
    outer loop
      vertex 8.89282 -0.0240106 1.44415
      vertex 8.89282 -1.49193 2.51327
      vertex 8.89282 -0.115788 1.38369
    endloop
  endfacet
  facet normal 1 0 0
    outer loop
      vertex 8.89282 -1.49193 2.51327
      vertex 8.89282 -0.159649 1.35078
      vertex 8.89282 -0.115788 1.38369
    endloop
  endfacet
  facet normal 1 0 0
    outer loop
      vertex 8.89282 -1.49193 2.51327
      vertex 8.89282 -0.203459 1.31788
      vertex 8.89282 -0.159649 1.35078
    endloop
  endfacet
  facet normal 1 0 0
    outer loop
      vertex 8.89282 -1.49193 2.51327
      vertex 8.89282 -0.286754 1.24683
      vertex 8.89282 -0.203459 1.31788
    endloop
  endfacet
  facet normal 1 0 0
    outer loop
      vertex 8.89282 -1.49193 2.51327
      vertex 8.89282 -0.365209 1.17083
      vertex 8.89282 -0.286754 1.24683
    endloop
  endfacet
  facet normal 1 0 0
    outer loop
      vertex 8.89282 -1.49193 2.51327
      vertex 8.89282 -0.438688 1.09024
      vertex 8.89282 -0.365209 1.17083
    endloop
  endfacet
  facet normal 1 0 0
    outer loop
      vertex 8.89282 -1.49193 2.51327
      vertex 8.89282 -0.506735 1.00536
      vertex 8.89282 -0.438688 1.09024
    endloop
  endfacet
  facet normal 1 0 0
    outer loop
      vertex 8.89282 -1.49193 2.51327
      vertex 8.89282 -0.569064 0.916481
      vertex 8.89282 -0.506735 1.00536
    endloop
  endfacet
  facet normal 1 0 0
    outer loop
      vertex 8.89282 -1.49193 2.51327
      vertex 8.89282 -0.625598 0.823975
      vertex 8.89282 -0.569064 0.916481
    endloop
  endfacet
  facet normal 1 0 0
    outer loop
      vertex 8.89282 -1.49193 2.51327
      vertex 8.89282 -0.675995 0.728226
      vertex 8.89282 -0.625598 0.823975
    endloop
  endfacet
  facet normal 1 0 0
    outer loop
      vertex 8.89282 -1.49193 0
      vertex 8.89282 -0.675995 0.728226
      vertex 8.89282 -1.49193 2.51327
    endloop
  endfacet
  facet normal 1 0 0
    outer loop
      vertex 8.89282 -0.675995 0.728226
      vertex 8.89282 -1.49193 0
      vertex 8.89282 -0.720082 0.629616
    endloop
  endfacet
  facet normal 1 0 0
    outer loop
      vertex 8.89282 -0.720082 0.629616
      vertex 8.89282 -1.49193 0
      vertex 8.89282 -0.757632 0.528526
    endloop
  endfacet
  facet normal 1 0 0
    outer loop
      vertex 8.89282 -0.757632 0.528526
      vertex 8.89282 -1.49193 0
      vertex 8.89282 -0.788682 0.425339
    endloop
  endfacet
  facet normal 1 0 0
    outer loop
      vertex 8.89282 -0.788682 0.425339
      vertex 8.89282 -1.49193 0
      vertex 8.89282 -0.812871 0.320435
    endloop
  endfacet
  facet normal 1 0 0
    outer loop
      vertex 8.89282 -0.812871 0.320435
      vertex 8.89282 -1.49193 0
      vertex 8.89282 -0.830197 0.214291
    endloop
  endfacet
  facet normal 1 0 0
    outer loop
      vertex 8.89282 -0.830197 0.214291
      vertex 8.89282 -1.49193 0
      vertex 8.89282 -0.840699 0.107384
    endloop
  endfacet
  facet normal 1 0 0
    outer loop
      vertex 8.89282 -0.840699 0.107384
      vertex 8.89282 -1.49193 0
      vertex 8.89282 -0.844149 0
    endloop
  endfacet
  facet normal 0 1 -0
    outer loop
      vertex 7.94428 1.49193 1.44415
      vertex 6.04259 1.49193 2.73695
      vertex 8.89282 1.49193 2.51327
    endloop
  endfacet
  facet normal 0 1 0
    outer loop
      vertex 8.6888 1.49193 1.59025
      vertex 8.89282 1.49193 2.51327
      vertex 8.89282 1.49193 1.61859
    endloop
  endfacet
  facet normal 0 1 0
    outer loop
      vertex 8.56073 1.49193 1.56894
      vertex 8.89282 1.49193 2.51327
      vertex 8.6888 1.49193 1.59025
    endloop
  endfacet
  facet normal 0 1 0
    outer loop
      vertex 8.43279 1.49193 1.54762
      vertex 8.89282 1.49193 2.51327
      vertex 8.56073 1.49193 1.56894
    endloop
  endfacet
  facet normal 0 1 0
    outer loop
      vertex 8.30844 1.49193 1.52321
      vertex 8.89282 1.49193 2.51327
      vertex 8.43279 1.49193 1.54762
    endloop
  endfacet
  facet normal 0 1 0
    outer loop
      vertex 8.1842 1.49193 1.49879
      vertex 8.89282 1.49193 2.51327
      vertex 8.30844 1.49193 1.52321
    endloop
  endfacet
  facet normal 0 1 0
    outer loop
      vertex 8.06418 1.49193 1.47147
      vertex 8.89282 1.49193 2.51327
      vertex 8.1842 1.49193 1.49879
    endloop
  endfacet
  facet normal 0 1 0
    outer loop
      vertex 7.94428 1.49193 1.44415
      vertex 8.89282 1.49193 2.51327
      vertex 8.06418 1.49193 1.47147
    endloop
  endfacet
  facet normal 0 1 0
    outer loop
      vertex 6.04259 1.49193 2.73695
      vertex 7.94428 1.49193 1.44415
      vertex 7.71362 1.49193 1.38369
    endloop
  endfacet
  facet normal 0 1 0
    outer loop
      vertex 6.04259 1.49193 2.73695
      vertex 7.71362 1.49193 1.38369
      vertex 7.60345 1.49193 1.35079
    endloop
  endfacet
  facet normal 0 1 0
    outer loop
      vertex 6.04259 1.49193 2.73695
      vertex 7.60345 1.49193 1.35079
      vertex 7.49338 1.49193 1.31788
    endloop
  endfacet
  facet normal 0 1 0
    outer loop
      vertex 6.04259 1.49193 2.73695
      vertex 7.49338 1.49193 1.31788
      vertex 7.28413 1.49193 1.24683
    endloop
  endfacet
  facet normal 0 1 0
    outer loop
      vertex 6.04259 1.49193 2.73695
      vertex 7.28413 1.49193 1.24683
      vertex 7.08713 1.49193 1.17083
    endloop
  endfacet
  facet normal 0 1 0
    outer loop
      vertex 6.04259 1.49193 2.73695
      vertex 7.08713 1.49193 1.17083
      vertex 6.90254 1.49193 1.09024
    endloop
  endfacet
  facet normal 0 1 -0
    outer loop
      vertex 6.7316 1.49193 1.00536
      vertex 6.04259 1.49193 2.73695
      vertex 6.90254 1.49193 1.09024
    endloop
  endfacet
  facet normal 0 1 -0
    outer loop
      vertex 6.57502 1.49193 0.916481
      vertex 6.04259 1.49193 2.73695
      vertex 6.7316 1.49193 1.00536
    endloop
  endfacet
  facet normal 0 1 -0
    outer loop
      vertex 6.43299 1.49193 0.823975
      vertex 6.04259 1.49193 2.73695
      vertex 6.57502 1.49193 0.916481
    endloop
  endfacet
  facet normal 0 1 -0
    outer loop
      vertex 6.30639 1.49193 0.728226
      vertex 6.04259 1.49193 2.73695
      vertex 6.43299 1.49193 0.823975
    endloop
  endfacet
  facet normal 0 1 -0
    outer loop
      vertex 6.19563 1.49193 0.629616
      vertex 6.04259 1.49193 2.73695
      vertex 6.30639 1.49193 0.728226
    endloop
  endfacet
  facet normal 0 1 -0
    outer loop
      vertex 6.1013 1.49193 0.528526
      vertex 6.04259 1.49193 2.73695
      vertex 6.19563 1.49193 0.629616
    endloop
  endfacet
  facet normal 0 1 0
    outer loop
      vertex 6.0233 1.49193 0.425339
      vertex 6.04259 1.49193 2.73695
      vertex 6.1013 1.49193 0.528526
    endloop
  endfacet
  facet normal 0 1 0
    outer loop
      vertex 5.96253 1.49193 0.320435
      vertex 6.04259 1.49193 2.73695
      vertex 6.0233 1.49193 0.425339
    endloop
  endfacet
  facet normal 0 1 0
    outer loop
      vertex 6.04259 1.49193 2.73695
      vertex 5.96253 1.49193 0.320435
      vertex 0 1.49193 2.73695
    endloop
  endfacet
  facet normal 0 1 -0
    outer loop
      vertex 5.91891 1.49193 0.214291
      vertex 0 1.49193 2.73695
      vertex 5.96253 1.49193 0.320435
    endloop
  endfacet
  facet normal 0 1 0
    outer loop
      vertex 0 1.49193 0
      vertex 5.91891 1.49193 0.214291
      vertex 5.89262 1.49193 0.107384
    endloop
  endfacet
  facet normal 0 1 0
    outer loop
      vertex 0 1.49193 0
      vertex 5.89262 1.49193 0.107384
      vertex 5.88396 1.49193 0
    endloop
  endfacet
  facet normal 0 1 0
    outer loop
      vertex 5.91891 1.49193 0.214291
      vertex 0 1.49193 0
      vertex 0 1.49193 2.73695
    endloop
  endfacet
  facet normal -0 0 -1
    outer loop
      vertex 5.88396 1.49193 0
      vertex 0 -0.850259 0
      vertex 0 1.49193 0
    endloop
  endfacet
  facet normal 0 0 -1
    outer loop
      vertex 8.89282 -1.49193 0
      vertex 7.2655 -1.49193 0
      vertex 8.89282 -0.844149 0
    endloop
  endfacet
  facet normal 0 -1 0
    outer loop
      vertex 3.10539 -1.49193 1.70698
      vertex 6.04259 -1.49193 2.73695
      vertex 0 -1.49193 2.73695
    endloop
  endfacet
  facet normal 0 -1 0
    outer loop
      vertex 3.10539 -1.49193 1.70698
      vertex 0 -1.49193 2.73695
      vertex 2.82671 -1.49193 1.71041
    endloop
  endfacet
  facet normal 0 -1 0
    outer loop
      vertex 0 -1.49193 2.73695
      vertex 2.54812 -1.49193 1.70698
      vertex 2.82671 -1.49193 1.71041
    endloop
  endfacet
  facet normal 0 -1 0
    outer loop
      vertex 0 -1.49193 2.73695
      vertex 2.40932 -1.49193 1.70193
      vertex 2.54812 -1.49193 1.70698
    endloop
  endfacet
  facet normal 0 -1 0
    outer loop
      vertex 0 -1.49193 2.73695
      vertex 2.27054 -1.49193 1.69687
      vertex 2.40932 -1.49193 1.70193
    endloop
  endfacet
  facet normal 0 -1 0
    outer loop
      vertex 0 -1.49193 2.73695
      vertex 2.13269 -1.49193 1.68848
      vertex 2.27054 -1.49193 1.69687
    endloop
  endfacet
  facet normal 0 -1 0
    outer loop
      vertex 0 -1.49193 2.73695
      vertex 1.99492 -1.49193 1.68009
      vertex 2.13269 -1.49193 1.68848
    endloop
  endfacet
  facet normal 0 -1 0
    outer loop
      vertex 0 -1.49193 2.73695
      vertex 1.72294 -1.49193 1.65663
      vertex 1.99492 -1.49193 1.68009
    endloop
  endfacet
  facet normal 0 -1 0
    outer loop
      vertex 0 -1.49193 2.73695
      vertex 1.45513 -1.49193 1.62668
      vertex 1.72294 -1.49193 1.65663
    endloop
  endfacet
  facet normal 0 -1 0
    outer loop
      vertex 0 -1.49193 2.73695
      vertex 1.19287 -1.49193 1.59025
      vertex 1.45513 -1.49193 1.62668
    endloop
  endfacet
  facet normal 0 -1 0
    outer loop
      vertex 0 -1.49193 2.73695
      vertex 1.06481 -1.49193 1.56894
      vertex 1.19287 -1.49193 1.59025
    endloop
  endfacet
  facet normal 0 -1 0
    outer loop
      vertex 0 -1.49193 2.73695
      vertex 0.936855 -1.49193 1.54762
      vertex 1.06481 -1.49193 1.56894
    endloop
  endfacet
  facet normal 0 -1 0
    outer loop
      vertex 0 -1.49193 2.73695
      vertex 0.812486 -1.49193 1.52321
      vertex 0.936855 -1.49193 1.54762
    endloop
  endfacet
  facet normal 0 -1 0
    outer loop
      vertex 0 -1.49193 2.73695
      vertex 0.688266 -1.49193 1.49879
      vertex 0.812486 -1.49193 1.52321
    endloop
  endfacet
  facet normal 0 -1 0
    outer loop
      vertex 0 -1.49193 2.73695
      vertex 0.56826 -1.49193 1.47148
      vertex 0.688266 -1.49193 1.49879
    endloop
  endfacet
  facet normal 0 -1 0
    outer loop
      vertex 0 -1.49193 2.73695
      vertex 0.448344 -1.49193 1.44415
      vertex 0.56826 -1.49193 1.47148
    endloop
  endfacet
  facet normal 0 -1 0
    outer loop
      vertex 0 -1.49193 2.73695
      vertex 0.217687 -1.49193 1.38369
      vertex 0.448344 -1.49193 1.44415
    endloop
  endfacet
  facet normal 0 -1 0
    outer loop
      vertex 0 -1.49193 2.73695
      vertex 0.107492 -1.49193 1.35078
      vertex 0.217687 -1.49193 1.38369
    endloop
  endfacet
  facet normal -0 -1 0
    outer loop
      vertex 0.107492 -1.49193 1.35078
      vertex 0 -1.49193 2.73695
      vertex 0 -1.49193 1.31865
    endloop
  endfacet
  facet normal 0 -1 0
    outer loop
      vertex 6.04259 -1.49193 2.73695
      vertex 3.10539 -1.49193 1.70698
      vertex 3.38293 -1.49193 1.69687
    endloop
  endfacet
  facet normal 0 -1 0
    outer loop
      vertex 6.04259 -1.49193 2.73695
      vertex 3.38293 -1.49193 1.69687
      vertex 3.6585 -1.49193 1.68009
    endloop
  endfacet
  facet normal 0 -1 0
    outer loop
      vertex 3.93058 -1.49193 1.65663
      vertex 6.04259 -1.49193 2.73695
      vertex 3.6585 -1.49193 1.68009
    endloop
  endfacet
  facet normal 0 -1 0
    outer loop
      vertex 4.19839 -1.49193 1.62668
      vertex 6.04259 -1.49193 2.73695
      vertex 3.93058 -1.49193 1.65663
    endloop
  endfacet
  facet normal 0 -1 0
    outer loop
      vertex 4.46065 -1.49193 1.59025
      vertex 6.04259 -1.49193 2.73695
      vertex 4.19839 -1.49193 1.62668
    endloop
  endfacet
  facet normal 0 -1 0
    outer loop
      vertex 4.58872 -1.49193 1.56894
      vertex 6.04259 -1.49193 2.73695
      vertex 4.46065 -1.49193 1.59025
    endloop
  endfacet
  facet normal 0 -1 0
    outer loop
      vertex 4.71666 -1.49193 1.54762
      vertex 6.04259 -1.49193 2.73695
      vertex 4.58872 -1.49193 1.56894
    endloop
  endfacet
  facet normal 0 -1 0
    outer loop
      vertex 4.84096 -1.49193 1.52321
      vertex 6.04259 -1.49193 2.73695
      vertex 4.71666 -1.49193 1.54762
    endloop
  endfacet
  facet normal 0 -1 0
    outer loop
      vertex 4.96516 -1.49193 1.49879
      vertex 6.04259 -1.49193 2.73695
      vertex 4.84096 -1.49193 1.52321
    endloop
  endfacet
  facet normal 0 -1 0
    outer loop
      vertex 5.08523 -1.49193 1.47147
      vertex 6.04259 -1.49193 2.73695
      vertex 4.96516 -1.49193 1.49879
    endloop
  endfacet
  facet normal 0 -1 0
    outer loop
      vertex 5.20517 -1.49193 1.44415
      vertex 6.04259 -1.49193 2.73695
      vertex 5.08523 -1.49193 1.47147
    endloop
  endfacet
  facet normal 0 -1 0
    outer loop
      vertex 5.43573 -1.49193 1.38369
      vertex 6.04259 -1.49193 2.73695
      vertex 5.20517 -1.49193 1.44415
    endloop
  endfacet
  facet normal 0 -1 0
    outer loop
      vertex 5.54591 -1.49193 1.35079
      vertex 6.04259 -1.49193 2.73695
      vertex 5.43573 -1.49193 1.38369
    endloop
  endfacet
  facet normal 0 -1 0
    outer loop
      vertex 5.65598 -1.49193 1.31788
      vertex 6.04259 -1.49193 2.73695
      vertex 5.54591 -1.49193 1.35079
    endloop
  endfacet
  facet normal 0 -1 0
    outer loop
      vertex 5.86523 -1.49193 1.24683
      vertex 6.04259 -1.49193 2.73695
      vertex 5.65598 -1.49193 1.31788
    endloop
  endfacet
  facet normal 0 -1 0
    outer loop
      vertex 6.06232 -1.49193 1.17083
      vertex 6.04259 -1.49193 2.73695
      vertex 5.86523 -1.49193 1.24683
    endloop
  endfacet
  facet normal 0 -1 0
    outer loop
      vertex 6.24691 -1.49193 1.09024
      vertex 6.04259 -1.49193 2.73695
      vertex 6.06232 -1.49193 1.17083
    endloop
  endfacet
  facet normal 0 -1 0
    outer loop
      vertex 6.41786 -1.49193 1.00536
      vertex 6.04259 -1.49193 2.73695
      vertex 6.24691 -1.49193 1.09024
    endloop
  endfacet
  facet normal 0 -1 0
    outer loop
      vertex 6.57444 -1.49193 0.916481
      vertex 6.04259 -1.49193 2.73695
      vertex 6.41786 -1.49193 1.00536
    endloop
  endfacet
  facet normal 0 -1 0
    outer loop
      vertex 6.04259 -1.49193 2.73695
      vertex 6.57444 -1.49193 0.916481
      vertex 8.89282 -1.49193 2.51327
    endloop
  endfacet
  facet normal 0 -1 0
    outer loop
      vertex 6.71646 -1.49193 0.823975
      vertex 8.89282 -1.49193 2.51327
      vertex 6.57444 -1.49193 0.916481
    endloop
  endfacet
  facet normal 0 -1 0
    outer loop
      vertex 6.84306 -1.49193 0.728226
      vertex 8.89282 -1.49193 2.51327
      vertex 6.71646 -1.49193 0.823975
    endloop
  endfacet
  facet normal 0 -1 0
    outer loop
      vertex 6.95382 -1.49193 0.629616
      vertex 8.89282 -1.49193 2.51327
      vertex 6.84306 -1.49193 0.728226
    endloop
  endfacet
  facet normal 0 -1 0
    outer loop
      vertex 7.04815 -1.49193 0.528526
      vertex 8.89282 -1.49193 2.51327
      vertex 6.95382 -1.49193 0.629616
    endloop
  endfacet
  facet normal 0 -1 0
    outer loop
      vertex 7.12615 -1.49193 0.425339
      vertex 8.89282 -1.49193 2.51327
      vertex 7.04815 -1.49193 0.528526
    endloop
  endfacet
  facet normal 0 -1 0
    outer loop
      vertex 8.89282 -1.49193 0
      vertex 7.12615 -1.49193 0.425339
      vertex 7.18692 -1.49193 0.320435
    endloop
  endfacet
  facet normal 0 -1 0
    outer loop
      vertex 8.89282 -1.49193 0
      vertex 7.18692 -1.49193 0.320435
      vertex 7.23044 -1.49193 0.214291
    endloop
  endfacet
  facet normal 0 -1 0
    outer loop
      vertex 8.89282 -1.49193 0
      vertex 7.23044 -1.49193 0.214291
      vertex 7.25683 -1.49193 0.107384
    endloop
  endfacet
  facet normal 0 -1 0
    outer loop
      vertex 8.89282 -1.49193 0
      vertex 7.25683 -1.49193 0.107384
      vertex 7.2655 -1.49193 0
    endloop
  endfacet
  facet normal 0 -1 0
    outer loop
      vertex 7.12615 -1.49193 0.425339
      vertex 8.89282 -1.49193 0
      vertex 8.89282 -1.49193 2.51327
    endloop
  endfacet
  facet normal 0.0782362 0 0.996935
    outer loop
      vertex 6.04259 1.49193 2.73695
      vertex 8.89282 -1.49193 2.51327
      vertex 8.89282 1.49193 2.51327
    endloop
  endfacet
  facet normal 0.0782362 0 0.996935
    outer loop
      vertex 8.89282 -1.49193 2.51327
      vertex 6.04259 1.49193 2.73695
      vertex 6.04259 -1.49193 2.73695
    endloop
  endfacet
  facet normal -0.369674 0.928682 -0.0298358
    outer loop
      vertex 7.2655 -1.49193 0
      vertex 8.89282 -0.840699 0.107384
      vertex 8.89282 -0.844149 0
    endloop
  endfacet
  facet normal -0.369674 0.928682 -0.029835
    outer loop
      vertex 8.89282 -0.840699 0.107384
      vertex 7.2655 -1.49193 0
      vertex 7.25683 -1.49193 0.107384
    endloop
  endfacet
  facet normal 0.0123168 -0.0309418 -0.999445
    outer loop
      vertex 2.82671 -1.49193 1.71041
      vertex 8.89282 1.03366 1.70698
      vertex 8.89282 0.922768 1.71041
    endloop
  endfacet
  facet normal 0.0123168 -0.0309419 -0.999445
    outer loop
      vertex 8.89282 1.03366 1.70698
      vertex 2.82671 -1.49193 1.71041
      vertex 2.54812 -1.49193 1.70698
    endloop
  endfacet
  facet normal -0.368308 0.92525 -0.0908959
    outer loop
      vertex 7.25683 -1.49193 0.107384
      vertex 8.89282 -0.830197 0.214291
      vertex 8.89282 -0.840699 0.107384
    endloop
  endfacet
  facet normal -0.368308 0.92525 -0.0908975
    outer loop
      vertex 8.89282 -0.830197 0.214291
      vertex 7.25683 -1.49193 0.107384
      vertex 7.23044 -1.49193 0.214291
    endloop
  endfacet
  facet normal 0.2966 -0.745108 -0.597363
    outer loop
      vertex 6.7316 1.49193 1.00536
      vertex 0 -1.25572 1.09024
      vertex 0 -1.18767 1.00536
    endloop
  endfacet
  facet normal 0.2966 -0.745108 -0.597363
    outer loop
      vertex 0 -1.25572 1.09024
      vertex 6.7316 1.49193 1.00536
      vertex 6.90254 1.49193 1.09024
    endloop
  endfacet
  facet normal 0.151775 -0.381283 -0.911914
    outer loop
      vertex 1.19287 -1.49193 1.59025
      vertex 8.56073 1.49193 1.56894
      vertex 8.6888 1.49193 1.59025
    endloop
  endfacet
  facet normal 0.151775 -0.381284 -0.911914
    outer loop
      vertex 8.56073 1.49193 1.56894
      vertex 1.19287 -1.49193 1.59025
      vertex 1.06481 -1.49193 1.56894
    endloop
  endfacet
  facet normal -0.250116 0.628333 -0.736641
    outer loop
      vertex 5.86523 -1.49193 1.24683
      vertex 8.89282 -0.203459 1.31788
      vertex 8.89282 -0.286754 1.24683
    endloop
  endfacet
  facet normal -0.250116 0.628333 -0.736641
    outer loop
      vertex 8.89282 -0.203459 1.31788
      vertex 5.86523 -1.49193 1.24683
      vertex 5.65598 -1.49193 1.31788
    endloop
  endfacet
  facet normal -0.173591 0.436088 -0.883002
    outer loop
      vertex 4.96516 -1.49193 1.49879
      vertex 8.89282 0.120964 1.52321
      vertex 8.89282 0.0715315 1.49879
    endloop
  endfacet
  facet normal -0.173591 0.436088 -0.883002
    outer loop
      vertex 8.89282 0.120964 1.52321
      vertex 4.96516 -1.49193 1.49879
      vertex 4.84096 -1.49193 1.52321
    endloop
  endfacet
  facet normal -0.282189 0.708905 -0.646393
    outer loop
      vertex 6.24691 -1.49193 1.09024
      vertex 8.89282 -0.365209 1.17083
      vertex 8.89282 -0.438688 1.09024
    endloop
  endfacet
  facet normal -0.282189 0.708905 -0.646393
    outer loop
      vertex 8.89282 -0.365209 1.17083
      vertex 6.24691 -1.49193 1.09024
      vertex 6.06232 -1.49193 1.17083
    endloop
  endfacet
  facet normal 0.250116 -0.628333 -0.736641
    outer loop
      vertex 0 -1.49091 1.31788
      vertex 7.28413 1.49193 1.24683
      vertex 7.49338 1.49193 1.31788
    endloop
  endfacet
  facet normal 0.250116 -0.628333 -0.736641
    outer loop
      vertex 7.28413 1.49193 1.24683
      vertex 0 -1.49091 1.31788
      vertex 0 -1.40762 1.24683
    endloop
  endfacet
  facet normal -0.349605 0.878265 -0.326233
    outer loop
      vertex 7.04815 -1.49193 0.528526
      vertex 8.89282 -0.720082 0.629616
      vertex 8.89282 -0.757632 0.528526
    endloop
  endfacet
  facet normal -0.349605 0.878265 -0.326232
    outer loop
      vertex 8.89282 -0.720082 0.629616
      vertex 7.04815 -1.49193 0.528526
      vertex 6.95382 -1.49193 0.629616
    endloop
  endfacet
  facet normal -0.193811 0.486885 -0.851693
    outer loop
      vertex 5.08523 -1.49193 1.47147
      vertex 8.89282 0.0715315 1.49879
      vertex 8.89282 0.0237387 1.47147
    endloop
  endfacet
  facet normal -0.193811 0.486885 -0.851693
    outer loop
      vertex 8.89282 0.0715315 1.49879
      vertex 5.08523 -1.49193 1.47147
      vertex 4.96516 -1.49193 1.49879
    endloop
  endfacet
  facet normal -0.130039 0.32668 -0.936146
    outer loop
      vertex 4.46065 -1.49193 1.59025
      vertex 8.89282 0.376752 1.62668
      vertex 8.89282 0.272356 1.59025
    endloop
  endfacet
  facet normal -0.130039 0.32668 -0.936146
    outer loop
      vertex 8.89282 0.376752 1.62668
      vertex 4.46065 -1.49193 1.59025
      vertex 4.19839 -1.49193 1.62668
    endloop
  endfacet
  facet normal 0.232489 -0.584051 -0.777711
    outer loop
      vertex 0.107492 -1.49193 1.35078
      vertex 7.49338 1.49193 1.31788
      vertex 7.60345 1.49193 1.35079
    endloop
  endfacet
  facet normal 0.232492 -0.58404 -0.777717
    outer loop
      vertex 0 -1.49091 1.31788
      vertex 0.107492 -1.49193 1.35078
      vertex 0 -1.49193 1.31865
    endloop
  endfacet
  facet normal 0.23249 -0.584052 -0.777709
    outer loop
      vertex 0.107492 -1.49193 1.35078
      vertex 0 -1.49091 1.31788
      vertex 7.49338 1.49193 1.31788
    endloop
  endfacet
  facet normal -0.341544 0.858015 -0.383611
    outer loop
      vertex 6.95382 -1.49193 0.629616
      vertex 8.89282 -0.675995 0.728226
      vertex 8.89282 -0.720082 0.629616
    endloop
  endfacet
  facet normal -0.341544 0.858015 -0.383611
    outer loop
      vertex 8.89282 -0.675995 0.728226
      vertex 6.95382 -1.49193 0.629616
      vertex 6.84306 -1.49193 0.728226
    endloop
  endfacet
  facet normal -0.060099 0.150978 -0.986708
    outer loop
      vertex 3.6585 -1.49193 1.68009
      vertex 8.89282 0.701358 1.69687
      vertex 8.89282 0.591663 1.68009
    endloop
  endfacet
  facet normal -0.0600989 0.150978 -0.986708
    outer loop
      vertex 8.89282 0.701358 1.69687
      vertex 3.6585 -1.49193 1.68009
      vertex 3.38293 -1.49193 1.69687
    endloop
  endfacet
  facet normal 0.32161 -0.807938 -0.493764
    outer loop
      vertex 6.43299 1.49193 0.823975
      vertex 0 -1.12534 0.916481
      vertex 0 -1.06881 0.823975
    endloop
  endfacet
  facet normal 0.321611 -0.807938 -0.493763
    outer loop
      vertex 0 -1.12534 0.916481
      vertex 6.43299 1.49193 0.823975
      vertex 6.57502 1.49193 0.916481
    endloop
  endfacet
  facet normal -0.107029 0.268875 -0.95721
    outer loop
      vertex 4.19839 -1.49193 1.62668
      vertex 8.89282 0.483359 1.65663
      vertex 8.89282 0.376752 1.62668
    endloop
  endfacet
  facet normal -0.107029 0.268875 -0.95721
    outer loop
      vertex 8.89282 0.483359 1.65663
      vertex 4.19839 -1.49193 1.62668
      vertex 3.93058 -1.49193 1.65663
    endloop
  endfacet
  facet normal 0.0600994 -0.150979 -0.986708
    outer loop
      vertex 2.13269 -1.49193 1.68848
      vertex 8.89282 1.25387 1.68009
      vertex 8.89282 1.19902 1.68848
    endloop
  endfacet
  facet normal 0.0600986 -0.150978 -0.986709
    outer loop
      vertex 8.89282 1.25387 1.68009
      vertex 2.13269 -1.49193 1.68848
      vertex 1.99492 -1.49193 1.68009
    endloop
  endfacet
  facet normal 0.0362363 -0.0910314 -0.995189
    outer loop
      vertex 2.54812 -1.49193 1.70698
      vertex 8.89282 1.08892 1.70193
      vertex 8.89282 1.03366 1.70698
    endloop
  endfacet
  facet normal 0.0362362 -0.0910312 -0.995189
    outer loop
      vertex 8.89282 1.08892 1.70193
      vertex 2.54812 -1.49193 1.70698
      vertex 2.40932 -1.49193 1.70193
    endloop
  endfacet
  facet normal 0.341544 -0.858015 -0.383611
    outer loop
      vertex 6.19563 1.49193 0.629616
      vertex 0 -1.01841 0.728226
      vertex 0 -0.974325 0.629616
    endloop
  endfacet
  facet normal 0.341544 -0.858015 -0.383611
    outer loop
      vertex 0 -1.01841 0.728226
      vertex 6.19563 1.49193 0.629616
      vertex 6.30639 1.49193 0.728226
    endloop
  endfacet
  facet normal 0.36564 -0.918546 -0.150267
    outer loop
      vertex 5.91891 1.49193 0.214291
      vertex 0 -0.881537 0.320435
      vertex 0 -0.864173 0.214291
    endloop
  endfacet
  facet normal 0.36564 -0.918547 -0.150265
    outer loop
      vertex 0 -0.881537 0.320435
      vertex 5.91891 1.49193 0.214291
      vertex 5.96253 1.49193 0.320435
    endloop
  endfacet
  facet normal -0.193951 0.487237 -0.851459
    outer loop
      vertex 5.20517 -1.49193 1.44415
      vertex 8.89282 0.0237387 1.47147
      vertex 8.89282 -0.0240106 1.44415
    endloop
  endfacet
  facet normal -0.193951 0.487237 -0.851459
    outer loop
      vertex 8.89282 0.0237387 1.47147
      vertex 5.20517 -1.49193 1.44415
      vertex 5.08523 -1.49193 1.47147
    endloop
  endfacet
  facet normal -0.151775 0.381283 -0.911914
    outer loop
      vertex 4.58872 -1.49193 1.56894
      vertex 8.89282 0.272356 1.59025
      vertex 8.89282 0.22138 1.56894
    endloop
  endfacet
  facet normal -0.151775 0.381283 -0.911914
    outer loop
      vertex 8.89282 0.272356 1.59025
      vertex 4.58872 -1.49193 1.56894
      vertex 4.46065 -1.49193 1.59025
    endloop
  endfacet
  facet normal -0.309873 0.778451 -0.545888
    outer loop
      vertex 6.57444 -1.49193 0.916481
      vertex 8.89282 -0.506735 1.00536
      vertex 8.89282 -0.569064 0.916481
    endloop
  endfacet
  facet normal -0.309872 0.77845 -0.545889
    outer loop
      vertex 8.89282 -0.506735 1.00536
      vertex 6.57444 -1.49193 0.916481
      vertex 6.41786 -1.49193 1.00536
    endloop
  endfacet
  facet normal -0.266931 0.670573 -0.692156
    outer loop
      vertex 6.06232 -1.49193 1.17083
      vertex 8.89282 -0.286754 1.24683
      vertex 8.89282 -0.365209 1.17083
    endloop
  endfacet
  facet normal -0.266931 0.670573 -0.692156
    outer loop
      vertex 8.89282 -0.286754 1.24683
      vertex 6.06232 -1.49193 1.17083
      vertex 5.86523 -1.49193 1.24683
    endloop
  endfacet
  facet normal 0.213863 -0.537259 -0.815852
    outer loop
      vertex 0.448344 -1.49193 1.44415
      vertex 7.71362 1.49193 1.38369
      vertex 7.94428 1.49193 1.44415
    endloop
  endfacet
  facet normal 0.213863 -0.537259 -0.815853
    outer loop
      vertex 7.71362 1.49193 1.38369
      vertex 0.448344 -1.49193 1.44415
      vertex 0.217687 -1.49193 1.38369
    endloop
  endfacet
  facet normal 0.130039 -0.326681 -0.936146
    outer loop
      vertex 8.89282 1.46875 1.62668
      vertex 8.6888 1.49193 1.59025
      vertex 8.89282 1.49193 1.61859
    endloop
  endfacet
  facet normal 0.130039 -0.32668 -0.936146
    outer loop
      vertex 1.45513 -1.49193 1.62668
      vertex 8.6888 1.49193 1.59025
      vertex 8.89282 1.46875 1.62668
    endloop
  endfacet
  facet normal 0.130039 -0.32668 -0.936146
    outer loop
      vertex 8.6888 1.49193 1.59025
      vertex 1.45513 -1.49193 1.62668
      vertex 1.19287 -1.49193 1.59025
    endloop
  endfacet
  facet normal 0.194007 -0.487376 -0.851367
    outer loop
      vertex 0.56826 -1.49193 1.47148
      vertex 7.94428 1.49193 1.44415
      vertex 8.06418 1.49193 1.47147
    endloop
  endfacet
  facet normal 0.194007 -0.487377 -0.851366
    outer loop
      vertex 7.94428 1.49193 1.44415
      vertex 0.56826 -1.49193 1.47148
      vertex 0.448344 -1.49193 1.44415
    endloop
  endfacet
  facet normal 0.232337 -0.583668 -0.778044
    outer loop
      vertex 0.217687 -1.49193 1.38369
      vertex 7.60345 1.49193 1.35079
      vertex 7.71362 1.49193 1.38369
    endloop
  endfacet
  facet normal 0.232336 -0.583667 -0.778044
    outer loop
      vertex 7.60345 1.49193 1.35079
      vertex 0.217687 -1.49193 1.38369
      vertex 0.107492 -1.49193 1.35078
    endloop
  endfacet
  facet normal 0.282189 -0.708905 -0.646393
    outer loop
      vertex 6.90254 1.49193 1.09024
      vertex 0 -1.3292 1.17083
      vertex 0 -1.25572 1.09024
    endloop
  endfacet
  facet normal 0.282189 -0.708905 -0.646393
    outer loop
      vertex 0 -1.3292 1.17083
      vertex 6.90254 1.49193 1.09024
      vertex 7.08713 1.49193 1.17083
    endloop
  endfacet
  facet normal -0.232337 0.583668 -0.778043
    outer loop
      vertex 5.54591 -1.49193 1.35079
      vertex 8.89282 -0.115788 1.38369
      vertex 8.89282 -0.159649 1.35078
    endloop
  endfacet
  facet normal -0.232337 0.583668 -0.778044
    outer loop
      vertex 8.89282 -0.115788 1.38369
      vertex 5.54591 -1.49193 1.35079
      vertex 5.43573 -1.49193 1.38369
    endloop
  endfacet
  facet normal -0.0362487 0.0910627 -0.995185
    outer loop
      vertex 3.38293 -1.49193 1.69687
      vertex 8.89282 0.811834 1.70698
      vertex 8.89282 0.701358 1.69687
    endloop
  endfacet
  facet normal -0.0362487 0.0910627 -0.995185
    outer loop
      vertex 8.89282 0.811834 1.70698
      vertex 3.38293 -1.49193 1.69687
      vertex 3.10539 -1.49193 1.70698
    endloop
  endfacet
  facet normal -0.32161 0.807938 -0.493764
    outer loop
      vertex 6.71646 -1.49193 0.823975
      vertex 8.89282 -0.569064 0.916481
      vertex 8.89282 -0.625598 0.823975
    endloop
  endfacet
  facet normal -0.321611 0.807938 -0.493763
    outer loop
      vertex 8.89282 -0.569064 0.916481
      vertex 6.71646 -1.49193 0.823975
      vertex 6.57444 -1.49193 0.916481
    endloop
  endfacet
  facet normal -0.0123126 0.0309313 -0.999446
    outer loop
      vertex 3.10539 -1.49193 1.70698
      vertex 8.89282 0.922768 1.71041
      vertex 8.89282 0.811834 1.70698
    endloop
  endfacet
  facet normal -0.0123126 0.0309313 -0.999446
    outer loop
      vertex 8.89282 0.922768 1.71041
      vertex 3.10539 -1.49193 1.70698
      vertex 2.82671 -1.49193 1.71041
    endloop
  endfacet
  facet normal -0.2966 0.745108 -0.597363
    outer loop
      vertex 6.41786 -1.49193 1.00536
      vertex 8.89282 -0.438688 1.09024
      vertex 8.89282 -0.506735 1.00536
    endloop
  endfacet
  facet normal -0.2966 0.745108 -0.597363
    outer loop
      vertex 8.89282 -0.438688 1.09024
      vertex 6.41786 -1.49193 1.00536
      vertex 6.24691 -1.49193 1.09024
    endloop
  endfacet
  facet normal 0.369674 -0.928682 -0.0298353
    outer loop
      vertex 5.88396 1.49193 0
      vertex 0 -0.853709 0.107384
      vertex 0 -0.850259 0
    endloop
  endfacet
  facet normal 0.369674 -0.928682 -0.0298349
    outer loop
      vertex 0 -0.853709 0.107384
      vertex 5.88396 1.49193 0
      vertex 5.89262 1.49193 0.107384
    endloop
  endfacet
  facet normal 0.368319 -0.925277 -0.0905705
    outer loop
      vertex 5.89262 1.49193 0.107384
      vertex 0 -0.864173 0.214291
      vertex 0 -0.853709 0.107384
    endloop
  endfacet
  facet normal 0.368319 -0.925277 -0.0905716
    outer loop
      vertex 0 -0.864173 0.214291
      vertex 5.89262 1.49193 0.107384
      vertex 5.91891 1.49193 0.214291
    endloop
  endfacet
  facet normal 0.0600784 -0.150927 -0.986718
    outer loop
      vertex 2.27054 -1.49193 1.69687
      vertex 8.89282 1.19902 1.68848
      vertex 8.89282 1.14416 1.69687
    endloop
  endfacet
  facet normal 0.0600791 -0.150928 -0.986717
    outer loop
      vertex 8.89282 1.19902 1.68848
      vertex 2.27054 -1.49193 1.69687
      vertex 2.13269 -1.49193 1.68848
    endloop
  endfacet
  facet normal 0.0362488 -0.091063 -0.995185
    outer loop
      vertex 2.40932 -1.49193 1.70193
      vertex 8.89282 1.14416 1.69687
      vertex 8.89282 1.08892 1.70193
    endloop
  endfacet
  facet normal 0.0362489 -0.0910632 -0.995185
    outer loop
      vertex 8.89282 1.14416 1.69687
      vertex 2.40932 -1.49193 1.70193
      vertex 2.27054 -1.49193 1.69687
    endloop
  endfacet
  facet normal 0.0840032 -0.21103 -0.973863
    outer loop
      vertex 1.99492 -1.49193 1.68009
      vertex 8.89282 1.36214 1.65663
      vertex 8.89282 1.25387 1.68009
    endloop
  endfacet
  facet normal 0.0840032 -0.21103 -0.973863
    outer loop
      vertex 8.89282 1.36214 1.65663
      vertex 1.99492 -1.49193 1.68009
      vertex 1.72294 -1.49193 1.65663
    endloop
  endfacet
  facet normal 0.173409 -0.435631 -0.883264
    outer loop
      vertex 0.936855 -1.49193 1.54762
      vertex 8.30844 1.49193 1.52321
      vertex 8.43279 1.49193 1.54762
    endloop
  endfacet
  facet normal 0.173408 -0.43563 -0.883265
    outer loop
      vertex 8.30844 1.49193 1.52321
      vertex 0.936855 -1.49193 1.54762
      vertex 0.812486 -1.49193 1.52321
    endloop
  endfacet
  facet normal 0.356181 -0.894785 -0.269249
    outer loop
      vertex 6.0233 1.49193 0.425339
      vertex 0 -0.936776 0.528526
      vertex 0 -0.905726 0.425339
    endloop
  endfacet
  facet normal 0.356181 -0.894785 -0.269249
    outer loop
      vertex 0 -0.936776 0.528526
      vertex 6.0233 1.49193 0.425339
      vertex 6.1013 1.49193 0.528526
    endloop
  endfacet
  facet normal 0.349605 -0.878265 -0.326233
    outer loop
      vertex 6.1013 1.49193 0.528526
      vertex 0 -0.974325 0.629616
      vertex 0 -0.936776 0.528526
    endloop
  endfacet
  facet normal 0.349605 -0.878265 -0.326232
    outer loop
      vertex 0 -0.974325 0.629616
      vertex 6.1013 1.49193 0.528526
      vertex 6.19563 1.49193 0.629616
    endloop
  endfacet
  facet normal -0.0839753 0.21096 -0.973881
    outer loop
      vertex 3.93058 -1.49193 1.65663
      vertex 8.89282 0.591663 1.68009
      vertex 8.89282 0.483359 1.65663
    endloop
  endfacet
  facet normal -0.0839753 0.21096 -0.973881
    outer loop
      vertex 8.89282 0.591663 1.68009
      vertex 3.93058 -1.49193 1.65663
      vertex 3.6585 -1.49193 1.68009
    endloop
  endfacet
  facet normal -0.33224 0.834641 -0.439307
    outer loop
      vertex 6.84306 -1.49193 0.728226
      vertex 8.89282 -0.625598 0.823975
      vertex 8.89282 -0.675995 0.728226
    endloop
  endfacet
  facet normal -0.33224 0.834641 -0.439306
    outer loop
      vertex 8.89282 -0.625598 0.823975
      vertex 6.84306 -1.49193 0.728226
      vertex 6.71646 -1.49193 0.823975
    endloop
  endfacet
  facet normal -0.213922 0.537407 -0.81574
    outer loop
      vertex 5.43573 -1.49193 1.38369
      vertex 8.89282 -0.0240106 1.44415
      vertex 8.89282 -0.115788 1.38369
    endloop
  endfacet
  facet normal -0.213922 0.537407 -0.81574
    outer loop
      vertex 8.89282 -0.0240106 1.44415
      vertex 5.43573 -1.49193 1.38369
      vertex 5.20517 -1.49193 1.44415
    endloop
  endfacet
  facet normal 0.107029 -0.268875 -0.95721
    outer loop
      vertex 1.72294 -1.49193 1.65663
      vertex 8.89282 1.46875 1.62668
      vertex 8.89282 1.36214 1.65663
    endloop
  endfacet
  facet normal 0.107029 -0.268875 -0.95721
    outer loop
      vertex 8.89282 1.46875 1.62668
      vertex 1.72294 -1.49193 1.65663
      vertex 1.45513 -1.49193 1.62668
    endloop
  endfacet
  facet normal 0.193867 -0.487025 -0.8516
    outer loop
      vertex 0.688266 -1.49193 1.49879
      vertex 8.06418 1.49193 1.47147
      vertex 8.1842 1.49193 1.49879
    endloop
  endfacet
  facet normal 0.193867 -0.487025 -0.8516
    outer loop
      vertex 8.06418 1.49193 1.47147
      vertex 0.688266 -1.49193 1.49879
      vertex 0.56826 -1.49193 1.47148
    endloop
  endfacet
  facet normal 0.173539 -0.435958 -0.883077
    outer loop
      vertex 0.812486 -1.49193 1.52321
      vertex 8.1842 1.49193 1.49879
      vertex 8.30844 1.49193 1.52321
    endloop
  endfacet
  facet normal 0.173539 -0.435958 -0.883077
    outer loop
      vertex 8.1842 1.49193 1.49879
      vertex 0.812486 -1.49193 1.52321
      vertex 0.688266 -1.49193 1.49879
    endloop
  endfacet
  facet normal 0.151893 -0.38158 -0.91177
    outer loop
      vertex 1.06481 -1.49193 1.56894
      vertex 8.43279 1.49193 1.54762
      vertex 8.56073 1.49193 1.56894
    endloop
  endfacet
  facet normal 0.151893 -0.381579 -0.911771
    outer loop
      vertex 8.43279 1.49193 1.54762
      vertex 1.06481 -1.49193 1.56894
      vertex 0.936855 -1.49193 1.54762
    endloop
  endfacet
  facet normal 0.266992 -0.670729 -0.691981
    outer loop
      vertex 0 -1.40762 1.24683
      vertex 7.08713 1.49193 1.17083
      vertex 7.28413 1.49193 1.24683
    endloop
  endfacet
  facet normal 0.266992 -0.670729 -0.691981
    outer loop
      vertex 7.08713 1.49193 1.17083
      vertex 0 -1.40762 1.24683
      vertex 0 -1.3292 1.17083
    endloop
  endfacet
  facet normal 0.309872 -0.77845 -0.545888
    outer loop
      vertex 6.57502 1.49193 0.916481
      vertex 0 -1.18767 1.00536
      vertex 0 -1.12534 0.916481
    endloop
  endfacet
  facet normal 0.309872 -0.77845 -0.545889
    outer loop
      vertex 0 -1.18767 1.00536
      vertex 6.57502 1.49193 0.916481
      vertex 6.7316 1.49193 1.00536
    endloop
  endfacet
  facet normal -0.356181 0.894785 -0.269249
    outer loop
      vertex 7.12615 -1.49193 0.425339
      vertex 8.89282 -0.757632 0.528526
      vertex 8.89282 -0.788682 0.425339
    endloop
  endfacet
  facet normal -0.356181 0.894785 -0.269249
    outer loop
      vertex 8.89282 -0.757632 0.528526
      vertex 7.12615 -1.49193 0.425339
      vertex 7.04815 -1.49193 0.528526
    endloop
  endfacet
  facet normal -0.151893 0.38158 -0.91177
    outer loop
      vertex 4.71666 -1.49193 1.54762
      vertex 8.89282 0.22138 1.56894
      vertex 8.89282 0.170448 1.54762
    endloop
  endfacet
  facet normal -0.151893 0.38158 -0.91177
    outer loop
      vertex 8.89282 0.22138 1.56894
      vertex 4.71666 -1.49193 1.54762
      vertex 4.58872 -1.49193 1.56894
    endloop
  endfacet
  facet normal -0.17346 0.43576 -0.88319
    outer loop
      vertex 4.84096 -1.49193 1.52321
      vertex 8.89282 0.170448 1.54762
      vertex 8.89282 0.120964 1.52321
    endloop
  endfacet
  facet normal -0.17346 0.43576 -0.88319
    outer loop
      vertex 8.89282 0.170448 1.54762
      vertex 4.84096 -1.49193 1.52321
      vertex 4.71666 -1.49193 1.54762
    endloop
  endfacet
  facet normal 0.361634 -0.908483 -0.209473
    outer loop
      vertex 5.96253 1.49193 0.320435
      vertex 0 -0.905726 0.425339
      vertex 0 -0.881537 0.320435
    endloop
  endfacet
  facet normal 0.361634 -0.908483 -0.209473
    outer loop
      vertex 0 -0.905726 0.425339
      vertex 5.96253 1.49193 0.320435
      vertex 6.0233 1.49193 0.425339
    endloop
  endfacet
  facet normal 0.33224 -0.834641 -0.439307
    outer loop
      vertex 6.30639 1.49193 0.728226
      vertex 0 -1.06881 0.823975
      vertex 0 -1.01841 0.728226
    endloop
  endfacet
  facet normal 0.33224 -0.834641 -0.439306
    outer loop
      vertex 0 -1.06881 0.823975
      vertex 6.30639 1.49193 0.728226
      vertex 6.43299 1.49193 0.823975
    endloop
  endfacet
  facet normal -0.232489 0.584051 -0.77771
    outer loop
      vertex 5.65598 -1.49193 1.31788
      vertex 8.89282 -0.159649 1.35078
      vertex 8.89282 -0.203459 1.31788
    endloop
  endfacet
  facet normal -0.232489 0.584051 -0.777711
    outer loop
      vertex 8.89282 -0.159649 1.35078
      vertex 5.65598 -1.49193 1.31788
      vertex 5.54591 -1.49193 1.35079
    endloop
  endfacet
  facet normal -0.361634 0.908483 -0.209473
    outer loop
      vertex 7.18692 -1.49193 0.320435
      vertex 8.89282 -0.788682 0.425339
      vertex 8.89282 -0.812871 0.320435
    endloop
  endfacet
  facet normal -0.361634 0.908483 -0.209473
    outer loop
      vertex 8.89282 -0.788682 0.425339
      vertex 7.18692 -1.49193 0.320435
      vertex 7.12615 -1.49193 0.425339
    endloop
  endfacet
  facet normal -0.365658 0.918592 -0.149946
    outer loop
      vertex 7.23044 -1.49193 0.214291
      vertex 8.89282 -0.812871 0.320435
      vertex 8.89282 -0.830197 0.214291
    endloop
  endfacet
  facet normal -0.365658 0.918592 -0.149944
    outer loop
      vertex 8.89282 -0.812871 0.320435
      vertex 7.23044 -1.49193 0.214291
      vertex 7.18692 -1.49193 0.320435
    endloop
  endfacet
endsolid OpenSCAD_Model
