solid OpenSCAD_Model
  facet normal -1 0 0
    outer loop
      vertex 0 -0.417308 0.311661
      vertex 0 1.35918 2.22008
      vertex 0 1.35918 0.311661
    endloop
  endfacet
  facet normal -1 0 0
    outer loop
      vertex 0 -1.35918 0
      vertex 0 -0.417308 0.311661
      vertex 0 -0.601555 0
    endloop
  endfacet
  facet normal -1 0 0
    outer loop
      vertex 0 -1.35918 2.22008
      vertex 0 -0.417308 0.311661
      vertex 0 -1.35918 0
    endloop
  endfacet
  facet normal -1 0 0
    outer loop
      vertex 0 -0.417308 0.311661
      vertex 0 -1.35918 2.22008
      vertex 0 1.35918 2.22008
    endloop
  endfacet
  facet normal 1 -0 0
    outer loop
      vertex 8.22458 0.976552 0.311661
      vertex 8.22458 1.35918 0
      vertex 8.22458 1.35918 1.94836
    endloop
  endfacet
  facet normal 1 0 0
    outer loop
      vertex 8.22458 1.35918 0
      vertex 8.22458 0.976552 0.311661
      vertex 8.22458 1.2384 3.1841e-16
    endloop
  endfacet
  facet normal 1 -0 0
    outer loop
      vertex 8.22458 -1.35918 1.94836
      vertex 8.22458 0.976552 0.311661
      vertex 8.22458 1.35918 1.94836
    endloop
  endfacet
  facet normal 1 0 0
    outer loop
      vertex 8.22458 0.976552 0.311661
      vertex 8.22458 -1.35918 1.94836
      vertex 8.22458 -1.32527 0.311661
    endloop
  endfacet
  facet normal 1 0 0
    outer loop
      vertex 8.22458 -1.32527 0.311661
      vertex 8.22458 -1.35918 1.94836
      vertex 8.22458 -1.35918 0.254308
    endloop
  endfacet
  facet normal 1 0 0
    outer loop
      vertex 8.22458 1.35918 0
      vertex 8.22458 1.2384 3.1841e-16
      vertex 8.22458 1.2384 0
    endloop
  endfacet
  facet normal 0 1 0
    outer loop
      vertex 8.22458 1.35918 1.94836
      vertex 7.13054 1.35918 7.40084e-17
      vertex 4.75866 1.35918 0.311661
    endloop
  endfacet
  facet normal 0 1 -0
    outer loop
      vertex 8.22458 1.35918 0
      vertex 7.13054 1.35918 7.40084e-17
      vertex 8.22458 1.35918 1.94836
    endloop
  endfacet
  facet normal 0 1 0
    outer loop
      vertex 7.13054 1.35918 7.40084e-17
      vertex 8.22458 1.35918 0
      vertex 7.13054 1.35918 0
    endloop
  endfacet
  facet normal 0 1 -0
    outer loop
      vertex 4.75866 1.35918 0.311661
      vertex 0 1.35918 2.22008
      vertex 8.22458 1.35918 1.94836
    endloop
  endfacet
  facet normal 0 1 0
    outer loop
      vertex 0 1.35918 2.22008
      vertex 4.75866 1.35918 0.311661
      vertex 0 1.35918 0.311661
    endloop
  endfacet
  facet normal 0 0 -1
    outer loop
      vertex 0 -1.35918 0
      vertex 6.49954 -1.31908 0
      vertex 6.86275 -1.35918 0
    endloop
  endfacet
  facet normal -0 0 -1
    outer loop
      vertex 6.49954 -1.31908 0
      vertex 0 -1.35918 0
      vertex 0 -0.601555 0
    endloop
  endfacet
  facet normal 0 0 -1
    outer loop
      vertex 8.22458 1.2384 0
      vertex 7.13054 1.35918 0
      vertex 8.22458 1.35918 0
    endloop
  endfacet
  facet normal 0 -1 0
    outer loop
      vertex 6.86275 -1.35918 8.11378e-17
      vertex 8.22458 -1.35918 1.94836
      vertex 0 -1.35918 2.22008
    endloop
  endfacet
  facet normal 0 -1 -0
    outer loop
      vertex 8.22458 -1.35918 1.94836
      vertex 6.86275 -1.35918 8.11378e-17
      vertex 8.22458 -1.35918 0.254308
    endloop
  endfacet
  facet normal 0 -1 0
    outer loop
      vertex 0 -1.35918 0
      vertex 6.86275 -1.35918 8.11378e-17
      vertex 0 -1.35918 2.22008
    endloop
  endfacet
  facet normal 0 -1 -0
    outer loop
      vertex 6.86275 -1.35918 8.11378e-17
      vertex 0 -1.35918 0
      vertex 6.86275 -1.35918 0
    endloop
  endfacet
  facet normal 0.0330194 0 0.999455
    outer loop
      vertex 0 1.35918 2.22008
      vertex 8.22458 -1.35918 1.94836
      vertex 8.22458 1.35918 1.94836
    endloop
  endfacet
  facet normal 0.0330194 0 0.999455
    outer loop
      vertex 8.22458 -1.35918 1.94836
      vertex 0 1.35918 2.22008
      vertex 0 -1.35918 2.22008
    endloop
  endfacet
  facet normal 0.10973 0.993961 0
    outer loop
      vertex 6.86275 -1.35918 8.11378e-17
      vertex 6.86275 -1.35918 0
      vertex 6.49954 -1.31908 0
    endloop
  endfacet
  facet normal -0.10973 -0.993961 0
    outer loop
      vertex 7.13054 1.35918 0
      vertex 8.22458 1.2384 3.1841e-16
      vertex 7.13054 1.35918 7.40084e-17
    endloop
  endfacet
  facet normal -0.10973 -0.993961 -0
    outer loop
      vertex 8.22458 1.2384 3.1841e-16
      vertex 7.13054 1.35918 0
      vertex 8.22458 1.2384 0
    endloop
  endfacet
  facet normal 0 0 -1
    outer loop
      vertex 8.22458 -1.32527 0.311661
      vertex 4.75866 1.35918 0.311661
      vertex 8.22458 0.976552 0.311661
    endloop
  endfacet
  facet normal 0 0 -1
    outer loop
      vertex 0 -0.417308 0.311661
      vertex 4.75866 1.35918 0.311661
      vertex 8.22458 -1.32527 0.311661
    endloop
  endfacet
  facet normal -0 0 -1
    outer loop
      vertex 4.75866 1.35918 0.311661
      vertex 0 -0.417308 0.311661
      vertex 0 1.35918 0.311661
    endloop
  endfacet
  facet normal 0.0946055 0.856965 -0.506618
    outer loop
      vertex 6.86275 -1.35918 8.11378e-17
      vertex 8.22458 -1.32527 0.311661
      vertex 8.22458 -1.35918 0.254308
    endloop
  endfacet
  facet normal 0.0946056 0.856964 -0.506618
    outer loop
      vertex 8.22458 -1.32527 0.311661
      vertex 6.86275 -1.35918 8.11378e-17
      vertex 6.49954 -1.31908 0
    endloop
  endfacet
  facet normal 0.0946056 0.856964 -0.506618
    outer loop
      vertex 8.22458 -1.32527 0.311661
      vertex 6.49954 -1.31908 0
      vertex 0 -0.417308 0.311661
    endloop
  endfacet
  facet normal 0.0946056 0.856964 -0.506618
    outer loop
      vertex 0 -0.417308 0.311661
      vertex 6.49954 -1.31908 0
      vertex 0 -0.601555 0
    endloop
  endfacet
  facet normal -0.0842237 -0.762922 -0.64098
    outer loop
      vertex 7.13054 1.35918 7.40084e-17
      vertex 8.22458 0.976552 0.311661
      vertex 4.75866 1.35918 0.311661
    endloop
  endfacet
  facet normal -0.0842238 -0.762922 -0.64098
    outer loop
      vertex 8.22458 0.976552 0.311661
      vertex 7.13054 1.35918 7.40084e-17
      vertex 8.22458 1.2384 3.1841e-16
    endloop
  endfacet
endsolid OpenSCAD_Model
