solid OpenSCAD_Model
  facet normal -1 0 0
    outer loop
      vertex 0 -1.09968 0
      vertex 0 1.09968 2.92759
      vertex 0 1.09968 0
    endloop
  endfacet
  facet normal -1 -0 0
    outer loop
      vertex 0 1.09968 2.92759
      vertex 0 -1.09968 0
      vertex 0 -1.09968 2.92759
    endloop
  endfacet
  facet normal -0 0 1
    outer loop
      vertex 0 1.09968 2.92759
      vertex 1.8314 -1.09968 2.92759
      vertex 1.8314 1.09968 2.92759
    endloop
  endfacet
  facet normal 0 0 1
    outer loop
      vertex 1.8314 -1.09968 2.92759
      vertex 0 1.09968 2.92759
      vertex 0 -1.09968 2.92759
    endloop
  endfacet
  facet normal 1 -0 0
    outer loop
      vertex 11.6082 -1.09968 0.253201
      vertex 11.6082 1.09968 0
      vertex 11.6082 1.09968 0.253201
    endloop
  endfacet
  facet normal 1 0 0
    outer loop
      vertex 11.6082 1.09968 0
      vertex 11.6082 -1.09968 0.253201
      vertex 11.6082 -1.09968 0
    endloop
  endfacet
  facet normal 0 1 -0
    outer loop
      vertex 11.6082 1.09968 0
      vertex 1.8314 1.09968 2.92759
      vertex 11.6082 1.09968 0.253201
    endloop
  endfacet
  facet normal 0 1 0
    outer loop
      vertex 1.8314 1.09968 2.92759
      vertex 11.6082 1.09968 0
      vertex 0 1.09968 0
    endloop
  endfacet
  facet normal 0 1 0
    outer loop
      vertex 1.8314 1.09968 2.92759
      vertex 0 1.09968 0
      vertex 0 1.09968 2.92759
    endloop
  endfacet
  facet normal 0 0 -1
    outer loop
      vertex 11.1185 -1.09968 0
      vertex 11.6082 1.09968 0
      vertex 11.6082 -1.09968 0
    endloop
  endfacet
  facet normal 0 0 -1
    outer loop
      vertex 7.76739 0 0
      vertex 11.6082 1.09968 0
      vertex 11.1185 -1.09968 0
    endloop
  endfacet
  facet normal 0 0 -1
    outer loop
      vertex 0 1.09968 0
      vertex 7.0092 -1.09968 0
      vertex 0 -1.09968 0
    endloop
  endfacet
  facet normal 0 0 -1
    outer loop
      vertex 7.0092 -1.09968 0
      vertex 0 1.09968 0
      vertex 7.76739 0 0
    endloop
  endfacet
  facet normal 0 0 -1
    outer loop
      vertex 7.76739 0 0
      vertex 0 1.09968 0
      vertex 11.6082 1.09968 0
    endloop
  endfacet
  facet normal 0 -1 0
    outer loop
      vertex 0 -1.09968 0
      vertex 1.8314 -1.09968 2.92759
      vertex 0 -1.09968 2.92759
    endloop
  endfacet
  facet normal 0 -1 0
    outer loop
      vertex 7.0092 -1.09968 0
      vertex 1.8314 -1.09968 2.92759
      vertex 0 -1.09968 0
    endloop
  endfacet
  facet normal 0 -1 0
    outer loop
      vertex 1.8314 -1.09968 2.92759
      vertex 7.0092 -1.09968 0
      vertex 7.0092 -1.09968 1.51123
    endloop
  endfacet
  facet normal 0 -1 0
    outer loop
      vertex 11.1185 -1.09968 0
      vertex 11.6082 -1.09968 0.253201
      vertex 11.1185 -1.09968 0.387154
    endloop
  endfacet
  facet normal 0 -1 -0
    outer loop
      vertex 11.6082 -1.09968 0.253201
      vertex 11.1185 -1.09968 0
      vertex 11.6082 -1.09968 0
    endloop
  endfacet
  facet normal 0.26385 0 0.964564
    outer loop
      vertex 11.6082 1.09968 0.253201
      vertex 11.1185 -1.09968 0.387154
      vertex 11.6082 -1.09968 0.253201
    endloop
  endfacet
  facet normal 0.26385 -9.85727e-09 0.964564
    outer loop
      vertex 11.6082 1.09968 0.253201
      vertex 7.76739 0 1.30384
      vertex 11.1185 -1.09968 0.387154
    endloop
  endfacet
  facet normal 0.26385 3.94705e-08 0.964564
    outer loop
      vertex 1.8314 1.09968 2.92759
      vertex 7.76739 0 1.30384
      vertex 11.6082 1.09968 0.253201
    endloop
  endfacet
  facet normal 0.26385 4.0887e-08 0.964564
    outer loop
      vertex 1.8314 1.09968 2.92759
      vertex 7.0092 -1.09968 1.51123
      vertex 7.76739 0 1.30384
    endloop
  endfacet
  facet normal 0.26385 0 0.964564
    outer loop
      vertex 7.0092 -1.09968 1.51123
      vertex 1.8314 1.09968 2.92759
      vertex 1.8314 -1.09968 2.92759
    endloop
  endfacet
  facet normal -0.311794 -0.95015 0
    outer loop
      vertex 7.76739 0 0
      vertex 11.1185 -1.09968 0.387154
      vertex 7.76739 0 1.30384
    endloop
  endfacet
  facet normal -0.311794 -0.95015 -0
    outer loop
      vertex 11.1185 -1.09968 0.387154
      vertex 7.76739 0 0
      vertex 11.1185 -1.09968 0
    endloop
  endfacet
  facet normal 0.823287 -0.567625 0
    outer loop
      vertex 7.0092 -1.09968 0
      vertex 7.76739 0 1.30384
      vertex 7.0092 -1.09968 1.51123
    endloop
  endfacet
  facet normal 0.823287 -0.567625 0
    outer loop
      vertex 7.76739 0 1.30384
      vertex 7.0092 -1.09968 0
      vertex 7.76739 0 0
    endloop
  endfacet
endsolid OpenSCAD_Model
