solid OpenSCAD_Model
  facet normal -1 0 0
    outer loop
      vertex 0 -1.36786 0
      vertex 0 1.36786 2.13642
      vertex 0 1.36786 0
    endloop
  endfacet
  facet normal -1 -0 0
    outer loop
      vertex 0 1.36786 2.13642
      vertex 0 -1.36786 0
      vertex 0 -1.36786 2.13642
    endloop
  endfacet
  facet normal -0 0 1
    outer loop
      vertex 0 1.36786 2.13642
      vertex 8.95037 -1.36786 2.13642
      vertex 8.95037 1.36786 2.13642
    endloop
  endfacet
  facet normal 0 0 1
    outer loop
      vertex 8.95037 -1.36786 2.13642
      vertex 0 1.36786 2.13642
      vertex 0 -1.36786 2.13642
    endloop
  endfacet
  facet normal 1 -0 0
    outer loop
      vertex 9.03273 -1.36786 2.05664
      vertex 9.03273 1.36786 0.826454
      vertex 9.03273 1.36786 2.05664
    endloop
  endfacet
  facet normal 1 0 0
    outer loop
      vertex 9.03273 1.36786 0.826454
      vertex 9.03273 -1.36786 2.05664
      vertex 9.03273 -1.36786 0.826454
    endloop
  endfacet
  facet normal 0 1 -0
    outer loop
      vertex 9.03273 1.36786 0.826454
      vertex 8.95037 1.36786 2.13642
      vertex 9.03273 1.36786 2.05664
    endloop
  endfacet
  facet normal 0 1 0
    outer loop
      vertex 8.95037 1.36786 2.13642
      vertex 9.03273 1.36786 0.826454
      vertex 5.18501 1.36786 0.826454
    endloop
  endfacet
  facet normal 0 1 0
    outer loop
      vertex 8.95037 1.36786 2.13642
      vertex 5.18501 1.36786 0.826454
      vertex 0 1.36786 2.13642
    endloop
  endfacet
  facet normal 0 1 0
    outer loop
      vertex 0 1.36786 0
      vertex 5.18501 1.36786 0.826454
      vertex 5.18501 1.36786 0
    endloop
  endfacet
  facet normal 0 1 0
    outer loop
      vertex 5.18501 1.36786 0.826454
      vertex 0 1.36786 0
      vertex 0 1.36786 2.13642
    endloop
  endfacet
  facet normal 0 0 -1
    outer loop
      vertex 0 -1.36786 0
      vertex 6.55546 0 0
      vertex 8.97154 -1.36786 0
    endloop
  endfacet
  facet normal 0 0 -1
    outer loop
      vertex 0 -1.36786 0
      vertex 5.18501 1.36786 0
      vertex 6.55546 0 0
    endloop
  endfacet
  facet normal -0 0 -1
    outer loop
      vertex 5.18501 1.36786 0
      vertex 0 -1.36786 0
      vertex 0 1.36786 0
    endloop
  endfacet
  facet normal 0 -1 0
    outer loop
      vertex 8.97154 -1.36786 0.826454
      vertex 8.95037 -1.36786 2.13642
      vertex 0 -1.36786 2.13642
    endloop
  endfacet
  facet normal 0 -1 0
    outer loop
      vertex 8.95037 -1.36786 2.13642
      vertex 8.97154 -1.36786 0.826454
      vertex 9.03273 -1.36786 2.05664
    endloop
  endfacet
  facet normal 0 -1 0
    outer loop
      vertex 0 -1.36786 0
      vertex 8.97154 -1.36786 0.826454
      vertex 0 -1.36786 2.13642
    endloop
  endfacet
  facet normal 0 -1 -0
    outer loop
      vertex 8.97154 -1.36786 0.826454
      vertex 0 -1.36786 0
      vertex 8.97154 -1.36786 0
    endloop
  endfacet
  facet normal 0 -1 -0
    outer loop
      vertex 9.03273 -1.36786 2.05664
      vertex 8.97154 -1.36786 0.826454
      vertex 9.03273 -1.36786 0.826454
    endloop
  endfacet
  facet normal 0.695765 0 0.718269
    outer loop
      vertex 8.95037 1.36786 2.13642
      vertex 9.03273 -1.36786 2.05664
      vertex 9.03273 1.36786 2.05664
    endloop
  endfacet
  facet normal 0.695765 0 0.718269
    outer loop
      vertex 9.03273 -1.36786 2.05664
      vertex 8.95037 1.36786 2.13642
      vertex 8.95037 -1.36786 2.13642
    endloop
  endfacet
  facet normal 0.49267 0.870216 -0
    outer loop
      vertex 8.97154 -1.36786 0
      vertex 6.55546 0 0.826454
      vertex 8.97154 -1.36786 0.826454
    endloop
  endfacet
  facet normal 0.49267 0.870216 0
    outer loop
      vertex 6.55546 0 0.826454
      vertex 8.97154 -1.36786 0
      vertex 6.55546 0 0
    endloop
  endfacet
  facet normal 0.706435 0.707778 -0
    outer loop
      vertex 6.55546 0 0
      vertex 5.18501 1.36786 0.826454
      vertex 6.55546 0 0.826454
    endloop
  endfacet
  facet normal 0.706435 0.707778 0
    outer loop
      vertex 5.18501 1.36786 0.826454
      vertex 6.55546 0 0
      vertex 5.18501 1.36786 0
    endloop
  endfacet
  facet normal 0 0 -1
    outer loop
      vertex 8.97154 -1.36786 0.826454
      vertex 9.03273 1.36786 0.826454
      vertex 9.03273 -1.36786 0.826454
    endloop
  endfacet
  facet normal 0 0 -1
    outer loop
      vertex 6.55546 0 0.826454
      vertex 9.03273 1.36786 0.826454
      vertex 8.97154 -1.36786 0.826454
    endloop
  endfacet
  facet normal -0 0 -1
    outer loop
      vertex 9.03273 1.36786 0.826454
      vertex 6.55546 0 0.826454
      vertex 5.18501 1.36786 0.826454
    endloop
  endfacet
endsolid OpenSCAD_Model
