solid OpenSCAD_Model
  facet normal -1 0 0
    outer loop
      vertex 0 -1.33848 0
      vertex 0 1.33848 2.98243
      vertex 0 1.33848 0
    endloop
  endfacet
  facet normal -1 -0 0
    outer loop
      vertex 0 1.33848 2.98243
      vertex 0 -1.33848 0
      vertex 0 -1.33848 2.98243
    endloop
  endfacet
  facet normal -0 0 1
    outer loop
      vertex 0 1.33848 2.98243
      vertex 10.8953 -1.33848 2.98243
      vertex 10.8953 1.33848 2.98243
    endloop
  endfacet
  facet normal 0 0 1
    outer loop
      vertex 10.8953 -1.33848 2.98243
      vertex 0 1.33848 2.98243
      vertex 0 -1.33848 2.98243
    endloop
  endfacet
  facet normal 1 -0 0
    outer loop
      vertex 11.3112 -1.33848 2.69941
      vertex 11.3112 1.33848 0
      vertex 11.3112 1.33848 2.69941
    endloop
  endfacet
  facet normal 1 0 0
    outer loop
      vertex 11.3112 1.33848 0
      vertex 11.3112 -1.33848 2.69941
      vertex 11.3112 -1.33848 0
    endloop
  endfacet
  facet normal 0 1 -0
    outer loop
      vertex 11.3112 1.33848 0
      vertex 10.8953 1.33848 2.98243
      vertex 11.3112 1.33848 2.69941
    endloop
  endfacet
  facet normal 0 1 0
    outer loop
      vertex 10.8953 1.33848 2.98243
      vertex 11.3112 1.33848 0
      vertex 0 1.33848 0
    endloop
  endfacet
  facet normal 0 1 0
    outer loop
      vertex 10.8953 1.33848 2.98243
      vertex 0 1.33848 0
      vertex 0 1.33848 2.98243
    endloop
  endfacet
  facet normal 0 0 -1
    outer loop
      vertex 10.4386 -1.33848 0
      vertex 0 -1.33848 0
      vertex 9.68981 0 0
    endloop
  endfacet
  facet normal 0 0 -1
    outer loop
      vertex 9.68981 0 0
      vertex 11.3112 -1.33848 0
      vertex 10.5005 -1.33848 0
    endloop
  endfacet
  facet normal 0 0 -1
    outer loop
      vertex 11.3112 -1.33848 0
      vertex 9.68981 0 0
      vertex 11.3112 1.33848 0
    endloop
  endfacet
  facet normal 0 0 -1
    outer loop
      vertex 0 1.33848 0
      vertex 9.68981 0 0
      vertex 0 -1.33848 0
    endloop
  endfacet
  facet normal 0 0 -1
    outer loop
      vertex 9.68981 0 0
      vertex 0 1.33848 0
      vertex 11.3112 1.33848 0
    endloop
  endfacet
  facet normal 0 -1 0
    outer loop
      vertex 10.4386 -1.33848 2.12822
      vertex 10.8953 -1.33848 2.98243
      vertex 0 -1.33848 2.98243
    endloop
  endfacet
  facet normal 0 -1 0
    outer loop
      vertex 10.5005 -1.33848 2.12822
      vertex 10.8953 -1.33848 2.98243
      vertex 10.4386 -1.33848 2.12822
    endloop
  endfacet
  facet normal 0 -1 0
    outer loop
      vertex 0 -1.33848 0
      vertex 10.4386 -1.33848 2.12822
      vertex 0 -1.33848 2.98243
    endloop
  endfacet
  facet normal 0 -1 -0
    outer loop
      vertex 10.4386 -1.33848 2.12822
      vertex 0 -1.33848 0
      vertex 10.4386 -1.33848 0
    endloop
  endfacet
  facet normal 0 -1 -0
    outer loop
      vertex 10.8953 -1.33848 2.98243
      vertex 10.5005 -1.33848 2.12822
      vertex 11.3112 -1.33848 2.69941
    endloop
  endfacet
  facet normal 0 -1 0
    outer loop
      vertex 11.3112 -1.33848 0
      vertex 10.5005 -1.33848 2.12822
      vertex 10.5005 -1.33848 0
    endloop
  endfacet
  facet normal 0 -1 0
    outer loop
      vertex 10.5005 -1.33848 2.12822
      vertex 11.3112 -1.33848 0
      vertex 11.3112 -1.33848 2.69941
    endloop
  endfacet
  facet normal 0.562554 0 0.826761
    outer loop
      vertex 10.8953 1.33848 2.98243
      vertex 11.3112 -1.33848 2.69941
      vertex 11.3112 1.33848 2.69941
    endloop
  endfacet
  facet normal 0.562554 0 0.826761
    outer loop
      vertex 11.3112 -1.33848 2.69941
      vertex 10.8953 1.33848 2.98243
      vertex 10.8953 -1.33848 2.98243
    endloop
  endfacet
  facet normal 0.87273 0.488203 0
    outer loop
      vertex 10.4386 -1.33848 2.12822
      vertex 9.68981 0 0
      vertex 9.68981 0 2.12822
    endloop
  endfacet
  facet normal 0.87273 0.488203 0
    outer loop
      vertex 9.68981 0 0
      vertex 10.4386 -1.33848 2.12822
      vertex 10.4386 -1.33848 0
    endloop
  endfacet
  facet normal 0 0 -1
    outer loop
      vertex 10.5005 -1.33848 2.12822
      vertex 10.4386 -1.33848 2.12822
      vertex 9.68981 0 2.12822
    endloop
  endfacet
  facet normal -0.855334 -0.518077 0
    outer loop
      vertex 10.5005 -1.33848 0
      vertex 9.68981 0 2.12822
      vertex 9.68981 0 0
    endloop
  endfacet
  facet normal -0.855334 -0.518077 0
    outer loop
      vertex 9.68981 0 2.12822
      vertex 10.5005 -1.33848 0
      vertex 10.5005 -1.33848 2.12822
    endloop
  endfacet
endsolid OpenSCAD_Model
