#step, length, width, depth, chfdepth, chfangle, cut depth, cut angle, tilt, tcp, jawdist, stroke, force, success, robustness, alignment, coverage, wrench, stress, volume, q
0, 0.169844, 0.0330327, 0.0123347, 0, 45, 0, 90, 0, 0.101264, 0.0237436, 0.05, 25, 0.191304, 1, 0.106061, 0.000110039, 0.0343121, 0.623652, 0.307974, 0.000129461
1, 0.189844, 0.0330327, 0.0123347, 0, 45, 0, 90, 0, 0.101264, 0.0237436, 0.05, 25, 0.309013, 1, 0.166667, 0.000345725, 0.0219813, 0.579073, 0.226485, 0.000396232
2, 0.169844, 0.0380327, 0.0123347, 0, 45, 0, 90, 0, 0.101264, 0.0237436, 0.05, 25, 0.141509, 1, 0, 8.14761e-05, 0.0387772, 0.716102, 0.203226, 9.61612e-05
3, 0.169844, 0.0330327, 0.0173347, 0, 45, 0, 90, 0, 0.101264, 0.0237436, 0.05, 25, 0.454545, 1, 0.0666667, 0.000102769, 0.0759133, 0.732206, 0.0274552, 0.00011842
4, 0.169844, 0.0330327, 0.0123347, 0, 45, 0, 90, 0, 0.121264, 0.0237436, 0.05, 25, 0, 1, 0, 0, 0, 0.623652, 0.307974, 0
5, 0.169844, 0.0330327, 0.0123347, 0, 45, 0, 90, 0, 0.101264, 0.0287436, 0.05, 25, 0.139831, 1, 0.0909091, 0.000147889, 0.020856, 0.623652, 0.307974, 0.000172986
6, 0.177844, 0.0350327, 0.0143347, 0, 45, 0, 90, 0, 0.0812635, 0.0257436, 0.05, 25, 0.127219, 1, 0.0465116, 0.000347124, 0.00697335, 0.698439, 0.106899, 0.000395613
7, 0.181044, 0.0288327, 0.0151347, 0, 45, 0, 90, 0, 0.0932635, 0.0265436, 0.05, 25, 0.128527, 1, 0.097561, 0.00027479, 0.0199854, 0.570706, 0.209972, 0.000316075
8, 0.185524, 0.0321527, 0.00925472, 0, 45, 0, 90, 0, 0.0900635, 0.0276636, 0.05, 25, 0.147368, 1, 0.0833333, 0.000697393, 0.0142904, 0.421404, 0.447949, 0.000791173
9, 0.193364, 0.0317127, 0.00521472, 0, 45, 0, 90, 0, 0.0844635, 0.0296236, 0.05, 25, 0.115108, 1, 0.0555556, 0.00123118, 0.0197718, 0, 0.680229, 0
10, 0.191796, 0.0318007, 0.0130227, 0, 45, 0, 90, 0, 0.0855835, 0.0292316, 0.05, 25, 0.129771, 1, 0.0784314, 0.000884603, 0.00872305, 0.565374, 0.205715, 0.000994157
11, 0.177527, 0.0326015, 0.0125755, 0, 45, 0, 90, 0, 0.0957755, 0.0276644, 0.05, 25, 0.113772, 1, 0.0614035, 0.000300025, 0.00737626, 0.603784, 0.272175, 0.000345577
12, 0.18797, 0.0370154, 0.00947424, 0, 45, 0, 90, 0, 0.0883163, 0.0270751, 0.05, 25, 0.132653, 1, 0.0961538, 0.000656458, 0.00703798, 0.567901, 0.340804, 0.0007458
13, 0.195664, 0.0350122, 0.0107929, 0, 45, 0, 90, 0, 0.0828206, 0.0257186, 0.05, 25, 0.197832, 1, 0.0913242, 0.000842489, 0.0115377, 0.558603, 0.260619, 0.000949823
14, 0.184001, 0.0344177, 0.0126553, 0, 45, 0, 90, 0, 0.0854365, 0.026215, 0.05, 25, 0.11396, 1, 0.0666667, 0.000389325, 0.0119212, 0.633782, 0.198553, 0.000444983
15, 0.188138, 0.0351268, 0.00974524, 0, 45, 0, 90, 0, 0.0716247, 0.0306179, 0.05, 25, 0.122931, 1, 0.0641026, 0.0014034, 0.010461, 0.53311, 0.355969, 0.00157051
16, 0.187285, 0.0361738, 0.0084505, 0, 45, 0, 90, 0, 0.0568052, 0.0340551, 0.05, 25, 0.110865, 1, 0.0466667, 0.00202511, 0.0136604, 0.494608, 0.427494, 0.00225241
17, 0.195294, 0.0344442, 0.00774275, 0, 45, 0, 90, 0, 0.0759992, 0.0312826, 0.05, 25, 0.114865, 1, 0.0261438, 0.00151646, 0.0187243, 0.365469, 0.479166, 0.00169313
18, 0.194255, 0.030818, 0.0102312, 0, 45, 0, 90, 0, 0.0681925, 0.0321055, 0.05, 25, 0.11036, 1, 0.0340136, 0.00157197, 0.01232, 0.403355, 0.387504, 0.00175192
19, 0.189191, 0.0329012, 0.00965137, 0, 45, 0, 90, 0, 0.0819719, 0.0290711, 0.05, 25, 0.12201, 1, 0.0522876, 0.0010143, 0.02223, 0.45961, 0.399239, 0.00114196
20, 0.187465, 0.031443, 0.00884649, 0, 45, 0, 90, 0, 0.0646003, 0.0365798, 0.05, 25, 0.0844444, 1, 0.0350877, 0.00145655, 0.0177429, 0.360415, 0.478548, 0.00162729
21, 0.1896, 0.0345114, 0.00494621, 0, 45, 0, 90, 0, 0.0534441, 0.0360061, 0.05, 25, 0.0952381, 1, 0.0227273, 0.0022011, 0.0269169, 0.0395711, 0.676351, 0.00239513
22, 0.188502, 0.0358668, 0.000907955, 0, 45, 0, 90, 0, 0.0373745, 0.0393933, 0.05, 25, 0.147679, 1, 0.052381, 0.00619908, 0.033768, 0, 0.938613, 0
23, 0.192368, 0.0340549, 0.0064355, 0, 45, 0, 90, 0, 0.0456447, 0.0389405, 0.05, 25, 0.122363, 1, 0.0689655, 0.00390021, 0.0230061, 0.230783, 0.578405, 0.00426331
24, 0.193957, 0.0346318, 0.00482756, 0, 45, 0, 90, 0, 0.0274811, 0.0438752, 0.05, 25, 0.139344, 1, 0.0294118, 0.00778477, 0.0416624, 0.000221431, 0.675729, 0.00785406
25, 0.196692, 0.0367887, 0.0056328, 0, 45, 0, 90, 0, 0.0481686, 0.03435, 0.05, 25, 0.111354, 1, 0.0196078, 0.00297203, 0.0373689, 0.229911, 0.592409, 0.00326672
26, 0.189422, 0.0347253, 0.00589256, 0, 45, 0, 90, 0, 0.0256375, 0.0408742, 0.05, 25, 0.15735, 1, 0.0350877, 0.00728528, 0.0305888, 0.20447, 0.612403, 0.00786163
27, 0.186486, 0.0348659, 0.00496746, 0, 45, 0, 90, 0, 0.000456607, 0.04567, 0.05, 25, 0.111562, 1, 0.0242424, 0.012072, 0.0298693, 0.0784962, 0.677016, 0.0127907
28, 0.187353, 0.0399706, 0.0012986, 0, 45, 0, 90, 0, 0.00634976, 0.0454771, 0.05, 25, 0.138493, 1, 0.0441176, 0.014349, 0.0379401, 0, 0.902753, 0
29, 0.192529, 0.0331062, 0.00799806, 0, 45, 0, 90, 0, 0.0527318, 0.0354484, 0.05, 25, 0.12311, 1, 0.0526316, 0.00284502, 0.0271999, 0.344527, 0.490211, 0.00313641
30, 0.196421, 0.0333878, 0.00289833, 0, 45, 0, 90, 0, 0.0161077, 0.0440847, 0.05, 25, 0.131959, 1, 0.00520833, 0.00992094, 0.0349076, 0, 0.809926, 0
31, 0.189569, 0.0354773, 0.00706246, 0, 45, 0, 90, 0, 0.0466309, 0.0365625, 0.05, 25, 0.121145, 1, 0.0484848, 0.0030771, 0.0226157, 0.363594, 0.525022, 0.00339111
32, 0.194093, 0.0354365, 0.00724912, 0, 45, 0, 90, 0, 0.0167435, 0.0423564, 0.05, 25, 0.154489, 1, 0.00900901, 0.00925231, 0.0368008, 0.363643, 0.501406, 0.00997428
33, 0.191789, 0.0377739, 0.0038977, 0, 45, 0, 90, 0, 0.00306041, 0.0456773, 0.05, 25, 0.153061, 1, 0.0177778, 0.0167187, 0.0236354, 0, 0.717626, 0
34, 0.192344, 0.0342731, 0.00697297, 0, 45, 0, 90, 0, 0.040314, 0.0380056, 0.05, 25, 0.123932, 1, 0.0287356, 0.00404378, 0.0321718, 0.29917, 0.540325, 0.00442542
35, 0.185888, 0.0330851, 0.00679903, 0, 45, 0, 90, 0, 0.00448182, 0.0482379, 0.05, 25, 0.189796, 1, 0.0286738, 0.0199957, 0.0253781, 0.254724, 0.581851, 0.0211896
36, 0.190061, 0.0349679, 0.00661284, 0, 45, 0, 90, 0, 0.0322631, 0.0400958, 0.05, 25, 0.163441, 1, 0.0526316, 0.00697952, 0.0425233, 0.29855, 0.560507, 0.00755948
37, 0.191221, 0.0344353, 0.00653209, 0, 45, 0, 90, 0, 0.0282996, 0.0410263, 0.05, 25, 0.167715, 1, 0.0375, 0.00711364, 0.0309421, 0.26325, 0.569879, 0.00769362
38, 0.190195, 0.0347294, 0.00634395, 0, 45, 0, 90, 0, 0.0238778, 0.0421645, 0.05, 25, 0.169102, 1, 0.0493827, 0.009004, 0.0370477, 0.258217, 0.580959, 0.00969321
39, 0.189027, 0.0346642, 0.00554276, 0, 45, 0, 90, 0, 0.000916727, 0.0478953, 0.05, 25, 0.159836, 1, 0.0299145, 0.0184441, 0.0335233, 0.153061, 0.636812, 0.0194961
40, 0.191547, 0.034594, 0.00550401, 0, 45, 0, 90, 0, 0.0183882, 0.04457, 0.05, 25, 0.165657, 1, 0.0528455, 0.0110856, 0.0362786, 0.132153, 0.635283, 0.0118181
41, 0.189802, 0.0346293, 0.00617821, 0, 45, 0, 90, 0, 0.0160376, 0.0439552, 0.05, 25, 0.14553, 1, 0.0190476, 0.0098536, 0.0339722, 0.2355, 0.593925, 0.0105818
42, 0.191322, 0.0349021, 0.00652371, 0, 45, 0, 90, 0, 0.0123998, 0.044211, 0.05, 25, 0.161554, 1, 0.0253165, 0.0111409, 0.0257843, 0.281526, 0.564378, 0.0119504
43, 0.189328, 0.0345258, 0.0060228, 0, 45, 0, 90, 0, 0.0116831, 0.045036, 0.05, 25, 0.145833, 1, 0.0333333, 0.01109, 0.0261666, 0.213044, 0.606308, 0.0118728
44, 0.189979, 0.0345013, 0.00573758, 0, 45, 0, 90, 0, 0.0121879, 0.04539, 0.05, 25, 0.158763, 1, 0.00865801, 0.0115702, 0.0217276, 0.169893, 0.623929, 0.0123527
45, 0.187753, 0.0342817, 0.00580541, 0, 45, 0, 90, 0, 0.000494041, 0.0475257, 0.05, 25, 0.145161, 1, 0.0324074, 0.0164384, 0.0277762, 0.178835, 0.626336, 0.017439
46, 0.189574, 0.0345909, 0.00614708, 0, 45, 0, 90, 0, 0.00805362, 0.0455774, 0.05, 25, 0.164271, 1, 0.0375, 0.0137646, 0.0286448, 0.23085, 0.596903, 0.0146832
47, 0.188862, 0.0343994, 0.00579497, 0, 45, 0, 90, 0, 0.00753424, 0.0461856, 0.05, 25, 0.161885, 1, 0.0295359, 0.0145327, 0.0314664, 0.178123, 0.623515, 0.0154534
48, 0.189955, 0.0335427, 0.00706824, 0, 45, 0, 90, 0, 0.00813557, 0.0484987, 0.05, 25, 0.191667, 1, 0.0217391, 0.016341, 0.0312583, 0.28719, 0.549639, 0.0173961
49, 0.18702, 0.0333984, 0.00625708, 0, 45, 0, 90, 0, 0.000571337, 0.0497599, 0.05, 25, 0.1222, 1, 0.0388889, 0.0151668, 0.0234158, 0.200427, 0.609172, 0.0161291
50, 0.188395, 0.0340969, 0.00604473, 0, 45, 0, 90, 0, 0.00522707, 0.0472846, 0.05, 25, 0.1643, 1, 0.0164609, 0.0153963, 0.027099, 0.200033, 0.611704, 0.0163687
51, 0.189387, 0.0344699, 0.00624699, 0, 45, 0, 90, 0, 0.00713075, 0.046017, 0.05, 25, 0.166667, 1, 0.0121951, 0.0136872, 0.0293939, 0.238582, 0.592187, 0.0146058
52, 0.187612, 0.0336663, 0.00625456, 0, 45, 0, 90, 0, 0.00221119, 0.0488241, 0.05, 25, 0.173824, 1, 0.0235294, 0.0193358, 0.0277763, 0.210278, 0.60495, 0.0204731
53, 0.187699, 0.0335991, 0.00654327, 0, 45, 0, 90, 0, 0.00126867, 0.0491081, 0.05, 25, 0.15121, 1, 0.0311111, 0.0185966, 0.0266231, 0.241748, 0.587349, 0.0197267
54, 0.188776, 0.033701, 0.00662862, 0, 45, 0, 90, 0, 0.00500503, 0.0484085, 0.05, 25, 0.175153, 1, 0.0193798, 0.0167576, 0.0278442, 0.251741, 0.578292, 0.0178167
55, 0.187848, 0.0332046, 0.00690188, 0, 45, 0, 90, 0, 0.00505934, 0.0494639, 0.05, 25, 0.143443, 1, 0.0142857, 0.0154696, 0.0334778, 0.263376, 0.569502, 0.0164779
56, 0.187776, 0.0340124, 0.00607953, 0, 45, 0, 90, 0, 0.00163536, 0.0480102, 0.05, 25, 0.14898, 1, 0.0136986, 0.0160793, 0.0201622, 0.203293, 0.611717, 0.0170829
57, 0.185026, 0.0327946, 0.00707126, 0, 45, 0, 90, 0, 0.00561714, 0.0479448, 0.05, 25, 0.161554, 1, 0.0253165, 0.0152953, 0.0271662, 0.274062, 0.570926, 0.0163026
58, 0.184983, 0.0328282, 0.00692691, 0, 45, 0, 90, 0, 0.00608839, 0.0478028, 0.05, 25, 0.144603, 1, 0.028169, 0.0134368, 0.0292244, 0.260624, 0.579353, 0.0143531
59, 0.184319, 0.0322956, 0.00742716, 0, 45, 0, 90, 0, 0.00626437, 0.0484092, 0.05, 25, 0.192229, 1, 0.0283688, 0.0190091, 0.0266432, 0.290066, 0.557885, 0.0201815
60, 0.184444, 0.0327772, 0.00688423, 0, 45, 0, 90, 0, 0.00422022, 0.0481526, 0.05, 25, 0.162933, 1, 0.0291667, 0.0167154, 0.0271666, 0.25591, 0.583809, 0.0177772
61, 0.184956, 0.0324869, 0.00729584, 0, 45, 0, 90, 0, 0.00647571, 0.048594, 0.05, 25, 0.160494, 1, 0.0555556, 0.014877, 0.0233573, 0.28329, 0.56162, 0.015868
62, 0.18487, 0.0325476, 0.0072641, 0, 45, 0, 90, 0, 0.00473531, 0.0487326, 0.05, 25, 0.180527, 1, 0.0262172, 0.0189604, 0.022778, 0.283174, 0.562913, 0.0201278
63, 0.184863, 0.0329132, 0.00688248, 0, 45, 0, 90, 0, 0.00365183, 0.0479968, 0.05, 25, 0.145492, 1, 0.0234742, 0.0139626, 0.0289207, 0.260171, 0.58124, 0.0149038
64, 0.184933, 0.0325934, 0.0071925, 0, 45, 0, 90, 0, 0.00576974, 0.0484447, 0.05, 25, 0.166667, 1, 0.0411523, 0.0161709, 0.0287682, 0.27783, 0.566466, 0.017218
65, 0.184755, 0.032525, 0.00715554, 0, 45, 0, 90, 0, 0.00457144, 0.048846, 0.05, 25, 0.154321, 1, 0.00888889, 0.0146313, 0.0248673, 0.271745, 0.570011, 0.0156069
66, 0.184958, 0.0327272, 0.00709233, 0, 45, 0, 90, 0, 0.00535571, 0.0481701, 0.05, 25, 0.173737, 1, 0.0271318, 0.0164562, 0.0339174, 0.273502, 0.570689, 0.0175144
67, 0.184859, 0.0327796, 0.00699425, 0, 45, 0, 90, 0, 0.00425323, 0.0482363, 0.05, 25, 0.162933, 1, 0.025, 0.0158762, 0.0292323, 0.266066, 0.576175, 0.016906
68, 0.184914, 0.03264, 0.00714293, 0, 45, 0, 90, 0, 0.00539061, 0.0483926, 0.05, 25, 0.193416, 1, 0.0212766, 0.0193695, 0.0258813, 0.274964, 0.568881, 0.0205497
69, 0.184816, 0.032611, 0.00711465, 0, 45, 0, 90, 0, 0.00468122, 0.0485999, 0.05, 25, 0.205761, 1, 0.0233333, 0.0199402, 0.0306419, 0.271178, 0.571198, 0.0211411
70, 0.185479, 0.0324945, 0.00741492, 0, 45, 0, 90, 0, 0.00600111, 0.0487963, 0.05, 25, 0.195519, 1, 0.03125, 0.0195918, 0.0297411, 0.293129, 0.5531, 0.0207882
71, 0.185296, 0.0327029, 0.00709538, 0, 45, 0, 90, 0, 0.00599235, 0.0482417, 0.05, 25, 0.149897, 1, 0.0273973, 0.01415, 0.0215082, 0.271403, 0.57004, 0.0151033
72, 0.184977, 0.0325864, 0.00722192, 0, 45, 0, 90, 0, 0.00504957, 0.0486099, 0.05, 25, 0.179959, 1, 0.0151515, 0.0176849, 0.0223502, 0.280289, 0.564682, 0.0187981
73, 0.186424, 0.0333222, 0.00664122, 0, 45, 0, 90, 0, 0.00438212, 0.0480569, 0.05, 25, 0.154472, 1, 0.0263158, 0.014838, 0.0281241, 0.245651, 0.587443, 0.015812
74, 0.186093, 0.0333805, 0.00649108, 0, 45, 0, 90, 0, 0.00372217, 0.0479587, 0.05, 25, 0.161554, 1, 0.0168776, 0.0166491, 0.0247579, 0.232269, 0.596783, 0.0176951
75, 0.186375, 0.0333077, 0.00662708, 0, 45, 0, 90, 0, 0.00402742, 0.0481605, 0.05, 25, 0.184805, 1, 0.0259259, 0.0177655, 0.0178996, 0.243584, 0.58861, 0.0188638
76, 0.186673, 0.0334799, 0.00648496, 0, 45, 0, 90, 0, 0.00359055, 0.0481522, 0.05, 25, 0.168016, 1, 0.0281124, 0.0170641, 0.0271215, 0.23371, 0.594704, 0.0181279
77, 0.186397, 0.0333539, 0.00656649, 0, 45, 0, 90, 0, 0.00435508, 0.0479905, 0.05, 25, 0.184959, 1, 0.014652, 0.0185223, 0.0293387, 0.238629, 0.591757, 0.0196484
78, 0.186146, 0.0333207, 0.00654624, 0, 45, 0, 90, 0, 0.0036887, 0.0481431, 0.05, 25, 0.162602, 1, 0.0291667, 0.0160096, 0.0238364, 0.235783, 0.593969, 0.0170302
79, 0.186355, 0.0333218, 0.00661747, 0, 45, 0, 90, 0, 0.00420877, 0.0480784, 0.05, 25, 0.159751, 1, 0.017316, 0.0149631, 0.0276772, 0.24321, 0.589076, 0.0159416
80, 0.186216, 0.033321, 0.00656998, 0, 45, 0, 90, 0, 0.00386205, 0.0481215, 0.05, 25, 0.160569, 1, 0.0295359, 0.0165307, 0.0276503, 0.238277, 0.592339, 0.0175747
81, 0.18632, 0.0333216, 0.0066056, 0, 45, 0, 90, 0, 0.00412209, 0.0480892, 0.05, 25, 0.175869, 1, 0.0193798, 0.0175046, 0.0259178, 0.241984, 0.589893, 0.0185914
82, 0.186568, 0.0332389, 0.00674218, 0, 45, 0, 90, 0, 0.00450861, 0.0482935, 0.05, 25, 0.142276, 1, 0.0285714, 0.0137336, 0.0202878, 0.252636, 0.581896, 0.01466
83, 0.186212, 0.0333451, 0.00655386, 0, 45, 0, 90, 0, 0.00391878, 0.0480424, 0.05, 25, 0.211382, 1, 0.0192308, 0.0190931, 0.0225862, 0.237518, 0.593055, 0.0202413
