# depth, success, robustness, alignment, coverage, wrench, stress, volume, qsum, qlog
0, 0.786517, 0.727273, 0.130012, 0.572414, 0.0124676, 0, 1, 0.46124, 0
0.0025, 0.744444, 0.747368, 0.157534, 0.551724, 0.0642531, 0.23968, 0.9375, 0.491786, 0.354109
0.005, 0.696629, 0.802083, 0.0999296, 0.527027, 0.0655874, 0.61984, 0.875, 0.526585, 0.375202
0.0075, 0.728261, 0.88, 0.0518701, 0.540541, 0.0659519, 0.74656, 0.8125, 0.546526, 0.355588
0.01, 0.73913, 0.877551, 0.0932842, 0.567568, 0.0725934, 0.80992, 0.75, 0.558578, 0.395525
0.0125, 0.76087, 0.785714, 0.104999, 0.567568, 0.0778094, 0.847936, 0.6875, 0.547485, 0.399215
0.015, 0.766667, 0.836735, 0.0694509, 0.554054, 0.0764749, 0.87328, 0.625, 0.543094, 0.374354
0.0175, 0.771739, 0.854167, 0.0664419, 0.567568, 0.0805177, 0.891383, 0.5625, 0.542045, 0.37295
0.02, 0.784091, 0.858586, 0.0285475, 0.554054, 0.0802036, 0.90496, 0.5, 0.530063, 0.325415
0.0225, 0.736264, 0.814433, 0.0647208, 0.560811, 0.0805787, 0.91552, 0.4375, 0.51569, 0.354419
0.025, 0.769231, 0.814433, 0.0438708, 0.567568, 0.0792987, 0.923968, 0.375, 0.510481, 0.330267
0.0275, 0.8, 0.814433, 0.04919, 0.567568, 0.0816452, 0.93088, 0.3125, 0.508031, 0.330643
0.03, 0.761364, 0.848485, 0.0414447, 0.554054, 0.0816193, 0.93664, 0.25, 0.49623, 0.311332
