# chfangle, success, robustness, alignment, coverage, wrench, stress, volume, qsum, qlog
0, 0.322222, 0.783505, 0.0643387, 0.288961, 0.0741601, 0.90496, 0.52, 0.422592, 0.287864
4.5, 0.329545, 0.765306, 0.0439305, 0.282468, 0.0845635, 0.90496, 0.52123, 0.418858, 0.276906
9, 0.296703, 0.707071, 0.0659935, 0.285714, 0.0771291, 0.90496, 0.522475, 0.408578, 0.282686
13.5, 0.329787, 0.806122, 0.0440217, 0.301948, 0.0792738, 0.90496, 0.523751, 0.427123, 0.279357
18, 0.319149, 0.731959, 0.0804386, 0.301948, 0.0801786, 0.90496, 0.525077, 0.42053, 0.299501
22.5, 0.307692, 0.734694, 0.0634986, 0.292208, 0.0830409, 0.90496, 0.526472, 0.416081, 0.288401
27, 0.345238, 0.744898, 0.0612182, 0.269481, 0.0699745, 0.90496, 0.527961, 0.417676, 0.282005
31.5, 0.293478, 0.814433, 0.032811, 0.295455, 0.0856041, 0.90496, 0.529575, 0.422331, 0.266335
36, 0.296703, 0.78125, 0.0395988, 0.292208, 0.0757215, 0.90496, 0.531352, 0.417399, 0.267364
40.5, 0.322581, 0.773196, 0.0284526, 0.298701, 0.0776963, 0.90496, 0.533345, 0.419847, 0.259616
45, 0.347826, 0.77551, 0.0585234, 0.295455, 0.0764692, 0.90496, 0.535625, 0.427767, 0.290092
49.5, 0.322581, 0.723404, 0.0308207, 0.298701, 0.081065, 0.90496, 0.538295, 0.414261, 0.262041
54, 0.362637, 0.670103, 0.113601, 0.292208, 0.0763213, 0.90496, 0.541506, 0.423048, 0.314109
58.5, 0.340659, 0.773196, 0.0522152, 0.292208, 0.0825733, 0.90496, 0.545498, 0.42733, 0.287869
63, 0.344086, 0.712766, 0.0285852, 0.298701, 0.0773369, 0.90496, 0.550666, 0.416729, 0.260178
67.5, 0.354839, 0.787234, 0.0851304, 0.298701, 0.0782892, 0.90496, 0.557722, 0.438125, 0.310886
72, 0.351064, 0.747126, 0.0718999, 0.301948, 0.0747393, 0.867078, 0.568089, 0.425992, 0.298191
76.5, 0.362637, 0.729167, 0.0606455, 0.288961, 0.0848949, 0.792484, 0.585083, 0.414839, 0.292322
81, 0.311828, 0.845361, 0.092083, 0.298701, 0.0797214, 0.640517, 0.618652, 0.412409, 0.301988
85.5, 0.333333, 0.778947, 0.0441635, 0.288961, 0.0825899, 0.248457, 0.691298, 0.352536, 0.240843
90, 0.311828, 0.783505, 0.0680088, 0.298701, 0.0816571, 0, 0.768255, 0.330279, 0
