# cutdepth, success, robustness, alignment, coverage, wrench, stress, volume, qsum, qlog
0, 0.336957, 0.822917, 0.0700808, 0.295455, 0.0790198, 0.90496, 0.515625, 0.432145, 0.298609
0.0025, 0.340659, 0.816327, 0.136024, 0.292208, 0.0795741, 0.90496, 0.516875, 0.440947, 0.328341
0.005, 0.326087, 0.778947, 0.0835377, 0.295455, 0.0827048, 0.90496, 0.520625, 0.427474, 0.304779
0.0075, 0.344086, 0.826531, 0.0464353, 0.298701, 0.0775725, 0.90496, 0.526875, 0.432166, 0.283144
0.01, 0.340659, 0.81, 0.0598004, 0.292208, 0.0791256, 0.90496, 0.535625, 0.431768, 0.292897
0.0125, 0.340909, 0.765306, 0.0507592, 0.282468, 0.0777103, 0.904, 0.546875, 0.424004, 0.282534
0.015, 0.347826, 0.762887, 0.111136, 0.295455, 0.0678336, 0.85, 0.560625, 0.427966, 0.311039
0.0175, 0.336957, 0.676768, 0.0308102, 0.288961, 0.0681504, 0.733333, 0.576875, 0.387408, 0.248509
0.02, 0.280899, 0.795918, 0.00927864, 0.275974, 0.0734892, 0.4, 0.595625, 0.347312, 0.193135
0.0225, 0.315217, 0.71134, 0.0929383, 0.282468, 0.0610305, 0, 0.616875, 0.297124, 0
0.025, 0.322581, 0.755319, 0.0449558, 0.282468, 0.0569281, 0, 0.640625, 0.300411, 0
0.0275, 0, 0, 0, 0, 0, 0, 0, 0, 0
0.03, 0, 0, 0, 0, 0, 0, 0, 0, 0
0.0325, 0, 0, 0, 0, 0, 0, 0, 0, 0
0.035, 0, 0, 0, 0, 0, 0, 0, 0, 0
0.0375, 0, 0, 0, 0, 0, 0, 0, 0, 0
0.04, 0, 0, 0, 0, 0, 0, 0, 0, 0
0.0425, 0, 0, 0, 0, 0, 0, 0, 0, 0
0.045, 0, 0, 0, 0, 0, 0, 0, 0, 0
0.0475, 0, 0, 0, 0, 0, 0, 0, 0, 0
0.05, 0, 0, 0, 0, 0, 0, 0, 0, 0
