#step, length, width, depth, chfdepth, chfangle, cut depth, cut angle, tilt, tcp, jawdist, stroke, force, success, robustness, alignment, coverage, wrench, stress, volume, q
0, 0.1, 0.025, 0.02, 0, 45, 0.00154787, 114.146, 39.4324, 0.025, 0, 0.05, 25, 0.271375, 1, 0.313218, 0.2, 0.0718745, 0.8812, 0.500958, 0.152268
1, 0.1, 0.025, 0.02, 0, 45, 0.00154787, 24.1458, 39.4324, 0.025, 0, 0.05, 25, 0.315217, 1, 0.306306, 0.184232, 0.0714227, 0.8812, 0.500133, 0.150125
2, 0.1, 0.025, 0.02, 0, 45, 0.00154787, 114.146, -50.5676, 0.025, 0, 0.05, 25, 0.300341, 1, 0.301205, 0.219965, 0.0735563, 0.8812, 0.501165, 0.151069
3, 0.1, 0.025, 0.02, 0, 45, 0.0265479, 54.1458, -20.5676, 0.025, 0, 0.05, 25, 0, 0, 0, 0, 0, 0, 0, 0
4, 0.1, 0.025, 0.02, 0, 45, 0.00154787, 114.146, 84.4324, 0.025, 0, 0.05, 25, 0.274074, 1, 0.30898, 0.177904, 0.0706127, 0.8812, 0.503717, 0.149929
5, 0.1, 0.025, 0.02, 0, 45, 0.00154787, 159.146, 39.4324, 0.025, 0, 0.05, 25, 0.281955, 1, 0.28278, 0.193047, 0.0566655, 0.8812, 0.503371, 0.128684
6, 0.1, 0.025, 0.02, 0, 45, 0.0140479, 114.146, 39.4324, 0.025, 0, 0.05, 25, 0.13806, 1, 0.276134, 0.15157, 0.094429, 0.843684, 0.577441, 0.163835
7, 0.1, 0.025, 0.02, 0, 45, 0.0098812, 69.1458, 69.4324, 0.025, 0, 0.05, 25, 0.297101, 1, 0.307576, 0.186125, 0.065816, 0.8812, 0.535343, 0.144514
8, 0.1, 0.025, 0.02, 0, 45, 0.0036312, 136.646, 46.9324, 0.025, 0, 0.05, 25, 0.255172, 1, 0.267254, 0.187603, 0.0739673, 0.8812, 0.509716, 0.14279
9, 0.1, 0.025, 0.02, 0, 45, 0.00779787, 91.6458, 61.9324, 0.025, 0, 0.05, 25, 0.26259, 1, 0.294643, 0.19701, 0.0616979, 0.8812, 0.526087, 0.137008
10, 0.1, 0.025, 0.02, 0, 45, 0.00467287, 125.396, 50.6824, 0.025, 0, 0.05, 25, 0.270463, 1, 0.27802, 0.194397, 0.0651895, 0.8812, 0.513351, 0.136787
11, 0.1, 0.025, 0.02, 0, 45, 0.0202979, 114.146, 39.4324, 0.025, 0, 0.05, 25, 0.0111111, 1, 0.135417, 0.025974, 0.0890518, 0.151968, 0.651469, 0.110964
12, 0.1, 0.025, 0.02, 0, 45, 0.0202979, 114.146, 16.9324, 0.025, 0, 0.05, 25, 0.0138889, 1, 0.266667, 0.00892061, 0.0819314, 0.151968, 0.62908, 0.148896
13, 0.1, 0.025, 0.02, 0, 45, 0.0192562, 102.896, 35.6824, 0.025, 0, 0.05, 25, 0.192029, 1, 0.325444, 0.148899, 0.106479, 0.431667, 0.612016, 0.188035
14, 0.1, 0.025, 0.02, 0, 45, 0.0154368, 106.646, 21.9324, 0.025, 0, 0.05, 25, 0.206406, 1, 0.349291, 0.164192, 0.115804, 0.794982, 0.568978, 0.203538
15, 0.1, 0.025, 0.02, 0, 45, 0.0130062, 102.896, 13.1824, 0.025, 0, 0.05, 25, 0.212996, 1, 0.352041, 0.164844, 0.121975, 0.869657, 0.543603, 0.209695
16, 0.1, 0.025, 0.02, 0, 45, 0.0105756, 99.1458, 41.9324, 0.025, 0, 0.05, 25, 0.251799, 1, 0.277512, 0.17287, 0.0895094, 0.8812, 0.535296, 0.159921
17, 0.1, 0.025, 0.02, 0, 45, 0.0178673, 110.396, 23.1824, 0.025, 0, 0.05, 25, 0.155235, 1, 0.363095, 0.139883, 0.123543, 0.631451, 0.598981, 0.214044
18, 0.1, 0.025, 0.02, 0, 45, 0.0193719, 96.6458, 8.59904, 0.025, 0, 0.05, 25, 0.160714, 1, 0.62069, 0.148085, 0.160349, 0.408051, 0.585265, 0.316849
19, 0.1, 0.025, 0.02, 0, 45, 0.022034, 87.8958, -6.81763, 0.025, 0, 0.05, 25, 0.164234, 1, 0.618421, 0.125413, 0.152202, 0, 0.594264, 0
20, 0.1, 0.025, 0.02, 0, 45, 0.0142408, 103.729, -5.70652, 0.025, 0, 0.05, 25, 0.210145, 1, 0.293907, 0.157895, 0.123151, 0.838028, 0.551919, 0.192664
21, 0.1, 0.025, 0.02, 0, 45, 0.0180023, 103.104, 25.3352, 0.025, 0, 0.05, 25, 0.2, 1, 0.37037, 0.152913, 0.120924, 0.61709, 0.590042, 0.213836
22, 0.1, 0.025, 0.02, 0, 45, 0.0238215, 103.868, 24.8953, 0.025, 0, 0.05, 25, 0, 1, 0, 0.000835422, 0.101066, 0, 0.654082, 0
23, 0.1, 0.025, 0.02, 0, 45, 0.01571, 103.139, 16.1106, 0.025, 0, 0.05, 25, 0.18315, 1, 0.371859, 0.171256, 0.123369, 0.782743, 0.564753, 0.216603
24, 0.1, 0.025, 0.02, 0, 45, 0.0172972, 103.683, 6.59287, 0.025, 0, 0.05, 25, 0.206186, 1, 0.468468, 0.166667, 0.142737, 0.683989, 0.576661, 0.26087
25, 0.1, 0.025, 0.02, 0, 45, 0.0170521, 91.9158, -2.31403, 0.025, 0, 0.05, 25, 0.225, 1, 0.417962, 0.159241, 0.143663, 0.703176, 0.560182, 0.247335
26, 0.1, 0.025, 0.02, 0, 45, 0.0201041, 91.6908, -7.52536, 0.025, 0, 0.05, 25, 0.188406, 1, 0.557734, 0.139854, 0.150309, 0.217755, 0.58398, 0.290136
27, 0.1, 0.025, 0.02, 0, 45, 0.0207967, 102.764, 7.42506, 0.025, 0, 0.05, 25, 0.0539568, 1, 0.368421, 0.0334213, 0.129163, 0, 0.609033, 0
28, 0.1, 0.025, 0.02, 0, 45, 0.0179883, 94.6278, 0.120746, 0.025, 0, 0.05, 25, 0.162455, 1, 0.553704, 0.155039, 0.152926, 0.618626, 0.570166, 0.293053
29, 0.1, 0.025, 0.02, 0, 45, 0.0210124, 84.9601, -5.79658, 0.025, 0, 0.05, 25, 0.189474, 1, 0.492063, 0.146087, 0.154969, 0, 0.581275, 0
30, 0.1, 0.025, 0.02, 0, 45, 0.018226, 99.0021, 3.4955, 0.025, 0, 0.05, 25, 0.177936, 1, 0.520833, 0.148523, 0.155174, 0.59139, 0.577936, 0.286325
31, 0.1, 0.025, 0.02, 0, 45, 0.0200836, 89.6408, -2.69922, 0.025, 0, 0.05, 25, 0.123188, 1, 0.595528, 0.138748, 0.167213, 0.224281, 0.580255, 0.315981
32, 0.1, 0.025, 0.02, 0, 45, 0.0181917, 95.5854, 11.5391, 0.025, 0, 0.05, 25, 0.18315, 1, 0.4714, 0.139785, 0.141637, 0.595491, 0.574482, 0.260493
33, 0.1, 0.025, 0.02, 0, 45, 0.019626, 92.6644, -2.75925, 0.025, 0, 0.05, 25, 0.208754, 1, 0.584249, 0.149671, 0.161711, 0.35075, 0.580798, 0.308547
34, 0.1, 0.025, 0.02, 0, 45, 0.0213994, 91.3395, 1.97297, 0.025, 0, 0.05, 25, 0.163043, 1, 0.677852, 0.128117, 0.161537, 0, 0.593809, 0
35, 0.1, 0.025, 0.02, 0, 45, 0.0188411, 93.8057, 0.583801, 0.025, 0, 0.05, 25, 0.167808, 1, 0.586142, 0.151489, 0.157175, 0.505701, 0.575881, 0.305258
36, 0.1, 0.025, 0.02, 0, 45, 0.0205466, 92.1616, 1.50991, 0.025, 0, 0.05, 25, 0.158273, 1, 0.635347, 0.130817, 0.165328, 0.0545759, 0.58771, 0.322202
37, 0.1, 0.025, 0.02, 0, 45, 0.0213994, 91.3395, 1.97297, 0.025, 0, 0.05, 25, 0.192727, 1, 0.67756, 0.134093, 0.162361, 0, 0.593809, 0
38, 0.1, 0.025, 0.02, 0, 45, 0.0203754, 92.9676, 7.69907, 0.025, 0, 0.05, 25, 0.173432, 1, 0.61678, 0.124788, 0.162922, 0.123291, 0.588243, 0.316486
39, 0.1, 0.025, 0.02, 0, 45, 0.0201124, 98.2092, 14.5712, 0.025, 0, 0.05, 25, 0.175439, 1, 0.591111, 0.127226, 0.156414, 0.215102, 0.596493, 0.304563
40, 0.1, 0.025, 0.02, 0, 45, 0.0200908, 91.7829, 1.61839, 0.025, 0, 0.05, 25, 0.177083, 1, 0.625, 0.15534, 0.160511, 0.222002, 0.583313, 0.317133
41, 0.1, 0.025, 0.02, 0, 45, 0.0196308, 94.0925, 0.119158, 0.025, 0, 0.05, 25, 0.176678, 1, 0.635108, 0.145064, 0.164286, 0.349588, 0.582786, 0.324088
42, 0.1, 0.025, 0.02, 0, 45, 0.0192586, 94.6549, -3.6708, 0.025, 0, 0.05, 25, 0.227437, 1, 0.595506, 0.154113, 0.158136, 0.431201, 0.580629, 0.308362
43, 0.1, 0.025, 0.02, 0, 45, 0.0208069, 88.7122, -6.43407, 0.025, 0, 0.05, 25, 0.15411, 1, 0.584388, 0.128664, 0.161278, 0, 0.585198, 0
44, 0.1, 0.025, 0.02, 0, 45, 0.0197307, 94.6624, 4.84076, 0.025, 0, 0.05, 25, 0.18315, 1, 0.620758, 0.142857, 0.160383, 0.324706, 0.584771, 0.31654
45, 0.1, 0.025, 0.02, 0, 45, 0.0191729, 95.058, -0.576219, 0.025, 0, 0.05, 25, 0.184906, 1, 0.611814, 0.135274, 0.15816, 0.447793, 0.580319, 0.312595
46, 0.1, 0.025, 0.02, 0, 45, 0.0194009, 95.2473, -0.630461, 0.025, 0, 0.05, 25, 0.193431, 1, 0.6, 0.140785, 0.161437, 0.40192, 0.582514, 0.31259
47, 0.1, 0.025, 0.02, 0, 45, 0.0197603, 92.8159, -4.12078, 0.025, 0, 0.05, 25, 0.199262, 1, 0.643892, 0.147706, 0.160847, 0.317054, 0.582242, 0.322742
48, 0.1, 0.025, 0.02, 0, 45, 0.0196418, 92.7303, -2.42144, 0.025, 0, 0.05, 25, 0.171233, 1, 0.61082, 0.165799, 0.159411, 0.346913, 0.581, 0.313169
49, 0.1, 0.025, 0.02, 0, 45, 0.0201824, 91.3678, -3.70582, 0.025, 0, 0.05, 25, 0.155797, 1, 0.570231, 0.136833, 0.15551, 0.19214, 0.583609, 0.298133
50, 0.1, 0.025, 0.02, 0, 45, 0.0194253, 94.1354, -1.35862, 0.025, 0, 0.05, 25, 0.185455, 1, 0.579048, 0.15639, 0.158514, 0.396666, 0.581145, 0.304348
51, 0.1, 0.025, 0.02, 0, 45, 0.0195661, 94.7308, 2.23913, 0.025, 0, 0.05, 25, 0.149091, 1, 0.591085, 0.150481, 0.162427, 0.36499, 0.583228, 0.311075
52, 0.1, 0.025, 0.02, 0, 45, 0.0196253, 94.7736, 1.38945, 0.025, 0, 0.05, 25, 0.184397, 1, 0.584314, 0.149123, 0.161049, 0.350919, 0.583756, 0.307946
53, 0.1, 0.025, 0.02, 0, 45, 0.0198598, 93.6098, 0.466846, 0.025, 0, 0.05, 25, 0.175373, 1, 0.608434, 0.140797, 0.159095, 0.290357, 0.584018, 0.31199
54, 0.1, 0.025, 0.02, 0, 45, 0.0197458, 93.5151, 0.493967, 0.025, 0, 0.05, 25, 0.176678, 1, 0.617204, 0.134549, 0.164423, 0.320808, 0.58292, 0.319528
55, 0.1, 0.025, 0.02, 0, 45, 0.0199249, 92.7474, -1.51915, 0.025, 0, 0.05, 25, 0.186851, 1, 0.617934, 0.141791, 0.160812, 0.272045, 0.583331, 0.315963
56, 0.1, 0.025, 0.02, 0, 45, 0.0196746, 93.2936, -1.07086, 0.025, 0, 0.05, 25, 0.165517, 1, 0.620952, 0.148683, 0.159526, 0.338865, 0.582015, 0.31581
57, 0.1, 0.025, 0.02, 0, 45, 0.0198135, 93.5307, 0.0824189, 0.025, 0, 0.05, 25, 0.122744, 1, 0.635108, 0.147986, 0.16284, 0.302973, 0.583509, 0.322446
58, 0.1, 0.025, 0.02, 0, 45, 0.0195352, 94.6781, 1.98284, 0.025, 0, 0.05, 25, 0.160959, 1, 0.601905, 0.145591, 0.1608, 0.372144, 0.582876, 0.31235
59, 0.1, 0.025, 0.02, 0, 45, 0.0198275, 93.2301, -0.64365, 0.025, 0, 0.05, 25, 0.185714, 1, 0.638211, 0.133009, 0.16366, 0.299202, 0.583193, 0.324009
60, 0.1, 0.025, 0.02, 0, 45, 0.0197687, 93.7205, -0.788682, 0.025, 0, 0.05, 25, 0.188192, 1, 0.595238, 0.129412, 0.159641, 0.314858, 0.583416, 0.309268
61, 0.1, 0.025, 0.02, 0, 45, 0.0197515, 93.5664, 0.173304, 0.025, 0, 0.05, 25, 0.191882, 1, 0.620758, 0.150995, 0.161917, 0.319328, 0.583039, 0.318004
62, 0.1, 0.025, 0.02, 0, 45, 0.0195325, 94.5237, 0.500561, 0.025, 0, 0.05, 25, 0.196552, 1, 0.575926, 0.150628, 0.158618, 0.372767, 0.582583, 0.303544
63, 0.1, 0.025, 0.02, 0, 45, 0.0195395, 94.3734, 0.137527, 0.025, 0, 0.05, 25, 0.172535, 1, 0.611765, 0.149254, 0.156327, 0.371161, 0.582422, 0.310501
64, 0.1, 0.025, 0.02, 0, 45, 0.0195733, 94.3812, -0.068247, 0.025, 0, 0.05, 25, 0.161972, 1, 0.592357, 0.144169, 0.16124, 0.363297, 0.582718, 0.310269
65, 0.1, 0.025, 0.02, 0, 45, 0.0196299, 94.041, -0.374937, 0.025, 0, 0.05, 25, 0.193878, 1, 0.613936, 0.150638, 0.159298, 0.349807, 0.582705, 0.313867
66, 0.1, 0.025, 0.02, 0, 45, 0.0196269, 93.9568, -0.0105878, 0.025, 0, 0.05, 25, 0.179211, 1, 0.583864, 0.129006, 0.161651, 0.350553, 0.582556, 0.308393
67, 0.1, 0.025, 0.02, 0, 45, 0.0195867, 94.2751, -0.0538322, 0.025, 0, 0.05, 25, 0.202166, 1, 0.582305, 0.141981, 0.160507, 0.360146, 0.582678, 0.306945
68, 0.1, 0.025, 0.02, 0, 45, 0.0196313, 94.1182, 0.366205, 0.025, 0, 0.05, 25, 0.142857, 1, 0.617834, 0.135579, 0.163096, 0.349478, 0.582828, 0.318545
69, 0.1, 0.025, 0.02, 0, 45, 0.0196765, 93.9521, 0.109973, 0.025, 0, 0.05, 25, 0.16129, 1, 0.57906, 0.137445, 0.15849, 0.338382, 0.582967, 0.304094
70, 0.1, 0.025, 0.02, 0, 45, 0.0196596, 93.9482, 0.21286, 0.025, 0, 0.05, 25, 0.183521, 1, 0.580321, 0.147033, 0.154698, 0.342567, 0.582819, 0.300811
71, 0.1, 0.025, 0.02, 0, 45, 0.0196328, 94.1604, 0.18403, 0.025, 0, 0.05, 25, 0.139194, 1, 0.576923, 0.138544, 0.159461, 0.349104, 0.582901, 0.304504
72, 0.1, 0.025, 0.02, 0, 45, 0.0195868, 94.2954, 0.336289, 0.025, 0, 0.05, 25, 0.199324, 1, 0.633333, 0.166667, 0.161755, 0.360125, 0.582709, 0.321209
