# cutangle, success, robustness, alignment, coverage, wrench, stress, volume, qsum, qlog
0, 0.574742, 1, 0.0386226, 0.512153, 0.0863875, 0.95248, 0.515625, 0.525716, 0.335887
9, 0.556962, 1, 0.048531, 0.501736, 0.0815947, 0.95248, 0.517199, 0.522643, 0.34181
18, 0.564232, 1, 0.0359767, 0.524306, 0.0811298, 0.95248, 0.518793, 0.525274, 0.330054
27, 0.561097, 1, 0.0413739, 0.512153, 0.0804962, 0.95248, 0.520427, 0.524004, 0.335093
36, 0.556962, 1, 0.0659258, 0.506944, 0.0795713, 0.95248, 0.522123, 0.526287, 0.35683
45, 0.546599, 1, 0.0359929, 0.513889, 0.0813413, 0.95248, 0.523909, 0.52203, 0.328222
54, 0.537897, 1, 0.0479885, 0.524306, 0.0798019, 0.95248, 0.525816, 0.524041, 0.341431
63, 0.536765, 1, 0.0402586, 0.512153, 0.0819898, 0.95248, 0.527881, 0.521647, 0.333228
72, 0.532688, 1, 0.036881, 0.520833, 0.0768147, 0.95248, 0.530156, 0.521408, 0.326661
81, 0.546599, 1, 0.0324986, 0.513889, 0.0793925, 0.95248, 0.532707, 0.522509, 0.323118
90, 0.534177, 1, 0.0473963, 0.503472, 0.0754568, 0.95248, 0.535625, 0.52123, 0.336713
99, 0.541985, 1, 0.0372305, 0.517361, 0.0738769, 0.95248, 0.539042, 0.523139, 0.326552
108, 0.571802, 1, 0.0402129, 0.496528, 0.0671485, 0.95248, 0.543153, 0.524475, 0.326627
117, 0.547804, 1, 0.0430233, 0.498264, 0.0674627, 0.95248, 0.548262, 0.522471, 0.328602
126, 0.52987, 1, 0.0446585, 0.484375, 0.066436, 0.95248, 0.554877, 0.518957, 0.32731
135, 0.539846, 1, 0.0479007, 0.493056, 0.0665358, 0.95248, 0.563909, 0.52339, 0.333166
144, 0.545685, 1, 0.0453062, 0.515625, 0.0601465, 0.95248, 0.576094, 0.527905, 0.329392
153, 0.56, 1, 0.0398684, 0.520833, 0.0663267, 0.95248, 0.592273, 0.533112, 0.330977
162, 0.57561, 1, 0.0395645, 0.541667, 0.0479197, 0.95248, 0.618863, 0.539443, 0.320641
171, 0.602015, 1, 0.0381751, 0.513889, 0.039719, 0.931118, 0.666436, 0.541622, 0.312507
180, 0.58216, 1, 0.0333791, 0.555556, 0.0825606, 0.866957, 0.715625, 0.548034, 0.342508
