#step, length, width, depth, chfdepth, chfangle, cut depth, cut angle, tilt, tcp, jawdist, stroke, force, success, robustness, alignment, coverage, wrench, stress, volume, q
0, 0.0596994, 0.025, 0.0409353, 0, 45, 0, 90, 0, 0.0467828, 0, 0.05, 25, 1, 1, 0, 0.000103348, 0.139956, 0.965585, 0.389046, 0.000122542
1, 0.0396994, 0.025, 0.0409353, 0, 45, 0, 90, 0, 0.0467828, 0, 0.05, 25, 0, 0, 0, 0, 0, 0, 0, 0
2, 0.0796994, 0.025, 0.0409353, 0, 45, 0, 90, 0, 0.0467828, 0, 0.05, 25, 0.670588, 1, 0.473684, 0.00104304, 0.0727989, 0.953859, 0.18437, 0.00117318
3, 0.0796994, 0.025, 0.0359353, 0, 45, 0, 90, 0, 0.0467828, 0, 0.05, 25, 0.670391, 1, 0.504132, 0.00124254, 0.0692933, 0.947439, 0.283994, 0.00139861
4, 0.0796994, 0.025, 0.0459353, 0, 45, 0, 90, 0, 0.0467828, 0, 0.05, 25, 0.685714, 1, 0.434028, 0.000739548, 0.0659407, 0.958882, 0.0847453, 0.000831135
5, 0.0796994, 0.025, 0.0359353, 0, 45, 0, 90, 0, 0.0267828, 0, 0.05, 25, 0.53303, 1, 0.365819, 0.0234081, 0.0619647, 0.947439, 0.283994, 0.0248742
6, 0.0796994, 0.025, 0.0359353, 0, 45, 0, 90, 0, 0.0667828, 0, 0.05, 25, 0, 1, 0, 0, 0, 0.947439, 0.283994, 0
7, 0.0474994, 0.025, 0.0359353, 0, 45, 0, 90, 0, 0.0267828, 0, 0.05, 25, 0.437975, 1, 0.363636, 0.00852713, 0.0616992, 0.968945, 0.573273, 0.00930834
8, 0.111899, 0.025, 0.0359353, 0, 45, 0, 90, 0, 0.0267828, 0, 0.05, 25, 0.548458, 1, 0.396252, 0.0296358, 0.0632212, 0.925934, 0, 0
