# cutdepth, success, robustness, alignment, coverage, wrench, stress, volume, qsum, qlog
0, 0.0444444, 1, 0.0292438, 0.228521, 0.0739286, 0.95248, 0.515625, 0.40632, 0.195163
0.0025, 0.0507726, 1, 0.030622, 0.229407, 0.0702224, 0.95248, 0.516875, 0.407197, 0.198935
0.005, 0.0309051, 1, 0.0411136, 0.229407, 0.0682059, 0.95248, 0.520625, 0.406105, 0.192678
0.0075, 0.039823, 1, 0.0456053, 0.228521, 0.0793207, 0.95248, 0.526875, 0.410375, 0.207425
0.01, 0.0266667, 1, 0.0458784, 0.228521, 0.0959969, 0.95248, 0.535625, 0.412167, 0.201935
0.0125, 0.0353982, 1, 0.0390146, 0.228521, 0.106228, 0.952, 0.546875, 0.415434, 0.20906
0.015, 0.04, 1, 0.0641129, 0.225864, 0.121511, 0.925, 0.560625, 0.419588, 0.232295
0.0175, 0.0397351, 1, 0.175792, 0.217892, 0.147127, 0.866667, 0.576875, 0.432012, 0.272632
0.02, 0.0441501, 1, 0.311283, 0.19752, 0.160462, 0.7, 0.595625, 0.429863, 0.29214
0.0225, 0.0176991, 1, 0.188283, 0.064659, 0.120424, 0, 0.616875, 0.286849, 0
0.025, 0.00221729, 1, 0.105839, 0.0177148, 0.0850257, 0, 0.640625, 0.264489, 0
0.0275, 0, 0, 0, 0, 0, 0, 0, 0, 0
0.03, 0, 0, 0, 0, 0, 0, 0, 0, 0
0.0325, 0, 0, 0, 0, 0, 0, 0, 0, 0
0.035, 0, 0, 0, 0, 0, 0, 0, 0, 0
0.0375, 0, 0, 0, 0, 0, 0, 0, 0, 0
0.04, 0, 0, 0, 0, 0, 0, 0, 0, 0
0.0425, 0, 0, 0, 0, 0, 0, 0, 0, 0
0.045, 0, 0, 0, 0, 0, 0, 0, 0, 0
0.0475, 0, 0, 0, 0, 0, 0, 0, 0, 0
0.05, 0, 0, 0, 0, 0, 0, 0, 0, 0
