# depth, success, robustness, alignment, coverage, wrench, stress, volume, qsum, qlog
0, 0, 0, 0, 0, 0, 0, 0, 0, 0
0.0025, 0.0807175, 1, 0.0286698, 0.224863, 0.0793092, 0.61984, 0.941953, 0.42505, 0.218916
0.005, 0.0740741, 1, 0.0382084, 0.225136, 0.0791551, 0.80992, 0.883906, 0.444343, 0.231937
0.0075, 0.0599078, 1, 0.0455359, 0.228752, 0.0782505, 0.87328, 0.825859, 0.444512, 0.231111
0.01, 0.0455581, 1, 0.047475, 0.226944, 0.0816178, 0.90496, 0.767812, 0.439195, 0.223476
0.0125, 0.0430839, 1, 0.0404306, 0.228242, 0.088537, 0.923968, 0.709766, 0.433432, 0.217579
0.015, 0.0246085, 1, 0.0498521, 0.22913, 0.0882427, 0.93664, 0.651719, 0.425742, 0.204857
0.0175, 0.0380313, 1, 0.0352022, 0.229814, 0.0919361, 0.945691, 0.593672, 0.419192, 0.206258
0.02, 0.0221729, 1, 0.0453845, 0.228521, 0.0929906, 0.95248, 0.535625, 0.411025, 0.195486
0.0225, 0.0264901, 1, 0.0581256, 0.228117, 0.0981722, 0.95776, 0.477578, 0.406606, 0.206056
0.025, 0.0286976, 1, 0.046564, 0.227032, 0.0985375, 0.961984, 0.419531, 0.397478, 0.198317
0.0275, 0.0264317, 1, 0.0470302, 0.22467, 0.0974365, 0.96544, 0.361484, 0.388927, 0.191651
0.03, 0.0309735, 1, 0.0449467, 0.222612, 0.0995987, 0.96832, 0.303437, 0.381413, 0.190394
0.0325, 0.0353982, 1, 0.0425216, 0.224365, 0.0990644, 0.970757, 0.245391, 0.373928, 0.18691
0.035, 0.0241758, 1, 0.0404966, 0.221837, 0.103245, 0.972846, 0.187344, 0.364278, 0.169902
0.0375, 0.0198675, 1, 0.0335537, 0.217728, 0.103505, 0.974656, 0.129297, 0.354087, 0.152215
0.04, 0.0264901, 1, 0.034808, 0.212693, 0.102572, 0.97624, 0.07125, 0.346293, 0.14578
0.0425, 0.0264901, 1, 0.0460034, 0.210213, 0.102209, 0.977638, 0.0132031, 0.339394, 0.119002
0.045, 0.0198675, 1, 0.043415, 0.209637, 0.106519, 0.97888, 0, 0.336903, 0
0.0475, 0.0244444, 1, 0.0420577, 0.203827, 0.109379, 0.979992, 0, 0.3371, 0
0.05, 0.01766, 1, 0.0307981, 0.204319, 0.107958, 0.980992, 0, 0.334532, 0
