# length, success, robustness, alignment, coverage, wrench, stress, volume, qsum, qlog
0, 0, 0, 0, 0, 0, 0, 0, 0, 0
0.01, 0, 0, 0, 0, 0, 0, 0, 0, 0
0.02, 0, 0, 0, 0, 0, 0, 0, 0, 0
0.03, 0, 1, 0.01, 0, 0, 0.966667, 0.883125, 0.408542, 0
0.04, 0.149083, 1, 0.0303919, 0.0152099, 0.103525, 0.966667, 0.835625, 0.442929, 0.178452
0.05, 0.037422, 1, 0.0375878, 0.113861, 0.103136, 0.966667, 0.785625, 0.4349, 0.199425
0.06, 0.0286344, 1, 0.0468766, 0.168436, 0.103005, 0.966667, 0.735625, 0.435606, 0.207496
0.07, 0.0300231, 1, 0.0416657, 0.189641, 0.0983493, 0.966667, 0.685625, 0.430282, 0.205474
0.08, 0.0437788, 1, 0.0475656, 0.214097, 0.0933418, 0.96208, 0.635625, 0.42807, 0.22063
0.09, 0.0268456, 1, 0.0414146, 0.228926, 0.0952236, 0.95728, 0.585625, 0.419331, 0.201712
0.1, 0.0332594, 1, 0.0476707, 0.229407, 0.096239, 0.95248, 0.535625, 0.413526, 0.209745
0.11, 0.0383795, 1, 0.0483558, 0.228055, 0.0965288, 0.94768, 0.485625, 0.406375, 0.211294
0.12, 0.0440252, 1, 0.0463231, 0.230241, 0.0952837, 0.94288, 0.435625, 0.399197, 0.210604
0.13, 0.0269151, 1, 0.0467418, 0.2358, 0.0990568, 0.93808, 0.385625, 0.390317, 0.194762
0.14, 0.0511247, 1, 0.0427663, 0.242105, 0.0950656, 0.93328, 0.335625, 0.38571, 0.206038
0.15, 0.0526316, 1, 0.0542767, 0.262206, 0.0948477, 0.92848, 0.285625, 0.382581, 0.211356
0.16, 0.0572597, 1, 0.0511221, 0.273743, 0.0952467, 0.92368, 0.235625, 0.376668, 0.207587
0.17, 0.0590631, 1, 0.0453805, 0.286124, 0.0911912, 0.91888, 0.185625, 0.369466, 0.197996
0.18, 0.0787879, 1, 0.0428985, 0.295322, 0.0954575, 0.91408, 0.135625, 0.366024, 0.197718
0.19, 0.0655738, 1, 0.0498602, 0.313008, 0.0949593, 0.90928, 0.085625, 0.359758, 0.185529
0.2, 0.0858896, 1, 0.0386009, 0.332981, 0.0951296, 0.90448, 0.035625, 0.356101, 0.165382
