# length, success, robustness, alignment, coverage, wrench, stress, volume, qsum, qlog
0, 0, 0, 0, 0, 0, 0, 0, 0, 0
0.004, 0, 0, 0, 0, 0, 0, 0, 0, 0
0.008, 0, 1, 0, 0, 0, 0.79, 0.992, 0.397429, 0
0.012, 0.0113636, 1, 0, 1.39183e-05, 0.0168283, 0.67, 0.988, 0.383744, 0
0.016, 0.00857143, 1, 0, 2.05983e-05, 0.0236392, 0.55, 0.984, 0.366604, 0
0.02, 0.031746, 1, 0.0277778, 0.000112845, 0.0279252, 0.43, 0.98, 0.356795, 0.0529761
0.024, 0.0868486, 1, 0.114286, 0.000409022, 0.0334677, 0.31, 0.976, 0.360144, 0.0880741
0.028, 0.161836, 1, 0.228856, 0.000927451, 0.0374446, 0.19, 0.972, 0.370152, 0.113156
0.032, 0.211031, 1, 0.299242, 0.00139691, 0.045473, 0.07, 0.968, 0.370735, 0.115355
0.036, 0.241135, 1, 0.297386, 0.00177521, 0.0459668, 0, 0.964, 0.364323, 0
0.04, 0.250585, 1, 0.286604, 0.00199259, 0.0456391, 0, 0.96, 0.363546, 0
0.044, 0.265116, 1, 0.298246, 0.00222504, 0.0448819, 0, 0.956, 0.366638, 0
0.048, 0.292056, 1, 0.346667, 0.00258617, 0.0474044, 0, 0.952, 0.377245, 0
0.052, 0.294393, 1, 0.314815, 0.00269773, 0.0467884, 0, 0.948, 0.372385, 0
0.056, 0.303738, 1, 0.276923, 0.00288485, 0.0452884, 0, 0.944, 0.367548, 0
0.06, 0.295082, 1, 0.309524, 0.00285488, 0.0473033, 0, 0.94, 0.370681, 0
0.064, 0.297424, 1, 0.330709, 0.00291231, 0.0471109, 0, 0.936, 0.373451, 0
0.068, 0.297424, 1, 0.296588, 0.00295872, 0.0454286, 0, 0.932, 0.367771, 0
0.072, 0.302817, 1, 0.361757, 0.00303637, 0.0463186, 0, 0.928, 0.377418, 0
0.076, 0.299065, 1, 0.325521, 0.0030178, 0.0456161, 0, 0.924, 0.371031, 0
0.08, 0.310748, 1, 0.308271, 0.00317029, 0.0442109, 0, 0.92, 0.369486, 0
0.084, 0.303738, 1, 0.3, 0.00312117, 0.047218, 0, 0.916, 0.367154, 0
0.088, 0.314685, 1, 0.306173, 0.00330098, 0.0445754, 0, 0.912, 0.368676, 0
0.092, 0.316279, 1, 0.308824, 0.00334054, 0.0399106, 0, 0.908, 0.368051, 0
0.096, 0.305556, 1, 0.335859, 0.00324396, 0.0431478, 0, 0.904, 0.370258, 0
0.1, 0.310905, 1, 0.308458, 0.00333732, 0.0440339, 0, 0.9, 0.366676, 0
