<?xml version="1.0" encoding="utf-8"?>
<gripper name="pump1_49">
	<parameters>
		<length>0.1402080166905797</length>
		<width>0.02311161818799057</width>
		<depth>0.009811372331032235</depth>
		<chfdepth>0</chfdepth>
		<chfangle>45</chfangle>
		<cutdepth>0</cutdepth>
		<cutangle>90</cutangle>
		<cuttilt>0</cuttilt>
		<tcpoffset>0.002514144531698583</tcpoffset>
		<jawdist>0</jawdist>
		<stroke>0.05</stroke>
		<force>25</force>
		<basex>0.15</basex>
		<basey>0.1</basey>
		<basez>0.05</basez>
	</parameters>
	<qualities>
		<success>0.01851851851851852</success>
		<robustness>1</robustness>
		<alignment>0</alignment>
		<coverage>1.04009568880337e-05</coverage>
		<wrench>0.02051845246472793</wrench>
		<topwrench>0.02206415786159713</topwrench>
		<stress>0.5184544561117628</stress>
		<volume>0.5420929494152289</volume>
		<quality>1.286392995363532e-05</quality>
	</qualities>
</gripper>
