# cuttilt, success, robustness, alignment, coverage, wrench, stress, volume, qsum, qlog
-90, 0.352941, 0.84375, 0.0910615, 0.262987, 0.0825693, 0.95248, 0.615625, 0.457345, 0.320224
-81, 0.340909, 0.8125, 0.0795165, 0.272727, 0.0683518, 0.95248, 0.598326, 0.446401, 0.30291
-72, 0.352941, 0.831579, 0.236713, 0.253247, 0.0719479, 0.95248, 0.571128, 0.467148, 0.353413
-63, 0.383721, 0.884211, 0.149521, 0.262987, 0.0848813, 0.95248, 0.557898, 0.467957, 0.346672
-54, 0.364706, 0.742268, 0.0931194, 0.25974, 0.0864857, 0.95248, 0.549514, 0.435473, 0.313314
-45, 0.402439, 0.734043, 0.155058, 0.256494, 0.0807063, 0.95248, 0.543909, 0.446447, 0.336764
-36, 0.4, 0.84375, 0.160775, 0.253247, 0.0786902, 0.95248, 0.540346, 0.461327, 0.342822
-27, 0.357143, 0.833333, 0.220541, 0.25974, 0.0826537, 0.95248, 0.538072, 0.463423, 0.355824
-18, 0.356322, 0.789474, 0.121503, 0.269481, 0.0806123, 0.95248, 0.536654, 0.443789, 0.324579
-9, 0.364706, 0.838384, 0.111039, 0.262987, 0.0845927, 0.95248, 0.535874, 0.450009, 0.325306
0, 0.352273, 0.824742, 0.11583, 0.256494, 0.0849385, 0.95248, 0.535625, 0.446055, 0.323904
9, 0.376471, 0.810526, 0.146551, 0.256494, 0.0834165, 0.95248, 0.535874, 0.451687, 0.336482
18, 0.349398, 0.860215, 0.130205, 0.256494, 0.0846626, 0.95248, 0.536654, 0.452873, 0.330899
27, 0.367816, 0.787234, 0.124234, 0.256494, 0.0790866, 0.95248, 0.538072, 0.443631, 0.323897
36, 0.340909, 0.797872, 0.141056, 0.253247, 0.07992, 0.95248, 0.540346, 0.44369, 0.326985
45, 0.376471, 0.752577, 0.122281, 0.253247, 0.0772138, 0.95248, 0.543909, 0.43974, 0.320971
54, 0.367816, 0.826087, 0.210768, 0.253247, 0.0738825, 0.95248, 0.549514, 0.461971, 0.348725
63, 0.382022, 0.776596, 0.096148, 0.25974, 0.0765427, 0.95248, 0.557898, 0.443061, 0.314059
72, 0.390805, 0.827957, 0.0958623, 0.253247, 0.0674239, 0.95248, 0.571128, 0.451272, 0.312049
81, 0.37037, 0.816327, 0.186627, 0.243506, 0.0650608, 0.95248, 0.598326, 0.461814, 0.338521
90, 0.383721, 0.763441, 0.0797896, 0.266234, 0.0790548, 0.95248, 0.615625, 0.448621, 0.312105
