# depth, success, robustness, alignment, coverage, wrench, stress, volume, qsum, qlog
0, 0, 0, 0, 0, 0, 0, 0, 0, 0
0.0025, 0.470588, 0.659574, 0.0744921, 0.262238, 0.0591512, 0.61984, 0.941953, 0.44112, 0.298144
0.005, 0.425287, 0.804348, 0.127168, 0.265734, 0.0553552, 0.80992, 0.883906, 0.481674, 0.333422
0.0075, 0.404494, 0.71875, 0.0875135, 0.276451, 0.0637225, 0.87328, 0.825859, 0.464296, 0.317221
0.01, 0.4, 0.765957, 0.109838, 0.266212, 0.0764961, 0.90496, 0.767812, 0.470182, 0.335271
0.0125, 0.363636, 0.84375, 0.082887, 0.279863, 0.070881, 0.923968, 0.709766, 0.467822, 0.318275
0.015, 0.372093, 0.844444, 0.192718, 0.279863, 0.0791281, 0.93664, 0.651719, 0.479515, 0.362249
0.0175, 0.352273, 0.817204, 0.136987, 0.271523, 0.0812813, 0.945691, 0.593672, 0.456947, 0.33651
0.02, 0.337079, 0.802083, 0.125421, 0.25974, 0.0867191, 0.95248, 0.535625, 0.442735, 0.325804
0.0225, 0.378049, 0.83871, 0.123808, 0.243506, 0.0815878, 0.95776, 0.477578, 0.443, 0.32172
0.025, 0.367816, 0.912088, 0.142479, 0.262987, 0.0879758, 0.961984, 0.419531, 0.450694, 0.332184
0.0275, 0.329545, 0.701031, 0.160307, 0.266234, 0.0870034, 0.96544, 0.361484, 0.410149, 0.313764
0.03, 0.337349, 0.723404, 0.116479, 0.253247, 0.0866049, 0.96832, 0.303437, 0.398406, 0.2925
0.0325, 0.333333, 0.782609, 0.0820299, 0.265372, 0.0858048, 0.970757, 0.245391, 0.395042, 0.274043
0.035, 0.341176, 0.755319, 0.181749, 0.249191, 0.0928527, 0.972846, 0.187344, 0.397211, 0.295664
0.0375, 0.318182, 0.765957, 0.177456, 0.262136, 0.10221, 0.974656, 0.129297, 0.389985, 0.283179
0.04, 0.364706, 0.730337, 0.149098, 0.252427, 0.087916, 0.97624, 0.07125, 0.375996, 0.250157
0.0425, 0.301205, 0.755319, 0.165823, 0.23053, 0.0973207, 0.977638, 0.0132031, 0.363005, 0.195525
0.045, 0.289157, 0.741935, 0.131456, 0.23053, 0.084082, 0.97888, 0, 0.350863, 0
0.0475, 0.277108, 0.673684, 0.183376, 0.23053, 0.0957016, 0.979992, 0, 0.348627, 0
0.05, 0.27381, 0.797872, 0.237875, 0.223602, 0.0914493, 0.980992, 0, 0.372229, 0
