# stroke, success, robustness, alignment, coverage, wrench, stress, volume, qsum, qlog
0, 0, 0, 0.01, 0, 0, 0.95248, 0.535625, 0.214015, 0
0.0025, 0, 0, 0.01, 0, 0, 0.95248, 0.535625, 0.214015, 0
0.005, 0, 0, 0.01, 0, 0, 0.95248, 0.535625, 0.214015, 0
0.0075, 0, 0, 0.01, 0, 0, 0.95248, 0.535625, 0.214015, 0
0.01, 0, 0, 0.01, 0, 0, 0.95248, 0.535625, 0.214015, 0
0.0125, 0, 0, 0.01, 0, 0, 0.95248, 0.535625, 0.214015, 0
0.015, 0, 0, 0.01, 0, 0, 0.95248, 0.535625, 0.214015, 0
0.0175, 0, 0, 0.01, 0, 0, 0.95248, 0.535625, 0.214015, 0
0.02, 0, 0, 0.01, 0, 0, 0.95248, 0.535625, 0.214015, 0
0.0225, 0, 0, 0.01, 0, 0, 0.95248, 0.535625, 0.214015, 0
0.025, 0, 0, 0.01, 0, 0, 0.95248, 0.535625, 0.214015, 0
0.0275, 0, 0, 0.01, 0.000857633, 0, 0.95248, 0.535625, 0.214138, 0
0.03, 0.0444444, 0.252747, 0.01, 0.0383973, 0.0842034, 0.95248, 0.535625, 0.273985, 0.109211
0.0325, 0.244444, 0.505376, 0.0821195, 0.225714, 0.0888244, 0.95248, 0.535625, 0.376369, 0.26969
0.035, 0.298851, 0.589474, 0.174792, 0.242991, 0.0894646, 0.95248, 0.535625, 0.411954, 0.319721
0.0375, 0.280899, 0.703297, 0.181891, 0.249191, 0.07757, 0.95248, 0.535625, 0.42585, 0.321413
0.04, 0.307692, 0.645161, 0.133795, 0.266234, 0.0885377, 0.95248, 0.535625, 0.418504, 0.316679
0.0425, 0.321839, 0.776596, 0.146234, 0.25, 0.0749161, 0.95248, 0.535625, 0.436813, 0.320744
0.045, 0.302326, 0.791667, 0.104859, 0.25974, 0.0911466, 0.95248, 0.535625, 0.433978, 0.314321
0.0475, 0.340909, 0.795918, 0.0900075, 0.256494, 0.0782716, 0.95248, 0.535625, 0.435672, 0.305812
0.05, 0.340909, 0.833333, 0.139859, 0.256494, 0.081579, 0.95248, 0.535625, 0.448611, 0.329774
