# tcpoffset, success, robustness, alignment, coverage, wrench, stress, volume, qsum, qlog
0, 0.322222, 0.773196, 0.0446843, 0.217213, 0.0627557, 0.95248, 0.525625, 0.414025, 0.257943
0.01, 0.428571, 0.731183, 0.204334, 0.30038, 0.0815709, 0.95248, 0.535625, 0.462021, 0.361091
0.02, 0.367816, 0.784946, 0.121857, 0.290323, 0.0771916, 0.95248, 0.535625, 0.447177, 0.327286
0.03, 0.385542, 0.795918, 0.14184, 0.249191, 0.0795126, 0.95248, 0.535625, 0.448587, 0.331504
0.04, 0.360465, 0.795918, 0.129034, 0.233918, 0.0733441, 0.946667, 0.535625, 0.439282, 0.317053
0.05, 0.317647, 0.65625, 0.10091, 0.196126, 0.0832135, 0.933333, 0.535625, 0.403301, 0.289789
0.06, 0.309524, 0.725275, 0.0843951, 0.157895, 0.0673518, 0.92, 0.535625, 0.400009, 0.267994
0.07, 0.231707, 0.484536, 0.143357, 0.124797, 0.0783228, 0.906667, 0.535625, 0.357859, 0.258149
0.08, 0.13253, 0.625, 0.184927, 0.0708812, 0.0540312, 0.893333, 0.535625, 0.356618, 0.223743
0.09, 0.210526, 0.546512, 0.0875334, 0.00403575, 0.00555086, 0.88, 0.535625, 0.324255, 0.100882
0.1, 0, 0, 0.01, 0, 0, 0.883961, 0.525625, 0.202798, 0
0.11, 0, 0, 0, 0, 0, 0, 0, 0, 0
0.12, 0, 0, 0, 0, 0, 0, 0, 0, 0
0.13, 0, 0, 0, 0, 0, 0, 0, 0, 0
0.14, 0, 0, 0, 0, 0, 0, 0, 0, 0
0.15, 0, 0, 0, 0, 0, 0, 0, 0, 0
0.16, 0, 0, 0, 0, 0, 0, 0, 0, 0
0.17, 0, 0, 0, 0, 0, 0, 0, 0, 0
0.18, 0, 0, 0, 0, 0, 0, 0, 0, 0
0.19, 0, 0, 0, 0, 0, 0, 0, 0, 0
0.2, 0, 0, 0, 0, 0, 0, 0, 0, 0
