#step, length, width, depth, chfdepth, chfangle, cut depth, cut angle, tilt, tcp, jawdist, stroke, force, success, robustness, alignment, coverage, wrench, stress, volume, q
0, 0.179689, 0.025, 0.00642487, 0, 45, 0, 90, 0, 0.11351, 0, 0.05, 25, 0.056872, 1, 0.122807, 0.000206582, 0.0364784, 0.332509, 0.71138, 0.0593163
1, 0.199689, 0.025, 0.00642487, 0, 45, 0, 90, 0, 0.11351, 0, 0.05, 25, 0.15528, 1, 0.310345, 0.00108529, 0.0407595, 0.257799, 0.679256, 0.158327
2, 0.179689, 0.025, 0.0114249, 0, 45, 0, 90, 0, 0.11351, 0, 0.05, 25, 0.0559006, 1, 0.0714286, 0.000121849, 0.0433356, 0.624631, 0.486769, 0.0584666
3, 0.179689, 0.025, 0.00642487, 0, 45, 0, 90, 0, 0.13351, 0, 0.05, 25, 0, 1, 0, 0, 0, 0.332509, 0.71138, 0
4, 0.193022, 0.025, 0.0097582, 0, 45, 0, 90, 0, 0.0935095, 0, 0.05, 25, 0.165217, 1, 0.248588, 0.00135188, 0.0477856, 0.527726, 0.529112, 0.169027
5, 0.199689, 0.025, 0.0114249, 0, 45, 0, 90, 0, 0.0735095, 0, 0.05, 25, 0.325926, 1, 0.269608, 0.00537507, 0.0383155, 0.582617, 0.429645, 0.328676
6, 0.186356, 0.025, 0.0097582, 0, 45, 0, 90, 0, 0.106843, 0, 0.05, 25, 0.136842, 1, 0.241135, 0.000700698, 0.0445311, 0.544123, 0.545376, 0.1406
7, 0.187467, 0.025, 0.00781375, 0, 45, 0, 90, 0, 0.105732, 0, 0.05, 25, 0.159236, 1, 0.22807, 0.000978877, 0.050579, 0.427266, 0.633795, 0.162976
8, 0.190985, 0.025, 0.00915635, 0, 45, 0, 90, 0, 0.102213, 0, 0.05, 25, 0.168168, 1, 0.288889, 0.00107454, 0.0492051, 0.502023, 0.562818, 0.172006
9, 0.185739, 0.025, 0.0125051, 0, 45, 0, 90, 0, 0.0741268, 0, 0.05, 25, 0.391521, 1, 0.27044, 0.00615111, 0.042896, 0.645447, 0.41933, 0.39371
10, 0.178763, 0.025, 0.0155452, 0, 45, 0, 90, 0, 0.0544354, 0, 0.05, 25, 0.507212, 1, 0.382075, 0.0137662, 0.0557459, 0.725555, 0.305271, 0.506468
11, 0.192158, 0.025, 0.0162705, 0, 45, 0, 90, 0, 0.047707, 0, 0.05, 25, 0.570776, 1, 0.428951, 0.0207695, 0.0679693, 0.71803, 0.21837, 0.566699
12, 0.194504, 0.025, 0.0204989, 0, 45, 0, 90, 0, 0.0186947, 0, 0.05, 25, 0.569915, 1, 0.35409, 0.0896552, 0.0645007, 0.773447, 0.00321885, 0.543338
13, 0.189422, 0.025, 0.0196707, 0, 45, 0, 90, 0, 0.0148881, 0, 0.05, 25, 0.603814, 1, 0.385965, 0.104626, 0.0652548, 0.770109, 0.0684836, 0.592476
14, 0.173873, 0.025, 0.0228995, 0, 45, 0, 90, 0, 0.00451088, 0, 0.05, 25, 0.514583, 1, 0.384203, 0.114588, 0.0583731, 0.818819, 0.00459962, 0.493569
15, 0.193235, 0.025, 0.0142935, 0, 45, 0, 90, 0, 0.0562599, 0, 0.05, 25, 0.480278, 1, 0.38756, 0.0126246, 0.0584904, 0.677221, 0.309498, 0.479828
16, 0.180327, 0.025, 0.0200308, 0, 45, 0, 90, 0, 0.0217605, 0, 0.05, 25, 0.593548, 1, 0.423261, 0.077784, 0.0707312, 0.785139, 0.096975, 0.584701
17, 0.195841, 0.025, 0.0217695, 0, 45, 0, 90, 0, 0.00180169, 0, 0.05, 25, 0.470464, 1, 0.38565, 0.105238, 0.0579841, 0.785195, 0, 0
18, 0.183033, 0.025, 0.0171013, 0, 45, 0, 90, 0, 0.041277, 0, 0.05, 25, 0.558499, 1, 0.401575, 0.0272796, 0.0626152, 0.744535, 0.217475, 0.55492
19, 0.191572, 0.025, 0.0202134, 0, 45, 0, 90, 0, 0.0149601, 0, 0.05, 25, 0.561181, 1, 0.389513, 0.093981, 0.0667137, 0.773729, 0.0319182, 0.547349
20, 0.185168, 0.025, 0.0178793, 0, 45, 0, 90, 0, 0.0346978, 0, 0.05, 25, 0.549451, 1, 0.393333, 0.0377131, 0.0619926, 0.752786, 0.172332, 0.544919
21, 0.193969, 0.025, 0.0194907, 0, 45, 0, 90, 0, 0.0114519, 0, 0.05, 25, 0.51797, 1, 0.357724, 0.100408, 0.0642736, 0.762387, 0.0548518, 0.508617
22, 0.192616, 0.025, 0.0209555, 0, 45, 0, 90, 0, 0.00169366, 0, 0.05, 25, 0.492723, 1, 0.383543, 0.116302, 0.0577671, 0.780545, 0, 0
23, 0.188347, 0.025, 0.0193994, 0, 45, 0, 90, 0, 0.0148521, 0, 0.05, 25, 0.535032, 1, 0.377604, 0.0885507, 0.060367, 0.768224, 0.0865474, 0.527429
24, 0.193105, 0.025, 0.0176697, 0, 45, 0, 90, 0, 0.0289828, 0, 0.05, 25, 0.559829, 1, 0.419192, 0.05623, 0.0649285, 0.739073, 0.146973, 0.554043
25, 0.186613, 0.025, 0.0183359, 0, 45, 0, 90, 0, 0.0276968, 0, 0.05, 25, 0.571734, 1, 0.402214, 0.0566946, 0.0670791, 0.757049, 0.144572, 0.565634
26, 0.19108, 0.025, 0.0177182, 0, 45, 0, 90, 0, 0.0328596, 0, 0.05, 25, 0.582796, 1, 0.368873, 0.0447516, 0.064076, 0.742529, 0.153605, 0.576594
27, 0.184971, 0.025, 0.0194801, 0, 45, 0, 90, 0, 0.0213136, 0, 0.05, 25, 0.540373, 1, 0.400507, 0.0759896, 0.0697765, 0.773343, 0.0991826, 0.533337
28, 0.191071, 0.025, 0.0181223, 0, 45, 0, 90, 0, 0.0270655, 0, 0.05, 25, 0.553191, 1, 0.364103, 0.0569177, 0.0686422, 0.748282, 0.134335, 0.547186
29, 0.188593, 0.025, 0.020647, 0, 45, 0, 90, 0, 0.00590234, 0, 0.05, 25, 0.486542, 1, 0.351541, 0.10545, 0.0541092, 0.781943, 0.02653, 0.475067
30, 0.190826, 0.025, 0.0203382, 0, 45, 0, 90, 0, 0.00848379, 0, 0.05, 25, 0.516736, 1, 0.372312, 0.106438, 0.0529405, 0.775997, 0.0297363, 0.50448
31, 0.18758, 0.025, 0.0206713, 0, 45, 0, 90, 0, 0.00784078, 0, 0.05, 25, 0.526639, 1, 0.357977, 0.101301, 0.0582828, 0.783375, 0.0306206, 0.514152
32, 0.189959, 0.025, 0.0198064, 0, 45, 0, 90, 0, 0.0149061, 0, 0.05, 25, 0.513684, 1, 0.345628, 0.0889861, 0.0658239, 0.771033, 0.0593969, 0.50494
33, 0.187148, 0.025, 0.0197608, 0, 45, 0, 90, 0, 0.0166062, 0, 0.05, 25, 0.529661, 1, 0.405797, 0.0858792, 0.0661476, 0.773918, 0.0754529, 0.521573
34, 0.186141, 0.025, 0.0202621, 0, 45, 0, 90, 0, 0.0113173, 0, 0.05, 25, 0.530786, 1, 0.367862, 0.10048, 0.0591051, 0.780705, 0.0571001, 0.521277
35, 0.18756, 0.025, 0.0191245, 0, 45, 0, 90, 0, 0.0207003, 0, 0.05, 25, 0.533473, 1, 0.413072, 0.077016, 0.0688177, 0.765879, 0.103253, 0.526817
36, 0.189946, 0.025, 0.0187752, 0, 45, 0, 90, 0, 0.0234791, 0, 0.05, 25, 0.521097, 1, 0.406667, 0.0632111, 0.0739535, 0.758474, 0.10843, 0.51503
37, 0.187092, 0.025, 0.0198904, 0, 45, 0, 90, 0, 0.0143577, 0, 0.05, 25, 0.526427, 1, 0.398929, 0.0952563, 0.0632485, 0.775459, 0.0696675, 0.518056
38, 0.190352, 0.025, 0.0199439, 0, 45, 0, 90, 0, 0.011982, 0, 0.05, 25, 0.549793, 1, 0.391195, 0.10466, 0.0609229, 0.772138, 0.0509083, 0.538906
39, 0.190558, 0.025, 0.0196257, 0, 45, 0, 90, 0, 0.0140291, 0, 0.05, 25, 0.568085, 1, 0.360294, 0.0948066, 0.0617905, 0.768192, 0.0650372, 0.557789
40, 0.191062, 0.025, 0.0193751, 0, 45, 0, 90, 0, 0.0166735, 0, 0.05, 25, 0.51357, 1, 0.361789, 0.0757156, 0.0679662, 0.764569, 0.0745391, 0.505913
41, 0.18916, 0.025, 0.0201185, 0, 45, 0, 90, 0, 0.0105926, 0, 0.05, 25, 0.542977, 1, 0.378205, 0.096332, 0.0640487, 0.775539, 0.0485982, 0.532137
42, 0.190587, 0.025, 0.0195609, 0, 45, 0, 90, 0, 0.0151533, 0, 0.05, 25, 0.54717, 1, 0.35249, 0.0878492, 0.0629545, 0.76739, 0.0679875, 0.537877
43, 0.189635, 0.025, 0.0199326, 0, 45, 0, 90, 0, 0.0121128, 0, 0.05, 25, 0.522013, 1, 0.404, 0.0879662, 0.0659646, 0.772873, 0.0550171, 0.512592
44, 0.190349, 0.025, 0.0196539, 0, 45, 0, 90, 0, 0.0143932, 0, 0.05, 25, 0.557652, 1, 0.397004, 0.0935529, 0.0641452, 0.76878, 0.0647283, 0.547723
45, 0.189867, 0.025, 0.0193564, 0, 45, 0, 90, 0, 0.0168915, 0, 0.05, 25, 0.564211, 1, 0.380597, 0.088245, 0.0664641, 0.765824, 0.081218, 0.555251
46, 0.189549, 0.025, 0.019448, 0, 45, 0, 90, 0, 0.016146, 0, 0.05, 25, 0.515789, 1, 0.357724, 0.0869873, 0.0676746, 0.767319, 0.0784101, 0.508327
47, 0.190149, 0.025, 0.0196024, 0, 45, 0, 90, 0, 0.0148314, 0, 0.05, 25, 0.529412, 1, 0.384717, 0.0844741, 0.0623508, 0.768418, 0.0681565, 0.520777
48, 0.188853, 0.025, 0.0196933, 0, 45, 0, 90, 0, 0.0153176, 0, 0.05, 25, 0.535417, 1, 0.378553, 0.0877551, 0.0655418, 0.771065, 0.0702163, 0.526739
49, 0.189199, 0.025, 0.0198279, 0, 45, 0, 90, 0, 0.0138864, 0, 0.05, 25, 0.515856, 1, 0.349593, 0.0909091, 0.0588808, 0.772201, 0.0621426, 0.507265
50, 0.188958, 0.025, 0.0196792, 0, 45, 0, 90, 0, 0.0151356, 0, 0.05, 25, 0.513684, 1, 0.403794, 0.09101, 0.065252, 0.770773, 0.0703641, 0.505778
51, 0.189358, 0.025, 0.0197821, 0, 45, 0, 90, 0, 0.0142592, 0, 0.05, 25, 0.567227, 1, 0.405904, 0.0976929, 0.0680288, 0.771481, 0.0635257, 0.556858
52, 0.189223, 0.025, 0.0196028, 0, 45, 0, 90, 0, 0.0157569, 0, 0.05, 25, 0.522013, 1, 0.390667, 0.0868659, 0.0672082, 0.769556, 0.0726765, 0.513971
53, 0.189205, 0.025, 0.0197717, 0, 45, 0, 90, 0, 0.014354, 0, 0.05, 25, 0.555789, 1, 0.368687, 0.0882648, 0.0654322, 0.771546, 0.0647758, 0.545953
54, 0.189803, 0.025, 0.0197898, 0, 45, 0, 90, 0, 0.0136832, 0, 0.05, 25, 0.575569, 1, 0.408066, 0.100429, 0.065565, 0.771029, 0.0609607, 0.564655
55, 0.18985, 0.025, 0.0197234, 0, 45, 0, 90, 0, 0.0141997, 0, 0.05, 25, 0.558824, 1, 0.374532, 0.0993673, 0.0675611, 0.770202, 0.063877, 0.54879
56, 0.189366, 0.025, 0.0197596, 0, 45, 0, 90, 0, 0.0143154, 0, 0.05, 25, 0.533898, 1, 0.350461, 0.0916667, 0.0615726, 0.77121, 0.0645497, 0.524842
57, 0.189231, 0.025, 0.0196112, 0, 45, 0, 90, 0, 0.0154905, 0, 0.05, 25, 0.544513, 1, 0.378446, 0.0970449, 0.0640454, 0.769645, 0.0722365, 0.53565
58, 0.189454, 0.025, 0.0196151, 0, 45, 0, 90, 0, 0.0152026, 0, 0.05, 25, 0.543524, 1, 0.402831, 0.0939086, 0.0700602, 0.769418, 0.0709638, 0.534602
59, 0.18953, 0.025, 0.0196203, 0, 45, 0, 90, 0, 0.0151552, 0, 0.05, 25, 0.510288, 1, 0.389333, 0.0919794, 0.0655223, 0.769386, 0.0703416, 0.502489
60, 0.189207, 0.025, 0.0196444, 0, 45, 0, 90, 0, 0.0152323, 0, 0.05, 25, 0.539583, 1, 0.366286, 0.0969407, 0.0640106, 0.770063, 0.0707826, 0.530792
61, 0.189449, 0.025, 0.0196263, 0, 45, 0, 90, 0, 0.0151744, 0, 0.05, 25, 0.561028, 1, 0.419192, 0.0930889, 0.0714528, 0.769555, 0.0704514, 0.551437
62, 0.189281, 0.025, 0.0196571, 0, 45, 0, 90, 0, 0.0151662, 0, 0.05, 25, 0.533755, 1, 0.366271, 0.0883072, 0.0633936, 0.770122, 0.0698188, 0.525101
63, 0.18941, 0.025, 0.0196256, 0, 45, 0, 90, 0, 0.0151935, 0, 0.05, 25, 0.542735, 1, 0.392157, 0.0886648, 0.0654878, 0.769594, 0.0706772, 0.533821
64, 0.189408, 0.025, 0.019693, 0, 45, 0, 90, 0, 0.0147449, 0, 0.05, 25, 0.54717, 1, 0.405852, 0.0909406, 0.0662918, 0.770386, 0.0674998, 0.53786
65, 0.189517, 0.025, 0.0197005, 0, 45, 0, 90, 0, 0.0145869, 0, 0.05, 25, 0.539916, 1, 0.405405, 0.0888203, 0.0648987, 0.77034, 0.066605, 0.530798
66, 0.189406, 0.025, 0.0196986, 0, 45, 0, 90, 0, 0.0147309, 0, 0.05, 25, 0.530043, 1, 0.383065, 0.0946926, 0.060945, 0.770454, 0.0672437, 0.52133
