#step, length, width, depth, chfdepth, chfangle, cut depth, cut angle, tilt, tcp, jawdist, stroke, force, success, robustness, alignment, coverage, wrench, stress, volume, q
0, 0.145015, 0.0336209, 0.00818454, 0, 45, 0, 90, 0, 0.0351649, 0, 0.05, 25, 0.148649, 1, 0.222222, 0.000144077, 0.0591887, 0.533002, 0.600961, 0.000169461
1, 0.165015, 0.0336209, 0.00818454, 0, 45, 0, 90, 0, 0.0351649, 0, 0.05, 25, 0.0416667, 1, 0, 3.19693e-05, 0.0709077, 0.468148, 0.545927, 3.86427e-05
2, 0.145015, 0.0386209, 0.00818454, 0, 45, 0, 90, 0, 0.0351649, 0, 0.05, 25, 0.152778, 1, 0.10101, 0.000130656, 0.0522173, 0.646093, 0.541617, 0.000154104
3, 0.145015, 0.0336209, 0.0131845, 0, 45, 0, 90, 0, 0.0351649, 0, 0.05, 25, 0.0740741, 1, 0, 2.36242e-05, 0.0539383, 0.710102, 0.357185, 2.87233e-05
4, 0.145015, 0.0336209, 0.00818454, 0, 45, 0, 90, 0, 0.0551649, 0, 0.05, 25, 0.044335, 1, 0, 3.43514e-05, 0.0528207, 0.533002, 0.600961, 4.15554e-05
5, 0.155015, 0.0361209, 0.00318454, 0, 45, 0, 90, 0, 0.0451649, 0, 0.05, 25, 0.13, 1, 0.0598291, 0.000233893, 0.030654, 0, 0.821689, 0
6, 0.147515, 0.0342459, 0.0106845, 0, 45, 0, 90, 0, 0.0376649, 0, 0.05, 25, 0.075, 1, 0, 3.90066e-05, 0.0901231, 0.649224, 0.460241, 4.70374e-05
7, 0.126265, 0.0364334, 0.00943454, 0, 45, 0, 90, 0, 0.0464149, 0, 0.05, 25, 0.0568182, 1, 0.0333333, 3.46664e-05, 0.0289187, 0.699925, 0.565988, 4.20164e-05
8, 0.13689, 0.0378396, 0.0100595, 0, 45, 0, 90, 0, 0.0220399, 0, 0.05, 25, 0.156, 1, 0.145299, 0.000172282, 0.064099, 0.716968, 0.47893, 0.000202064
9, 0.132827, 0.039949, 0.010997, 0, 45, 0, 90, 0, 0.00547736, 0, 0.05, 25, 0.458549, 1, 0.352166, 0.00321578, 0.0459995, 0.77466, 0.416462, 0.00355915
10, 0.158921, 0.0367849, 0.00959079, 0, 45, 0, 90, 0, 0.0103211, 0, 0.05, 25, 0.266871, 1, 0.203065, 0.000973688, 0.0481613, 0.634938, 0.439332, 0.00110163
11, 0.143374, 0.040242, 0.00779392, 0, 45, 0, 90, 0, 0.00539923, 0, 0.05, 25, 0.466507, 1, 0.304274, 0.00436115, 0.042025, 0.661594, 0.550318, 0.00480376
12, 0.145024, 0.038135, 0.00866306, 0, 45, 0, 90, 0, 0.0246277, 0, 0.05, 25, 0.178707, 1, 0.163121, 0.000227956, 0.069009, 0.657045, 0.520888, 0.000265889
13, 0.145026, 0.0361993, 0.00872287, 0, 45, 0, 90, 0, 0.0233106, 0, 0.05, 25, 0.168582, 1, 0.204545, 0.000229706, 0.065726, 0.621992, 0.542064, 0.000267851
14, 0.145031, 0.0382144, 0.00896961, 0, 45, 0, 90, 0, 0.0178774, 0, 0.05, 25, 0.191126, 1, 0.27381, 0.000350401, 0.0784185, 0.670126, 0.502881, 0.000405217
15, 0.145032, 0.0374985, 0.00903036, 0, 45, 0, 90, 0, 0.0165397, 0, 0.05, 25, 0.194719, 1, 0.129944, 0.00037387, 0.0647323, 0.659711, 0.508886, 0.000431792
16, 0.145046, 0.0390228, 0.00973645, 0, 45, 0, 90, 0, 0.000991281, 0, 0.05, 25, 0.379775, 1, 0.317554, 0.00514037, 0.0388798, 0.708535, 0.448906, 0.00563637
17, 0.145037, 0.0382491, 0.00927995, 0, 45, 0, 90, 0, 0.0110435, 0, 0.05, 25, 0.237288, 1, 0.238095, 0.0007243, 0.0606179, 0.681721, 0.485192, 0.000825616
18, 0.145047, 0.0397503, 0.00977915, 0, 45, 0, 90, 0, 5.10191e-05, 0, 0.05, 25, 0.380531, 1, 0.300388, 0.0061944, 0.0396117, 0.720331, 0.436167, 0.0067665
19, 0.150247, 0.038263, 0.00958372, 0, 45, 0, 90, 0, 0.00665041, 0, 0.05, 25, 0.421875, 1, 0.360082, 0.00272939, 0.0459176, 0.680893, 0.449041, 0.00302895
20, 0.14591, 0.039002, 0.00958018, 0, 45, 0, 90, 0, 0.00481507, 0, 0.05, 25, 0.482051, 1, 0.326241, 0.00381679, 0.0446309, 0.701686, 0.454811, 0.00420972
21, 0.156862, 0.0390595, 0.0074478, 0, 45, 0, 90, 0, 0.000150944, 0, 0.05, 25, 0.372506, 1, 0.299603, 0.00602151, 0.0413656, 0.588491, 0.543677, 0.00658246
22, 0.146746, 0.0392603, 0.00913475, 0, 45, 0, 90, 0, 0.00323159, 0, 0.05, 25, 0.428904, 1, 0.291667, 0.00465552, 0.0399986, 0.689462, 0.473719, 0.00511599
23, 0.1459, 0.0397576, 0.00840923, 0, 45, 0, 90, 0, 0.00325272, 0, 0.05, 25, 0.440559, 1, 0.322751, 0.00526199, 0.044759, 0.672966, 0.512212, 0.00577163
24, 0.14748, 0.0393289, 0.00898896, 0, 45, 0, 90, 0, 0.00217154, 0, 0.05, 25, 0.459459, 1, 0.328431, 0.00556283, 0.0399628, 0.683942, 0.47862, 0.00609187
25, 0.152598, 0.0399254, 0.00757612, 0, 45, 0, 90, 0, 0.00182183, 0, 0.05, 25, 0.447427, 1, 0.3, 0.00614307, 0.041369, 0.623409, 0.538422, 0.00671587
26, 0.148198, 0.0396368, 0.00842862, 0, 45, 0, 90, 0, 0.00215078, 0, 0.05, 25, 0.440449, 1, 0.360544, 0.00551755, 0.0403941, 0.66652, 0.504894, 0.0060449
27, 0.149348, 0.0395764, 0.00843831, 0, 45, 0, 90, 0, 0.00159981, 0, 0.05, 25, 0.415704, 1, 0.314815, 0.00554273, 0.0412276, 0.663277, 0.501242, 0.00607121
28, 0.151646, 0.0394556, 0.0084577, 0, 45, 0, 90, 0, 0.000497862, 0, 0.05, 25, 0.346067, 1, 0.264069, 0.00503861, 0.0392425, 0.656751, 0.493951, 0.00552802
29, 0.149922, 0.0395462, 0.00844316, 0, 45, 0, 90, 0, 0.00132432, 0, 0.05, 25, 0.432432, 1, 0.303819, 0.00609814, 0.0377528, 0.66165, 0.499417, 0.00666669
30, 0.149294, 0.0394496, 0.00865026, 0, 45, 0, 90, 0, 0.00150429, 0, 0.05, 25, 0.402685, 1, 0.287037, 0.00556896, 0.0387487, 0.669532, 0.490536, 0.00609865
31, 0.152921, 0.0396911, 0.00797286, 0, 45, 0, 90, 0, 0.000169772, 0, 0.05, 25, 0.356828, 1, 0.290123, 0.00581604, 0.036786, 0.63714, 0.51608, 0.00636389
32, 0.150201, 0.03951, 0.00848091, 0, 45, 0, 90, 0, 0.00117066, 0, 0.05, 25, 0.409091, 1, 0.307407, 0.00587525, 0.0394221, 0.661908, 0.496707, 0.00642739
33, 0.152014, 0.0396307, 0.00814221, 0, 45, 0, 90, 0, 0.0005034, 0, 0.05, 25, 0.370288, 1, 0.239521, 0.00573489, 0.0408801, 0.645731, 0.509479, 0.00627685
34, 0.150654, 0.0395402, 0.00839623, 0, 45, 0, 90, 0, 0.00100384, 0, 0.05, 25, 0.423326, 1, 0.32483, 0.00656638, 0.041564, 0.657983, 0.499846, 0.00716785
35, 0.142249, 0.0403215, 0.00964953, 0, 45, 0, 90, 0, 0.00194956, 0, 0.05, 25, 0.417431, 1, 0.315018, 0.00497567, 0.0437404, 0.729899, 0.446533, 0.00546057
36, 0.153209, 0.039375, 0.00799823, 0, 45, 0, 90, 0, 0.000600598, 0, 0.05, 25, 0.414798, 1, 0.288288, 0.00630624, 0.0407574, 0.631765, 0.517499, 0.00688894
37, 0.150832, 0.0397492, 0.00843171, 0, 45, 0, 90, 0, 0.000414326, 0, 0.05, 25, 0.424837, 1, 0.280342, 0.00675442, 0.0408562, 0.662594, 0.494482, 0.00736875
38, 0.151267, 0.0397645, 0.00811372, 0, 45, 0, 90, 0, 0.00116964, 0, 0.05, 25, 0.429515, 1, 0.335043, 0.00619756, 0.0430359, 0.648624, 0.511955, 0.00677355
39, 0.157933, 0.0394642, 0.0066908, 0, 45, 0, 90, 0, 0.00154318, 0, 0.05, 25, 0.388262, 1, 0.248062, 0.00617395, 0.0384287, 0.548194, 0.582982, 0.00674572
40, 0.148269, 0.0396788, 0.00900706, 0, 45, 0, 90, 0, 0.00042406, 0, 0.05, 25, 0.387892, 1, 0.292871, 0.00577591, 0.0402749, 0.688447, 0.470104, 0.00631985
41, 0.150921, 0.0398537, 0.00844945, 0, 45, 0, 90, 0, 0.000119568, 0, 0.05, 25, 0.358277, 1, 0.255274, 0.00553725, 0.0409744, 0.664867, 0.491787, 0.00606434
42, 0.149643, 0.0399363, 0.00864844, 0, 45, 0, 90, 0, 0.00032119, 0, 0.05, 25, 0.370203, 1, 0.280488, 0.00576531, 0.0399002, 0.67671, 0.483152, 0.00630911
43, 0.150614, 0.0397415, 0.0085907, 0, 45, 0, 90, 0, 3.66694e-05, 0, 0.05, 25, 0.393333, 1, 0.276836, 0.0057917, 0.0352831, 0.669192, 0.485791, 0.00633706
44, 0.153724, 0.0397487, 0.00775799, 0, 45, 0, 90, 0, 0.000595979, 0, 0.05, 25, 0.390519, 1, 0.283237, 0.0059442, 0.037152, 0.626204, 0.525962, 0.00650145
45, 0.151486, 0.0397341, 0.00826497, 0, 45, 0, 90, 0, 0.000564515, 0, 0.05, 25, 0.4, 1, 0.271062, 0.00622222, 0.0374237, 0.654022, 0.502517, 0.00679929
46, 0.153685, 0.0395505, 0.00787424, 0, 45, 0, 90, 0, 0.000484555, 0, 0.05, 25, 0.362637, 1, 0.260606, 0.00583327, 0.0412953, 0.628118, 0.52138, 0.00638212
47, 0.154249, 0.0396497, 0.00757375, 0, 45, 0, 90, 0, 0.000993018, 0, 0.05, 25, 0.38964, 1, 0.319846, 0.00577148, 0.040304, 0.613875, 0.536795, 0.00631621
48, 0.151523, 0.0397186, 0.00833646, 0, 45, 0, 90, 0, 0.000275757, 0, 0.05, 25, 0.395143, 1, 0.301676, 0.00610213, 0.0353652, 0.656636, 0.498289, 0.00667032
49, 0.150098, 0.0399248, 0.00852133, 0, 45, 0, 90, 0, 0.000440733, 0, 0.05, 25, 0.420582, 1, 0.310284, 0.00620974, 0.0405339, 0.670695, 0.489349, 0.00678583
50, 0.148245, 0.0398147, 0.00901925, 0, 45, 0, 90, 0, 0.000251686, 0, 0.05, 25, 0.393103, 1, 0.339181, 0.00612903, 0.0414851, 0.691038, 0.467653, 0.00669833
51, 0.148807, 0.0398929, 0.00878216, 0, 45, 0, 90, 0, 0.000559873, 0, 0.05, 25, 0.372146, 1, 0.298569, 0.00599419, 0.0430572, 0.682733, 0.47866, 0.00655454
52, 0.150844, 0.0397622, 0.00844789, 0, 45, 0, 90, 0, 0.000346786, 0, 0.05, 25, 0.364444, 1, 0.300813, 0.00560492, 0.0383392, 0.663432, 0.493306, 0.00613705
53, 0.150505, 0.0397567, 0.00851507, 0, 45, 0, 90, 0, 0.000339232, 0, 0.05, 25, 0.393736, 1, 0.304924, 0.00613497, 0.0377632, 0.666753, 0.490494, 0.00670548
54, 0.151199, 0.0396614, 0.0083869, 0, 45, 0, 90, 0, 0.000401122, 0, 0.05, 25, 0.363436, 1, 0.270707, 0.00616385, 0.0365473, 0.658453, 0.497058, 0.00673647
55, 0.152125, 0.0397165, 0.00813794, 0, 45, 0, 90, 0, 0.000495646, 0, 0.05, 25, 0.395034, 1, 0.262857, 0.00633553, 0.0382626, 0.646815, 0.508317, 0.00692069
56, 0.150486, 0.0397645, 0.00847933, 0, 45, 0, 90, 0, 0.000483611, 0, 0.05, 25, 0.376106, 1, 0.301961, 0.00536769, 0.0417009, 0.665521, 0.492596, 0.00588237
57, 0.151844, 0.0396774, 0.00825648, 0, 45, 0, 90, 0, 0.000341552, 0, 0.05, 25, 0.395402, 1, 0.294574, 0.00622782, 0.0425379, 0.651849, 0.502566, 0.00680508
58, 0.152495, 0.0396455, 0.00809144, 0, 45, 0, 90, 0, 0.000487092, 0, 0.05, 25, 0.402247, 1, 0.281192, 0.00586251, 0.0375876, 0.642639, 0.510812, 0.00641363
59, 0.151002, 0.0397289, 0.00840916, 0, 45, 0, 90, 0, 0.000376197, 0, 0.05, 25, 0.365801, 1, 0.272189, 0.00559232, 0.0394383, 0.660959, 0.495521, 0.00612357
60, 0.150185, 0.0397656, 0.00857859, 0, 45, 0, 90, 0, 0.000373666, 0, 0.05, 25, 0.358744, 1, 0.270833, 0.00521207, 0.0375605, 0.670074, 0.487669, 0.00571495
61, 0.150326, 0.0397851, 0.00851932, 0, 45, 0, 90, 0, 0.000450713, 0, 0.05, 25, 0.401786, 1, 0.285185, 0.00616122, 0.0343276, 0.667793, 0.490483, 0.00673371
62, 0.150648, 0.0397931, 0.00845411, 0, 45, 0, 90, 0, 0.000420928, 0, 0.05, 25, 0.375, 1, 0.28655, 0.00610649, 0.0355182, 0.664642, 0.493196, 0.00667511
63, 0.150995, 0.0397454, 0.00839002, 0, 45, 0, 90, 0, 0.000451873, 0, 0.05, 25, 0.377778, 1, 0.276471, 0.00565818, 0.040742, 0.660483, 0.496483, 0.00619433
64, 0.151215, 0.0397709, 0.00831899, 0, 45, 0, 90, 0, 0.000495254, 0, 0.05, 25, 0.378378, 1, 0.30754, 0.00598333, 0.0390393, 0.65752, 0.499699, 0.00654325
65, 0.150515, 0.0398037, 0.00847204, 0, 45, 0, 90, 0, 0.000438737, 0, 0.05, 25, 0.361419, 1, 0.286299, 0.00593331, 0.0389003, 0.665827, 0.492435, 0.00648948
66, 0.150875, 0.03976, 0.00841053, 0, 45, 0, 90, 0, 0.000448589, 0, 0.05, 25, 0.371681, 1, 0.277778, 0.00576132, 0.0374811, 0.66183, 0.495469, 0.00630501
