# chfangle, success, robustness, alignment, coverage, wrench, stress, volume, qsum, qlog
0, 0.547009, 1, 0.294872, 0.0512416, 0.0685298, 0.8812, 0.5, 0.47755, 0.305711
3.6, 0.566524, 1, 0.325871, 0.0528183, 0.0703513, 0.8812, 0.5, 0.485252, 0.314192
7.2, 0.564655, 1, 0.295739, 0.0524241, 0.0683897, 0.8812, 0.5, 0.480344, 0.308142
10.8, 0.532189, 1, 0.291005, 0.049665, 0.0687132, 0.8812, 0.5, 0.474682, 0.302701
14.4, 0.525641, 1, 0.301075, 0.0488766, 0.0692359, 0.8812, 0.5, 0.475147, 0.303273
18, 0.60515, 1, 0.30303, 0.0563658, 0.0673558, 0.8812, 0.5, 0.487586, 0.314856
21.6, 0.559829, 1, 0.318296, 0.0524241, 0.0722647, 0.8812, 0.5, 0.483431, 0.313472
25.2, 0.559829, 1, 0.325758, 0.05203, 0.070531, 0.8812, 0.5, 0.484193, 0.313084
28.8, 0.545064, 1, 0.312661, 0.0508475, 0.0759343, 0.8812, 0.5, 0.480815, 0.312328
32.4, 0.57265, 1, 0.3382, 0.0540008, 0.0735868, 0.8812, 0.5, 0.48852, 0.319396
36, 0.553648, 1, 0.312977, 0.0516358, 0.0706637, 0.8812, 0.5, 0.481446, 0.310552
39.6, 0.532189, 1, 0.306878, 0.049665, 0.0752552, 0.8812, 0.5, 0.477884, 0.308995
43.2, 0.542735, 1, 0.284238, 0.0508475, 0.0687644, 0.8812, 0.5, 0.475398, 0.303583
46.8, 0.568966, 1, 0.325871, 0.0528183, 0.0728447, 0.8812, 0.5, 0.485957, 0.315953
50.4, 0.581197, 1, 0.311436, 0.0540008, 0.0715876, 0.8812, 0.5, 0.485632, 0.315083
54, 0.571429, 1, 0.313433, 0.0528183, 0.0709646, 0.8812, 0.5, 0.484263, 0.313223
57.6, 0.542735, 1, 0.307692, 0.0512416, 0.0699775, 0.8812, 0.5, 0.478978, 0.30815
61.2, 0.578723, 1, 0.333333, 0.0540008, 0.0699484, 0.8812, 0.5, 0.488172, 0.316912
64.8, 0.540773, 1, 0.333333, 0.0500591, 0.0755652, 0.8812, 0.5, 0.48299, 0.313921
68.4, 0.57265, 1, 0.311111, 0.0532125, 0.0670105, 0.8812, 0.5, 0.483598, 0.310763
72, 0.570815, 1, 0.283582, 0.0528183, 0.0697393, 0.8812, 0.5, 0.479736, 0.307962
75.6, 0.562232, 1, 0.315789, 0.0524241, 0.0761342, 0.8812, 0.5, 0.483969, 0.315653
79.2, 0.545455, 1, 0.3125, 0.0504533, 0.0731732, 0.8812, 0.5, 0.480397, 0.310343
82.8, 0.560345, 1, 0.323232, 0.05203, 0.0693851, 0.8812, 0.5, 0.483742, 0.312046
86.4, 0.560345, 1, 0.315522, 0.0516358, 0.0753444, 0.8812, 0.5, 0.483435, 0.314312
90, 0.559829, 1, 0.328321, 0.0524241, 0.0750914, 0.8812, 0.5, 0.485266, 0.316594
93.6, 0.547009, 1, 0.305128, 0.0512416, 0.0700789, 0.8812, 0.562915, 0.488225, 0.313453
