# cutdepth, success, robustness, alignment, coverage, wrench, stress, volume, qsum, qlog
0, 0.555556, 1, 0.323232, 0.05203, 0.0684272, 0.8812, 0.5, 0.482921, 0.311046
0.001, 0.57265, 1, 0.288889, 0.0532125, 0.0732964, 0.8812, 0.5002, 0.48135, 0.311472
0.002, 0.538793, 1, 0.328084, 0.0500591, 0.0743476, 0.8812, 0.5008, 0.481898, 0.312392
0.003, 0.540773, 1, 0.317708, 0.0504533, 0.0708721, 0.8812, 0.5018, 0.480401, 0.309438
0.004, 0.556034, 1, 0.310256, 0.0512416, 0.0741529, 0.8812, 0.5032, 0.482298, 0.312442
0.005, 0.523605, 1, 0.292683, 0.0484825, 0.0725387, 0.8812, 0.505, 0.474787, 0.303981
0.006, 0.542735, 1, 0.346253, 0.0508475, 0.0767231, 0.8812, 0.5072, 0.486423, 0.317837
0.007, 0.562232, 1, 0.343358, 0.0524241, 0.0669211, 0.8812, 0.5098, 0.487991, 0.314488
0.008, 0.581197, 1, 0.299517, 0.054395, 0.0664031, 0.8812, 0.5128, 0.485073, 0.311429
0.009, 0.519313, 1, 0.295699, 0.0488766, 0.0738456, 0.8812, 0.5162, 0.476448, 0.306156
0.01, 0.575107, 1, 0.277372, 0.0540008, 0.0660466, 0.8812, 0.52, 0.481961, 0.307624
0.011, 0.508547, 1, 0.302778, 0.0473, 0.0659316, 0.8812, 0.5242, 0.475708, 0.300606
0.012, 0.527897, 1, 0.314667, 0.0492708, 0.0663803, 0.8812, 0.5288, 0.481174, 0.306337
0.013, 0.543103, 1, 0.330709, 0.0501184, 0.0680762, 0.869792, 0.5338, 0.485085, 0.311491
0.014, 0.555556, 1, 0.30303, 0.0520916, 0.0652703, 0.845041, 0.5392, 0.480027, 0.307642
0.015, 0.536481, 1, 0.3125, 0.050513, 0.068377, 0.8125, 0.545, 0.475053, 0.306896
0.016, 0.484979, 1, 0.284058, 0.0453828, 0.0642977, 0.768519, 0.5512, 0.456919, 0.289466
0.017, 0.538793, 1, 0.309524, 0.0497434, 0.0592143, 0.707031, 0.5578, 0.460301, 0.294849
0.018, 0.51073, 1, 0.322314, 0.0477694, 0.063536, 0.617347, 0.5648, 0.446642, 0.290408
0.019, 0.491379, 1, 0.284058, 0.0454545, 0.0631018, 0.479167, 0.5722, 0.419337, 0.271865
0.02, 0.478448, 1, 0.321637, 0.0450593, 0.0608999, 0.25, 0.58, 0.390864, 0.250114
0.021, 0.487069, 1, 0.272464, 0.0457075, 0.0448353, 0, 0.5882, 0.348325, 0
0.022, 0.474138, 1, 0.274336, 0.0449126, 0.0450525, 0, 0.5968, 0.347891, 0
0.023, 0.476395, 1, 0.267857, 0.0447284, 0.0448062, 0, 0.6058, 0.348512, 0
0.024, 0.495726, 1, 0.254237, 0.0471246, 0.0332911, 0, 0.6152, 0.349368, 0
0.025, 0, 0, 0, 0, 0, 0, 0, 0, 0
