# jawdist, success, robustness, alignment, coverage, wrench, stress, volume, qsum, qlog
0, 0.543103, 1, 0.328125, 0.0504533, 0.070626, 0.8812, 0.5, 0.48193, 0.310744
0.002, 0.517094, 1, 0.33871, 0.0488766, 0.0640678, 0.8812, 0.5, 0.478564, 0.304307
0.004, 0.382979, 1, 0.337037, 0.035531, 0.0698717, 0.8812, 0.5, 0.458088, 0.28182
0.006, 0.247863, 1, 0.225989, 0.0234499, 0.0440309, 0.8812, 0.5, 0.417505, 0.220673
0.008, 0.042735, 1, 0, 0.00401123, 0.0314271, 0.8812, 0.5, 0.351339, 0
0.01, 0.0548523, 1, 0.0512821, 0.00543024, 0.0312964, 0.8812, 0.5, 0.36058, 0.111229
0.012, 0.0464135, 1, 0.030303, 0.00456811, 0.0240337, 0.8812, 0.5, 0.355217, 0.0946465
0.014, 0.0548523, 1, 0.025641, 0.00543024, 0.0304489, 0.8812, 0.5, 0.356796, 0.100348
0.016, 0.0590717, 1, 0.0238095, 0.00584795, 0.0316959, 0.8812, 0.5, 0.357375, 0.101999
0.018, 0.0588235, 1, 0.0238095, 0.00587988, 0.0354121, 0.8812, 0.5, 0.357875, 0.103646
0.02, 0.0504202, 1, 0.0555556, 0.00507185, 0.0366599, 0.8812, 0.5, 0.361272, 0.112599
0.022, 0.0378151, 1, 0.037037, 0.00380389, 0.0331242, 0.8812, 0.5, 0.35614, 0.0964692
0.024, 0.00420168, 1, 0, 0.000422654, 6.20787e-09, 0.8812, 0.5, 0.340832, 0
0.026, 0.00420168, 1, 0, 0.000422654, 2.91518e-09, 0.8812, 0.5, 0.340832, 0
0.028, 0, 1, 0, 0, 0, 0.8812, 0.5, 0.340171, 0
0.03, 0, 1, 0, 0, 0, 0.8812, 0.5, 0.340171, 0
0.032, 0, 1, 0, 0, 0, 0.8812, 0.5, 0.340171, 0
0.034, 0, 1, 0, 0, 0, 0.8812, 0.5, 0.340171, 0
0.036, 0, 1, 0, 0, 0, 0.8812, 0.5, 0.340171, 0
0.038, 0, 1, 0, 0, 0, 0.8812, 0.5, 0.340171, 0
0.04, 0, 1, 0, 0, 0, 0.8812, 0.5, 0.340171, 0
0.042, 0, 1, 0, 0, 0, 0.8812, 0.5, 0.340171, 0
0.044, 0, 1, 0, 0, 0, 0.8812, 0.5, 0.340171, 0
0.046, 0, 1, 0, 0, 0, 0.8812, 0.5, 0.340171, 0
0.048, 0.00421941, 1, 0, 0.000459982, 4.17776e-09, 0.8812, 0.5, 0.34084, 0
0.05, 0, 1, 0, 0, 0, 0.8812, 0.5, 0.340171, 0
