# tcpoffset, success, robustness, alignment, coverage, wrench, stress, volume, qsum, qlog
0, 0.385892, 1, 0.283154, 0.0895091, 0.0509918, 0.8812, 0.5, 0.455821, 0.300203
0.004, 0.470588, 1, 0.309524, 0.0968858, 0.0626069, 0.8812, 0.5, 0.474401, 0.325758
0.008, 0.497925, 1, 0.286111, 0.0956938, 0.0573343, 0.8812, 0.5, 0.474038, 0.320104
0.012, 0.557851, 1, 0.27451, 0.0955727, 0.0614188, 0.8812, 0.5, 0.481508, 0.326562
0.016, 0.599156, 1, 0.286713, 0.0910248, 0.0636348, 0.8812, 0.5, 0.488818, 0.331337
0.02, 0.539419, 1, 0.323308, 0.0713902, 0.0710506, 0.8812, 0.5, 0.483767, 0.325815
0.024, 0.555085, 1, 0.328395, 0.0572276, 0.0688324, 0.8812, 0.5, 0.484391, 0.316249
0.028, 0.564655, 1, 0.312977, 0.0409759, 0.0705931, 0.8812, 0.5, 0.481486, 0.301264
0.032, 0.555066, 1, 0.304233, 0.0308899, 0.0743627, 0.8812, 0.5, 0.477964, 0.289617
0.036, 0.555066, 1, 0.309524, 0.0212407, 0.0638202, 0.8812, 0.5, 0.475836, 0.269261
0.04, 0.631579, 1, 0.331019, 0.0162896, 0.0736078, 0.8812, 0.5, 0.490528, 0.272105
0.044, 0.64455, 1, 0.343137, 0.00940721, 0.076666, 0.8812, 0.5, 0.493566, 0.255088
0.048, 0.644231, 1, 0.404938, 0.00613469, 0.0814607, 0.8812, 0.5, 0.502566, 0.247841
0.052, 0.62766, 1, 0.392157, 0.00352457, 0.0708282, 0.8812, 0.5, 0.496481, 0.22259
0.056, 0.7, 1, 0.410714, 0.00240132, 0.0633178, 0.8812, 0.5, 0.508233, 0.212021
0.06, 0.55, 1, 0.285714, 0.00125823, 0.0426606, 0.8812, 0.5, 0.465833, 0.167611
0.064, 0.492308, 1, 0.217172, 0.000874346, 0.038349, 0.8812, 0.5, 0.447129, 0.148326
0.068, 0.49505, 1, 0.173333, 0.000527354, 0.0351745, 0.8812, 0.5, 0.440755, 0.132082
0.072, 0.468354, 1, 0.135135, 0.000364589, 0.0228319, 0.8812, 0.5, 0.429698, 0.112784
0.076, 0.666667, 1, 0, 0.000164799, 0.00693224, 0.8812, 0.5, 0.436423, 0
0.08, 0, 1, 0, 0, 0, 0.8812, 0.5, 0.340171, 0
0.084, 0, 1, 0, 0, 0, 0.8812, 0.5, 0.340171, 0
0.088, 0, 1, 0, 0, 0, 0.8812, 0.5, 0.340171, 0
0.092, 0, 1, 0, 0, 0, 0.8812, 0.5, 0.340171, 0
0.096, 0, 1, 0, 0, 0, 0.8812, 0.5, 0.340171, 0
0.1, 0, 0, 0, 0, 0, 0, 0, 0, 0
