#step, length, width, depth, chfdepth, chfangle, cut depth, cut angle, tilt, tcp, jawdist, stroke, force, success, robustness, alignment, coverage, wrench, stress, volume, q
0, 0.1, 0.025, 0.02, 0, 45, 0.0205095, 98.4107, -25.085, 0.025, 0, 0.05, 25, 0.146259, 1, 0.355721, 0.111111, 0.0998709, 0.0701509, 0.607056, 0.351944
1, 0.1, 0.025, 0.02, 0, 45, 0.0155095, 98.4107, -25.085, 0.025, 0, 0.05, 25, 0.221402, 1, 0.275676, 0.165474, 0.112264, 0.791827, 0.561551, 0.280492
2, 0.1, 0.025, 0.02, 0, 45, 0.0255095, 98.4107, -25.085, 0.025, 0, 0.05, 25, 0, 0, 0, 0, 0, 0, 0, 0
3, 0.1, 0.025, 0.02, 0, 45, 0.0205095, 80.4107, -25.085, 0.025, 0, 0.05, 25, 0.185874, 1, 0.274286, 0.151384, 0.117378, 0.0701509, 0.578512, 0.272631
4, 0.1, 0.025, 0.02, 0, 45, 0.0205095, 116.411, -25.085, 0.025, 0, 0.05, 25, 0.0970149, 1, 0.39881, 0.04811, 0.0886366, 0.0701509, 0.641971, 0.393907
5, 0.1, 0.025, 0.02, 0, 45, 0.0205095, 116.411, -43.085, 0.025, 0, 0.05, 25, 0.132404, 1, 0.291317, 0.104938, 0.102449, 0.0701509, 0.665842, 0.289616
6, 0.1, 0.025, 0.02, 0, 45, 0.0205095, 116.411, -7.08502, 0.025, 0, 0.05, 25, 0.0505051, 1, 0.390476, 0.0289017, 0.104268, 0.0701509, 0.632447, 0.385779
7, 0.1, 0.025, 0.02, 0, 45, 0.0174039, 116.411, -25.085, 0.025, 0, 0.05, 25, 0.191919, 1, 0.306738, 0.156536, 0.107197, 0.675046, 0.605471, 0.311187
8, 0.1, 0.025, 0.02, 0, 45, 0.0236151, 116.411, -25.085, 0.025, 0, 0.05, 25, 0.0101695, 1, 0.25, 0.00692042, 0.0895838, 0, 0.681907, 0
9, 0.1, 0.025, 0.02, 0, 45, 0.0205095, 87.4307, -25.085, 0.025, 0, 0.05, 25, 0.184211, 1, 0.339623, 0.135781, 0.131056, 0.0701509, 0.588807, 0.336221
10, 0.1, 0.025, 0.02, 0, 45, 0.0205095, 145.391, -25.085, 0.025, 0, 0.05, 25, 0.0034965, 1, 0.166667, 0.00167926, 0.0826423, 0.0701509, 0.733767, 0.167678
11, 0.1, 0.025, 0.02, 0, 45, 0.0205095, 116.411, -36.2651, 0.025, 0, 0.05, 25, 0.138686, 1, 0.228682, 0.0747826, 0.0992901, 0.0701509, 0.654571, 0.228391
12, 0.1, 0.025, 0.02, 0, 45, 0.0205095, 116.411, -13.9049, 0.025, 0, 0.05, 25, 0.0649819, 1, 0.459259, 0.038961, 0.0902106, 0.0701509, 0.634721, 0.452309
13, 0.1, 0.025, 0.02, 0, 45, 0.0185806, 116.411, -13.9049, 0.025, 0, 0.05, 25, 0.0992647, 1, 0.285141, 0.0757991, 0.0920481, 0.545004, 0.612546, 0.289117
14, 0.1, 0.025, 0.02, 0, 45, 0.0224384, 116.411, -13.9049, 0.025, 0, 0.05, 25, 0.0371622, 1, 0.304348, 0.0197764, 0.0918443, 0, 0.658134, 0
15, 0.1, 0.025, 0.02, 0, 45, 0.0205095, 98.4107, -13.9049, 0.025, 0, 0.05, 25, 0.151203, 1, 0.606557, 0.0988655, 0.099347, 0.0701509, 0.600382, 0.593805
16, 0.1, 0.025, 0.02, 0, 45, 0.0205095, 134.411, -13.9049, 0.025, 0, 0.05, 25, 0.0107527, 1, 0.222222, 0.00517688, 0.0960035, 0.0701509, 0.680082, 0.222147
17, 0.1, 0.025, 0.02, 0, 45, 0.0205095, 98.4107, -31.9049, 0.025, 0, 0.05, 25, 0.149466, 1, 0.252955, 0.125781, 0.09594, 0.0701509, 0.613292, 0.251973
18, 0.1, 0.025, 0.02, 0, 45, 0.0205095, 98.4107, 4.09511, 0.025, 0, 0.05, 25, 0.0890411, 1, 0.444444, 0.0574413, 0.115489, 0.0701509, 0.597731, 0.437742
19, 0.1, 0.025, 0.02, 0, 45, 0.0193114, 98.4107, -13.9049, 0.025, 0, 0.05, 25, 0.16, 1, 0.549266, 0.130008, 0.150569, 0.420583, 0.589033, 0.548206
20, 0.1, 0.025, 0.02, 0, 45, 0.0217076, 98.4107, -13.9049, 0.025, 0, 0.05, 25, 0.0809859, 1, 0.598174, 0.0630942, 0.0930549, 0, 0.612281, 0
21, 0.1, 0.025, 0.02, 0, 45, 0.0205095, 69.4307, -13.9049, 0.025, 0, 0.05, 25, 0.198606, 1, 0.297297, 0.172253, 0.114547, 0.0701509, 0.560046, 0.294943
22, 0.1, 0.025, 0.02, 0, 45, 0.0205095, 127.391, -13.9049, 0.025, 0, 0.05, 25, 0.0145455, 1, 0.242424, 0.0093617, 0.07723, 0.0701509, 0.660121, 0.241859
23, 0.1, 0.025, 0.02, 0, 45, 0.0205095, 98.4107, -25.085, 0.025, 0, 0.05, 25, 0.118056, 1, 0.348837, 0.109601, 0.0961733, 0.0701509, 0.607056, 0.345265
24, 0.1, 0.025, 0.02, 0, 45, 0.0205095, 98.4107, -2.72477, 0.025, 0, 0.05, 25, 0.0970149, 1, 0.402116, 0.0537084, 0.110126, 0.0701509, 0.597592, 0.39683
25, 0.1, 0.025, 0.02, 0, 45, 0.0197653, 98.4107, -13.9049, 0.025, 0, 0.05, 25, 0.134021, 1, 0.569264, 0.126333, 0.150855, 0.315734, 0.593262, 0.566213
26, 0.1, 0.025, 0.02, 0, 45, 0.0212537, 98.4107, -13.9049, 0.025, 0, 0.05, 25, 0.104089, 1, 0.611111, 0.071298, 0.0943926, 0, 0.607714, 0
27, 0.1, 0.025, 0.02, 0, 45, 0.0205095, 80.4107, -13.9049, 0.025, 0, 0.05, 25, 0.216117, 1, 0.387978, 0.153911, 0.13914, 0.0701509, 0.573254, 0.38299
28, 0.1, 0.025, 0.02, 0, 45, 0.0205095, 116.411, -13.9049, 0.025, 0, 0.05, 25, 0.0583942, 1, 0.485714, 0.0301205, 0.0874631, 0.0701509, 0.634721, 0.477839
29, 0.1, 0.025, 0.02, 0, 45, 0.0205095, 98.4107, -20.8491, 0.025, 0, 0.05, 25, 0.15331, 1, 0.5, 0.101667, 0.0938214, 0.0701509, 0.604043, 0.491375
30, 0.1, 0.025, 0.02, 0, 45, 0.0205095, 98.4107, -6.96072, 0.025, 0, 0.05, 25, 0.115254, 1, 0.56044, 0.0767285, 0.0974472, 0.0701509, 0.598205, 0.549488
31, 0.1, 0.025, 0.02, 0, 45, 0.0200473, 98.4107, -13.9049, 0.025, 0, 0.05, 25, 0.148789, 1, 0.590805, 0.119934, 0.145637, 0.235609, 0.595933, 0.585553
32, 0.1, 0.025, 0.02, 0, 45, 0.0209717, 98.4107, -13.9049, 0.025, 0, 0.05, 25, 0.113553, 1, 0.615942, 0.0785653, 0.0850421, 0, 0.604913, 0
33, 0.1, 0.025, 0.02, 0, 45, 0.0205095, 87.2306, -13.9049, 0.025, 0, 0.05, 25, 0.174377, 1, 0.471455, 0.15352, 0.150613, 0.0701509, 0.582577, 0.463692
34, 0.1, 0.025, 0.02, 0, 45, 0.0205095, 109.591, -13.9049, 0.025, 0, 0.05, 25, 0.108303, 1, 0.54359, 0.0564236, 0.080574, 0.0701509, 0.621023, 0.533483
35, 0.1, 0.025, 0.02, 0, 45, 0.0205095, 98.4107, -18.218, 0.025, 0, 0.05, 25, 0.160142, 1, 0.54902, 0.104294, 0.0931326, 0.0701509, 0.602475, 0.538546
36, 0.1, 0.025, 0.02, 0, 45, 0.0205095, 98.4107, -9.59174, 0.025, 0, 0.05, 25, 0.156028, 1, 0.570447, 0.0844948, 0.103341, 0.0701509, 0.59886, 0.559112
37, 0.1, 0.025, 0.02, 0, 45, 0.0202224, 98.4107, -13.9049, 0.025, 0, 0.05, 25, 0.133803, 1, 0.622378, 0.125991, 0.150912, 0.178544, 0.597609, 0.61456
38, 0.1, 0.025, 0.02, 0, 45, 0.0207966, 98.4107, -13.9049, 0.025, 0, 0.05, 25, 0.158451, 1, 0.582456, 0.0821089, 0.0930415, 0, 0.603187, 0
39, 0.1, 0.025, 0.02, 0, 45, 0.0202224, 91.4665, -13.9049, 0.025, 0, 0.05, 25, 0.158273, 1, 0.609053, 0.141856, 0.153615, 0.178544, 0.586443, 0.601547
40, 0.1, 0.025, 0.02, 0, 45, 0.0202224, 105.355, -13.9049, 0.025, 0, 0.05, 25, 0.0924658, 1, 0.556911, 0.0641628, 0.0863923, 0.178544, 0.609963, 0.551226
41, 0.1, 0.025, 0.02, 0, 45, 0.0202224, 98.4107, -16.5839, 0.025, 0, 0.05, 25, 0.136691, 1, 0.559701, 0.11512, 0.14201, 0.178544, 0.598819, 0.553834
42, 0.1, 0.025, 0.02, 0, 45, 0.0202224, 98.4107, -11.2259, 0.025, 0, 0.05, 25, 0.147727, 1, 0.623501, 0.127523, 0.149902, 0.178544, 0.596615, 0.615638
43, 0.1, 0.025, 0.02, 0, 45, 0.0197602, 98.4107, -11.2259, 0.025, 0, 0.05, 25, 0.145985, 1, 0.565891, 0.113857, 0.153033, 0.317076, 0.592254, 0.562938
44, 0.1, 0.025, 0.02, 0, 45, 0.0206846, 98.4107, -11.2259, 0.025, 0, 0.05, 25, 0.125448, 1, 0.509804, 0.07173, 0.0920896, 0, 0.601067, 0
45, 0.1, 0.025, 0.02, 0, 45, 0.0202224, 94.0976, -11.2259, 0.025, 0, 0.05, 25, 0.174377, 1, 0.622917, 0.131471, 0.149867, 0.178544, 0.589572, 0.615
46, 0.1, 0.025, 0.02, 0, 45, 0.0202224, 102.724, -11.2259, 0.025, 0, 0.05, 25, 0.105839, 1, 0.491667, 0.0665004, 0.0880767, 0.178544, 0.604171, 0.487792
47, 0.1, 0.025, 0.02, 0, 45, 0.0202224, 98.4107, -15.5391, 0.025, 0, 0.05, 25, 0.141304, 1, 0.635036, 0.118307, 0.154501, 0.178544, 0.598321, 0.62682
48, 0.1, 0.025, 0.02, 0, 45, 0.0202224, 98.4107, -6.91276, 0.025, 0, 0.05, 25, 0.169742, 1, 0.608392, 0.122222, 0.15156, 0.178544, 0.595466, 0.600996
49, 0.1, 0.025, 0.02, 0, 45, 0.0199353, 98.4107, -15.5391, 0.025, 0, 0.05, 25, 0.142336, 1, 0.533333, 0.116279, 0.147426, 0.269032, 0.595567, 0.530341
50, 0.1, 0.025, 0.02, 0, 45, 0.0205095, 98.4107, -15.5391, 0.025, 0, 0.05, 25, 0.102389, 1, 0.561224, 0.0826307, 0.0978871, 0.0701509, 0.601107, 0.550269
51, 0.1, 0.025, 0.02, 0, 45, 0.0202224, 95.7317, -15.5391, 0.025, 0, 0.05, 25, 0.117438, 1, 0.532407, 0.122241, 0.143825, 0.178544, 0.593835, 0.527299
52, 0.1, 0.025, 0.02, 0, 45, 0.0202224, 101.09, -15.5391, 0.025, 0, 0.05, 25, 0.133562, 1, 0.561224, 0.0831919, 0.0953794, 0.178544, 0.602979, 0.555349
53, 0.1, 0.025, 0.02, 0, 45, 0.0202224, 98.4107, -22.4832, 0.025, 0, 0.05, 25, 0.173913, 1, 0.416092, 0.127979, 0.118648, 0.178544, 0.602275, 0.414154
54, 0.1, 0.025, 0.02, 0, 45, 0.0202224, 98.4107, -8.59489, 0.025, 0, 0.05, 25, 0.160584, 1, 0.631206, 0.122822, 0.151407, 0.178544, 0.595848, 0.623087
55, 0.1, 0.025, 0.02, 0, 45, 0.0200441, 98.4107, -15.5391, 0.025, 0, 0.05, 25, 0.130112, 1, 0.582633, 0.102498, 0.141304, 0.236593, 0.596607, 0.577642
56, 0.1, 0.025, 0.02, 0, 45, 0.0204007, 98.4107, -15.5391, 0.025, 0, 0.05, 25, 0.129032, 1, 0.56974, 0.125333, 0.133624, 0.113613, 0.600048, 0.56109
57, 0.1, 0.025, 0.02, 0, 45, 0.0202224, 96.7467, -15.5391, 0.025, 0, 0.05, 25, 0.143382, 1, 0.560606, 0.107492, 0.142797, 0.178544, 0.595513, 0.554681
58, 0.1, 0.025, 0.02, 0, 45, 0.0202224, 100.075, -15.5391, 0.025, 0, 0.05, 25, 0.136531, 1, 0.575163, 0.0911528, 0.0945724, 0.178544, 0.601195, 0.568851
59, 0.1, 0.025, 0.02, 0, 45, 0.0202224, 98.4107, -19.8522, 0.025, 0, 0.05, 25, 0.154122, 1, 0.497512, 0.111203, 0.133738, 0.178544, 0.600596, 0.493449
60, 0.1, 0.025, 0.02, 0, 45, 0.0202224, 98.4107, -11.2259, 0.025, 0, 0.05, 25, 0.101449, 1, 0.650118, 0.12336, 0.151367, 0.178544, 0.596615, 0.641393
61, 0.1, 0.025, 0.02, 0, 45, 0.0201117, 98.4107, -11.2259, 0.025, 0, 0.05, 25, 0.166667, 1, 0.643357, 0.118869, 0.153544, 0.215345, 0.595562, 0.636009
62, 0.1, 0.025, 0.02, 0, 45, 0.0203332, 98.4107, -11.2259, 0.025, 0, 0.05, 25, 0.134276, 1, 0.643357, 0.120879, 0.150834, 0.139091, 0.597674, 0.633311
63, 0.1, 0.025, 0.02, 0, 45, 0.0202224, 97.3772, -11.2259, 0.025, 0, 0.05, 25, 0.169675, 1, 0.643836, 0.118603, 0.149158, 0.178544, 0.594876, 0.635298
64, 0.1, 0.025, 0.02, 0, 45, 0.0202224, 99.4442, -11.2259, 0.025, 0, 0.05, 25, 0.124088, 1, 0.636132, 0.116964, 0.137787, 0.178544, 0.598385, 0.627881
65, 0.1, 0.025, 0.02, 0, 45, 0.0202224, 98.4107, -18.1701, 0.025, 0, 0.05, 25, 0.124113, 1, 0.550265, 0.109185, 0.137487, 0.178544, 0.599639, 0.544684
66, 0.1, 0.025, 0.02, 0, 45, 0.0202224, 98.4107, -4.28174, 0.025, 0, 0.05, 25, 0.152727, 1, 0.586854, 0.122944, 0.156986, 0.178544, 0.595037, 0.580127
67, 0.1, 0.025, 0.02, 0, 45, 0.0201536, 98.4107, -11.2259, 0.025, 0, 0.05, 25, 0.109541, 1, 0.658537, 0.105579, 0.152984, 0.201698, 0.59596, 0.650305
68, 0.1, 0.025, 0.02, 0, 45, 0.0202912, 98.4107, -11.2259, 0.025, 0, 0.05, 25, 0.116608, 1, 0.651741, 0.116928, 0.153452, 0.154367, 0.597273, 0.642053
69, 0.1, 0.025, 0.02, 0, 45, 0.0201536, 97.7688, -11.2259, 0.025, 0, 0.05, 25, 0.154122, 1, 0.58216, 0.12522, 0.147274, 0.201698, 0.594883, 0.576263
70, 0.1, 0.025, 0.02, 0, 45, 0.0201536, 99.0526, -11.2259, 0.025, 0, 0.05, 25, 0.114983, 1, 0.655012, 0.120168, 0.150392, 0.201698, 0.597049, 0.646903
71, 0.1, 0.025, 0.02, 0, 45, 0.0201536, 98.4107, -15.5391, 0.025, 0, 0.05, 25, 0.12963, 1, 0.552311, 0.116299, 0.143733, 0.201698, 0.597658, 0.547307
72, 0.1, 0.025, 0.02, 0, 45, 0.0201536, 98.4107, -6.91276, 0.025, 0, 0.05, 25, 0.136201, 1, 0.640476, 0.126812, 0.158637, 0.201698, 0.594817, 0.632803
73, 0.1, 0.025, 0.02, 0, 45, 0.0200429, 98.4107, -11.2259, 0.025, 0, 0.05, 25, 0.167247, 1, 0.595833, 0.140474, 0.150301, 0.236972, 0.59491, 0.590463
74, 0.1, 0.025, 0.02, 0, 45, 0.0202644, 98.4107, -11.2259, 0.025, 0, 0.05, 25, 0.15625, 1, 0.66242, 0.125902, 0.146302, 0.163921, 0.597016, 0.652747
75, 0.1, 0.025, 0.02, 0, 45, 0.0202644, 98.012, -11.2259, 0.025, 0, 0.05, 25, 0.174825, 1, 0.679825, 0.133216, 0.148066, 0.163921, 0.596339, 0.669549
76, 0.1, 0.025, 0.02, 0, 45, 0.0202644, 98.8094, -11.2259, 0.025, 0, 0.05, 25, 0.166052, 1, 0.640097, 0.119688, 0.152139, 0.163921, 0.597698, 0.631181
77, 0.1, 0.025, 0.02, 0, 45, 0.0202644, 98.012, -13.9049, 0.025, 0, 0.05, 25, 0.175, 1, 0.582126, 0.113861, 0.145195, 0.163921, 0.597332, 0.575083
78, 0.1, 0.025, 0.02, 0, 45, 0.0202644, 98.012, -8.54694, 0.025, 0, 0.05, 25, 0.181185, 1, 0.660455, 0.132293, 0.154432, 0.163921, 0.59556, 0.650833
79, 0.1, 0.025, 0.02, 0, 45, 0.0200861, 98.012, -11.2259, 0.025, 0, 0.05, 25, 0.16, 1, 0.615741, 0.120907, 0.150744, 0.223499, 0.594653, 0.609445
80, 0.1, 0.025, 0.02, 0, 45, 0.0204427, 98.012, -11.2259, 0.025, 0, 0.05, 25, 0.137809, 1, 0.64359, 0.112069, 0.146308, 0.097214, 0.598038, 0.631319
81, 0.1, 0.025, 0.02, 0, 45, 0.0202644, 97.3701, -11.2259, 0.025, 0, 0.05, 25, 0.164875, 1, 0.637387, 0.125957, 0.148264, 0.163921, 0.595258, 0.628536
82, 0.1, 0.025, 0.02, 0, 45, 0.0202644, 98.6539, -11.2259, 0.025, 0, 0.05, 25, 0.181507, 1, 0.611479, 0.124587, 0.151152, 0.163921, 0.597431, 0.6035
83, 0.1, 0.025, 0.02, 0, 45, 0.0202644, 98.012, -12.8899, 0.025, 0, 0.05, 25, 0.167247, 1, 0.620438, 0.114933, 0.146722, 0.163921, 0.596931, 0.612162
84, 0.1, 0.025, 0.02, 0, 45, 0.0202644, 98.012, -9.56195, 0.025, 0, 0.05, 25, 0.175, 1, 0.653422, 0.132689, 0.149434, 0.163921, 0.59583, 0.64404
85, 0.1, 0.025, 0.02, 0, 45, 0.0201536, 98.012, -11.2259, 0.025, 0, 0.05, 25, 0.149826, 1, 0.657407, 0.124031, 0.150975, 0.201698, 0.59529, 0.649204
86, 0.1, 0.025, 0.02, 0, 45, 0.0203751, 98.012, -11.2259, 0.025, 0, 0.05, 25, 0.131206, 1, 0.65679, 0.121185, 0.146071, 0.123397, 0.597393, 0.645512
87, 0.1, 0.025, 0.02, 0, 45, 0.0202644, 97.6133, -11.2259, 0.025, 0, 0.05, 25, 0.112628, 1, 0.622989, 0.119637, 0.150979, 0.163921, 0.595666, 0.614617
88, 0.1, 0.025, 0.02, 0, 45, 0.0202644, 98.4107, -11.2259, 0.025, 0, 0.05, 25, 0.101124, 1, 0.616519, 0.0990359, 0.155819, 0.163921, 0.597016, 0.608372
89, 0.1, 0.025, 0.02, 0, 45, 0.0202644, 98.012, -12.2594, 0.025, 0, 0.05, 25, 0.138408, 1, 0.63964, 0.131206, 0.150344, 0.163921, 0.596697, 0.630728
90, 0.1, 0.025, 0.02, 0, 45, 0.0202644, 98.012, -10.1924, 0.025, 0, 0.05, 25, 0.129371, 1, 0.654846, 0.121762, 0.150785, 0.163921, 0.596013, 0.645419
91, 0.1, 0.025, 0.02, 0, 45, 0.0201956, 98.012, -11.2259, 0.025, 0, 0.05, 25, 0.187279, 1, 0.628842, 0.11371, 0.144599, 0.187692, 0.595687, 0.621102
92, 0.1, 0.025, 0.02, 0, 45, 0.0203332, 98.012, -11.2259, 0.025, 0, 0.05, 25, 0.144876, 1, 0.648526, 0.120098, 0.148308, 0.139091, 0.596993, 0.638292
93, 0.1, 0.025, 0.02, 0, 45, 0.0202644, 97.7643, -11.2259, 0.025, 0, 0.05, 25, 0.179211, 1, 0.632653, 0.117506, 0.149851, 0.163921, 0.59592, 0.623966
94, 0.1, 0.025, 0.02, 0, 45, 0.0202644, 98.2596, -11.2259, 0.025, 0, 0.05, 25, 0.114391, 1, 0.634783, 0.0995671, 0.150455, 0.163921, 0.596759, 0.626033
95, 0.1, 0.025, 0.02, 0, 45, 0.0202644, 98.012, -11.8679, 0.025, 0, 0.05, 25, 0.143345, 1, 0.615213, 0.120064, 0.142693, 0.163921, 0.596557, 0.607104
96, 0.1, 0.025, 0.02, 0, 45, 0.0202644, 98.012, -10.584, 0.025, 0, 0.05, 25, 0.119454, 1, 0.62704, 0.126549, 0.151379, 0.163921, 0.596133, 0.618539
97, 0.1, 0.025, 0.02, 0, 45, 0.0202217, 98.012, -11.2259, 0.025, 0, 0.05, 25, 0.122222, 1, 0.611111, 0.115183, 0.146101, 0.178807, 0.595933, 0.603643
98, 0.1, 0.025, 0.02, 0, 45, 0.0203071, 98.012, -11.2259, 0.025, 0, 0.05, 25, 0.138577, 1, 0.654229, 0.113946, 0.150505, 0.148627, 0.596745, 0.644211
99, 0.1, 0.025, 0.02, 0, 45, 0.0202644, 97.8582, -11.2259, 0.025, 0, 0.05, 25, 0.141304, 1, 0.588972, 0.10866, 0.14578, 0.163921, 0.596079, 0.581702
100, 0.1, 0.025, 0.02, 0, 45, 0.0202644, 98.1658, -11.2259, 0.025, 0, 0.05, 25, 0.156794, 1, 0.64, 0.128096, 0.152233, 0.163921, 0.5966, 0.631076
101, 0.1, 0.025, 0.02, 0, 45, 0.0202644, 98.012, -11.6246, 0.025, 0, 0.05, 25, 0.145329, 1, 0.610687, 0.110177, 0.144549, 0.163921, 0.596473, 0.602724
102, 0.1, 0.025, 0.02, 0, 45, 0.0202644, 98.012, -10.8272, 0.025, 0, 0.05, 25, 0.142349, 1, 0.640288, 0.12764, 0.153967, 0.163921, 0.596209, 0.63135
103, 0.1, 0.025, 0.02, 0, 45, 0.0202378, 98.012, -11.2259, 0.025, 0, 0.05, 25, 0.148148, 1, 0.66242, 0.130942, 0.148383, 0.173214, 0.596087, 0.65309
104, 0.1, 0.025, 0.02, 0, 45, 0.0202909, 98.012, -11.2259, 0.025, 0, 0.05, 25, 0.155235, 1, 0.645688, 0.130356, 0.144346, 0.154471, 0.596591, 0.636203
105, 0.1, 0.025, 0.02, 0, 45, 0.0202644, 97.9164, -11.2259, 0.025, 0, 0.05, 25, 0.149635, 1, 0.591787, 0.124324, 0.145505, 0.163921, 0.596177, 0.584428
106, 0.1, 0.025, 0.02, 0, 45, 0.0202644, 98.1075, -11.2259, 0.025, 0, 0.05, 25, 0.129825, 1, 0.65, 0.119454, 0.149229, 0.163921, 0.596501, 0.64074
107, 0.1, 0.025, 0.02, 0, 45, 0.0202644, 98.012, -11.4736, 0.025, 0, 0.05, 25, 0.161404, 1, 0.640177, 0.129837, 0.152235, 0.163921, 0.596422, 0.631245
108, 0.1, 0.025, 0.02, 0, 45, 0.0202644, 98.012, -10.9783, 0.025, 0, 0.05, 25, 0.138889, 1, 0.609929, 0.117304, 0.14976, 0.163921, 0.596258, 0.601989
