# chfangle, success, robustness, alignment, coverage, wrench, stress, volume, qsum, qlog
0, 0, 1, 0, 0, 0, 0.7624, 0.5, 0.3232, 0
3.6, 0, 1, 0, 0, 0, 0.7624, 0.5, 0.3232, 0
7.2, 0, 1, 0, 0, 0, 0.7624, 0.5, 0.3232, 0
10.8, 0, 1, 0, 0, 0, 0.7624, 0.5, 0.3232, 0
14.4, 0, 1, 0, 0, 0, 0.7624, 0.5, 0.3232, 0
18, 0, 1, 0, 0, 0, 0.7624, 0.5, 0.3232, 0
21.6, 0, 1, 0, 0, 0, 0.7624, 0.5, 0.3232, 0
25.2, 0, 1, 0, 0, 0, 0.7624, 0.5, 0.3232, 0
28.8, 0, 1, 0, 0, 0, 0.7624, 0.5, 0.3232, 0
32.4, 0, 1, 0, 0, 0, 0.7624, 0.5, 0.3232, 0
36, 0, 1, 0, 0, 0, 0.7624, 0.5, 0.3232, 0
39.6, 0, 1, 0, 0, 0, 0.7624, 0.5, 0.3232, 0
43.2, 0, 1, 0, 0, 0, 0.7624, 0.5, 0.3232, 0
46.8, 0, 1, 0, 0, 0, 0.7624, 0.5, 0.3232, 0
50.4, 0, 1, 0, 0, 0, 0.7624, 0.5, 0.3232, 0
54, 0, 1, 0, 0, 0, 0.7624, 0.5, 0.3232, 0
57.6, 0, 1, 0, 0, 0, 0.7624, 0.5, 0.3232, 0
61.2, 0, 1, 0, 0, 0, 0.7624, 0.5, 0.3232, 0
64.8, 0, 1, 0, 0, 0, 0.7624, 0.5, 0.3232, 0
68.4, 0, 1, 0, 0, 0, 0.7624, 0.5, 0.3232, 0
72, 0, 1, 0, 0, 0, 0.7624, 0.5, 0.3232, 0
75.6, 0, 1, 0, 0, 0, 0.7624, 0.5, 0.3232, 0
79.2, 0, 1, 0, 0, 0, 0.7624, 0.5, 0.3232, 0
82.8, 0, 1, 0, 0, 0, 0.7624, 0.5, 0.3232, 0
86.4, 0, 1, 0, 0, 0, 0.7624, 0.5, 0.3232, 0
90, 0, 1, 0, 0, 0, 0.7624, 0.5, 0.3232, 0
93.6, 0, 1, 0, 0, 0, 0.7624, 0.562915, 0.332188, 0
