# depth, success, robustness, alignment, coverage, wrench, stress, volume, qsum, qlog
0, 0, 0, 0, 0, 0, 0, 0, 0, 0
0.001, 0.196891, 1, 0.166667, 0.000621962, 0.0471833, 0, 0.975, 0.340909, 0
0.002, 0.195876, 1, 0.122807, 0.000590759, 0.0471767, 0, 0.95, 0.330922, 0
0.003, 0.159574, 1, 0.188889, 0.000443853, 0.0474646, 0, 0.925, 0.331625, 0
0.004, 0.192513, 1, 0.203704, 0.000490149, 0.0551844, 0, 0.9, 0.335985, 0
0.005, 0.202128, 1, 0.114035, 0.000462811, 0.0484443, 0.0496, 0.875, 0.327096, 0.0807713
0.006, 0.157303, 1, 0.154762, 0.000314925, 0.0500795, 0.208, 0.85, 0.34578, 0.094616
0.007, 0.163743, 1, 0.154762, 0.000295446, 0.059286, 0.321143, 0.825, 0.360604, 0.102343
0.008, 0.113095, 1, 0.105263, 0.00018163, 0.0531877, 0.406, 0.8, 0.353961, 0.0868771
0.009, 0.09375, 1, 0.0444444, 0.000133955, 0.0531441, 0.472, 0.775, 0.348353, 0.0728126
0.01, 0.0684932, 1, 0, 7.96121e-05, 0.0482197, 0.5248, 0.75, 0.341656, 0
0.011, 0.0466667, 1, 0.047619, 5.31652e-05, 0.0654234, 0.568, 0.725, 0.350395, 0.061111
0.012, 0.0408163, 1, 0, 4.14774e-05, 0.0507196, 0.604, 0.7, 0.342225, 0
0.013, 0.0227273, 1, 0, 1.84212e-05, 0.0524281, 0.634462, 0.675, 0.340662, 0
0.014, 0.015625, 1, 0, 1.13533e-05, 0.0537778, 0.660571, 0.65, 0.339998, 0
0.015, 0, 1, 0, 0, 0, 0.6832, 0.625, 0.329743, 0
0.016, 0, 1, 0, 0, 0, 0.703, 0.6, 0.329, 0
0.017, 0, 1, 0, 0, 0, 0.720471, 0.575, 0.327924, 0
0.018, 0, 1, 0, 0, 0, 0.736, 0.55, 0.326571, 0
0.019, 0, 1, 0, 0, 0, 0.749895, 0.525, 0.324985, 0
0.02, 0, 1, 0, 0, 0, 0.7624, 0.5, 0.3232, 0
0.021, 0, 1, 0, 0, 0, 0.773714, 0.475, 0.321245, 0
0.022, 0, 1, 0, 0, 0, 0.784, 0.45, 0.319143, 0
0.023, 0, 1, 0, 0, 0, 0.793391, 0.425, 0.316913, 0
0.024, 0, 1, 0, 0, 0, 0.802, 0.4, 0.314571, 0
0.025, 0, 1, 0, 0, 0, 0.80992, 0.375, 0.312131, 0
