# depth, success, robustness, alignment, coverage, wrench, stress, volume, qsum, qlog
0, 0, 0, 0, 0, 0, 0, 0, 0, 0
0.0025, 0.397797, 1, 0.056431, 0.237732, 0.0629187, 0.61984, 0.941953, 0.47381, 0.29535
0.005, 0.395884, 1, 0.0546433, 0.241467, 0.0633593, 0.80992, 0.883906, 0.49274, 0.303451
0.0075, 0.392421, 1, 0.0657623, 0.244662, 0.0655648, 0.87328, 0.825859, 0.495364, 0.31364
0.01, 0.40048, 1, 0.0820746, 0.247114, 0.070743, 0.90496, 0.767812, 0.496169, 0.326938
0.0125, 0.368159, 1, 0.0930649, 0.238779, 0.0779078, 0.923968, 0.709766, 0.487378, 0.329087
0.015, 0.362854, 1, 0.0942295, 0.245073, 0.0796466, 0.93664, 0.651719, 0.481452, 0.327881
0.0175, 0.340194, 1, 0.0733974, 0.244111, 0.0838197, 0.945691, 0.593672, 0.468698, 0.311852
0.02, 0.332518, 1, 0.0722294, 0.241563, 0.0842109, 0.95248, 0.535625, 0.459804, 0.305657
0.0225, 0.324594, 1, 0.0803189, 0.236338, 0.0866702, 0.95776, 0.477578, 0.451894, 0.304776
0.025, 0.310559, 1, 0.0902222, 0.235211, 0.0887288, 0.961984, 0.419531, 0.443748, 0.303281
0.0275, 0.315337, 1, 0.073723, 0.239292, 0.0873875, 0.96544, 0.361484, 0.434666, 0.289313
0.03, 0.295426, 1, 0.0821484, 0.23646, 0.0890429, 0.96832, 0.303437, 0.424976, 0.284305
0.0325, 0.277983, 1, 0.0901598, 0.231853, 0.0905978, 0.970757, 0.245391, 0.415249, 0.277089
0.035, 0.275398, 1, 0.0753093, 0.232124, 0.0851445, 0.972846, 0.187344, 0.404024, 0.257325
