# width, success, robustness, alignment, coverage, wrench, stress, volume, qsum, qlog
0, 0, 0, 0, 0, 0, 0, 0, 0, 0
0.0025, 0, 0, 0, 0, 0, 0, 0, 0, 0
0.005, 0, 0, 0, 0, 0, 0, 0, 0, 0
0.0075, 0, 0, 0, 0, 0, 0, 0, 0, 0
0.01, 0, 0, 0, 0, 0, 0, 0, 0, 0
0.0125, 0.403712, 1, 0.0722425, 0.255599, 0.0828325, 0, 0.773906, 0.369756, 0
0.015, 0.364596, 1, 0.0783785, 0.250267, 0.081866, 0.7, 0.725625, 0.457247, 0.313465
0.0175, 0.346698, 1, 0.0731721, 0.248668, 0.083121, 0.866667, 0.677656, 0.470855, 0.315033
0.02, 0.338498, 1, 0.0718313, 0.244405, 0.0847206, 0.925, 0.63, 0.470636, 0.31286
0.0225, 0.330144, 1, 0.0739033, 0.246536, 0.082437, 0.941333, 0.582656, 0.465287, 0.30949
0.025, 0.328467, 1, 0.0901394, 0.241208, 0.0844912, 0.95248, 0.535625, 0.461773, 0.315016
0.0275, 0.347382, 1, 0.0794994, 0.231616, 0.0858008, 0.960727, 0.488906, 0.456276, 0.30713
0.03, 0.327565, 1, 0.0762599, 0.234103, 0.0832042, 0.967, 0.4425, 0.447233, 0.297899
0.0325, 0.32875, 1, 0.0749426, 0.233037, 0.0835478, 0.971882, 0.396406, 0.441224, 0.292869
0.035, 0.332908, 1, 0.0749885, 0.233037, 0.084746, 0.975755, 0.350625, 0.436009, 0.289073
0.0375, 0.336774, 1, 0.0867202, 0.227709, 0.0849517, 0.97888, 0.305156, 0.431456, 0.289093
0.04, 0.340233, 1, 0.0735059, 0.230906, 0.0844462, 0.981437, 0.26, 0.424361, 0.276781
0.0425, 0.352185, 1, 0.0769176, 0.232682, 0.084761, 0.983557, 0.215156, 0.420751, 0.273015
0.045, 0.349741, 1, 0.0711978, 0.229485, 0.0845448, 0.985333, 0.170625, 0.41299, 0.260416
0.0475, 0.348446, 1, 0.0749963, 0.231261, 0.0853, 0.986837, 0.126406, 0.407607, 0.25187
0.05, 0.348387, 1, 0.0735034, 0.232682, 0.0849185, 0.98812, 0.0825, 0.401444, 0.23639
