# length, success, robustness, alignment, coverage, wrench, stress, volume, qsum, qlog
0, 0, 0, 0, 0, 0, 0, 0, 0, 0
0.001, 0, 0, 0, 0, 0, 0, 0, 0, 0
0.002, 0, 0, 0, 0, 0, 0, 0, 0, 0
0.003, 0, 0, 0, 0, 0, 0, 0, 0, 0
0.004, 0, 0, 0, 0, 0, 0, 0, 0, 0
0.005, 0, 0, 0, 0, 0, 0, 0, 0, 0
0.006, 0, 0, 0, 0, 0, 0, 0, 0, 0
0.007, 0, 0, 0, 0, 0, 0, 0, 0, 0
0.008, 0, 0, 0, 0, 0, 0, 0, 0, 0
0.009, 0, 0, 0, 0, 0, 0, 0, 0, 0
0.01, 0, 0, 0, 0, 0, 0, 0, 0, 0
0.011, 0, 0, 0, 0, 0, 0, 0, 0, 0
0.012, 0, 0, 0, 0, 0, 0, 0, 0, 0
0.013, 0, 0, 0, 0, 0, 0, 0, 0, 0
0.014, 0, 0, 0, 0, 0, 0, 0, 0, 0
0.015, 0, 0, 0, 0, 0, 0, 0, 0, 0
0.016, 0, 0, 0, 0, 0, 0, 0, 0, 0
0.017, 0, 0, 0, 0, 0, 0, 0, 0, 0
0.018, 0, 0, 0, 0, 0, 0, 0, 0, 0
0.019, 0, 0, 0, 0, 0, 0, 0, 0, 0
0.02, 0, 0, 0, 0, 0, 0, 0, 0, 0
0.021, 0, 0, 0, 0, 0, 0, 0, 0, 0
0.022, 0, 0, 0, 0, 0, 0, 0, 0, 0
0.023, 0, 0, 0, 0, 0, 0, 0, 0, 0
0.024, 0, 0, 0, 0, 0, 0, 0, 0, 0
0.025, 0, 0, 0, 0, 0, 0, 0, 0, 0
0.026, 0, 1, 0, 0, 0, 0.988, 0.87, 0.408286, 0
0.027, 0, 1, 0, 0, 0, 0.98752, 0.865, 0.407503, 0
0.028, 0, 1, 0, 0, 0, 0.98704, 0.86, 0.40672, 0
0.029, 0, 1, 0, 0, 0, 0.98656, 0.855, 0.405937, 0
0.03, 0, 1, 0, 0, 0, 0.98608, 0.85, 0.405154, 0
0.031, 0, 1, 0, 0, 0, 0.9856, 0.845, 0.404371, 0
0.032, 0, 1, 0, 0, 0, 0.98512, 0.84, 0.403589, 0
0.033, 0, 1, 0, 0, 0, 0.98464, 0.835, 0.402806, 0
0.034, 0, 1, 0, 0, 0, 0.98416, 0.83, 0.402023, 0
0.035, 0, 1, 0, 0, 0, 0.98368, 0.825, 0.40124, 0
0.036, 0, 1, 0, 0.00026462, 0.128416, 0.9832, 0.82, 0.41884, 0
0.037, 0, 1, 0.166667, 0.000235294, 0.0482779, 0.98272, 0.815, 0.430414, 0
0.038, 0, 1, 0.133333, 0.000691946, 0.0642552, 0.98224, 0.81, 0.427217, 0
0.039, 0.157895, 1, 0.190476, 0.0035461, 0.0724462, 0.98176, 0.805, 0.458732, 0.179933
0.04, 0.333333, 1, 0.371585, 0.0130677, 0.0841667, 0.98128, 0.8, 0.511919, 0.270855
0.041, 0.344538, 1, 0.372549, 0.0274415, 0.0838194, 0.9808, 0.795, 0.514878, 0.302206
0.042, 0.230216, 1, 0.375706, 0.0378084, 0.0784529, 0.98032, 0.79, 0.498929, 0.295916
0.043, 0.27451, 1, 0.37284, 0.0485786, 0.0813207, 0.97984, 0.785, 0.506013, 0.315475
0.044, 0.283019, 1, 0.387707, 0.0564452, 0.083835, 0.97936, 0.78, 0.510052, 0.326632
0.045, 0.271605, 1, 0.351724, 0.0636803, 0.082386, 0.97888, 0.775, 0.503325, 0.324663
0.046, 0.269006, 1, 0.331183, 0.0719258, 0.0836967, 0.9784, 0.77, 0.500602, 0.327495
0.047, 0.282609, 1, 0.331349, 0.0812379, 0.0834579, 0.97792, 0.765, 0.503082, 0.335149
0.048, 0.282051, 1, 0.337121, 0.0883978, 0.0852058, 0.97744, 0.76, 0.504317, 0.340624
0.049, 0.270936, 1, 0.344203, 0.0968421, 0.0851497, 0.97696, 0.755, 0.504156, 0.343756
0.05, 0.261682, 1, 0.342014, 0.105611, 0.0859297, 0.97648, 0.75, 0.503102, 0.346098
0.051, 0.260274, 1, 0.341837, 0.11086, 0.0857271, 0.976, 0.745, 0.502814, 0.347736
0.052, 0.269565, 1, 0.354472, 0.118772, 0.0876626, 0.97552, 0.74, 0.50657, 0.355542
0.053, 0.286325, 1, 0.339652, 0.125148, 0.0866773, 0.97504, 0.735, 0.506835, 0.358159
0.054, 0.267782, 1, 0.339652, 0.129289, 0.0849696, 0.97456, 0.73, 0.503751, 0.355021
0.055, 0.26556, 1, 0.331723, 0.131013, 0.0878484, 0.97408, 0.725, 0.502175, 0.355388
0.056, 0.294355, 1, 0.330174, 0.136658, 0.0868981, 0.9736, 0.72, 0.505955, 0.361644
0.057, 0.279528, 1, 0.342593, 0.143904, 0.0855458, 0.97312, 0.715, 0.50567, 0.362356
0.058, 0.291829, 1, 0.32866, 0.144888, 0.0862199, 0.97264, 0.71, 0.504891, 0.362807
0.059, 0.289575, 1, 0.339535, 0.148072, 0.0850745, 0.97216, 0.705, 0.505631, 0.364136
0.06, 0.289575, 1, 0.346032, 0.14862, 0.08624, 0.97168, 0.7, 0.506021, 0.365629
0.061, 0.293436, 1, 0.350467, 0.153295, 0.0868637, 0.9712, 0.695, 0.50718, 0.368592
0.062, 0.28626, 1, 0.341121, 0.156662, 0.0869579, 0.97072, 0.69, 0.504532, 0.366665
0.063, 0.288462, 1, 0.333333, 0.156689, 0.0880515, 0.97024, 0.685, 0.503111, 0.366114
0.064, 0.27907, 1, 0.334921, 0.158014, 0.0861093, 0.96976, 0.68, 0.501125, 0.363505
0.065, 0.292308, 1, 0.325397, 0.159091, 0.0869427, 0.96928, 0.675, 0.501145, 0.36486
0.066, 0.284091, 1, 0.315705, 0.159387, 0.0853455, 0.9688, 0.67, 0.497618, 0.360541
0.067, 0.274436, 1, 0.330128, 0.160991, 0.0849688, 0.96832, 0.665, 0.497692, 0.360938
0.068, 0.276515, 1, 0.323764, 0.16405, 0.0848322, 0.96784, 0.66, 0.496715, 0.360796
0.069, 0.292776, 1, 0.325243, 0.163622, 0.0829434, 0.96736, 0.655, 0.498135, 0.362266
0.07, 0.277154, 1, 0.328479, 0.164143, 0.0834698, 0.96688, 0.65, 0.495732, 0.360018
0.071, 0.285185, 1, 0.318482, 0.164898, 0.0839457, 0.9664, 0.645, 0.494844, 0.360003
0.072, 0.252747, 1, 0.323764, 0.172727, 0.0833201, 0.96592, 0.64, 0.491211, 0.356234
0.073, 0.261029, 1, 0.319115, 0.175249, 0.0831162, 0.96544, 0.635, 0.491279, 0.357329
0.074, 0.288321, 1, 0.333333, 0.176127, 0.0811765, 0.96496, 0.63, 0.496274, 0.3633
0.075, 0.291971, 1, 0.321895, 0.172443, 0.0795716, 0.96448, 0.625, 0.493623, 0.359587
0.076, 0.285714, 1, 0.328526, 0.179002, 0.0808601, 0.964, 0.62, 0.494015, 0.361834
0.077, 0.272727, 1, 0.327074, 0.184416, 0.0810637, 0.96352, 0.615, 0.491971, 0.360429
0.078, 0.269784, 1, 0.331776, 0.186249, 0.0808911, 0.96304, 0.61, 0.491677, 0.360558
0.079, 0.296029, 1, 0.327103, 0.188546, 0.078337, 0.96256, 0.605, 0.493939, 0.363148
0.08, 0.292419, 1, 0.333333, 0.188546, 0.0802638, 0.96208, 0.6, 0.493806, 0.364296
0.081, 0.285199, 1, 0.328682, 0.189929, 0.0797494, 0.9616, 0.595, 0.491451, 0.361856
0.082, 0.293478, 1, 0.334877, 0.190813, 0.0789767, 0.96112, 0.59, 0.492752, 0.36358
0.083, 0.284173, 1, 0.333333, 0.19275, 0.0792473, 0.96064, 0.585, 0.490735, 0.361904
0.084, 0.281588, 1, 0.319572, 0.19275, 0.0771946, 0.96016, 0.58, 0.487324, 0.357453
0.085, 0.281588, 1, 0.319508, 0.192376, 0.0770861, 0.95968, 0.575, 0.486463, 0.356805
0.086, 0.289286, 1, 0.318113, 0.194667, 0.0772911, 0.9592, 0.57, 0.486937, 0.358228
0.087, 0.288256, 1, 0.3149, 0.192889, 0.0759575, 0.95872, 0.565, 0.485103, 0.355698
0.088, 0.271429, 1, 0.32263, 0.193606, 0.0766862, 0.95824, 0.56, 0.483227, 0.354074
0.089, 0.301075, 1, 0.318519, 0.199822, 0.0763864, 0.95776, 0.555, 0.486938, 0.359633
0.09, 0.27957, 1, 0.318519, 0.199645, 0.0770928, 0.95728, 0.55, 0.483158, 0.355783
0.091, 0.281139, 1, 0.327434, 0.200532, 0.0757895, 0.9568, 0.545, 0.483813, 0.35634
0.092, 0.302491, 1, 0.320059, 0.200177, 0.0740823, 0.95632, 0.54, 0.484733, 0.357163
0.093, 0.3, 1, 0.321375, 0.197171, 0.074546, 0.95584, 0.535, 0.483419, 0.355999
0.094, 0.320285, 1, 0.333333, 0.203901, 0.0749466, 0.95536, 0.53, 0.488261, 0.362723
0.095, 0.291815, 1, 0.318713, 0.202128, 0.075029, 0.95488, 0.525, 0.481081, 0.354752
0.096, 0.282143, 1, 0.325991, 0.200707, 0.0750914, 0.9544, 0.52, 0.479762, 0.353365
0.097, 0.288256, 1, 0.320059, 0.200177, 0.0737736, 0.95392, 0.515, 0.478741, 0.351982
0.098, 0.289286, 1, 0.317251, 0.201592, 0.0738185, 0.95344, 0.51, 0.477912, 0.351587
0.099, 0.307143, 1, 0.315789, 0.201949, 0.0734095, 0.95296, 0.505, 0.479464, 0.353659
0.1, 0.28777, 1, 0.321739, 0.20372, 0.0743291, 0.95248, 0.5, 0.477148, 0.351858
