#step, length, width, depth, chfdepth, chfangle, cut depth, cut angle, tilt, tcp, jawdist, stroke, force, success, robustness, alignment, coverage, wrench, stress, volume, q
0, 0.106869, 0.0212412, 0.0287826, 0, 45, 0, 90, 0, 0.00898575, 0.000704545, 0.05, 25, 0.511579, 1, 0.389575, 0.0865077, 0.0597321, 0.877715, 0.346627, 0.0897078
1, 0.126869, 0.0212412, 0.0287826, 0, 45, 0, 90, 0, 0.00898575, 0.000704545, 0.05, 25, 0.556962, 1, 0.395202, 0.0913811, 0.0626334, 0.854614, 0.224352, 0.0942322
2, 0.106869, 0.0262412, 0.0287826, 0, 45, 0, 90, 0, 0.00898575, 0.000704545, 0.05, 25, 0.491489, 1, 0.395382, 0.0821772, 0.0656405, 0.919876, 0.192828, 0.0848529
3, 0.106869, 0.0212412, 0.0337826, 0, 45, 0, 90, 0, 0.00898575, 0.000704545, 0.05, 25, 0.506329, 1, 0.390278, 0.0723109, 0.0579828, 0.895814, 0.233126, 0.0749728
4, 0.106869, 0.0212412, 0.0287826, 0, 45, 0, 90, 0, 0.0289858, 0.000704545, 0.05, 25, 0.519016, 1, 0.390558, 0.0313847, 0.0716082, 0.877715, 0.346627, 0.0331992
5, 0.106869, 0.0212412, 0.0287826, 0, 45, 0, 90, 0, 0.00898575, 0.00570454, 0.05, 25, 0.254777, 1, 0.347107, 0.0408508, 0.0437982, 0.877715, 0.346627, 0.0429898
