# chfangle, success, robustness, alignment, coverage, wrench, stress, volume, qsum, qlog
0, 0.293706, 1, 0.293651, 0.00266362, 0.042185, 0, 0.95, 0.368887, 0
3.6, 0.289044, 1, 0.298387, 0.00262134, 0.042722, 0, 0.95, 0.368968, 0
7.2, 0.294393, 1, 0.298942, 0.00266362, 0.0431051, 0, 0.95, 0.369872, 0
10.8, 0.303738, 1, 0.310256, 0.00274818, 0.0427031, 0, 0.95, 0.372778, 0
14.4, 0.286713, 1, 0.322493, 0.0026002, 0.0430182, 0, 0.95, 0.372118, 0
18, 0.303738, 1, 0.310256, 0.00274818, 0.04173, 0, 0.95, 0.372639, 0
21.6, 0.294393, 1, 0.304233, 0.00266362, 0.0442554, 0, 0.95, 0.370792, 0
25.2, 0.307692, 1, 0.310606, 0.00279046, 0.0400614, 0, 0.95, 0.373021, 0
28.8, 0.295349, 1, 0.314961, 0.00268476, 0.0445775, 0, 0.95, 0.37251, 0
32.4, 0.296729, 1, 0.349081, 0.00268476, 0.0450293, 0, 0.95, 0.377646, 0
36, 0.302326, 1, 0.284615, 0.00274818, 0.041195, 0, 0.95, 0.368698, 0
39.6, 0.296037, 1, 0.314961, 0.00268476, 0.0424415, 0, 0.95, 0.372303, 0
43.2, 0.288372, 1, 0.303763, 0.00262134, 0.0451178, 0, 0.95, 0.369982, 0
46.8, 0.298368, 1, 0.328125, 0.0027059, 0.0443812, 0, 0.95, 0.374797, 0
50.4, 0.293706, 1, 0.301587, 0.00266362, 0.0428747, 0, 0.95, 0.370119, 0
54, 0.295349, 1, 0.307087, 0.00268476, 0.042703, 0, 0.95, 0.371118, 0
57.6, 0.299065, 1, 0.304688, 0.0027059, 0.041915, 0, 0.95, 0.371196, 0
61.2, 0.307692, 1, 0.292929, 0.00279046, 0.044164, 0, 0.95, 0.371082, 0
64.8, 0.295349, 1, 0.333333, 0.00268476, 0.0438789, 0, 0.95, 0.375035, 0
68.4, 0.296037, 1, 0.328084, 0.00268476, 0.0456234, 0, 0.95, 0.374633, 0
72, 0.300699, 1, 0.263566, 0.00272704, 0.0431169, 0, 0.95, 0.36573, 0
75.6, 0.295349, 1, 0.338583, 0.00268476, 0.0453428, 0, 0.95, 0.375994, 0
79.2, 0.303738, 1, 0.317949, 0.00274818, 0.0422319, 0, 0.95, 0.37381, 0
82.8, 0.301402, 1, 0.325581, 0.00272704, 0.0434458, 0, 0.95, 0.374737, 0
86.4, 0.296729, 1, 0.322835, 0.00268476, 0.0446744, 0, 0.95, 0.373846, 0
90, 0.299065, 1, 0.330729, 0.0027059, 0.0407148, 0, 0.95, 0.374745, 0
93.6, 0.30303, 1, 0.287179, 0.00274818, 0.0435058, 0, 0.957864, 0.370618, 0
