# tcpoffset, success, robustness, alignment, coverage, wrench, stress, volume, qsum, qlog
0, 0.266075, 1, 0.261111, 0.0037666, 0.0406391, 0, 0.95, 0.360227, 0
0.004, 0.315545, 1, 0.281863, 0.00311869, 0.042345, 0, 0.95, 0.37041, 0
0.008, 0.212714, 1, 0.226054, 0.00143814, 0.0466772, 0, 0.95, 0.348126, 0
0.012, 0.0710526, 1, 0.0740741, 0.000314206, 0.0518528, 0, 0.95, 0.306756, 0
0.016, 0.0401235, 1, 0.102564, 9.03864e-05, 0.0610863, 0, 0.95, 0.307695, 0
0.02, 0.0470588, 1, 0.111111, 5.94371e-05, 0.0508015, 0, 0.95, 0.308433, 0
0.024, 0.0511364, 1, 0.0740741, 3.58444e-05, 0.0530976, 0, 0.95, 0.304049, 0
0.028, 0.111111, 1, 0, 2.46652e-05, 0.00356629, 0, 0.95, 0.294957, 0
0.032, 0, 1, 0, 0, 0, 0, 0.95, 0.278571, 0
0.036, 0, 1, 0, 0, 0, 0, 0.95, 0.278571, 0
0.04, 0, 1, 0, 0, 0, 0, 0.95, 0.278571, 0
0.044, 0, 1, 0, 0, 0, 0, 0.95, 0.278571, 0
0.048, 0, 1, 0, 0, 0, 0, 0.95, 0.278571, 0
0.052, 0, 0, 0, 0, 0, 0, 0, 0, 0
0.056, 0, 0, 0, 0, 0, 0, 0, 0, 0
0.06, 0, 0, 0, 0, 0, 0, 0, 0, 0
0.064, 0, 0, 0, 0, 0, 0, 0, 0, 0
0.068, 0, 0, 0, 0, 0, 0, 0, 0, 0
0.072, 0, 0, 0, 0, 0, 0, 0, 0, 0
0.076, 0, 0, 0, 0, 0, 0, 0, 0, 0
0.08, 0, 0, 0, 0, 0, 0, 0, 0, 0
0.084, 0, 0, 0, 0, 0, 0, 0, 0, 0
0.088, 0, 0, 0, 0, 0, 0, 0, 0, 0
0.092, 0, 0, 0, 0, 0, 0, 0, 0, 0
0.096, 0, 0, 0, 0, 0, 0, 0, 0, 0
0.1, 0, 0, 0, 0, 0, 0, 0, 0, 0
