0, -0, 0
0, -0, 0
1.38143, 0.661517, 3.02317
-0.670841, 0.316784, -2.7678
0.000855065, -0.46803, -1.56892
0.000655462, 0.502288, -1.57041
3.14017, -1.47314, 1.57268
0.000595356, -0.693218, -1.57154
0.00246384, 0.556318, -1.56793
0, -0, 0
0.000429718, 0.638403, -1.57023
0.000605727, -0.0978894, -1.57071
-0.00204769, -0.789891, -1.56738
0, -0, 0
-0.00476301, -1.01905, 1.57433
-3.13902, 0.861295, 1.57202
-0.000452137, 0.155253, -1.57129
-0.00314003, 0.548306, -1.57407
0.00892007, 1.17019, -1.56191
0, -0, 0
0, -0, 0
-0.000210429, -0.455941, -1.57012
-0.24066, 0.107662, -2.73024
0, -0, 0
-0.000596713, 0.0307732, -1.57481
-0.8255, 0.451999, -2.758
-0.000570442, -0.671106, -1.57512
0, -0, 0
0, -0, 0
0, -0, 0
0.00097488, -0.48694, -1.57
0, -0, 0
1.03231, -0.471107, -2.87619
-0.00452482, 0.84217, -1.57288
0.00277496, -0.225915, -1.57242
0, -0, 0
-0.00197827, -0.970572, -1.5693
0, -0, 0
0.0200289, -1.48075, -1.59243
0.00994915, 1.46549, -1.56092
-0.000142269, 0.402265, -1.57206
0, -0, 0
0, -0, 0
0.000467979, 0.285095, -1.57038
0, -0, 0
0.00369844, -0.397688, -1.57105
0, -0, 0
0, -0, 0
0.00197445, -0.202071, -1.57238
0, -0, 0
0, -0, 0
-9.41673e-05, -0.553865, -1.57069
-0.000241762, -1.32263, -1.57047
0.000725873, -0.343159, -1.56813
0.00287682, 0.00302341, 2.5509
0.0042685, 0.682236, -1.56793
-0.00288057, -0.722946, -1.56915
-0.0026525, -1.22463, -1.56916
-0.00139966, 0.632594, -1.57144
0, -0, 0
0, -0, 0
0, -0, 0
0, -0, 0
0.000996338, -0.256337, -1.57017
0.00410884, 0.327068, -1.56766
0, -0, 0
0, -0, 0
0.00290297, 0.673753, -1.56853
0, -0, 0
0, -0, 0
-3.1412, -1.28367, 1.56902
-0.00126953, 0.0866178, -1.57161
-0.000894191, -0.327413, -1.57279
-3.1384, -1.33607, 1.56865
2.11872, -0.728729, 2.75424
-0.00420546, -0.712357, -1.56734
-0.000269596, 0.275897, -1.57026
0, -0, 0
0.00171423, 0.565602, -1.56698
-0.00195919, -0.216684, -1.57256
0, -0, 0
0, -0, 0
-3.79996e-05, 0.721399, -1.57038
-0.00195568, 0.329481, -1.57337
0, -0, 0
0, -0, 0
0, -0, 0
0.00044502, 1.06045, -1.57062
-0.000577633, -0.363231, -1.56906
0, -0, 0
0, -0, 0
0, -0, 0
3.07234, -1.54251, 1.64213
-0.505055, 0.260806, -2.70566
0.0028856, -0.802072, -1.57284
0.622664, 0.160066, 2.92255
-0.00231959, 0.31935, -1.57051
0, -0, 0
0, -0, 0
0, -0, 0
-0.00269496, 0.603788, -1.57221
0, -0, 0
-0.00373943, -0.599382, -1.56792
0, -0, 0
0, -0, 0
0, -0, 0
0, -0, 0
0.000844099, -0.309282, -1.56987
0.00107888, 1.29426, -1.57004
0, -0, 0
0, -0, 0
0.000626979, 0.920246, -1.57047
0, -0, 0
0, -0, 0
0, -0, 0
0.000773994, 0.684114, -1.56691
0.000136867, -0.270812, -1.56826
0, -0, 0
-1.73753, -0.00946395, -3.13992
0, -0, 0
0, -0, 0
0, -0, 0
-0.000203191, -1.01317, -1.5706
-3.14099, -1.31576, -1.57129
0.00372372, -0.882885, -1.57326
-0.00130371, -1.12224, -1.56918
-0.000150374, 0.205376, -1.57028
0.00081975, -0.498724, -1.57044
0.00188699, 0.323244, -1.5694
-0.000230905, 0.293958, -1.5709
0.00147377, -0.975187, -1.57279
0, -0, 0
0, -0, 0
0.00540984, 0.688717, -1.56725
0, -0, 0
-0.0010663, 0.171786, -1.56637
0, -0, 0
-0.00145749, -0.61293, -1.56771
-0.297698, 0.730068, -1.88008
0.358001, 0.236889, 2.58081
-3.13705, 1.04331, 1.57437
-0.0013467, -0.107028, -1.57324
0.00463373, -0.0861774, -1.57051
-1.62167, 0.224583, 3.13023
0.00271006, -0.00278912, -1.56849
-0.000134581, 0.0342501, -1.57024
-0.000719449, -1.01576, -1.57026
-8.10972e-05, -0.823658, -1.57074
-0.186119, 0.154365, -2.46215
0, -0, 0
-0.0025998, -0.117161, -1.57007
0, -0, 0
0.00113257, 0.765196, -1.56999
0.000452087, 0.729691, -1.57097
0.000151468, -1.00203, -1.57086
0, -0, 0
0, -0, 0
1.39338e-05, -0.655903, -1.57233
0.00498484, 0.855259, -1.56296
0, -0, 0
3.13715, -1.38531, 1.57612
0, -0, 0
0.000196552, 0.604441, -1.57019
0, -0, 0
0, -0, 0
-0.00157789, -0.349073, -1.57504
-0.000331855, 0.955506, -1.57092
0, -0, 0
0, -0, 0
0, -0, 0
0, -0, 0
0.00259467, -1.36634, -1.57397
-3.121, 1.54675, 1.59224
-0.0370148, -1.44671, -1.53714
0, -0, 0
-0.00112241, -0.510132, -1.57248
0.00139165, -1.30864, -1.57234
0, -0, 0
0.000490335, 0.595746, -1.57012
-0.0023913, -1.04212, -1.56919
-6.73693e-05, -1.09597, -1.5706
5.81201e-06, 0.525718, -1.57031
0, -0, 0
0, -0, 0
-0.00374598, 1.50902, -1.57393
-0.0061321, 1.11973, -1.57146
0.0853401, -1.54449, -1.65581
0.00386039, 1.43231, -1.56695
0.386452, -0.121845, -2.85133
0.274458, -0.0346257, -3.02044
-0.00313167, -0.439379, -1.56814
0, -0, 0
-0.135264, 0.0645489, -2.6987
0, -0, 0
0.000243396, -0.00635492, -1.57025
-0.0105123, -1.20601, -1.56105
0, -0, 0
-0.00391676, -0.793312, -1.56803
1.84132, -0.571954, 2.99192
0, -0, 0
0, -0, 0
0, -0, 0
-0.00340667, 0.151661, -1.57236
-0.00264633, 1.48328, -1.56859
-3.14159, -1.11654, 1.57096
-0.00293681, 1.32691, -1.57301
0.00210412, -0.629184, -1.57219
-0.0038692, -0.0199032, -1.57022
0.00199373, -0.709417, -1.57045
0, -0, 0
-0.00134466, -0.739825, -1.56751
0, -0, 0
0.00032464, 0.598299, -1.57113
-0.000160362, -0.0484173, -1.57002
-0.00745548, 0.50552, -1.57596
0.216376, -0.337176, -2.16511
-3.02032, -1.52533, 1.44625
0, -0, 0
-0.000986953, 0.656118, -1.5715
0, -0, 0
0.00311055, -0.735892, -1.57415
0.00432875, 0.864063, -1.56896
-0.000699679, -0.766106, -1.57065
0, -0, 0
3.1392, -1.28653, 1.5733
0.00111068, 0.0588278, -1.56701
0, -0, 0
-0.0080287, 0.00203485, -2.92503
-0.00342634, -0.512501, -1.56599
0, -0, 0
0, -0, 0
0.000487872, -0.113818, -1.57052
0.000611307, -0.494236, -1.56991
-1.03582, 0.718538, -2.76854
0, -0, 0
0, -0, 0
0.00777374, -0.978053, -1.57978
0.00732874, -1.48709, -1.57836
0, -0, 0
0, -0, 0
0.000668985, 0.0495132, -1.57141
-0.562981, 0.274492, -2.73591
0, -0, 0
0.158866, -0.0684725, -2.73591
0, -0, 0
0.000327484, 0.15375, -1.57186
0.00375659, 0.193816, -1.57375
-0.114391, 0.125923, -2.31855
-0.405987, 0.25262, -2.61355
0, -0, 0
0.00412774, 1.09583, -1.5676
-3.14147, -1.10465, -1.57081
0, -0, 0
0, -0, 0
0.00100869, -1.272, -1.57199
0.486309, -0.144405, -2.87653
0, -0, 0
0, -0, 0
-3.14155, 1.38916, 1.57058
0, -0, 0
0, -0, 0
0, -0, 0
0.000128627, -0.752689, -1.57088
0.43601, -0.499233, -2.3445
3.14131, 0.605778, 1.57087
-0.000942753, -0.285033, -1.56836
0.212026, -0.0898111, -2.74675
-0.000478377, -0.637476, -1.57013
0, -0, 0
0, -0, 0
0.000182789, -1.0176, -1.56972
0, -0, 0
0, -0, 0
-0.000873811, -1.0975, -1.56935
0.000823517, -0.958866, -1.56991
0, -0, 0
0.00165166, -1.02261, -1.57206
0.637323, -0.00481279, -3.13565
0, -0, 0
0, -0, 0
0, -0, 0
-0.000237754, 0.979556, -1.5709
0, -0, 0
-0.00100934, 0.343001, -1.57156
-3.02656, 1.55669, 1.68385
-0.354753, 0.197823, -2.65588
0, -0, 0
0, -0, 0
0, -0, 0
0, -0, 0
-6.04621e-05, -0.710043, -1.57244
0.680582, -0.242007, -2.83356
-0.00239272, -0.959382, -1.56854
0.00542792, 0.846313, -1.56685
0.000961268, 0.812859, -1.56771
0.000187557, -0.321703, -1.57102
3.13848, 1.48656, 1.56785
-0.000508913, 0.273721, -1.57049
0.00268611, -1.04479, -1.57202
0, -0, 0
3.98741e-05, -0.462406, -1.5709
0, -0, 0
0.000945643, -0.481114, -1.56948
0, -0, 0
-0.00196824, 1.29174, -1.57212
0, -0, 0
0.00264011, 0.992413, -1.57152
-0.616091, -0.0169023, 3.11753
0.000585678, -0.162484, -1.57036
0.000399511, -0.847974, -1.57193
0.0501896, -0.0154679, -2.93833
0.000125299, -0.582927, -1.57078
0, -0, 0
0, -0, 0
3.10329, 1.4212, 1.53302
0.000529554, -0.149656, -1.57106
0, -0, 0
0, -0, 0
3.13888, 1.00619, 1.56835
0, -0, 0
-0.00919459, 0.932605, -1.57397
0, -0, 0
0, -0, 0
0.00356197, 0.88322, -1.56733
0, -0, 0
0, -0, 0
0.000865913, 0.025421, -1.57137
-0.596295, 0.385143, -2.63802
0.335459, -0.178789, -2.66846
0, -0, 0
-0.00236627, -0.358599, -1.56926
3.14144, -0.837845, 1.57148
-0.00318394, 0.884596, -1.57479
0, -0, 0
0, -0, 0
0, -0, 0
0, -0, 0
-0.00394, 0.998683, -1.57332
0, -0, 0
0.00273026, -0.354575, -1.57333
0, -0, 0
0, -0, 0
0.00395004, 0.330967, -1.56781
-0.000331868, -0.715238, -1.57217
-0.310713, 0.180181, -2.63247
0, -0, 0
0, -0, 0
0.00113502, -0.239692, -1.5738
3.14123, 1.48695, 1.57076
-3.25308e-05, 0.703288, -1.5708
-0.00348227, -0.546024, -1.57105
-3.12637, -1.441, 1.5529
2.83705, 1.5571, 1.2679
0.000137435, 0.258861, -1.57054
0.729986, -0.260343, -2.86103
-0.000485129, -0.140216, -1.57188
0.000316832, 0.242865, -1.57042
0, -0, 0
0.000466539, 0.76147, -1.57226
-0.00385384, -0.718583, -1.56636
-0.000913207, 0.609332, -1.57124
0, -0, 0
0.000578836, -0.468143, -1.57078
0, -0, 0
0, -0, 0
0, -0, 0
0, -0, 0
0, -0, 0
0, -0, 0
0, -0, 0
-0.00136191, 0.0945562, -1.57179
0.340403, -0.183851, -2.66267
0, -0, 0
-0.000412668, 0.476076, 1.57063
-0.00132341, -0.542401, -1.56972
0, -0, 0
0, -0, 0
0, -0, 0
-0.000962056, -0.334701, -1.56924
0, -0, 0
-0.000815985, 1.08371, -1.57327
0.000441796, -0.498425, -1.57105
-0.658531, 0.458297, -2.52125
0, -0, 0
0, -0, 0
-0.00211482, 0.312506, -1.56849
-0.00573834, -1.27067, -1.56282
0, -0, 0
0, -0, 0
0, -0, 0
0.00231378, 0.93025, -1.56972
0, -0, 0
-0.000307053, 0.0860846, -1.56999
0, -0, 0
-0.118543, -0.0750338, 2.57586
-0.000536622, 0.503078, -1.57027
0, -0, 0
0, -0, 0
0, -0, 0
0.000116155, -0.115192, -1.57048
2.36196, -0.555553, 2.65165
1.88068e-05, 0.397082, -1.57149
0.000764711, 0.831124, -1.57221
-0.00024678, -1.06481, -1.5711
0, -0, 0
0.00187375, 0.0466424, -1.5695
-0.0046293, 0.693386, -1.57407
0.000453768, 0.439768, -1.57083
0.000248696, 0.144577, -1.57078
0, -0, 0
0, -0, 0
0, -0, 0
0, -0, 0
0.00152187, 0.382725, -1.56927
-0.00332785, -1.00282, -1.56788
0, -0, 0
-0.000881106, -0.0551831, -1.5704
0.000506381, -0.209035, -1.56953
0.000548018, -0.36024, -1.56882
0, -0, 0
0.00092375, 1.14338, -1.57211
0, -0, 0
-0.00159333, -0.578286, -1.56839
0, -0, 0
0, -0, 0
0.00127906, -0.744805, -1.57224
-0.012714, -1.24539, -1.55848
-0.00230415, 1.1897, -1.57307
0.00091251, -0.608789, -1.57088
0.00145495, 0.454869, -1.56967
0, -0, 0
0.00284847, 0.614384, -1.56994
0.00131674, -0.694242, -1.5742
0, -0, 0
0, -0, 0
0.000147484, 0.868812, -1.5709
0, -0, 0
-0.000496089, -0.818822, -1.56958
0, -0, 0
0, -0, 0
0, -0, 0
-0.000151583, 1.12516, -1.57018
0, -0, 0
0.000137516, 0.128507, -1.57066
-0.00106716, -0.956818, -1.56918
0, -0, 0
0, -0, 0
0.143758, -0.123012, -2.45192
0.464569, -0.262088, -2.66318
0.000545931, -0.655303, -1.57112
0.000986345, 0.712684, -1.57046
-4.2484e-05, -0.136212, -1.57137
0, -0, 0
0.000449182, -0.959805, -1.57054
0.00393799, 0.620794, -1.56949
0.00518097, 1.23475, -1.5671
6.29047e-05, 0.576841, -1.56996
0, -0, 0
0, -0, 0
3.14149, 0.623716, 1.57199
-0.00309719, 0.126912, -1.56978
0, -0, 0
-0.00529732, 1.02245, -1.5745
-0.000498523, 0.147194, -1.57235
-0.00181226, 1.33621, -1.57211
1.29284e-05, -0.716516, -1.56913
-0.000579287, 0.372034, -1.57416
0, -0, 0
0, -0, 0
0.0029246, -0.307672, -1.56906
0, -0, 0
0, -0, 0
0.18463, 0.0645641, 2.81
0, -0, 0
0.000636627, 0.612008, -1.57031
1.51067e-06, -0.0578628, -1.56993
0.00413539, 0.092325, -1.57185
0, -0, 0
-0.00497031, 1.30293, -1.57538
0, -0, 0
0.00207115, 0.236154, -1.57156
-0.00165067, 0.454813, -1.56863
-0.000679216, -0.197168, -1.57203
0, -0, 0
0, -0, 0
0.0487633, -0.0678935, -2.27632
0, -0, 0
0, -0, 0
0, -0, 0
0, -0, 0
-0.00304189, 0.0615251, -1.57056
0, -0, 0
-0.00137281, 0.550261, -1.56641
0, -0, 0
0, -0, 0
-0.00086481, 0.571748, -1.56755
0, -0, 0
0, -0, 0
-0.106459, 0.0241047, -2.92029
0, -0, 0
0, -0, 0
-0.00257156, -0.0846471, -1.57021
1.98554, 0.385737, -2.97737
-0.000292821, -0.88782, -1.57125
0, -0, 0
-0.00126432, 1.35283, -1.57248
0, -0, 0
0, -0, 0
0, -0, 0
-0.00332197, -0.39638, -1.56839
3.14054, -1.3669, 1.57261
-0.000642032, 0.253214, -1.57122
-3.13897, -1.01213, 1.57183
0.00135273, -0.00326665, -1.56974
-1.43023, -0.138222, 3.12251
0.00196678, 0.148269, -1.57052
0, -0, 0
-0.00135027, 0.0745266, -1.57276
0, -0, 0
0.244197, 0.0748974, 2.85007
0, -0, 0
2.02649e-05, 0.743898, -1.57078
0, -0, 0
0, -0, 0
-0.000760432, 0.183408, -1.56998
1.34318, -0.0780756, -3.12381
0, -0, 0
-0.000373758, -0.627145, -1.5712
-0.00302521, 0.527639, -1.57299
0, -0, 0
0, -0, 0
-0.000114101, -0.606543, -1.56882
0, -0, 0
0, -0, 0
0, -0, 0
0, -0, 0
-0.0138427, -1.41952, -1.55596
1.06083e-05, -0.986095, -1.57242
0.000777654, 0.506682, -1.57111
0, -0, 0
0, -0, 0
0, -0, 0
0, -0, 0
-3.08439, -1.53474, 1.51045
-0.000398858, -0.520757, -1.56889
0.000285051, -0.335695, -1.57064
3.14151, 0.37979, -1.57066
0.000653676, 0.0541678, -1.5706
0.000387883, 0.562191, -1.56995
3.13368, 0.933717, 1.56524
0, -0, 0
0, -0, 0
0.000693284, 0.473141, -1.56905
0, -0, 0
0, -0, 0
0, -0, 0
-0.0013424, -0.678849, -1.56539
0, -0, 0
-1.79813, 0.341442, 3.06433
-0.000759166, -1.11947, -1.5734
0, -0, 0
-3.13354, -1.43279, 1.55877
0.00158888, 1.1043, -1.568
0, -0, 0
0, -0, 0
0, -0, 0
0, -0, 0
0.00215639, 0.981184, -1.56899
-0.000376761, 0.146402, -1.57119
0.000641413, -1.16326, -1.57089
-0.00242138, -0.703134, -1.56463
0, -0, 0
0.000360846, -0.44512, 1.57295
0.00121806, 0.527654, -1.57024
0, -0, 0
-3.14108, -0.988187, 1.57077
0.00458988, -0.875594, -1.57814
0.595461, -0.390131, -2.6238
0.00149837, -0.0815821, -1.57349
-0.000304008, -0.552541, -1.57052
0, -0, 0
0.000113083, 0.0481316, -1.57038
0, -0, 0
-0.105904, 0.105241, -2.36998
0, -0, 0
0.709199, -0.189209, -2.92502
0, -0, 0
-0.920702, 0.335959, -2.89626
-0.000332948, 0.620919, -1.57203
0.00043615, -1.01538, -1.572
0.00053845, -0.974048, -1.5727
0.0004649, 0.215559, -1.57111
0, -0, 0
-0.000263756, -0.612487, -1.56968
0, -0, 0
-0.000917303, 0.0377106, -1.57299
1.857e-05, 0.509734, -1.57116
-0.320546, 0.0976611, -2.85661
0, -0, 0
-0.0023161, -0.39056, -1.57026
0, -0, 0
-0.817687, 0.500219, -2.6943
-0.0044544, 0.559395, -1.57422
-0.00408713, 0.496501, -1.5745
0, -0, 0
0.000322687, -0.834292, -1.57331
0.00162631, -1.49414, -1.57217
-0.14251, 1.03932, -1.73955
0.000492474, -0.126459, -1.57078
3.14039, 0.909856, 1.5726
0.00377661, -0.403104, -1.57353
0, -0, 0
0, -0, 0
0.000159398, 0.0661794, -1.5705
0, -0, 0
3.13823, -1.37805, 1.57018
0, -0, 0
-0.00348581, -0.54469, -1.569
-0.000805703, -0.266605, -1.56937
0.00289552, 0.854346, -1.5656
-0.00499132, 1.31896, -1.57464
-0.0214229, 1.52917, -1.58989
-0.0124424, 1.2797, -1.57855
-0.000754112, 0.0339874, -1.57217
-0.222021, 0.11628, -2.66599
0, -0, 0
-0.0254058, -1.47539, -1.54703
-0.000566801, -0.386242, -1.57079
0, -0, 0
0, -0, 0
-0.0166041, 1.38557, -1.58909
-0.00389999, -1.17769, -1.56595
0.00109606, -1.13342, -1.57153
0.00375038, 0.871097, -1.57072
0, -0, 0
0.00232286, 0.11716, -1.57296
0, -0, 0
-0.0102893, -1.23393, 1.57912
0, -0, 0
0, -0, 0
-0.000147123, 0.0806487, -1.57077
0.125003, 0.0211988, 2.97074
0, -0, 0
0, -0, 0
0, -0, 0
0.00155335, -1.16405, -1.57274
-0.00159338, 0.841681, -1.57059
-0.00269725, 0.87841, -1.56677
-0.00117897, -1.33408, -1.56814
0.00665615, 1.13272, -1.56714
0, -0, 0
-0.000512707, -0.286859, -1.57084
0.00295458, 0.597667, -1.56611
0.00698631, 1.18686, -1.56313
0, -0, 0
0, -0, 0
6.56138e-05, 0.666791, -1.57081
0, -0, 0
0.00151439, -0.127064, -1.56992
0.203624, 0.04596, 2.92073
0.00270361, -1.01238, -1.57119
-0.00343438, 0.54475, -1.56976
0, -0, 0
-0.000879844, 0.216754, -1.57038
0, -0, 0
0.000540582, 0.158829, -1.57178
0, -0, 0
-0.00115183, -0.590742, -1.5697
-0.00142783, 0.380904, -1.56761
0.000732435, 0.769672, -1.57027
-0.00309715, 0.105857, -1.56848
-0.0521319, 0.0191573, -2.79197
0.000109178, 0.276262, -1.57035
-0.00694192, 1.19905, -1.5768
0, -0, 0
-0.00190233, -0.876041, -1.57367
0.00218313, 0.785009, -1.56925
-0.00144432, -0.0821693, -1.56721
-0.00100127, 0.616786, -1.57085
0, -0, 0
0, -0, 0
0, -0, 0
-0.00712567, -1.39522, -1.56323
0, -0, 0
0.00216324, -0.565203, -1.57071
-9.26224e-05, -0.292286, -1.57038
0.0382963, -0.00981039, -2.87956
-3.13738, -1.37882, 1.56567
-0.00318266, 0.835581, -1.57343
0, -0, 0
0.000559432, 0.0414482, -1.57083
0.000937157, 0.488158, -1.57014
0, -0, 0
-0.117685, 0.0269966, -2.92074
-0.00233661, 1.10502, -1.57235
0.00081134, 0.069256, -1.57418
0, -0, 0
-0.00065437, 0.193121, -1.57026
0, -0, 0
-0.612227, 0.231485, -2.82589
0, -0, 0
3.1393, 0.831425, -1.57212
0, -0, 0
0, -0, 0
0.00013663, -0.648974, -1.57209
-0.00116703, 0.481398, -1.57444
0, -0, 0
-0.000858882, -1.2125, -1.57061
0.00613782, -1.05499, -1.57544
0, -0, 0
-0.000544586, -0.669243, -1.57139
0.000437686, -0.291092, -1.57205
0, -0, 0
0, -0, 0
0.00492443, 0.793322, -1.56596
0.00134504, -0.395155, -1.57243
0, -0, 0
0, -0, 0
3.13168, 1.32484, 1.55912
0, -0, 0
0.00139283, -1.51043, -1.57174
-0.0185216, 1.47421, -1.59112
-0.00066229, -1.17985, -1.56946
0, -0, 0
0, -0, 0
-0.000710247, 0.626586, -1.57084
0, -0, 0
-0.000941843, -0.958425, -1.57304
0.000972249, -0.290645, -1.57104
0.000147694, -0.502707, -1.57087
0, -0, 0
-3.14011, 0.0519386, 1.57318
0, -0, 0
-1.66034, 0.0462677, 3.13728
0, -0, 0
0.19637, 0.0513791, 2.89
-0.000656298, -0.859547, -1.57078
0, -0, 0
-0.000245484, -0.272393, -1.57157
0.00214696, 0.364836, -1.56656
0.000102133, 0.702758, -1.57111
0, -0, 0
0, -0, 0
-3.14137, -1.33193, 1.57063
-0.00055132, 0.701301, -1.57484
0.284058, -1.56596, -1.85389
0, -0, 0
-0.00124893, -0.283486, -1.57037
0, -0, 0
-0.0019995, 0.0436146, -1.57325
0, -0, 0
-0.000714662, 0.120424, -1.57112
0, -0, 0
-0.00221186, -1.11205, -1.57094
0, -0, 0
0.00016678, 0.206718, -1.57264
0, -0, 0
0, -0, 0
0, -0, 0
-0.000839272, 0.32742, -1.57002
0, -0, 0
0, -0, 0
0, -0, 0
0, -0, 0
0, -0, 0
0.000483527, 0.0118191, -1.57118
0.00512474, 0.648623, -1.56673
0.000346194, -0.841118, -1.57171
0, -0, 0
-0.000552776, -0.738111, -1.57385
0.00317757, 0.790374, -1.56855
-0.00230944, -0.119624, -1.5682
-0.661244, -0.0909202, 3.02468
1.77113, 0.0278273, -3.13582
0, -0, 0
0.528075, -0.234268, -2.76368
0, -0, 0
-0.0022135, -1.14278, -1.56877
-0.00109079, 0.00661336, -1.57186
0, -0, 0
0, -0, 0
0.0030656, -0.100956, -1.57293
0, -0, 0
0.000702095, -0.270626, -1.57163
0.00261997, 0.0161718, -1.56789
-0.00177316, -0.915375, -1.56956
3.13194, 1.32448, 1.55817
0.0292624, 1.4516, -1.54181
-0.00147982, -0.793046, -1.56975
0, -0, 0
0.00376349, -0.290984, -1.5718
-0.00140971, -0.753461, -1.56709
0.00133234, 1.18121, -1.56908
-0.00059806, 0.382435, -1.5698
0, -0, 0
0, -0, 0
-0.000624885, 0.956269, -1.57107
0.00050329, 0.0254649, -1.57094
0, -0, 0
0.00409507, 0.858663, -1.56812
-0.0598134, -0.0533061, 2.40297
0, -0, 0
0.0026835, 0.611156, -1.56921
-0.00538326, -0.864958, -1.56431
1.52686, 0.420248, 3.12365
-0.00125621, -0.138496, -1.57298
0.00017423, -0.534052, -1.57064
0, -0, 0
0.00829374, 1.15608, -1.56436
-0.343906, 0.372319, -2.35726
0, -0, 0
0.000928701, 0.0308187, -1.5698
0, -0, 0
0, -0, 0
0, -0, 0
-0.00202938, 0.684083, -1.5726
-0.00197876, 1.51676, -1.57214
0, -0, 0
-0.00278003, -0.893822, -1.5706
-0.000131597, -0.720029, -1.57241
-6.08629e-05, -0.463082, -1.57033
-0.000605647, 0.563641, -1.56918
0, -0, 0
0, -0, 0
0, -0, 0
0, -0, 0
-0.00137254, -0.77556, -1.56954
-0.00115411, -0.58474, -1.56671
0.000336396, -0.956844, -1.57048
0, -0, 0
0.500867, -0.443736, -2.47633
0.000137414, -0.151873, -1.57064
-0.0116948, -1.2896, -1.56368
-0.024083, -0.631498, -1.53053
0.00151643, -0.122971, -1.56979
0, -0, 0
0, -0, 0
0.310504, -0.205231, -2.57494
0.000496277, -0.443259, -1.57052
-2.49916, -0.352575, -2.69335
0, -0, 0
0, -0, 0
-0.000400456, -0.579456, -1.57013
0, -0, 0
0.000226134, 0.0765464, -1.57046
-0.039699, 0.0120121, -2.84354
0, -0, 0
0.000135118, -0.382531, -1.57077
0, -0, 0
0, -0, 0
0, -0, 0
-0.535592, -0.112712, 2.95465
1.06982, -0.136766, -3.06684
0.000303482, -1.14739, -1.57076
3.13335, -1.45908, 1.57904
-0.00845897, 1.26588, -1.57463
0, -0, 0
0.000908367, -0.952773, -1.57211
1.10446, 1.56668, -0.464424
0.000403687, 0.664952, -1.56834
0, -0, 0
-0.00387857, 0.0226757, -1.56889
0, -0, 0
0, -0, 0
0.000356491, -0.43797, -1.57049
-0.000857728, 0.2276, -1.56876
0, -0, 0
0, -0, 0
3.14154, -1.00888, 1.56894
-0.000139827, 0.0029999, -1.57119
0, -0, 0
-0.00693533, -1.03974, -1.56343
0, -0, 0
-0.000954011, 0.520696, -1.56665
-0.000602492, -0.84644, -1.56963
0.000358943, -1.02968, -1.57099
-3.14092, 0.915788, 1.57125
0.00109012, -0.222696, -1.57243
0, -0, 0
0.000222021, 0.602858, -1.57086
-0.0280059, 0.0257654, -2.37774
-0.00180847, 0.0204317, -1.57306
0.00302379, 0.327691, -1.56852
0.00040945, -0.314976, -1.57093
0, -0, 0
0, -0, 0
0.0034725, 0.369981, -1.56943
0, -0, 0
-7.98877e-05, -0.761644, -1.57032
1.78387, -0.674777, 3.01714
0, -0, 0
0.546938, -0.367214, -2.61208
0, -0, 0
0, -0, 0
0.00027274, 0.150286, -1.57139
1.72404, -0.357236, 3.08766
0, -0, 0
-1.35938, 0.159031, -3.10758
1.3807, -0.53138, -3.04446
0.00106818, -0.432287, -1.5713
0.000129051, 0.824091, -1.57071
0.00774655, 1.04632, -1.55992
-0.635087, 0.35849, -2.66584
0.000867281, 0.0426897, -1.56987
-0.0013214, -1.30214, -1.56913
-0.00409053, 0.519673, 1.57109
0, -0, 0
0.000950811, 0.0344847, -1.57134
-1.3398, 0.731771, -2.98688
0.00279861, -0.869631, -1.57632
0.297191, 0.0753409, 2.89956
0, -0, 0
-1.1827, 0.253822, -3.03939
0, -0, 0
0.000142807, 1.42396, -1.57119
0, -0, 0
-0.00113375, 0.359757, -1.56545
-0.000721899, 0.285264, -1.57111
0, -0, 0
-0.000485123, -0.00423426, -1.57108
0.000509105, 0.0473684, -1.57065
0.000494337, -0.268539, -1.57182
1.20425, -0.533742, -2.94868
-0.00270367, 0.412763, -1.5692
0, -0, 0
0, -0, 0
0, -0, 0
-0.000307238, -0.790017, -1.57058
0, -0, 0
0, -0, 0
0.00199116, -0.39857, -1.57157
0, -0, 0
0.000446833, -0.687856, -1.56949
-0.00327941, 1.37584, -1.5753
-3.03634e-05, 0.166161, -1.57099
-0.00144196, -0.0697234, -1.57282
0.00174982, -0.0136454, -1.57089
-0.00123193, -0.365173, -1.57329
0, -0, 0
-0.000227774, -1.01302, -1.56985
-0.00236307, 0.476882, -1.5687
0.00278307, 1.01438, -1.56739
-0.00139738, 0.129521, -1.56896
0.000615556, 0.698257, -1.57092
0, -0, 0
0.0119532, -0.00870205, -2.52448
-0.000538245, 0.296946, -1.57079
-0.0412262, 1.48673, -1.60866
0.00196089, -0.126879, -1.56931
0, -0, 0
0.000464506, -0.280972, -1.5709
0, -0, 0
0.00630002, 1.47923, -1.56452
0, -0, 0
0.00164442, -1.44837, -1.5731
-0.120167, -0.0230008, 2.95097
0.000437711, -0.269893, -1.57032
-0.00301682, 0.545687, -1.56787
0.607666, 0.526588, 2.51791
-0.000367964, 0.720272, -1.56903
0, -0, 0
0, -0, 0
-0.00143681, -0.46618, -1.56955
-3.12588, -1.47019, 1.55716
0, -0, 0
0, -0, 0
-0.00077305, 0.220194, -1.57005
0, -0, 0
0, -0, 0
-0.000733203, 0.281873, -1.57075
0.00405859, 0.402874, -1.56873
0.000622497, 0.901322, -1.56917
0, -0, 0
0.000100275, 0.457891, -1.57021
-3.12166, -1.26671, 1.55039
0, -0, 0
-0.000140758, -0.116327, -1.57191
0, -0, 0
0, -0, 0
0.0541102, 1.49975, -1.51553
0, -0, 0
-0.000285445, -0.224132, -1.57049
0, -0, 0
-0.000541568, 0.332371, -1.57136
0.000413146, -1.0328, -1.57103
-0.913122, 0.585744, -2.77294
0.00209437, 0.676575, -1.56897
0.000622769, -0.991335, -1.57214
0, -0, 0
0.00080922, 0.141902, -1.57016
0, -0, 0
3.05131, 1.55568, 1.48147
0.00062137, -0.837305, -1.57107
-0.000955314, 1.02856, -1.56882
-0.00261378, 0.78946, -1.57226
-3.1369, -0.867386, 1.56419
0, -0, 0
-0.000567261, -0.234365, -1.5704
0.00274642, -1.33294, -1.57401
0, -0, 0
