0, 0, -0.03, 0, -0, 3.50835e-15, 2
0, 0, -0.03, 0, -0, 8.33333, 1
0, 0, -0.03, 0, -0, 16.6667, 1
0, 0, -0.03, 0, -0, 25, 1
0, 0, -0.03, 0, -0, 33.3333, 1
0, 0, -0.03, 0, -0, 41.6667, 1
0, 0, -0.03, 0, -0, 50, 0
0, 0, -0.03, 0, -0, 58.3333, 0
0, 0, -0.03, 0, -0, 66.6667, 0
0, 0, -0.03, 0, -0, 75, 0
0, 0, -0.03, 10, 9.56898e-16, 3.7312e-15, 1
0, 0, -0.03, 10, 1.90624e-15, 8.33333, 1
0, 0, -0.03, 10, -1.25154e-15, 16.6667, 0
0, 0, -0.03, 10, -6.46469e-16, 25, 0
0, 0, -0.03, 10, 1.28461e-15, 33.3333, 1
0, 0, -0.03, 10, 3.23963e-15, 41.6667, 0
0, 0, -0.03, 10, 2.41252e-17, 50, 0
0, 0, -0.03, 10, -2.84001e-15, 58.3333, 0
0, 0, -0.03, 10, 7.8532e-15, 66.6667, 0
0, 0, -0.03, 10, 1.87314e-15, 75, 0
0, 0, -0.03, 20, -4.28458e-15, 2.75287e-15, 1
0, 0, -0.03, 20, 1.0142e-15, 8.33333, 1
0, 0, -0.03, 20, -5.97446e-15, 16.6667, 0
0, 0, -0.03, 20, 1.01387e-15, 25, 0
0, 0, -0.03, 20, -3.71615e-15, 33.3333, 0
0, 0, -0.03, 20, -7.21966e-15, 41.6667, 0
0, 0, -0.03, 20, 7.45452e-15, 50, 0
0, 0, -0.03, 20, 5.43149e-15, 58.3333, 0
0, 0, -0.03, 20, -1.93945e-15, 66.6667, 0
0, 0, -0.03, 20, 1.9493e-15, 75, 0
0, 0, -0.03, 30, -1.75418e-15, 3.03832e-15, 1
0, 0, -0.03, 30, 3.84789e-15, 8.33333, 0
0, 0, -0.03, 30, 3.30915e-15, 16.6667, 0
0, 0, -0.03, 30, -1.75418e-15, 25, 0
0, 0, -0.03, 30, 7.03538e-15, 33.3333, 0
0, 0, -0.03, 30, 4.99935e-16, 41.6667, 0
0, 0, -0.03, 30, -1.48418e-15, 50, 0
0, 0, -0.03, 30, -1.75418e-15, 58.3333, 0
0, 0, -0.03, 30, 2.31637e-15, 66.6667, 0
0, 0, -0.03, 30, 2.51608e-15, 75, 0
0, 0, -0.03, 40, -7.87213e-15, -9.47143e-16, 1
0, 0, -0.03, 40, -2.63758e-15, 8.33333, 0
0, 0, -0.03, 40, -6.03012e-15, 16.6667, 0
0, 0, -0.03, 40, -7.15725e-15, 25, 0
0, 0, -0.03, 40, -1.94922e-16, 33.3333, 0
0, 0, -0.03, 40, 2.1134e-15, 41.6667, 0
0, 0, -0.03, 40, -1.0369e-15, 50, 0
0, 0, -0.03, 40, -9.45109e-15, 58.3333, 0
0, 0, -0.03, 40, -1.42479e-15, 66.6667, 0
0, 0, -0.03, 40, -2.09352e-15, 75, 0
0, 0, -0.03, 50, -2.68756e-15, 2.25513e-15, 0
0, 0, -0.03, 50, -1.52675e-15, 8.33333, 0
0, 0, -0.03, 50, -6.2818e-16, 16.6667, 0
0, 0, -0.03, 50, -3.60575e-15, 25, 0
0, 0, -0.03, 50, 4.54743e-15, 33.3333, 0
0, 0, -0.03, 50, -2.67863e-15, 41.6667, 0
0, 0, -0.03, 50, -6.9643e-15, 50, 0
0, 0, -0.03, 50, -5.86811e-15, 58.3333, 0
0, 0, -0.03, 50, 2.84321e-15, 66.6667, 0
0, 0, -0.03, 50, 4.88124e-15, 75, 0
0, 0, -0.03, 60, -6.52908e-16, 4.72168e-15, 0
0, 0, -0.03, 60, -2.41027e-15, 8.33333, 0
0, 0, -0.03, 60, -5.20175e-15, 16.6667, 0
0, 0, -0.03, 60, -7.16793e-15, 25, 0
0, 0, -0.03, 60, 4.19666e-15, 33.3333, 0
0, 0, -0.03, 60, -2.51418e-15, 41.6667, 0
0, 0, -0.03, 60, 2.53873e-15, 50, 0
0, 0, -0.03, 60, -7.3775e-16, 58.3333, 0
0, 0, -0.03, 60, -5.91287e-15, 66.6667, 0
0, 0, -0.03, 60, -5.97176e-15, 75, 0
0, 0, -0.03, 70, -2.75287e-15, 4.28458e-15, 0
0, 0, -0.03, 70, -3.85723e-15, 8.33333, 0
0, 0, -0.03, 70, -4.97088e-16, 16.6667, 0
0, 0, -0.03, 70, 1.17938e-15, 25, 0
0, 0, -0.03, 70, -1.84635e-15, 33.3333, 0
0, 0, -0.03, 70, -4.47583e-15, 41.6667, 0
0, 0, -0.03, 70, -5.18217e-15, 50, 0
0, 0, -0.03, 70, -3.26246e-15, 58.3333, 0
0, 0, -0.03, 70, -1.01075e-15, 66.6667, 0
0, 0, -0.03, 70, -1.62378e-15, 75, 0
0, 0, -0.03, 80, -3.59313e-15, -9.68978e-16, 0
0, 0, -0.03, 80, -2.92739e-15, 8.33333, 0
0, 0, -0.03, 80, -3.58696e-15, 16.6667, 0
0, 0, -0.03, 80, -3.24207e-15, 25, 0
0, 0, -0.03, 80, 2.36496e-15, 33.3333, 0
0, 0, -0.03, 80, -3.88782e-15, 41.6667, 0
0, 0, -0.03, 80, -5.75245e-15, 50, 0
0, 0, -0.03, 80, -3.07735e-15, 58.3333, 0
0, 0, -0.03, 80, -3.92034e-15, 66.6667, 0
0, 0, -0.03, 80, -4.08647e-15, 75, 0
0, 0, -0.03, 90, -3.50835e-15, 2.14825e-31, 0
0, 0, -0.03, 90, -3.50835e-15, 8.33333, 0
0, 0, -0.03, 90, -3.02639e-15, 16.6667, 0
0, 0, -0.03, 90, -2.83647e-15, 25, 0
0, 0, -0.03, 90, -3.50835e-15, 33.3333, 0
0, 0, -0.03, 90, -3.50835e-15, 41.6667, 0
0, 0, -0.03, 90, -1.05431e-15, 50, 0
0, 0, -0.03, 90, -2.72456e-15, 58.3333, 0
0, 0, -0.03, 90, -3.50835e-15, 66.6667, 0
0, 0, -0.03, 90, -3.50835e-15, 75, 0
0, 0, -0.0177778, 0, -0, 3.50835e-15, 2
0, 0, -0.0177778, 0, -0, 8.33333, 1
0, 0, -0.0177778, 0, -0, 16.6667, 1
0, 0, -0.0177778, 0, -0, 25, 1
0, 0, -0.0177778, 0, -0, 33.3333, 1
0, 0, -0.0177778, 0, -0, 41.6667, 1
0, 0, -0.0177778, 0, -0, 50, 1
0, 0, -0.0177778, 0, -0, 58.3333, 1
0, 0, -0.0177778, 0, -0, 66.6667, 1
0, 0, -0.0177778, 0, -0, 75, 1
0, 0, -0.0177778, 10, 9.56898e-16, 3.7312e-15, 2
0, 0, -0.0177778, 10, 1.90624e-15, 8.33333, 1
0, 0, -0.0177778, 10, -1.25154e-15, 16.6667, 1
0, 0, -0.0177778, 10, -6.46469e-16, 25, 1
0, 0, -0.0177778, 10, 1.28461e-15, 33.3333, 1
0, 0, -0.0177778, 10, 3.23963e-15, 41.6667, 1
0, 0, -0.0177778, 10, 2.41252e-17, 50, 1
0, 0, -0.0177778, 10, -2.84001e-15, 58.3333, 1
0, 0, -0.0177778, 10, 7.8532e-15, 66.6667, 1
0, 0, -0.0177778, 10, 1.87314e-15, 75, 0
0, 0, -0.0177778, 20, -4.28458e-15, 2.75287e-15, 2
0, 0, -0.0177778, 20, 1.0142e-15, 8.33333, 1
0, 0, -0.0177778, 20, -5.97446e-15, 16.6667, 1
0, 0, -0.0177778, 20, 1.01387e-15, 25, 1
0, 0, -0.0177778, 20, -3.71615e-15, 33.3333, 1
0, 0, -0.0177778, 20, -7.21966e-15, 41.6667, 1
0, 0, -0.0177778, 20, 7.45452e-15, 50, 1
0, 0, -0.0177778, 20, 5.43149e-15, 58.3333, 1
0, 0, -0.0177778, 20, -1.93945e-15, 66.6667, 1
0, 0, -0.0177778, 20, 1.9493e-15, 75, 0
0, 0, -0.0177778, 30, -1.75418e-15, 3.03832e-15, 2
0, 0, -0.0177778, 30, 3.84789e-15, 8.33333, 1
0, 0, -0.0177778, 30, 3.30915e-15, 16.6667, 1
0, 0, -0.0177778, 30, -1.75418e-15, 25, 1
0, 0, -0.0177778, 30, 7.03538e-15, 33.3333, 1
0, 0, -0.0177778, 30, 4.99935e-16, 41.6667, 1
0, 0, -0.0177778, 30, -1.48418e-15, 50, 1
0, 0, -0.0177778, 30, -1.75418e-15, 58.3333, 1
0, 0, -0.0177778, 30, 2.31637e-15, 66.6667, 1
0, 0, -0.0177778, 30, 2.51608e-15, 75, 0
0, 0, -0.0177778, 40, -7.87213e-15, -9.47143e-16, 2
0, 0, -0.0177778, 40, -2.63758e-15, 8.33333, 1
0, 0, -0.0177778, 40, -6.03012e-15, 16.6667, 1
0, 0, -0.0177778, 40, -7.15725e-15, 25, 2
0, 0, -0.0177778, 40, -1.94922e-16, 33.3333, 1
0, 0, -0.0177778, 40, 2.1134e-15, 41.6667, 1
0, 0, -0.0177778, 40, -1.0369e-15, 50, 0
0, 0, -0.0177778, 40, -9.45109e-15, 58.3333, 0
0, 0, -0.0177778, 40, -1.42479e-15, 66.6667, 0
0, 0, -0.0177778, 40, -2.09352e-15, 75, 0
0, 0, -0.0177778, 50, -2.68756e-15, 2.25513e-15, 2
0, 0, -0.0177778, 50, -1.52675e-15, 8.33333, 0
0, 0, -0.0177778, 50, -6.2818e-16, 16.6667, 0
0, 0, -0.0177778, 50, -3.60575e-15, 25, 0
0, 0, -0.0177778, 50, 4.54743e-15, 33.3333, 0
0, 0, -0.0177778, 50, -2.67863e-15, 41.6667, 0
0, 0, -0.0177778, 50, -6.9643e-15, 50, 0
0, 0, -0.0177778, 50, -5.86811e-15, 58.3333, 0
0, 0, -0.0177778, 50, 2.84321e-15, 66.6667, 0
0, 0, -0.0177778, 50, 4.88124e-15, 75, 0
0, 0, -0.0177778, 60, -6.52908e-16, 4.72168e-15, 0
0, 0, -0.0177778, 60, -2.41027e-15, 8.33333, 0
0, 0, -0.0177778, 60, -5.20175e-15, 16.6667, 0
0, 0, -0.0177778, 60, -7.16793e-15, 25, 0
0, 0, -0.0177778, 60, 4.19666e-15, 33.3333, 0
0, 0, -0.0177778, 60, -2.51418e-15, 41.6667, 0
0, 0, -0.0177778, 60, 2.53873e-15, 50, 0
0, 0, -0.0177778, 60, -7.3775e-16, 58.3333, 0
0, 0, -0.0177778, 60, -5.91287e-15, 66.6667, 0
0, 0, -0.0177778, 60, -5.97176e-15, 75, 0
0, 0, -0.0177778, 70, -2.75287e-15, 4.28458e-15, 0
0, 0, -0.0177778, 70, -3.85723e-15, 8.33333, 0
0, 0, -0.0177778, 70, -4.97088e-16, 16.6667, 0
0, 0, -0.0177778, 70, 1.17938e-15, 25, 0
0, 0, -0.0177778, 70, -1.84635e-15, 33.3333, 0
0, 0, -0.0177778, 70, -4.47583e-15, 41.6667, 0
0, 0, -0.0177778, 70, -5.18217e-15, 50, 0
0, 0, -0.0177778, 70, -3.26246e-15, 58.3333, 0
0, 0, -0.0177778, 70, -1.01075e-15, 66.6667, 0
0, 0, -0.0177778, 70, -1.62378e-15, 75, 0
0, 0, -0.0177778, 80, -3.59313e-15, -9.68978e-16, 0
0, 0, -0.0177778, 80, -2.92739e-15, 8.33333, 0
0, 0, -0.0177778, 80, -3.58696e-15, 16.6667, 0
0, 0, -0.0177778, 80, -3.24207e-15, 25, 0
0, 0, -0.0177778, 80, 2.36496e-15, 33.3333, 0
0, 0, -0.0177778, 80, -3.88782e-15, 41.6667, 0
0, 0, -0.0177778, 80, -5.75245e-15, 50, 0
0, 0, -0.0177778, 80, -3.07735e-15, 58.3333, 0
0, 0, -0.0177778, 80, -3.92034e-15, 66.6667, 0
0, 0, -0.0177778, 80, -4.08647e-15, 75, 0
0, 0, -0.0177778, 90, -3.50835e-15, 2.14825e-31, 0
0, 0, -0.0177778, 90, -3.50835e-15, 8.33333, 0
0, 0, -0.0177778, 90, -3.02639e-15, 16.6667, 0
0, 0, -0.0177778, 90, -2.83647e-15, 25, 0
0, 0, -0.0177778, 90, -3.50835e-15, 33.3333, 0
0, 0, -0.0177778, 90, -3.50835e-15, 41.6667, 0
0, 0, -0.0177778, 90, -1.05431e-15, 50, 0
0, 0, -0.0177778, 90, -2.72456e-15, 58.3333, 0
0, 0, -0.0177778, 90, -3.50835e-15, 66.6667, 0
0, 0, -0.0177778, 90, -3.50835e-15, 75, 0
0, 0, -0.00555556, 0, -0, 3.50835e-15, 2
0, 0, -0.00555556, 0, -0, 8.33333, 2
0, 0, -0.00555556, 0, -0, 16.6667, 2
0, 0, -0.00555556, 0, -0, 25, 2
0, 0, -0.00555556, 0, -0, 33.3333, 1
0, 0, -0.00555556, 0, -0, 41.6667, 1
0, 0, -0.00555556, 0, -0, 50, 1
0, 0, -0.00555556, 0, -0, 58.3333, 1
0, 0, -0.00555556, 0, -0, 66.6667, 1
0, 0, -0.00555556, 0, -0, 75, 1
0, 0, -0.00555556, 10, 9.56898e-16, 3.7312e-15, 2
0, 0, -0.00555556, 10, 1.90624e-15, 8.33333, 2
0, 0, -0.00555556, 10, -1.25154e-15, 16.6667, 2
0, 0, -0.00555556, 10, -6.46469e-16, 25, 2
0, 0, -0.00555556, 10, 1.28461e-15, 33.3333, 2
0, 0, -0.00555556, 10, 3.23963e-15, 41.6667, 1
0, 0, -0.00555556, 10, 2.41252e-17, 50, 1
0, 0, -0.00555556, 10, -2.84001e-15, 58.3333, 1
0, 0, -0.00555556, 10, 7.8532e-15, 66.6667, 1
0, 0, -0.00555556, 10, 1.87314e-15, 75, 1
0, 0, -0.00555556, 20, -4.28458e-15, 2.75287e-15, 2
0, 0, -0.00555556, 20, 1.0142e-15, 8.33333, 2
0, 0, -0.00555556, 20, -5.97446e-15, 16.6667, 2
0, 0, -0.00555556, 20, 1.01387e-15, 25, 2
0, 0, -0.00555556, 20, -3.71615e-15, 33.3333, 2
0, 0, -0.00555556, 20, -7.21966e-15, 41.6667, 2
0, 0, -0.00555556, 20, 7.45452e-15, 50, 2
0, 0, -0.00555556, 20, 5.43149e-15, 58.3333, 1
0, 0, -0.00555556, 20, -1.93945e-15, 66.6667, 1
0, 0, -0.00555556, 20, 1.9493e-15, 75, 1
0, 0, -0.00555556, 30, -1.75418e-15, 3.03832e-15, 2
0, 0, -0.00555556, 30, 3.84789e-15, 8.33333, 2
0, 0, -0.00555556, 30, 3.30915e-15, 16.6667, 2
0, 0, -0.00555556, 30, -1.75418e-15, 25, 2
0, 0, -0.00555556, 30, 7.03538e-15, 33.3333, 2
0, 0, -0.00555556, 30, 4.99935e-16, 41.6667, 2
0, 0, -0.00555556, 30, -1.48418e-15, 50, 1
0, 0, -0.00555556, 30, -1.75418e-15, 58.3333, 1
0, 0, -0.00555556, 30, 2.31637e-15, 66.6667, 1
0, 0, -0.00555556, 30, 2.51608e-15, 75, 0
0, 0, -0.00555556, 40, -7.87213e-15, -9.47143e-16, 2
0, 0, -0.00555556, 40, -2.63758e-15, 8.33333, 2
0, 0, -0.00555556, 40, -6.03012e-15, 16.6667, 2
0, 0, -0.00555556, 40, -7.15725e-15, 25, 2
0, 0, -0.00555556, 40, -1.94922e-16, 33.3333, 2
0, 0, -0.00555556, 40, 2.1134e-15, 41.6667, 0
0, 0, -0.00555556, 40, -1.0369e-15, 50, 0
0, 0, -0.00555556, 40, -9.45109e-15, 58.3333, 0
0, 0, -0.00555556, 40, -1.42479e-15, 66.6667, 0
0, 0, -0.00555556, 40, -2.09352e-15, 75, 0
0, 0, -0.00555556, 50, -2.68756e-15, 2.25513e-15, 2
0, 0, -0.00555556, 50, -1.52675e-15, 8.33333, 1
0, 0, -0.00555556, 50, -6.2818e-16, 16.6667, 0
0, 0, -0.00555556, 50, -3.60575e-15, 25, 0
0, 0, -0.00555556, 50, 4.54743e-15, 33.3333, 0
0, 0, -0.00555556, 50, -2.67863e-15, 41.6667, 0
0, 0, -0.00555556, 50, -6.9643e-15, 50, 0
0, 0, -0.00555556, 50, -5.86811e-15, 58.3333, 0
0, 0, -0.00555556, 50, 2.84321e-15, 66.6667, 0
0, 0, -0.00555556, 50, 4.88124e-15, 75, 0
0, 0, -0.00555556, 60, -6.52908e-16, 4.72168e-15, 0
0, 0, -0.00555556, 60, -2.41027e-15, 8.33333, 0
0, 0, -0.00555556, 60, -5.20175e-15, 16.6667, 0
0, 0, -0.00555556, 60, -7.16793e-15, 25, 0
0, 0, -0.00555556, 60, 4.19666e-15, 33.3333, 0
0, 0, -0.00555556, 60, -2.51418e-15, 41.6667, 0
0, 0, -0.00555556, 60, 2.53873e-15, 50, 0
0, 0, -0.00555556, 60, -7.3775e-16, 58.3333, 0
0, 0, -0.00555556, 60, -5.91287e-15, 66.6667, 0
0, 0, -0.00555556, 60, -5.97176e-15, 75, 0
0, 0, -0.00555556, 70, -2.75287e-15, 4.28458e-15, 0
0, 0, -0.00555556, 70, -3.85723e-15, 8.33333, 0
0, 0, -0.00555556, 70, -4.97088e-16, 16.6667, 0
0, 0, -0.00555556, 70, 1.17938e-15, 25, 0
0, 0, -0.00555556, 70, -1.84635e-15, 33.3333, 0
0, 0, -0.00555556, 70, -4.47583e-15, 41.6667, 0
0, 0, -0.00555556, 70, -5.18217e-15, 50, 0
0, 0, -0.00555556, 70, -3.26246e-15, 58.3333, 0
0, 0, -0.00555556, 70, -1.01075e-15, 66.6667, 0
0, 0, -0.00555556, 70, -1.62378e-15, 75, 0
0, 0, -0.00555556, 80, -3.59313e-15, -9.68978e-16, 0
0, 0, -0.00555556, 80, -2.92739e-15, 8.33333, 0
0, 0, -0.00555556, 80, -3.58696e-15, 16.6667, 0
0, 0, -0.00555556, 80, -3.24207e-15, 25, 0
0, 0, -0.00555556, 80, 2.36496e-15, 33.3333, 0
0, 0, -0.00555556, 80, -3.88782e-15, 41.6667, 0
0, 0, -0.00555556, 80, -5.75245e-15, 50, 0
0, 0, -0.00555556, 80, -3.07735e-15, 58.3333, 0
0, 0, -0.00555556, 80, -3.92034e-15, 66.6667, 0
0, 0, -0.00555556, 80, -4.08647e-15, 75, 0
0, 0, -0.00555556, 90, -3.50835e-15, 2.14825e-31, 0
0, 0, -0.00555556, 90, -3.50835e-15, 8.33333, 0
0, 0, -0.00555556, 90, -3.02639e-15, 16.6667, 0
0, 0, -0.00555556, 90, -2.83647e-15, 25, 0
0, 0, -0.00555556, 90, -3.50835e-15, 33.3333, 0
0, 0, -0.00555556, 90, -3.50835e-15, 41.6667, 0
0, 0, -0.00555556, 90, -1.05431e-15, 50, 0
0, 0, -0.00555556, 90, -2.72456e-15, 58.3333, 0
0, 0, -0.00555556, 90, -3.50835e-15, 66.6667, 0
0, 0, -0.00555556, 90, -3.50835e-15, 75, 0
0, 0, 0.00666667, 0, -0, 3.50835e-15, 2
0, 0, 0.00666667, 0, -0, 8.33333, 2
0, 0, 0.00666667, 0, -0, 16.6667, 2
0, 0, 0.00666667, 0, -0, 25, 2
0, 0, 0.00666667, 0, -0, 33.3333, 2
0, 0, 0.00666667, 0, -0, 41.6667, 1
0, 0, 0.00666667, 0, -0, 50, 1
0, 0, 0.00666667, 0, -0, 58.3333, 1
0, 0, 0.00666667, 0, -0, 66.6667, 1
0, 0, 0.00666667, 0, -0, 75, 1
0, 0, 0.00666667, 10, 9.56898e-16, 3.7312e-15, 2
0, 0, 0.00666667, 10, 1.90624e-15, 8.33333, 2
0, 0, 0.00666667, 10, -1.25154e-15, 16.6667, 2
0, 0, 0.00666667, 10, -6.46469e-16, 25, 2
0, 0, 0.00666667, 10, 1.28461e-15, 33.3333, 2
0, 0, 0.00666667, 10, 3.23963e-15, 41.6667, 1
0, 0, 0.00666667, 10, 2.41252e-17, 50, 1
0, 0, 0.00666667, 10, -2.84001e-15, 58.3333, 1
0, 0, 0.00666667, 10, 7.8532e-15, 66.6667, 1
0, 0, 0.00666667, 10, 1.87314e-15, 75, 1
0, 0, 0.00666667, 20, -4.28458e-15, 2.75287e-15, 2
0, 0, 0.00666667, 20, 1.0142e-15, 8.33333, 2
0, 0, 0.00666667, 20, -5.97446e-15, 16.6667, 2
0, 0, 0.00666667, 20, 1.01387e-15, 25, 2
0, 0, 0.00666667, 20, -3.71615e-15, 33.3333, 2
0, 0, 0.00666667, 20, -7.21966e-15, 41.6667, 2
0, 0, 0.00666667, 20, 7.45452e-15, 50, 2
0, 0, 0.00666667, 20, 5.43149e-15, 58.3333, 1
0, 0, 0.00666667, 20, -1.93945e-15, 66.6667, 1
0, 0, 0.00666667, 20, 1.9493e-15, 75, 0
0, 0, 0.00666667, 30, -1.75418e-15, 3.03832e-15, 2
0, 0, 0.00666667, 30, 3.84789e-15, 8.33333, 2
0, 0, 0.00666667, 30, 3.30915e-15, 16.6667, 2
0, 0, 0.00666667, 30, -1.75418e-15, 25, 2
0, 0, 0.00666667, 30, 7.03538e-15, 33.3333, 2
0, 0, 0.00666667, 30, 4.99935e-16, 41.6667, 2
0, 0, 0.00666667, 30, -1.48418e-15, 50, 2
0, 0, 0.00666667, 30, -1.75418e-15, 58.3333, 1
0, 0, 0.00666667, 30, 2.31637e-15, 66.6667, 0
0, 0, 0.00666667, 30, 2.51608e-15, 75, 0
0, 0, 0.00666667, 40, -7.87213e-15, -9.47143e-16, 2
0, 0, 0.00666667, 40, -2.63758e-15, 8.33333, 2
0, 0, 0.00666667, 40, -6.03012e-15, 16.6667, 2
0, 0, 0.00666667, 40, -7.15725e-15, 25, 2
0, 0, 0.00666667, 40, -1.94922e-16, 33.3333, 2
0, 0, 0.00666667, 40, 2.1134e-15, 41.6667, 0
0, 0, 0.00666667, 40, -1.0369e-15, 50, 1
0, 0, 0.00666667, 40, -9.45109e-15, 58.3333, 0
0, 0, 0.00666667, 40, -1.42479e-15, 66.6667, 0
0, 0, 0.00666667, 40, -2.09352e-15, 75, 0
0, 0, 0.00666667, 50, -2.68756e-15, 2.25513e-15, 2
0, 0, 0.00666667, 50, -1.52675e-15, 8.33333, 2
0, 0, 0.00666667, 50, -6.2818e-16, 16.6667, 2
0, 0, 0.00666667, 50, -3.60575e-15, 25, 2
0, 0, 0.00666667, 50, 4.54743e-15, 33.3333, 0
0, 0, 0.00666667, 50, -2.67863e-15, 41.6667, 0
0, 0, 0.00666667, 50, -6.9643e-15, 50, 0
0, 0, 0.00666667, 50, -5.86811e-15, 58.3333, 0
0, 0, 0.00666667, 50, 2.84321e-15, 66.6667, 0
0, 0, 0.00666667, 50, 4.88124e-15, 75, 0
0, 0, 0.00666667, 60, -6.52908e-16, 4.72168e-15, 0
0, 0, 0.00666667, 60, -2.41027e-15, 8.33333, 0
0, 0, 0.00666667, 60, -5.20175e-15, 16.6667, 0
0, 0, 0.00666667, 60, -7.16793e-15, 25, 0
0, 0, 0.00666667, 60, 4.19666e-15, 33.3333, 0
0, 0, 0.00666667, 60, -2.51418e-15, 41.6667, 0
0, 0, 0.00666667, 60, 2.53873e-15, 50, 0
0, 0, 0.00666667, 60, -7.3775e-16, 58.3333, 0
0, 0, 0.00666667, 60, -5.91287e-15, 66.6667, 0
0, 0, 0.00666667, 60, -5.97176e-15, 75, 0
0, 0, 0.00666667, 70, -2.75287e-15, 4.28458e-15, 0
0, 0, 0.00666667, 70, -3.85723e-15, 8.33333, 0
0, 0, 0.00666667, 70, -4.97088e-16, 16.6667, 0
0, 0, 0.00666667, 70, 1.17938e-15, 25, 0
0, 0, 0.00666667, 70, -1.84635e-15, 33.3333, 0
0, 0, 0.00666667, 70, -4.47583e-15, 41.6667, 0
0, 0, 0.00666667, 70, -5.18217e-15, 50, 0
0, 0, 0.00666667, 70, -3.26246e-15, 58.3333, 0
0, 0, 0.00666667, 70, -1.01075e-15, 66.6667, 0
0, 0, 0.00666667, 70, -1.62378e-15, 75, 0
0, 0, 0.00666667, 80, -3.59313e-15, -9.68978e-16, 0
0, 0, 0.00666667, 80, -2.92739e-15, 8.33333, 0
0, 0, 0.00666667, 80, -3.58696e-15, 16.6667, 0
0, 0, 0.00666667, 80, -3.24207e-15, 25, 0
0, 0, 0.00666667, 80, 2.36496e-15, 33.3333, 0
0, 0, 0.00666667, 80, -3.88782e-15, 41.6667, 0
0, 0, 0.00666667, 80, -5.75245e-15, 50, 0
0, 0, 0.00666667, 80, -3.07735e-15, 58.3333, 0
0, 0, 0.00666667, 80, -3.92034e-15, 66.6667, 0
0, 0, 0.00666667, 80, -4.08647e-15, 75, 0
0, 0, 0.00666667, 90, -3.50835e-15, 2.14825e-31, 0
0, 0, 0.00666667, 90, -3.50835e-15, 8.33333, 0
0, 0, 0.00666667, 90, -3.02639e-15, 16.6667, 0
0, 0, 0.00666667, 90, -2.83647e-15, 25, 0
0, 0, 0.00666667, 90, -3.50835e-15, 33.3333, 0
0, 0, 0.00666667, 90, -3.50835e-15, 41.6667, 0
0, 0, 0.00666667, 90, -1.05431e-15, 50, 0
0, 0, 0.00666667, 90, -2.72456e-15, 58.3333, 0
0, 0, 0.00666667, 90, -3.50835e-15, 66.6667, 0
0, 0, 0.00666667, 90, -3.50835e-15, 75, 0
0, 0, 0.0188889, 0, -0, 3.50835e-15, 2
0, 0, 0.0188889, 0, -0, 8.33333, 1
0, 0, 0.0188889, 0, -0, 16.6667, 1
0, 0, 0.0188889, 0, -0, 25, 1
0, 0, 0.0188889, 0, -0, 33.3333, 1
0, 0, 0.0188889, 0, -0, 41.6667, 1
0, 0, 0.0188889, 0, -0, 50, 1
0, 0, 0.0188889, 0, -0, 58.3333, 1
0, 0, 0.0188889, 0, -0, 66.6667, 1
0, 0, 0.0188889, 0, -0, 75, 1
0, 0, 0.0188889, 10, 9.56898e-16, 3.7312e-15, 2
0, 0, 0.0188889, 10, 1.90624e-15, 8.33333, 1
0, 0, 0.0188889, 10, -1.25154e-15, 16.6667, 1
0, 0, 0.0188889, 10, -6.46469e-16, 25, 1
0, 0, 0.0188889, 10, 1.28461e-15, 33.3333, 1
0, 0, 0.0188889, 10, 3.23963e-15, 41.6667, 1
0, 0, 0.0188889, 10, 2.41252e-17, 50, 1
0, 0, 0.0188889, 10, -2.84001e-15, 58.3333, 1
0, 0, 0.0188889, 10, 7.8532e-15, 66.6667, 1
0, 0, 0.0188889, 10, 1.87314e-15, 75, 1
0, 0, 0.0188889, 20, -4.28458e-15, 2.75287e-15, 2
0, 0, 0.0188889, 20, 1.0142e-15, 8.33333, 1
0, 0, 0.0188889, 20, -5.97446e-15, 16.6667, 1
0, 0, 0.0188889, 20, 1.01387e-15, 25, 1
0, 0, 0.0188889, 20, -3.71615e-15, 33.3333, 1
0, 0, 0.0188889, 20, -7.21966e-15, 41.6667, 1
0, 0, 0.0188889, 20, 7.45452e-15, 50, 1
0, 0, 0.0188889, 20, 5.43149e-15, 58.3333, 1
0, 0, 0.0188889, 20, -1.93945e-15, 66.6667, 1
0, 0, 0.0188889, 20, 1.9493e-15, 75, 0
0, 0, 0.0188889, 30, -1.75418e-15, 3.03832e-15, 2
0, 0, 0.0188889, 30, 3.84789e-15, 8.33333, 1
0, 0, 0.0188889, 30, 3.30915e-15, 16.6667, 1
0, 0, 0.0188889, 30, -1.75418e-15, 25, 2
0, 0, 0.0188889, 30, 7.03538e-15, 33.3333, 2
0, 0, 0.0188889, 30, 4.99935e-16, 41.6667, 2
0, 0, 0.0188889, 30, -1.48418e-15, 50, 1
0, 0, 0.0188889, 30, -1.75418e-15, 58.3333, 1
0, 0, 0.0188889, 30, 2.31637e-15, 66.6667, 1
0, 0, 0.0188889, 30, 2.51608e-15, 75, 0
0, 0, 0.0188889, 40, -7.87213e-15, -9.47143e-16, 2
0, 0, 0.0188889, 40, -2.63758e-15, 8.33333, 1
0, 0, 0.0188889, 40, -6.03012e-15, 16.6667, 2
0, 0, 0.0188889, 40, -7.15725e-15, 25, 2
0, 0, 0.0188889, 40, -1.94922e-16, 33.3333, 2
0, 0, 0.0188889, 40, 2.1134e-15, 41.6667, 2
0, 0, 0.0188889, 40, -1.0369e-15, 50, 0
0, 0, 0.0188889, 40, -9.45109e-15, 58.3333, 0
0, 0, 0.0188889, 40, -1.42479e-15, 66.6667, 0
0, 0, 0.0188889, 40, -2.09352e-15, 75, 0
0, 0, 0.0188889, 50, -2.68756e-15, 2.25513e-15, 2
0, 0, 0.0188889, 50, -1.52675e-15, 8.33333, 2
0, 0, 0.0188889, 50, -6.2818e-16, 16.6667, 0
0, 0, 0.0188889, 50, -3.60575e-15, 25, 0
0, 0, 0.0188889, 50, 4.54743e-15, 33.3333, 0
0, 0, 0.0188889, 50, -2.67863e-15, 41.6667, 0
0, 0, 0.0188889, 50, -6.9643e-15, 50, 0
0, 0, 0.0188889, 50, -5.86811e-15, 58.3333, 0
0, 0, 0.0188889, 50, 2.84321e-15, 66.6667, 0
0, 0, 0.0188889, 50, 4.88124e-15, 75, 0
0, 0, 0.0188889, 60, -6.52908e-16, 4.72168e-15, 0
0, 0, 0.0188889, 60, -2.41027e-15, 8.33333, 0
0, 0, 0.0188889, 60, -5.20175e-15, 16.6667, 0
0, 0, 0.0188889, 60, -7.16793e-15, 25, 0
0, 0, 0.0188889, 60, 4.19666e-15, 33.3333, 0
0, 0, 0.0188889, 60, -2.51418e-15, 41.6667, 0
0, 0, 0.0188889, 60, 2.53873e-15, 50, 0
0, 0, 0.0188889, 60, -7.3775e-16, 58.3333, 0
0, 0, 0.0188889, 60, -5.91287e-15, 66.6667, 0
0, 0, 0.0188889, 60, -5.97176e-15, 75, 0
0, 0, 0.0188889, 70, -2.75287e-15, 4.28458e-15, 0
0, 0, 0.0188889, 70, -3.85723e-15, 8.33333, 0
0, 0, 0.0188889, 70, -4.97088e-16, 16.6667, 0
0, 0, 0.0188889, 70, 1.17938e-15, 25, 0
0, 0, 0.0188889, 70, -1.84635e-15, 33.3333, 0
0, 0, 0.0188889, 70, -4.47583e-15, 41.6667, 0
0, 0, 0.0188889, 70, -5.18217e-15, 50, 0
0, 0, 0.0188889, 70, -3.26246e-15, 58.3333, 0
0, 0, 0.0188889, 70, -1.01075e-15, 66.6667, 0
0, 0, 0.0188889, 70, -1.62378e-15, 75, 0
0, 0, 0.0188889, 80, -3.59313e-15, -9.68978e-16, 0
0, 0, 0.0188889, 80, -2.92739e-15, 8.33333, 0
0, 0, 0.0188889, 80, -3.58696e-15, 16.6667, 0
0, 0, 0.0188889, 80, -3.24207e-15, 25, 0
0, 0, 0.0188889, 80, 2.36496e-15, 33.3333, 0
0, 0, 0.0188889, 80, -3.88782e-15, 41.6667, 0
0, 0, 0.0188889, 80, -5.75245e-15, 50, 0
0, 0, 0.0188889, 80, -3.07735e-15, 58.3333, 0
0, 0, 0.0188889, 80, -3.92034e-15, 66.6667, 0
0, 0, 0.0188889, 80, -4.08647e-15, 75, 0
0, 0, 0.0188889, 90, -3.50835e-15, 2.14825e-31, 0
0, 0, 0.0188889, 90, -3.50835e-15, 8.33333, 0
0, 0, 0.0188889, 90, -3.02639e-15, 16.6667, 0
0, 0, 0.0188889, 90, -2.83647e-15, 25, 0
0, 0, 0.0188889, 90, -3.50835e-15, 33.3333, 0
0, 0, 0.0188889, 90, -3.50835e-15, 41.6667, 0
0, 0, 0.0188889, 90, -1.05431e-15, 50, 0
0, 0, 0.0188889, 90, -2.72456e-15, 58.3333, 0
0, 0, 0.0188889, 90, -3.50835e-15, 66.6667, 0
0, 0, 0.0188889, 90, -3.50835e-15, 75, 0
0, 0, 0.0311111, 0, -0, 3.50835e-15, 2
0, 0, 0.0311111, 0, -0, 8.33333, 1
0, 0, 0.0311111, 0, -0, 16.6667, 1
0, 0, 0.0311111, 0, -0, 25, 1
0, 0, 0.0311111, 0, -0, 33.3333, 1
0, 0, 0.0311111, 0, -0, 41.6667, 1
0, 0, 0.0311111, 0, -0, 50, 1
0, 0, 0.0311111, 0, -0, 58.3333, 1
0, 0, 0.0311111, 0, -0, 66.6667, 0
0, 0, 0.0311111, 0, -0, 75, 0
0, 0, 0.0311111, 10, 9.56898e-16, 3.7312e-15, 2
0, 0, 0.0311111, 10, 1.90624e-15, 8.33333, 1
0, 0, 0.0311111, 10, -1.25154e-15, 16.6667, 1
0, 0, 0.0311111, 10, -6.46469e-16, 25, 1
0, 0, 0.0311111, 10, 1.28461e-15, 33.3333, 1
0, 0, 0.0311111, 10, 3.23963e-15, 41.6667, 1
0, 0, 0.0311111, 10, 2.41252e-17, 50, 1
0, 0, 0.0311111, 10, -2.84001e-15, 58.3333, 1
0, 0, 0.0311111, 10, 7.8532e-15, 66.6667, 0
0, 0, 0.0311111, 10, 1.87314e-15, 75, 0
0, 0, 0.0311111, 20, -4.28458e-15, 2.75287e-15, 2
0, 0, 0.0311111, 20, 1.0142e-15, 8.33333, 1
0, 0, 0.0311111, 20, -5.97446e-15, 16.6667, 1
0, 0, 0.0311111, 20, 1.01387e-15, 25, 1
0, 0, 0.0311111, 20, -3.71615e-15, 33.3333, 1
0, 0, 0.0311111, 20, -7.21966e-15, 41.6667, 1
0, 0, 0.0311111, 20, 7.45452e-15, 50, 1
0, 0, 0.0311111, 20, 5.43149e-15, 58.3333, 0
0, 0, 0.0311111, 20, -1.93945e-15, 66.6667, 0
0, 0, 0.0311111, 20, 1.9493e-15, 75, 0
0, 0, 0.0311111, 30, -1.75418e-15, 3.03832e-15, 2
0, 0, 0.0311111, 30, 3.84789e-15, 8.33333, 1
0, 0, 0.0311111, 30, 3.30915e-15, 16.6667, 1
0, 0, 0.0311111, 30, -1.75418e-15, 25, 1
0, 0, 0.0311111, 30, 7.03538e-15, 33.3333, 1
0, 0, 0.0311111, 30, 4.99935e-16, 41.6667, 1
0, 0, 0.0311111, 30, -1.48418e-15, 50, 1
0, 0, 0.0311111, 30, -1.75418e-15, 58.3333, 0
0, 0, 0.0311111, 30, 2.31637e-15, 66.6667, 0
0, 0, 0.0311111, 30, 2.51608e-15, 75, 0
0, 0, 0.0311111, 40, -7.87213e-15, -9.47143e-16, 2
0, 0, 0.0311111, 40, -2.63758e-15, 8.33333, 1
0, 0, 0.0311111, 40, -6.03012e-15, 16.6667, 1
0, 0, 0.0311111, 40, -7.15725e-15, 25, 1
0, 0, 0.0311111, 40, -1.94922e-16, 33.3333, 1
0, 0, 0.0311111, 40, 2.1134e-15, 41.6667, 0
0, 0, 0.0311111, 40, -1.0369e-15, 50, 0
0, 0, 0.0311111, 40, -9.45109e-15, 58.3333, 0
0, 0, 0.0311111, 40, -1.42479e-15, 66.6667, 0
0, 0, 0.0311111, 40, -2.09352e-15, 75, 0
0, 0, 0.0311111, 50, -2.68756e-15, 2.25513e-15, 2
0, 0, 0.0311111, 50, -1.52675e-15, 8.33333, 2
0, 0, 0.0311111, 50, -6.2818e-16, 16.6667, 0
0, 0, 0.0311111, 50, -3.60575e-15, 25, 0
0, 0, 0.0311111, 50, 4.54743e-15, 33.3333, 0
0, 0, 0.0311111, 50, -2.67863e-15, 41.6667, 0
0, 0, 0.0311111, 50, -6.9643e-15, 50, 0
0, 0, 0.0311111, 50, -5.86811e-15, 58.3333, 0
0, 0, 0.0311111, 50, 2.84321e-15, 66.6667, 0
0, 0, 0.0311111, 50, 4.88124e-15, 75, 0
0, 0, 0.0311111, 60, -6.52908e-16, 4.72168e-15, 0
0, 0, 0.0311111, 60, -2.41027e-15, 8.33333, 0
0, 0, 0.0311111, 60, -5.20175e-15, 16.6667, 0
0, 0, 0.0311111, 60, -7.16793e-15, 25, 0
0, 0, 0.0311111, 60, 4.19666e-15, 33.3333, 0
0, 0, 0.0311111, 60, -2.51418e-15, 41.6667, 0
0, 0, 0.0311111, 60, 2.53873e-15, 50, 0
0, 0, 0.0311111, 60, -7.3775e-16, 58.3333, 0
0, 0, 0.0311111, 60, -5.91287e-15, 66.6667, 0
0, 0, 0.0311111, 60, -5.97176e-15, 75, 0
0, 0, 0.0311111, 70, -2.75287e-15, 4.28458e-15, 0
0, 0, 0.0311111, 70, -3.85723e-15, 8.33333, 0
0, 0, 0.0311111, 70, -4.97088e-16, 16.6667, 0
0, 0, 0.0311111, 70, 1.17938e-15, 25, 0
0, 0, 0.0311111, 70, -1.84635e-15, 33.3333, 0
0, 0, 0.0311111, 70, -4.47583e-15, 41.6667, 0
0, 0, 0.0311111, 70, -5.18217e-15, 50, 0
0, 0, 0.0311111, 70, -3.26246e-15, 58.3333, 0
0, 0, 0.0311111, 70, -1.01075e-15, 66.6667, 0
0, 0, 0.0311111, 70, -1.62378e-15, 75, 0
0, 0, 0.0311111, 80, -3.59313e-15, -9.68978e-16, 0
0, 0, 0.0311111, 80, -2.92739e-15, 8.33333, 0
0, 0, 0.0311111, 80, -3.58696e-15, 16.6667, 0
0, 0, 0.0311111, 80, -3.24207e-15, 25, 0
0, 0, 0.0311111, 80, 2.36496e-15, 33.3333, 0
0, 0, 0.0311111, 80, -3.88782e-15, 41.6667, 0
0, 0, 0.0311111, 80, -5.75245e-15, 50, 0
0, 0, 0.0311111, 80, -3.07735e-15, 58.3333, 0
0, 0, 0.0311111, 80, -3.92034e-15, 66.6667, 0
0, 0, 0.0311111, 80, -4.08647e-15, 75, 0
0, 0, 0.0311111, 90, -3.50835e-15, 2.14825e-31, 0
0, 0, 0.0311111, 90, -3.50835e-15, 8.33333, 0
0, 0, 0.0311111, 90, -3.02639e-15, 16.6667, 0
0, 0, 0.0311111, 90, -2.83647e-15, 25, 0
0, 0, 0.0311111, 90, -3.50835e-15, 33.3333, 0
0, 0, 0.0311111, 90, -3.50835e-15, 41.6667, 0
0, 0, 0.0311111, 90, -1.05431e-15, 50, 0
0, 0, 0.0311111, 90, -2.72456e-15, 58.3333, 0
0, 0, 0.0311111, 90, -3.50835e-15, 66.6667, 0
0, 0, 0.0311111, 90, -3.50835e-15, 75, 0
0, 0, 0.0433333, 0, -0, 3.50835e-15, 2
0, 0, 0.0433333, 0, -0, 8.33333, 1
0, 0, 0.0433333, 0, -0, 16.6667, 1
0, 0, 0.0433333, 0, -0, 25, 1
0, 0, 0.0433333, 0, -0, 33.3333, 1
0, 0, 0.0433333, 0, -0, 41.6667, 1
0, 0, 0.0433333, 0, -0, 50, 1
0, 0, 0.0433333, 0, -0, 58.3333, 0
0, 0, 0.0433333, 0, -0, 66.6667, 0
0, 0, 0.0433333, 0, -0, 75, 0
0, 0, 0.0433333, 10, 9.56898e-16, 3.7312e-15, 2
0, 0, 0.0433333, 10, 1.90624e-15, 8.33333, 1
0, 0, 0.0433333, 10, -1.25154e-15, 16.6667, 1
0, 0, 0.0433333, 10, -6.46469e-16, 25, 1
0, 0, 0.0433333, 10, 1.28461e-15, 33.3333, 1
0, 0, 0.0433333, 10, 3.23963e-15, 41.6667, 1
0, 0, 0.0433333, 10, 2.41252e-17, 50, 1
0, 0, 0.0433333, 10, -2.84001e-15, 58.3333, 0
0, 0, 0.0433333, 10, 7.8532e-15, 66.6667, 0
0, 0, 0.0433333, 10, 1.87314e-15, 75, 0
0, 0, 0.0433333, 20, -4.28458e-15, 2.75287e-15, 2
0, 0, 0.0433333, 20, 1.0142e-15, 8.33333, 1
0, 0, 0.0433333, 20, -5.97446e-15, 16.6667, 1
0, 0, 0.0433333, 20, 1.01387e-15, 25, 1
0, 0, 0.0433333, 20, -3.71615e-15, 33.3333, 1
0, 0, 0.0433333, 20, -7.21966e-15, 41.6667, 1
0, 0, 0.0433333, 20, 7.45452e-15, 50, 1
0, 0, 0.0433333, 20, 5.43149e-15, 58.3333, 0
0, 0, 0.0433333, 20, -1.93945e-15, 66.6667, 0
0, 0, 0.0433333, 20, 1.9493e-15, 75, 0
0, 0, 0.0433333, 30, -1.75418e-15, 3.03832e-15, 2
0, 0, 0.0433333, 30, 3.84789e-15, 8.33333, 1
0, 0, 0.0433333, 30, 3.30915e-15, 16.6667, 1
0, 0, 0.0433333, 30, -1.75418e-15, 25, 1
0, 0, 0.0433333, 30, 7.03538e-15, 33.3333, 1
0, 0, 0.0433333, 30, 4.99935e-16, 41.6667, 1
0, 0, 0.0433333, 30, -1.48418e-15, 50, 0
0, 0, 0.0433333, 30, -1.75418e-15, 58.3333, 0
0, 0, 0.0433333, 30, 2.31637e-15, 66.6667, 0
0, 0, 0.0433333, 30, 2.51608e-15, 75, 0
0, 0, 0.0433333, 40, -7.87213e-15, -9.47143e-16, 2
0, 0, 0.0433333, 40, -2.63758e-15, 8.33333, 1
0, 0, 0.0433333, 40, -6.03012e-15, 16.6667, 1
0, 0, 0.0433333, 40, -7.15725e-15, 25, 0
0, 0, 0.0433333, 40, -1.94922e-16, 33.3333, 0
0, 0, 0.0433333, 40, 2.1134e-15, 41.6667, 0
0, 0, 0.0433333, 40, -1.0369e-15, 50, 0
0, 0, 0.0433333, 40, -9.45109e-15, 58.3333, 0
0, 0, 0.0433333, 40, -1.42479e-15, 66.6667, 0
0, 0, 0.0433333, 40, -2.09352e-15, 75, 0
0, 0, 0.0433333, 50, -2.68756e-15, 2.25513e-15, 0
0, 0, 0.0433333, 50, -1.52675e-15, 8.33333, 2
0, 0, 0.0433333, 50, -6.2818e-16, 16.6667, 0
0, 0, 0.0433333, 50, -3.60575e-15, 25, 0
0, 0, 0.0433333, 50, 4.54743e-15, 33.3333, 0
0, 0, 0.0433333, 50, -2.67863e-15, 41.6667, 0
0, 0, 0.0433333, 50, -6.9643e-15, 50, 0
0, 0, 0.0433333, 50, -5.86811e-15, 58.3333, 0
0, 0, 0.0433333, 50, 2.84321e-15, 66.6667, 0
0, 0, 0.0433333, 50, 4.88124e-15, 75, 0
0, 0, 0.0433333, 60, -6.52908e-16, 4.72168e-15, 0
0, 0, 0.0433333, 60, -2.41027e-15, 8.33333, 0
0, 0, 0.0433333, 60, -5.20175e-15, 16.6667, 0
0, 0, 0.0433333, 60, -7.16793e-15, 25, 0
0, 0, 0.0433333, 60, 4.19666e-15, 33.3333, 0
0, 0, 0.0433333, 60, -2.51418e-15, 41.6667, 0
0, 0, 0.0433333, 60, 2.53873e-15, 50, 0
0, 0, 0.0433333, 60, -7.3775e-16, 58.3333, 0
0, 0, 0.0433333, 60, -5.91287e-15, 66.6667, 0
0, 0, 0.0433333, 60, -5.97176e-15, 75, 0
0, 0, 0.0433333, 70, -2.75287e-15, 4.28458e-15, 0
0, 0, 0.0433333, 70, -3.85723e-15, 8.33333, 0
0, 0, 0.0433333, 70, -4.97088e-16, 16.6667, 0
0, 0, 0.0433333, 70, 1.17938e-15, 25, 0
0, 0, 0.0433333, 70, -1.84635e-15, 33.3333, 0
0, 0, 0.0433333, 70, -4.47583e-15, 41.6667, 0
0, 0, 0.0433333, 70, -5.18217e-15, 50, 0
0, 0, 0.0433333, 70, -3.26246e-15, 58.3333, 0
0, 0, 0.0433333, 70, -1.01075e-15, 66.6667, 0
0, 0, 0.0433333, 70, -1.62378e-15, 75, 0
0, 0, 0.0433333, 80, -3.59313e-15, -9.68978e-16, 0
0, 0, 0.0433333, 80, -2.92739e-15, 8.33333, 0
0, 0, 0.0433333, 80, -3.58696e-15, 16.6667, 0
0, 0, 0.0433333, 80, -3.24207e-15, 25, 0
0, 0, 0.0433333, 80, 2.36496e-15, 33.3333, 0
0, 0, 0.0433333, 80, -3.88782e-15, 41.6667, 0
0, 0, 0.0433333, 80, -5.75245e-15, 50, 0
0, 0, 0.0433333, 80, -3.07735e-15, 58.3333, 0
0, 0, 0.0433333, 80, -3.92034e-15, 66.6667, 0
0, 0, 0.0433333, 80, -4.08647e-15, 75, 0
0, 0, 0.0433333, 90, -3.50835e-15, 2.14825e-31, 0
0, 0, 0.0433333, 90, -3.50835e-15, 8.33333, 0
0, 0, 0.0433333, 90, -3.02639e-15, 16.6667, 0
0, 0, 0.0433333, 90, -2.83647e-15, 25, 0
0, 0, 0.0433333, 90, -3.50835e-15, 33.3333, 0
0, 0, 0.0433333, 90, -3.50835e-15, 41.6667, 0
0, 0, 0.0433333, 90, -1.05431e-15, 50, 0
0, 0, 0.0433333, 90, -2.72456e-15, 58.3333, 0
0, 0, 0.0433333, 90, -3.50835e-15, 66.6667, 0
0, 0, 0.0433333, 90, -3.50835e-15, 75, 0
0, 0, 0.0555556, 0, -0, 3.50835e-15, 2
0, 0, 0.0555556, 0, -0, 8.33333, 1
0, 0, 0.0555556, 0, -0, 16.6667, 1
0, 0, 0.0555556, 0, -0, 25, 1
0, 0, 0.0555556, 0, -0, 33.3333, 1
0, 0, 0.0555556, 0, -0, 41.6667, 1
0, 0, 0.0555556, 0, -0, 50, 1
0, 0, 0.0555556, 0, -0, 58.3333, 0
0, 0, 0.0555556, 0, -0, 66.6667, 0
0, 0, 0.0555556, 0, -0, 75, 0
0, 0, 0.0555556, 10, 9.56898e-16, 3.7312e-15, 2
0, 0, 0.0555556, 10, 1.90624e-15, 8.33333, 1
0, 0, 0.0555556, 10, -1.25154e-15, 16.6667, 1
0, 0, 0.0555556, 10, -6.46469e-16, 25, 1
0, 0, 0.0555556, 10, 1.28461e-15, 33.3333, 1
0, 0, 0.0555556, 10, 3.23963e-15, 41.6667, 1
0, 0, 0.0555556, 10, 2.41252e-17, 50, 0
0, 0, 0.0555556, 10, -2.84001e-15, 58.3333, 0
0, 0, 0.0555556, 10, 7.8532e-15, 66.6667, 0
0, 0, 0.0555556, 10, 1.87314e-15, 75, 0
0, 0, 0.0555556, 20, -4.28458e-15, 2.75287e-15, 2
0, 0, 0.0555556, 20, 1.0142e-15, 8.33333, 1
0, 0, 0.0555556, 20, -5.97446e-15, 16.6667, 1
0, 0, 0.0555556, 20, 1.01387e-15, 25, 1
0, 0, 0.0555556, 20, -3.71615e-15, 33.3333, 1
0, 0, 0.0555556, 20, -7.21966e-15, 41.6667, 1
0, 0, 0.0555556, 20, 7.45452e-15, 50, 0
0, 0, 0.0555556, 20, 5.43149e-15, 58.3333, 0
0, 0, 0.0555556, 20, -1.93945e-15, 66.6667, 0
0, 0, 0.0555556, 20, 1.9493e-15, 75, 0
0, 0, 0.0555556, 30, -1.75418e-15, 3.03832e-15, 2
0, 0, 0.0555556, 30, 3.84789e-15, 8.33333, 1
0, 0, 0.0555556, 30, 3.30915e-15, 16.6667, 1
0, 0, 0.0555556, 30, -1.75418e-15, 25, 1
0, 0, 0.0555556, 30, 7.03538e-15, 33.3333, 1
0, 0, 0.0555556, 30, 4.99935e-16, 41.6667, 0
0, 0, 0.0555556, 30, -1.48418e-15, 50, 0
0, 0, 0.0555556, 30, -1.75418e-15, 58.3333, 0
0, 0, 0.0555556, 30, 2.31637e-15, 66.6667, 0
0, 0, 0.0555556, 30, 2.51608e-15, 75, 0
0, 0, 0.0555556, 40, -7.87213e-15, -9.47143e-16, 2
0, 0, 0.0555556, 40, -2.63758e-15, 8.33333, 1
0, 0, 0.0555556, 40, -6.03012e-15, 16.6667, 1
0, 0, 0.0555556, 40, -7.15725e-15, 25, 1
0, 0, 0.0555556, 40, -1.94922e-16, 33.3333, 0
0, 0, 0.0555556, 40, 2.1134e-15, 41.6667, 0
0, 0, 0.0555556, 40, -1.0369e-15, 50, 0
0, 0, 0.0555556, 40, -9.45109e-15, 58.3333, 0
0, 0, 0.0555556, 40, -1.42479e-15, 66.6667, 0
0, 0, 0.0555556, 40, -2.09352e-15, 75, 0
0, 0, 0.0555556, 50, -2.68756e-15, 2.25513e-15, 0
0, 0, 0.0555556, 50, -1.52675e-15, 8.33333, 0
0, 0, 0.0555556, 50, -6.2818e-16, 16.6667, 0
0, 0, 0.0555556, 50, -3.60575e-15, 25, 0
0, 0, 0.0555556, 50, 4.54743e-15, 33.3333, 0
0, 0, 0.0555556, 50, -2.67863e-15, 41.6667, 0
0, 0, 0.0555556, 50, -6.9643e-15, 50, 0
0, 0, 0.0555556, 50, -5.86811e-15, 58.3333, 0
0, 0, 0.0555556, 50, 2.84321e-15, 66.6667, 0
0, 0, 0.0555556, 50, 4.88124e-15, 75, 0
0, 0, 0.0555556, 60, -6.52908e-16, 4.72168e-15, 0
0, 0, 0.0555556, 60, -2.41027e-15, 8.33333, 0
0, 0, 0.0555556, 60, -5.20175e-15, 16.6667, 0
0, 0, 0.0555556, 60, -7.16793e-15, 25, 0
0, 0, 0.0555556, 60, 4.19666e-15, 33.3333, 0
0, 0, 0.0555556, 60, -2.51418e-15, 41.6667, 0
0, 0, 0.0555556, 60, 2.53873e-15, 50, 0
0, 0, 0.0555556, 60, -7.3775e-16, 58.3333, 0
0, 0, 0.0555556, 60, -5.91287e-15, 66.6667, 0
0, 0, 0.0555556, 60, -5.97176e-15, 75, 0
0, 0, 0.0555556, 70, -2.75287e-15, 4.28458e-15, 0
0, 0, 0.0555556, 70, -3.85723e-15, 8.33333, 0
0, 0, 0.0555556, 70, -4.97088e-16, 16.6667, 0
0, 0, 0.0555556, 70, 1.17938e-15, 25, 0
0, 0, 0.0555556, 70, -1.84635e-15, 33.3333, 0
0, 0, 0.0555556, 70, -4.47583e-15, 41.6667, 0
0, 0, 0.0555556, 70, -5.18217e-15, 50, 0
0, 0, 0.0555556, 70, -3.26246e-15, 58.3333, 0
0, 0, 0.0555556, 70, -1.01075e-15, 66.6667, 0
0, 0, 0.0555556, 70, -1.62378e-15, 75, 0
0, 0, 0.0555556, 80, -3.59313e-15, -9.68978e-16, 0
0, 0, 0.0555556, 80, -2.92739e-15, 8.33333, 0
0, 0, 0.0555556, 80, -3.58696e-15, 16.6667, 0
0, 0, 0.0555556, 80, -3.24207e-15, 25, 0
0, 0, 0.0555556, 80, 2.36496e-15, 33.3333, 0
0, 0, 0.0555556, 80, -3.88782e-15, 41.6667, 0
0, 0, 0.0555556, 80, -5.75245e-15, 50, 0
0, 0, 0.0555556, 80, -3.07735e-15, 58.3333, 0
0, 0, 0.0555556, 80, -3.92034e-15, 66.6667, 0
0, 0, 0.0555556, 80, -4.08647e-15, 75, 0
0, 0, 0.0555556, 90, -3.50835e-15, 2.14825e-31, 0
0, 0, 0.0555556, 90, -3.50835e-15, 8.33333, 0
0, 0, 0.0555556, 90, -3.02639e-15, 16.6667, 0
0, 0, 0.0555556, 90, -2.83647e-15, 25, 0
0, 0, 0.0555556, 90, -3.50835e-15, 33.3333, 0
0, 0, 0.0555556, 90, -3.50835e-15, 41.6667, 0
0, 0, 0.0555556, 90, -1.05431e-15, 50, 0
0, 0, 0.0555556, 90, -2.72456e-15, 58.3333, 0
0, 0, 0.0555556, 90, -3.50835e-15, 66.6667, 0
0, 0, 0.0555556, 90, -3.50835e-15, 75, 0
0, 0, 0.0677778, 0, -0, 3.50835e-15, 2
0, 0, 0.0677778, 0, -0, 8.33333, 1
0, 0, 0.0677778, 0, -0, 16.6667, 1
0, 0, 0.0677778, 0, -0, 25, 1
0, 0, 0.0677778, 0, -0, 33.3333, 1
0, 0, 0.0677778, 0, -0, 41.6667, 1
0, 0, 0.0677778, 0, -0, 50, 0
0, 0, 0.0677778, 0, -0, 58.3333, 0
0, 0, 0.0677778, 0, -0, 66.6667, 0
0, 0, 0.0677778, 0, -0, 75, 0
0, 0, 0.0677778, 10, 9.56898e-16, 3.7312e-15, 2
0, 0, 0.0677778, 10, 1.90624e-15, 8.33333, 1
0, 0, 0.0677778, 10, -1.25154e-15, 16.6667, 1
0, 0, 0.0677778, 10, -6.46469e-16, 25, 1
0, 0, 0.0677778, 10, 1.28461e-15, 33.3333, 1
0, 0, 0.0677778, 10, 3.23963e-15, 41.6667, 1
0, 0, 0.0677778, 10, 2.41252e-17, 50, 0
0, 0, 0.0677778, 10, -2.84001e-15, 58.3333, 0
0, 0, 0.0677778, 10, 7.8532e-15, 66.6667, 0
0, 0, 0.0677778, 10, 1.87314e-15, 75, 0
0, 0, 0.0677778, 20, -4.28458e-15, 2.75287e-15, 2
0, 0, 0.0677778, 20, 1.0142e-15, 8.33333, 1
0, 0, 0.0677778, 20, -5.97446e-15, 16.6667, 1
0, 0, 0.0677778, 20, 1.01387e-15, 25, 1
0, 0, 0.0677778, 20, -3.71615e-15, 33.3333, 1
0, 0, 0.0677778, 20, -7.21966e-15, 41.6667, 1
0, 0, 0.0677778, 20, 7.45452e-15, 50, 0
0, 0, 0.0677778, 20, 5.43149e-15, 58.3333, 0
0, 0, 0.0677778, 20, -1.93945e-15, 66.6667, 0
0, 0, 0.0677778, 20, 1.9493e-15, 75, 0
0, 0, 0.0677778, 30, -1.75418e-15, 3.03832e-15, 2
0, 0, 0.0677778, 30, 3.84789e-15, 8.33333, 1
0, 0, 0.0677778, 30, 3.30915e-15, 16.6667, 1
0, 0, 0.0677778, 30, -1.75418e-15, 25, 1
0, 0, 0.0677778, 30, 7.03538e-15, 33.3333, 1
0, 0, 0.0677778, 30, 4.99935e-16, 41.6667, 0
0, 0, 0.0677778, 30, -1.48418e-15, 50, 0
0, 0, 0.0677778, 30, -1.75418e-15, 58.3333, 0
0, 0, 0.0677778, 30, 2.31637e-15, 66.6667, 0
0, 0, 0.0677778, 30, 2.51608e-15, 75, 0
0, 0, 0.0677778, 40, -7.87213e-15, -9.47143e-16, 1
0, 0, 0.0677778, 40, -2.63758e-15, 8.33333, 1
0, 0, 0.0677778, 40, -6.03012e-15, 16.6667, 1
0, 0, 0.0677778, 40, -7.15725e-15, 25, 0
0, 0, 0.0677778, 40, -1.94922e-16, 33.3333, 0
0, 0, 0.0677778, 40, 2.1134e-15, 41.6667, 0
0, 0, 0.0677778, 40, -1.0369e-15, 50, 0
0, 0, 0.0677778, 40, -9.45109e-15, 58.3333, 0
0, 0, 0.0677778, 40, -1.42479e-15, 66.6667, 0
0, 0, 0.0677778, 40, -2.09352e-15, 75, 0
0, 0, 0.0677778, 50, -2.68756e-15, 2.25513e-15, 0
0, 0, 0.0677778, 50, -1.52675e-15, 8.33333, 0
0, 0, 0.0677778, 50, -6.2818e-16, 16.6667, 0
0, 0, 0.0677778, 50, -3.60575e-15, 25, 0
0, 0, 0.0677778, 50, 4.54743e-15, 33.3333, 0
0, 0, 0.0677778, 50, -2.67863e-15, 41.6667, 0
0, 0, 0.0677778, 50, -6.9643e-15, 50, 0
0, 0, 0.0677778, 50, -5.86811e-15, 58.3333, 0
0, 0, 0.0677778, 50, 2.84321e-15, 66.6667, 0
0, 0, 0.0677778, 50, 4.88124e-15, 75, 0
0, 0, 0.0677778, 60, -6.52908e-16, 4.72168e-15, 0
0, 0, 0.0677778, 60, -2.41027e-15, 8.33333, 0
0, 0, 0.0677778, 60, -5.20175e-15, 16.6667, 0
0, 0, 0.0677778, 60, -7.16793e-15, 25, 0
0, 0, 0.0677778, 60, 4.19666e-15, 33.3333, 0
0, 0, 0.0677778, 60, -2.51418e-15, 41.6667, 0
0, 0, 0.0677778, 60, 2.53873e-15, 50, 0
0, 0, 0.0677778, 60, -7.3775e-16, 58.3333, 0
0, 0, 0.0677778, 60, -5.91287e-15, 66.6667, 0
0, 0, 0.0677778, 60, -5.97176e-15, 75, 0
0, 0, 0.0677778, 70, -2.75287e-15, 4.28458e-15, 0
0, 0, 0.0677778, 70, -3.85723e-15, 8.33333, 0
0, 0, 0.0677778, 70, -4.97088e-16, 16.6667, 0
0, 0, 0.0677778, 70, 1.17938e-15, 25, 0
0, 0, 0.0677778, 70, -1.84635e-15, 33.3333, 0
0, 0, 0.0677778, 70, -4.47583e-15, 41.6667, 0
0, 0, 0.0677778, 70, -5.18217e-15, 50, 0
0, 0, 0.0677778, 70, -3.26246e-15, 58.3333, 0
0, 0, 0.0677778, 70, -1.01075e-15, 66.6667, 0
0, 0, 0.0677778, 70, -1.62378e-15, 75, 0
0, 0, 0.0677778, 80, -3.59313e-15, -9.68978e-16, 0
0, 0, 0.0677778, 80, -2.92739e-15, 8.33333, 0
0, 0, 0.0677778, 80, -3.58696e-15, 16.6667, 0
0, 0, 0.0677778, 80, -3.24207e-15, 25, 0
0, 0, 0.0677778, 80, 2.36496e-15, 33.3333, 0
0, 0, 0.0677778, 80, -3.88782e-15, 41.6667, 0
0, 0, 0.0677778, 80, -5.75245e-15, 50, 0
0, 0, 0.0677778, 80, -3.07735e-15, 58.3333, 0
0, 0, 0.0677778, 80, -3.92034e-15, 66.6667, 0
0, 0, 0.0677778, 80, -4.08647e-15, 75, 0
0, 0, 0.0677778, 90, -3.50835e-15, 2.14825e-31, 0
0, 0, 0.0677778, 90, -3.50835e-15, 8.33333, 0
0, 0, 0.0677778, 90, -3.02639e-15, 16.6667, 0
0, 0, 0.0677778, 90, -2.83647e-15, 25, 0
0, 0, 0.0677778, 90, -3.50835e-15, 33.3333, 0
0, 0, 0.0677778, 90, -3.50835e-15, 41.6667, 0
0, 0, 0.0677778, 90, -1.05431e-15, 50, 0
0, 0, 0.0677778, 90, -2.72456e-15, 58.3333, 0
0, 0, 0.0677778, 90, -3.50835e-15, 66.6667, 0
0, 0, 0.0677778, 90, -3.50835e-15, 75, 0
0, 0, 0.08, 0, -0, 3.50835e-15, 2
0, 0, 0.08, 0, -0, 8.33333, 2
0, 0, 0.08, 0, -0, 16.6667, 1
0, 0, 0.08, 0, -0, 25, 1
0, 0, 0.08, 0, -0, 33.3333, 1
0, 0, 0.08, 0, -0, 41.6667, 1
0, 0, 0.08, 0, -0, 50, 0
0, 0, 0.08, 0, -0, 58.3333, 0
0, 0, 0.08, 0, -0, 66.6667, 0
0, 0, 0.08, 0, -0, 75, 0
0, 0, 0.08, 10, 9.56898e-16, 3.7312e-15, 2
0, 0, 0.08, 10, 1.90624e-15, 8.33333, 1
0, 0, 0.08, 10, -1.25154e-15, 16.6667, 1
0, 0, 0.08, 10, -6.46469e-16, 25, 1
0, 0, 0.08, 10, 1.28461e-15, 33.3333, 1
0, 0, 0.08, 10, 3.23963e-15, 41.6667, 1
0, 0, 0.08, 10, 2.41252e-17, 50, 0
0, 0, 0.08, 10, -2.84001e-15, 58.3333, 0
0, 0, 0.08, 10, 7.8532e-15, 66.6667, 0
0, 0, 0.08, 10, 1.87314e-15, 75, 0
0, 0, 0.08, 20, -4.28458e-15, 2.75287e-15, 2
0, 0, 0.08, 20, 1.0142e-15, 8.33333, 1
0, 0, 0.08, 20, -5.97446e-15, 16.6667, 1
0, 0, 0.08, 20, 1.01387e-15, 25, 1
0, 0, 0.08, 20, -3.71615e-15, 33.3333, 1
0, 0, 0.08, 20, -7.21966e-15, 41.6667, 1
0, 0, 0.08, 20, 7.45452e-15, 50, 0
0, 0, 0.08, 20, 5.43149e-15, 58.3333, 0
0, 0, 0.08, 20, -1.93945e-15, 66.6667, 0
0, 0, 0.08, 20, 1.9493e-15, 75, 0
0, 0, 0.08, 30, -1.75418e-15, 3.03832e-15, 2
0, 0, 0.08, 30, 3.84789e-15, 8.33333, 1
0, 0, 0.08, 30, 3.30915e-15, 16.6667, 1
0, 0, 0.08, 30, -1.75418e-15, 25, 1
0, 0, 0.08, 30, 7.03538e-15, 33.3333, 0
0, 0, 0.08, 30, 4.99935e-16, 41.6667, 0
0, 0, 0.08, 30, -1.48418e-15, 50, 0
0, 0, 0.08, 30, -1.75418e-15, 58.3333, 0
0, 0, 0.08, 30, 2.31637e-15, 66.6667, 0
0, 0, 0.08, 30, 2.51608e-15, 75, 0
0, 0, 0.08, 40, -7.87213e-15, -9.47143e-16, 2
0, 0, 0.08, 40, -2.63758e-15, 8.33333, 1
0, 0, 0.08, 40, -6.03012e-15, 16.6667, 1
0, 0, 0.08, 40, -7.15725e-15, 25, 0
0, 0, 0.08, 40, -1.94922e-16, 33.3333, 0
0, 0, 0.08, 40, 2.1134e-15, 41.6667, 0
0, 0, 0.08, 40, -1.0369e-15, 50, 0
0, 0, 0.08, 40, -9.45109e-15, 58.3333, 0
0, 0, 0.08, 40, -1.42479e-15, 66.6667, 0
0, 0, 0.08, 40, -2.09352e-15, 75, 0
0, 0, 0.08, 50, -2.68756e-15, 2.25513e-15, 0
0, 0, 0.08, 50, -1.52675e-15, 8.33333, 0
0, 0, 0.08, 50, -6.2818e-16, 16.6667, 0
0, 0, 0.08, 50, -3.60575e-15, 25, 0
0, 0, 0.08, 50, 4.54743e-15, 33.3333, 0
0, 0, 0.08, 50, -2.67863e-15, 41.6667, 0
0, 0, 0.08, 50, -6.9643e-15, 50, 0
0, 0, 0.08, 50, -5.86811e-15, 58.3333, 0
0, 0, 0.08, 50, 2.84321e-15, 66.6667, 0
0, 0, 0.08, 50, 4.88124e-15, 75, 0
0, 0, 0.08, 60, -6.52908e-16, 4.72168e-15, 0
0, 0, 0.08, 60, -2.41027e-15, 8.33333, 0
0, 0, 0.08, 60, -5.20175e-15, 16.6667, 0
0, 0, 0.08, 60, -7.16793e-15, 25, 0
0, 0, 0.08, 60, 4.19666e-15, 33.3333, 0
0, 0, 0.08, 60, -2.51418e-15, 41.6667, 0
0, 0, 0.08, 60, 2.53873e-15, 50, 0
0, 0, 0.08, 60, -7.3775e-16, 58.3333, 0
0, 0, 0.08, 60, -5.91287e-15, 66.6667, 0
0, 0, 0.08, 60, -5.97176e-15, 75, 0
0, 0, 0.08, 70, -2.75287e-15, 4.28458e-15, 0
0, 0, 0.08, 70, -3.85723e-15, 8.33333, 0
0, 0, 0.08, 70, -4.97088e-16, 16.6667, 0
0, 0, 0.08, 70, 1.17938e-15, 25, 0
0, 0, 0.08, 70, -1.84635e-15, 33.3333, 0
0, 0, 0.08, 70, -4.47583e-15, 41.6667, 0
0, 0, 0.08, 70, -5.18217e-15, 50, 0
0, 0, 0.08, 70, -3.26246e-15, 58.3333, 0
0, 0, 0.08, 70, -1.01075e-15, 66.6667, 0
0, 0, 0.08, 70, -1.62378e-15, 75, 0
0, 0, 0.08, 80, -3.59313e-15, -9.68978e-16, 0
0, 0, 0.08, 80, -2.92739e-15, 8.33333, 0
0, 0, 0.08, 80, -3.58696e-15, 16.6667, 0
0, 0, 0.08, 80, -3.24207e-15, 25, 0
0, 0, 0.08, 80, 2.36496e-15, 33.3333, 0
0, 0, 0.08, 80, -3.88782e-15, 41.6667, 0
0, 0, 0.08, 80, -5.75245e-15, 50, 0
0, 0, 0.08, 80, -3.07735e-15, 58.3333, 0
0, 0, 0.08, 80, -3.92034e-15, 66.6667, 0
0, 0, 0.08, 80, -4.08647e-15, 75, 0
0, 0, 0.08, 90, -3.50835e-15, 2.14825e-31, 0
0, 0, 0.08, 90, -3.50835e-15, 8.33333, 0
0, 0, 0.08, 90, -3.02639e-15, 16.6667, 0
0, 0, 0.08, 90, -2.83647e-15, 25, 0
0, 0, 0.08, 90, -3.50835e-15, 33.3333, 0
0, 0, 0.08, 90, -3.50835e-15, 41.6667, 0
0, 0, 0.08, 90, -1.05431e-15, 50, 0
0, 0, 0.08, 90, -2.72456e-15, 58.3333, 0
0, 0, 0.08, 90, -3.50835e-15, 66.6667, 0
0, 0, 0.08, 90, -3.50835e-15, 75, 0
