0, 0, -0.03, -45, 7.58682e-15, -45, 0
0, 0, -0.03, -45, 1.72516e-15, -35, 0
0, 0, -0.03, -45, 2.20381e-15, -25, 0
0, 0, -0.03, -45, 4.40042e-15, -15, 0
0, 0, -0.03, -45, 8.66037e-16, -5, 1
0, 0, -0.03, -45, 4.33003e-15, 5, 0
0, 0, -0.03, -45, 3.60432e-15, 15, 0
0, 0, -0.03, -45, 2.38253e-15, 25, 0
0, 0, -0.03, -45, 6.5649e-16, 35, 0
0, 0, -0.03, -45, 6.5929e-15, 45, 0
0, 0, -0.03, -35, 5.01948e-16, -45, 0
0, 0, -0.03, -35, 1.34434e-16, -35, 0
0, 0, -0.03, -35, -9.22128e-16, -25, 0
0, 0, -0.03, -35, -4.73473e-15, -15, 0
0, 0, -0.03, -35, -7.70676e-16, -5, 1
0, 0, -0.03, -35, -1.96338e-15, 5, 1
0, 0, -0.03, -35, -2.81175e-15, 15, 0
0, 0, -0.03, -35, 2.97907e-15, 25, 0
0, 0, -0.03, -35, 3.14989e-17, 35, 0
0, 0, -0.03, -35, -4.3488e-15, 45, 0
0, 0, -0.03, -25, -2.82236e-15, -45, 0
0, 0, -0.03, -25, 1.71671e-15, -35, 0
0, 0, -0.03, -25, 1.87094e-16, -25, 0
0, 0, -0.03, -25, 3.48552e-15, -15, 1
0, 0, -0.03, -25, 3.41111e-15, -5, 1
0, 0, -0.03, -25, 4.76217e-15, 5, 1
0, 0, -0.03, -25, 4.2797e-15, 15, 0
0, 0, -0.03, -25, 5.53289e-15, 25, 0
0, 0, -0.03, -25, -1.20487e-14, 35, 0
0, 0, -0.03, -25, -2.62942e-15, 45, 0
0, 0, -0.03, -15, 3.42987e-15, -45, 0
0, 0, -0.03, -15, -2.9894e-15, -35, 0
0, 0, -0.03, -15, -3.37353e-16, -25, 0
0, 0, -0.03, -15, 1.08721e-15, -15, 0
0, 0, -0.03, -15, 2.01008e-15, -5, 1
0, 0, -0.03, -15, 1.39625e-15, 5, 1
0, 0, -0.03, -15, -3.04009e-15, 15, 0
0, 0, -0.03, -15, 2.04332e-15, 25, 0
0, 0, -0.03, -15, -2.29932e-15, 35, 0
0, 0, -0.03, -15, 8.4901e-15, 45, 0
0, 0, -0.03, -5, 2.46493e-17, -45, 1
0, 0, -0.03, -5, 3.51601e-16, -35, 1
0, 0, -0.03, -5, 3.17913e-16, -25, 1
0, 0, -0.03, -5, 2.23553e-16, -15, 1
0, 0, -0.03, -5, 2.21427e-16, -5, 1
0, 0, -0.03, -5, 1.28505e-15, 5, 1
0, 0, -0.03, -5, 1.14001e-16, 15, 1
0, 0, -0.03, -5, 1.25679e-15, 25, 1
0, 0, -0.03, -5, 3.25147e-16, 35, 1
0, 0, -0.03, -5, -1.6719e-15, 45, 1
0, 0, -0.03, 5, -3.05773e-16, -45, 1
0, 0, -0.03, 5, -5.86336e-16, -35, 1
0, 0, -0.03, 5, -3.67302e-16, -25, 1
0, 0, -0.03, 5, -1.81383e-15, -15, 1
0, 0, -0.03, 5, -3.55469e-16, -5, 1
0, 0, -0.03, 5, -1.16091e-15, 5, 1
0, 0, -0.03, 5, -1.14001e-16, 15, 1
0, 0, -0.03, 5, -8.47083e-16, 25, 1
0, 0, -0.03, 5, -2.59945e-16, 35, 1
0, 0, -0.03, 5, 3.14957e-15, 45, 1
0, 0, -0.03, 15, -2.40184e-15, -45, 0
0, 0, -0.03, 15, 1.11153e-15, -35, 0
0, 0, -0.03, 15, 7.9811e-16, -25, 0
0, 0, -0.03, 15, -2.47073e-15, -15, 1
0, 0, -0.03, 15, -1.38477e-15, -5, 1
0, 0, -0.03, 15, -3.9103e-15, 5, 1
0, 0, -0.03, 15, -1.90896e-15, 15, 0
0, 0, -0.03, 15, 4.3219e-15, 25, 0
0, 0, -0.03, 15, -4.37119e-16, 35, 0
0, 0, -0.03, 15, -6.43404e-15, 45, 0
0, 0, -0.03, 25, -2.41426e-15, -45, 0
0, 0, -0.03, 25, -3.88083e-15, -35, 0
0, 0, -0.03, 25, -4.03973e-15, -25, 0
0, 0, -0.03, 25, -2.48868e-16, -15, 0
0, 0, -0.03, 25, -4.04942e-15, -5, 1
0, 0, -0.03, 25, 3.45288e-16, 5, 1
0, 0, -0.03, 25, -1.56541e-15, 15, 0
0, 0, -0.03, 25, 3.53699e-16, 25, 0
0, 0, -0.03, 25, -5.16965e-16, 35, 0
0, 0, -0.03, 25, -1.48269e-15, 45, 0
0, 0, -0.03, 35, -5.01948e-16, -45, 0
0, 0, -0.03, 35, -1.10016e-15, -35, 0
0, 0, -0.03, 35, -3.8487e-15, -25, 0
0, 0, -0.03, 35, -6.55813e-17, -15, 0
0, 0, -0.03, 35, 3.57644e-15, -5, 1
0, 0, -0.03, 35, 3.56963e-15, 5, 1
0, 0, -0.03, 35, 2.34597e-15, 15, 0
0, 0, -0.03, 35, -1.05872e-14, 25, 0
0, 0, -0.03, 35, 7.00217e-16, 35, 0
0, 0, -0.03, 35, -1.49184e-16, 45, 0
0, 0, -0.03, 45, 1.74435e-15, -45, 0
0, 0, -0.03, 45, -4.90571e-15, -35, 0
0, 0, -0.03, 45, -3.24998e-15, -25, 0
0, 0, -0.03, 45, -4.77954e-16, -15, 0
0, 0, -0.03, 45, -6.49773e-16, -5, 0
0, 0, -0.03, 45, 8.59397e-17, 5, 0
0, 0, -0.03, 45, 1.27584e-15, 15, 0
0, 0, -0.03, 45, -9.44836e-16, 25, 0
0, 0, -0.03, 45, -7.92975e-15, 35, 0
0, 0, -0.03, 45, 1.56312e-15, 45, 0
0, 0, -0.0233333, -45, 7.58682e-15, -45, 0
0, 0, -0.0233333, -45, 1.72516e-15, -35, 0
0, 0, -0.0233333, -45, 2.20381e-15, -25, 0
0, 0, -0.0233333, -45, 4.40042e-15, -15, 1
0, 0, -0.0233333, -45, 8.66037e-16, -5, 1
0, 0, -0.0233333, -45, 4.33003e-15, 5, 1
0, 0, -0.0233333, -45, 3.60432e-15, 15, 0
0, 0, -0.0233333, -45, 2.38253e-15, 25, 0
0, 0, -0.0233333, -45, 6.5649e-16, 35, 0
0, 0, -0.0233333, -45, 6.5929e-15, 45, 0
0, 0, -0.0233333, -35, 5.01948e-16, -45, 0
0, 0, -0.0233333, -35, 1.34434e-16, -35, 0
0, 0, -0.0233333, -35, -9.22128e-16, -25, 1
0, 0, -0.0233333, -35, -4.73473e-15, -15, 1
0, 0, -0.0233333, -35, -7.70676e-16, -5, 1
0, 0, -0.0233333, -35, -1.96338e-15, 5, 1
0, 0, -0.0233333, -35, -2.81175e-15, 15, 1
0, 0, -0.0233333, -35, 2.97907e-15, 25, 1
0, 0, -0.0233333, -35, 3.14989e-17, 35, 1
0, 0, -0.0233333, -35, -4.3488e-15, 45, 0
0, 0, -0.0233333, -25, -2.82236e-15, -45, 0
0, 0, -0.0233333, -25, 1.71671e-15, -35, 1
0, 0, -0.0233333, -25, 1.87094e-16, -25, 1
0, 0, -0.0233333, -25, 3.48552e-15, -15, 1
0, 0, -0.0233333, -25, 3.41111e-15, -5, 1
0, 0, -0.0233333, -25, 4.76217e-15, 5, 1
0, 0, -0.0233333, -25, 4.2797e-15, 15, 1
0, 0, -0.0233333, -25, 5.53289e-15, 25, 1
0, 0, -0.0233333, -25, -1.20487e-14, 35, 1
0, 0, -0.0233333, -25, -2.62942e-15, 45, 0
0, 0, -0.0233333, -15, 3.42987e-15, -45, 0
0, 0, -0.0233333, -15, -2.9894e-15, -35, 0
0, 0, -0.0233333, -15, -3.37353e-16, -25, 1
0, 0, -0.0233333, -15, 1.08721e-15, -15, 1
0, 0, -0.0233333, -15, 2.01008e-15, -5, 1
0, 0, -0.0233333, -15, 1.39625e-15, 5, 1
0, 0, -0.0233333, -15, -3.04009e-15, 15, 1
0, 0, -0.0233333, -15, 2.04332e-15, 25, 1
0, 0, -0.0233333, -15, -2.29932e-15, 35, 1
0, 0, -0.0233333, -15, 8.4901e-15, 45, 0
0, 0, -0.0233333, -5, 2.46493e-17, -45, 1
0, 0, -0.0233333, -5, 3.51601e-16, -35, 1
0, 0, -0.0233333, -5, 3.17913e-16, -25, 1
0, 0, -0.0233333, -5, 2.23553e-16, -15, 1
0, 0, -0.0233333, -5, 2.21427e-16, -5, 1
0, 0, -0.0233333, -5, 1.28505e-15, 5, 1
0, 0, -0.0233333, -5, 1.14001e-16, 15, 1
0, 0, -0.0233333, -5, 1.25679e-15, 25, 1
0, 0, -0.0233333, -5, 3.25147e-16, 35, 1
0, 0, -0.0233333, -5, -1.6719e-15, 45, 1
0, 0, -0.0233333, 5, -3.05773e-16, -45, 1
0, 0, -0.0233333, 5, -5.86336e-16, -35, 1
0, 0, -0.0233333, 5, -3.67302e-16, -25, 1
0, 0, -0.0233333, 5, -1.81383e-15, -15, 1
0, 0, -0.0233333, 5, -3.55469e-16, -5, 1
0, 0, -0.0233333, 5, -1.16091e-15, 5, 1
0, 0, -0.0233333, 5, -1.14001e-16, 15, 1
0, 0, -0.0233333, 5, -8.47083e-16, 25, 1
0, 0, -0.0233333, 5, -2.59945e-16, 35, 1
0, 0, -0.0233333, 5, 3.14957e-15, 45, 1
0, 0, -0.0233333, 15, -2.40184e-15, -45, 0
0, 0, -0.0233333, 15, 1.11153e-15, -35, 0
0, 0, -0.0233333, 15, 7.9811e-16, -25, 1
0, 0, -0.0233333, 15, -2.47073e-15, -15, 1
0, 0, -0.0233333, 15, -1.38477e-15, -5, 1
0, 0, -0.0233333, 15, -3.9103e-15, 5, 1
0, 0, -0.0233333, 15, -1.90896e-15, 15, 1
0, 0, -0.0233333, 15, 4.3219e-15, 25, 1
0, 0, -0.0233333, 15, -4.37119e-16, 35, 1
0, 0, -0.0233333, 15, -6.43404e-15, 45, 1
0, 0, -0.0233333, 25, -2.41426e-15, -45, 0
0, 0, -0.0233333, 25, -3.88083e-15, -35, 0
0, 0, -0.0233333, 25, -4.03973e-15, -25, 1
0, 0, -0.0233333, 25, -2.48868e-16, -15, 1
0, 0, -0.0233333, 25, -4.04942e-15, -5, 1
0, 0, -0.0233333, 25, 3.45288e-16, 5, 1
0, 0, -0.0233333, 25, -1.56541e-15, 15, 1
0, 0, -0.0233333, 25, 3.53699e-16, 25, 1
0, 0, -0.0233333, 25, -5.16965e-16, 35, 0
0, 0, -0.0233333, 25, -1.48269e-15, 45, 0
0, 0, -0.0233333, 35, -5.01948e-16, -45, 0
0, 0, -0.0233333, 35, -1.10016e-15, -35, 0
0, 0, -0.0233333, 35, -3.8487e-15, -25, 1
0, 0, -0.0233333, 35, -6.55813e-17, -15, 1
0, 0, -0.0233333, 35, 3.57644e-15, -5, 1
0, 0, -0.0233333, 35, 3.56963e-15, 5, 1
0, 0, -0.0233333, 35, 2.34597e-15, 15, 1
0, 0, -0.0233333, 35, -1.05872e-14, 25, 1
0, 0, -0.0233333, 35, 7.00217e-16, 35, 0
0, 0, -0.0233333, 35, -1.49184e-16, 45, 0
0, 0, -0.0233333, 45, 1.74435e-15, -45, 0
0, 0, -0.0233333, 45, -4.90571e-15, -35, 0
0, 0, -0.0233333, 45, -3.24998e-15, -25, 0
0, 0, -0.0233333, 45, -4.77954e-16, -15, 0
0, 0, -0.0233333, 45, -6.49773e-16, -5, 1
0, 0, -0.0233333, 45, 8.59397e-17, 5, 1
0, 0, -0.0233333, 45, 1.27584e-15, 15, 0
0, 0, -0.0233333, 45, -9.44836e-16, 25, 0
0, 0, -0.0233333, 45, -7.92975e-15, 35, 0
0, 0, -0.0233333, 45, 1.56312e-15, 45, 0
0, 0, -0.0166667, -45, 7.58682e-15, -45, 0
0, 0, -0.0166667, -45, 1.72516e-15, -35, 0
0, 0, -0.0166667, -45, 2.20381e-15, -25, 1
0, 0, -0.0166667, -45, 4.40042e-15, -15, 1
0, 0, -0.0166667, -45, 8.66037e-16, -5, 2
0, 0, -0.0166667, -45, 4.33003e-15, 5, 1
0, 0, -0.0166667, -45, 3.60432e-15, 15, 1
0, 0, -0.0166667, -45, 2.38253e-15, 25, 0
0, 0, -0.0166667, -45, 6.5649e-16, 35, 0
0, 0, -0.0166667, -45, 6.5929e-15, 45, 0
0, 0, -0.0166667, -35, 5.01948e-16, -45, 0
0, 0, -0.0166667, -35, 1.34434e-16, -35, 1
0, 0, -0.0166667, -35, -9.22128e-16, -25, 2
0, 0, -0.0166667, -35, -4.73473e-15, -15, 2
0, 0, -0.0166667, -35, -7.70676e-16, -5, 0
0, 0, -0.0166667, -35, -1.96338e-15, 5, 1
0, 0, -0.0166667, -35, -2.81175e-15, 15, 0
0, 0, -0.0166667, -35, 2.97907e-15, 25, 0
0, 0, -0.0166667, -35, 3.14989e-17, 35, 2
0, 0, -0.0166667, -35, -4.3488e-15, 45, 1
0, 0, -0.0166667, -25, -2.82236e-15, -45, 1
0, 0, -0.0166667, -25, 1.71671e-15, -35, 1
0, 0, -0.0166667, -25, 1.87094e-16, -25, 2
0, 0, -0.0166667, -25, 3.48552e-15, -15, 2
0, 0, -0.0166667, -25, 3.41111e-15, -5, 2
0, 0, -0.0166667, -25, 4.76217e-15, 5, 1
0, 0, -0.0166667, -25, 4.2797e-15, 15, 2
0, 0, -0.0166667, -25, 5.53289e-15, 25, 1
0, 0, -0.0166667, -25, -1.20487e-14, 35, 1
0, 0, -0.0166667, -25, -2.62942e-15, 45, 1
0, 0, -0.0166667, -15, 3.42987e-15, -45, 1
0, 0, -0.0166667, -15, -2.9894e-15, -35, 1
0, 0, -0.0166667, -15, -3.37353e-16, -25, 2
0, 0, -0.0166667, -15, 1.08721e-15, -15, 2
0, 0, -0.0166667, -15, 2.01008e-15, -5, 1
0, 0, -0.0166667, -15, 1.39625e-15, 5, 1
0, 0, -0.0166667, -15, -3.04009e-15, 15, 1
0, 0, -0.0166667, -15, 2.04332e-15, 25, 1
0, 0, -0.0166667, -15, -2.29932e-15, 35, 1
0, 0, -0.0166667, -15, 8.4901e-15, 45, 1
0, 0, -0.0166667, -5, 2.46493e-17, -45, 1
0, 0, -0.0166667, -5, 3.51601e-16, -35, 1
0, 0, -0.0166667, -5, 3.17913e-16, -25, 1
0, 0, -0.0166667, -5, 2.23553e-16, -15, 1
0, 0, -0.0166667, -5, 2.21427e-16, -5, 1
0, 0, -0.0166667, -5, 1.28505e-15, 5, 1
0, 0, -0.0166667, -5, 1.14001e-16, 15, 1
0, 0, -0.0166667, -5, 1.25679e-15, 25, 1
0, 0, -0.0166667, -5, 3.25147e-16, 35, 1
0, 0, -0.0166667, -5, -1.6719e-15, 45, 1
0, 0, -0.0166667, 5, -3.05773e-16, -45, 1
0, 0, -0.0166667, 5, -5.86336e-16, -35, 1
0, 0, -0.0166667, 5, -3.67302e-16, -25, 1
0, 0, -0.0166667, 5, -1.81383e-15, -15, 1
0, 0, -0.0166667, 5, -3.55469e-16, -5, 0
0, 0, -0.0166667, 5, -1.16091e-15, 5, 1
0, 0, -0.0166667, 5, -1.14001e-16, 15, 1
0, 0, -0.0166667, 5, -8.47083e-16, 25, 1
0, 0, -0.0166667, 5, -2.59945e-16, 35, 1
0, 0, -0.0166667, 5, 3.14957e-15, 45, 1
0, 0, -0.0166667, 15, -2.40184e-15, -45, 1
0, 0, -0.0166667, 15, 1.11153e-15, -35, 1
0, 0, -0.0166667, 15, 7.9811e-16, -25, 2
0, 0, -0.0166667, 15, -2.47073e-15, -15, 2
0, 0, -0.0166667, 15, -1.38477e-15, -5, 2
0, 0, -0.0166667, 15, -3.9103e-15, 5, 1
0, 0, -0.0166667, 15, -1.90896e-15, 15, 1
0, 0, -0.0166667, 15, 4.3219e-15, 25, 1
0, 0, -0.0166667, 15, -4.37119e-16, 35, 1
0, 0, -0.0166667, 15, -6.43404e-15, 45, 1
0, 0, -0.0166667, 25, -2.41426e-15, -45, 1
0, 0, -0.0166667, 25, -3.88083e-15, -35, 1
0, 0, -0.0166667, 25, -4.03973e-15, -25, 2
0, 0, -0.0166667, 25, -2.48868e-16, -15, 2
0, 0, -0.0166667, 25, -4.04942e-15, -5, 0
0, 0, -0.0166667, 25, 3.45288e-16, 5, 1
0, 0, -0.0166667, 25, -1.56541e-15, 15, 1
0, 0, -0.0166667, 25, 3.53699e-16, 25, 1
0, 0, -0.0166667, 25, -5.16965e-16, 35, 2
0, 0, -0.0166667, 25, -1.48269e-15, 45, 1
0, 0, -0.0166667, 35, -5.01948e-16, -45, 0
0, 0, -0.0166667, 35, -1.10016e-15, -35, 1
0, 0, -0.0166667, 35, -3.8487e-15, -25, 2
0, 0, -0.0166667, 35, -6.55813e-17, -15, 2
0, 0, -0.0166667, 35, 3.57644e-15, -5, 0
0, 0, -0.0166667, 35, 3.56963e-15, 5, 1
0, 0, -0.0166667, 35, 2.34597e-15, 15, 2
0, 0, -0.0166667, 35, -1.05872e-14, 25, 2
0, 0, -0.0166667, 35, 7.00217e-16, 35, 1
0, 0, -0.0166667, 35, -1.49184e-16, 45, 1
0, 0, -0.0166667, 45, 1.74435e-15, -45, 0
0, 0, -0.0166667, 45, -4.90571e-15, -35, 0
0, 0, -0.0166667, 45, -3.24998e-15, -25, 1
0, 0, -0.0166667, 45, -4.77954e-16, -15, 1
0, 0, -0.0166667, 45, -6.49773e-16, -5, 2
0, 0, -0.0166667, 45, 8.59397e-17, 5, 0
0, 0, -0.0166667, 45, 1.27584e-15, 15, 2
0, 0, -0.0166667, 45, -9.44836e-16, 25, 1
0, 0, -0.0166667, 45, -7.92975e-15, 35, 1
0, 0, -0.0166667, 45, 1.56312e-15, 45, 0
0, 0, -0.01, -45, 7.58682e-15, -45, 0
0, 0, -0.01, -45, 1.72516e-15, -35, 2
0, 0, -0.01, -45, 2.20381e-15, -25, 2
0, 0, -0.01, -45, 4.40042e-15, -15, 2
0, 0, -0.01, -45, 8.66037e-16, -5, 2
0, 0, -0.01, -45, 4.33003e-15, 5, 2
0, 0, -0.01, -45, 3.60432e-15, 15, 2
0, 0, -0.01, -45, 2.38253e-15, 25, 2
0, 0, -0.01, -45, 6.5649e-16, 35, 0
0, 0, -0.01, -45, 6.5929e-15, 45, 1
0, 0, -0.01, -35, 5.01948e-16, -45, 2
0, 0, -0.01, -35, 1.34434e-16, -35, 2
0, 0, -0.01, -35, -9.22128e-16, -25, 2
0, 0, -0.01, -35, -4.73473e-15, -15, 2
0, 0, -0.01, -35, -7.70676e-16, -5, 2
0, 0, -0.01, -35, -1.96338e-15, 5, 2
0, 0, -0.01, -35, -2.81175e-15, 15, 2
0, 0, -0.01, -35, 2.97907e-15, 25, 2
0, 0, -0.01, -35, 3.14989e-17, 35, 2
0, 0, -0.01, -35, -4.3488e-15, 45, 0
0, 0, -0.01, -25, -2.82236e-15, -45, 2
0, 0, -0.01, -25, 1.71671e-15, -35, 2
0, 0, -0.01, -25, 1.87094e-16, -25, 2
0, 0, -0.01, -25, 3.48552e-15, -15, 2
0, 0, -0.01, -25, 3.41111e-15, -5, 2
0, 0, -0.01, -25, 4.76217e-15, 5, 2
0, 0, -0.01, -25, 4.2797e-15, 15, 2
0, 0, -0.01, -25, 5.53289e-15, 25, 2
0, 0, -0.01, -25, -1.20487e-14, 35, 2
0, 0, -0.01, -25, -2.62942e-15, 45, 1
0, 0, -0.01, -15, 3.42987e-15, -45, 1
0, 0, -0.01, -15, -2.9894e-15, -35, 2
0, 0, -0.01, -15, -3.37353e-16, -25, 2
0, 0, -0.01, -15, 1.08721e-15, -15, 2
0, 0, -0.01, -15, 2.01008e-15, -5, 2
0, 0, -0.01, -15, 1.39625e-15, 5, 2
0, 0, -0.01, -15, -3.04009e-15, 15, 2
0, 0, -0.01, -15, 2.04332e-15, 25, 2
0, 0, -0.01, -15, -2.29932e-15, 35, 2
0, 0, -0.01, -15, 8.4901e-15, 45, 1
0, 0, -0.01, -5, 2.46493e-17, -45, 1
0, 0, -0.01, -5, 3.51601e-16, -35, 1
0, 0, -0.01, -5, 3.17913e-16, -25, 0
0, 0, -0.01, -5, 2.23553e-16, -15, 2
0, 0, -0.01, -5, 2.21427e-16, -5, 2
0, 0, -0.01, -5, 1.28505e-15, 5, 2
0, 0, -0.01, -5, 1.14001e-16, 15, 2
0, 0, -0.01, -5, 1.25679e-15, 25, 1
0, 0, -0.01, -5, 3.25147e-16, 35, 1
0, 0, -0.01, -5, -1.6719e-15, 45, 1
0, 0, -0.01, 5, -3.05773e-16, -45, 1
0, 0, -0.01, 5, -5.86336e-16, -35, 1
0, 0, -0.01, 5, -3.67302e-16, -25, 1
0, 0, -0.01, 5, -1.81383e-15, -15, 2
0, 0, -0.01, 5, -3.55469e-16, -5, 2
0, 0, -0.01, 5, -1.16091e-15, 5, 2
0, 0, -0.01, 5, -1.14001e-16, 15, 2
0, 0, -0.01, 5, -8.47083e-16, 25, 1
0, 0, -0.01, 5, -2.59945e-16, 35, 1
0, 0, -0.01, 5, 3.14957e-15, 45, 1
0, 0, -0.01, 15, -2.40184e-15, -45, 2
0, 0, -0.01, 15, 1.11153e-15, -35, 2
0, 0, -0.01, 15, 7.9811e-16, -25, 2
0, 0, -0.01, 15, -2.47073e-15, -15, 2
0, 0, -0.01, 15, -1.38477e-15, -5, 2
0, 0, -0.01, 15, -3.9103e-15, 5, 2
0, 0, -0.01, 15, -1.90896e-15, 15, 2
0, 0, -0.01, 15, 4.3219e-15, 25, 2
0, 0, -0.01, 15, -4.37119e-16, 35, 2
0, 0, -0.01, 15, -6.43404e-15, 45, 1
0, 0, -0.01, 25, -2.41426e-15, -45, 2
0, 0, -0.01, 25, -3.88083e-15, -35, 2
0, 0, -0.01, 25, -4.03973e-15, -25, 2
0, 0, -0.01, 25, -2.48868e-16, -15, 2
0, 0, -0.01, 25, -4.04942e-15, -5, 2
0, 0, -0.01, 25, 3.45288e-16, 5, 2
0, 0, -0.01, 25, -1.56541e-15, 15, 2
0, 0, -0.01, 25, 3.53699e-16, 25, 2
0, 0, -0.01, 25, -5.16965e-16, 35, 2
0, 0, -0.01, 25, -1.48269e-15, 45, 1
0, 0, -0.01, 35, -5.01948e-16, -45, 2
0, 0, -0.01, 35, -1.10016e-15, -35, 2
0, 0, -0.01, 35, -3.8487e-15, -25, 2
0, 0, -0.01, 35, -6.55813e-17, -15, 2
0, 0, -0.01, 35, 3.57644e-15, -5, 2
0, 0, -0.01, 35, 3.56963e-15, 5, 2
0, 0, -0.01, 35, 2.34597e-15, 15, 2
0, 0, -0.01, 35, -1.05872e-14, 25, 2
0, 0, -0.01, 35, 7.00217e-16, 35, 2
0, 0, -0.01, 35, -1.49184e-16, 45, 0
0, 0, -0.01, 45, 1.74435e-15, -45, 0
0, 0, -0.01, 45, -4.90571e-15, -35, 1
0, 0, -0.01, 45, -3.24998e-15, -25, 2
0, 0, -0.01, 45, -4.77954e-16, -15, 2
0, 0, -0.01, 45, -6.49773e-16, -5, 2
0, 0, -0.01, 45, 8.59397e-17, 5, 2
0, 0, -0.01, 45, 1.27584e-15, 15, 2
0, 0, -0.01, 45, -9.44836e-16, 25, 2
0, 0, -0.01, 45, -7.92975e-15, 35, 1
0, 0, -0.01, 45, 1.56312e-15, 45, 1
0, 0, -0.00333333, -45, 7.58682e-15, -45, 1
0, 0, -0.00333333, -45, 1.72516e-15, -35, 2
0, 0, -0.00333333, -45, 2.20381e-15, -25, 2
0, 0, -0.00333333, -45, 4.40042e-15, -15, 2
0, 0, -0.00333333, -45, 8.66037e-16, -5, 2
0, 0, -0.00333333, -45, 4.33003e-15, 5, 2
0, 0, -0.00333333, -45, 3.60432e-15, 15, 2
0, 0, -0.00333333, -45, 2.38253e-15, 25, 2
0, 0, -0.00333333, -45, 6.5649e-16, 35, 0
0, 0, -0.00333333, -45, 6.5929e-15, 45, 0
0, 0, -0.00333333, -35, 5.01948e-16, -45, 2
0, 0, -0.00333333, -35, 1.34434e-16, -35, 2
0, 0, -0.00333333, -35, -9.22128e-16, -25, 2
0, 0, -0.00333333, -35, -4.73473e-15, -15, 2
0, 0, -0.00333333, -35, -7.70676e-16, -5, 2
0, 0, -0.00333333, -35, -1.96338e-15, 5, 2
0, 0, -0.00333333, -35, -2.81175e-15, 15, 2
0, 0, -0.00333333, -35, 2.97907e-15, 25, 2
0, 0, -0.00333333, -35, 3.14989e-17, 35, 2
0, 0, -0.00333333, -35, -4.3488e-15, 45, 2
0, 0, -0.00333333, -25, -2.82236e-15, -45, 2
0, 0, -0.00333333, -25, 1.71671e-15, -35, 2
0, 0, -0.00333333, -25, 1.87094e-16, -25, 2
0, 0, -0.00333333, -25, 3.48552e-15, -15, 2
0, 0, -0.00333333, -25, 3.41111e-15, -5, 2
0, 0, -0.00333333, -25, 4.76217e-15, 5, 2
0, 0, -0.00333333, -25, 4.2797e-15, 15, 2
0, 0, -0.00333333, -25, 5.53289e-15, 25, 2
0, 0, -0.00333333, -25, -1.20487e-14, 35, 2
0, 0, -0.00333333, -25, -2.62942e-15, 45, 2
0, 0, -0.00333333, -15, 3.42987e-15, -45, 1
0, 0, -0.00333333, -15, -2.9894e-15, -35, 2
0, 0, -0.00333333, -15, -3.37353e-16, -25, 2
0, 0, -0.00333333, -15, 1.08721e-15, -15, 2
0, 0, -0.00333333, -15, 2.01008e-15, -5, 2
0, 0, -0.00333333, -15, 1.39625e-15, 5, 2
0, 0, -0.00333333, -15, -3.04009e-15, 15, 2
0, 0, -0.00333333, -15, 2.04332e-15, 25, 2
0, 0, -0.00333333, -15, -2.29932e-15, 35, 2
0, 0, -0.00333333, -15, 8.4901e-15, 45, 2
0, 0, -0.00333333, -5, 2.46493e-17, -45, 1
0, 0, -0.00333333, -5, 3.51601e-16, -35, 0
0, 0, -0.00333333, -5, 3.17913e-16, -25, 2
0, 0, -0.00333333, -5, 2.23553e-16, -15, 2
0, 0, -0.00333333, -5, 2.21427e-16, -5, 2
0, 0, -0.00333333, -5, 1.28505e-15, 5, 2
0, 0, -0.00333333, -5, 1.14001e-16, 15, 2
0, 0, -0.00333333, -5, 1.25679e-15, 25, 2
0, 0, -0.00333333, -5, 3.25147e-16, 35, 2
0, 0, -0.00333333, -5, -1.6719e-15, 45, 1
0, 0, -0.00333333, 5, -3.05773e-16, -45, 1
0, 0, -0.00333333, 5, -5.86336e-16, -35, 2
0, 0, -0.00333333, 5, -3.67302e-16, -25, 2
0, 0, -0.00333333, 5, -1.81383e-15, -15, 2
0, 0, -0.00333333, 5, -3.55469e-16, -5, 2
0, 0, -0.00333333, 5, -1.16091e-15, 5, 2
0, 0, -0.00333333, 5, -1.14001e-16, 15, 2
0, 0, -0.00333333, 5, -8.47083e-16, 25, 2
0, 0, -0.00333333, 5, -2.59945e-16, 35, 2
0, 0, -0.00333333, 5, 3.14957e-15, 45, 1
0, 0, -0.00333333, 15, -2.40184e-15, -45, 1
0, 0, -0.00333333, 15, 1.11153e-15, -35, 2
0, 0, -0.00333333, 15, 7.9811e-16, -25, 2
0, 0, -0.00333333, 15, -2.47073e-15, -15, 2
0, 0, -0.00333333, 15, -1.38477e-15, -5, 2
0, 0, -0.00333333, 15, -3.9103e-15, 5, 2
0, 0, -0.00333333, 15, -1.90896e-15, 15, 2
0, 0, -0.00333333, 15, 4.3219e-15, 25, 2
0, 0, -0.00333333, 15, -4.37119e-16, 35, 2
0, 0, -0.00333333, 15, -6.43404e-15, 45, 1
0, 0, -0.00333333, 25, -2.41426e-15, -45, 2
0, 0, -0.00333333, 25, -3.88083e-15, -35, 2
0, 0, -0.00333333, 25, -4.03973e-15, -25, 2
0, 0, -0.00333333, 25, -2.48868e-16, -15, 2
0, 0, -0.00333333, 25, -4.04942e-15, -5, 2
0, 0, -0.00333333, 25, 3.45288e-16, 5, 2
0, 0, -0.00333333, 25, -1.56541e-15, 15, 2
0, 0, -0.00333333, 25, 3.53699e-16, 25, 2
0, 0, -0.00333333, 25, -5.16965e-16, 35, 2
0, 0, -0.00333333, 25, -1.48269e-15, 45, 2
0, 0, -0.00333333, 35, -5.01948e-16, -45, 2
0, 0, -0.00333333, 35, -1.10016e-15, -35, 2
0, 0, -0.00333333, 35, -3.8487e-15, -25, 2
0, 0, -0.00333333, 35, -6.55813e-17, -15, 2
0, 0, -0.00333333, 35, 3.57644e-15, -5, 2
0, 0, -0.00333333, 35, 3.56963e-15, 5, 2
0, 0, -0.00333333, 35, 2.34597e-15, 15, 2
0, 0, -0.00333333, 35, -1.05872e-14, 25, 2
0, 0, -0.00333333, 35, 7.00217e-16, 35, 2
0, 0, -0.00333333, 35, -1.49184e-16, 45, 2
0, 0, -0.00333333, 45, 1.74435e-15, -45, 0
0, 0, -0.00333333, 45, -4.90571e-15, -35, 2
0, 0, -0.00333333, 45, -3.24998e-15, -25, 2
0, 0, -0.00333333, 45, -4.77954e-16, -15, 2
0, 0, -0.00333333, 45, -6.49773e-16, -5, 2
0, 0, -0.00333333, 45, 8.59397e-17, 5, 2
0, 0, -0.00333333, 45, 1.27584e-15, 15, 2
0, 0, -0.00333333, 45, -9.44836e-16, 25, 2
0, 0, -0.00333333, 45, -7.92975e-15, 35, 0
0, 0, -0.00333333, 45, 1.56312e-15, 45, 0
0, 0, 0.00333333, -45, 7.58682e-15, -45, 2
0, 0, 0.00333333, -45, 1.72516e-15, -35, 2
0, 0, 0.00333333, -45, 2.20381e-15, -25, 2
0, 0, 0.00333333, -45, 4.40042e-15, -15, 2
0, 0, 0.00333333, -45, 8.66037e-16, -5, 2
0, 0, 0.00333333, -45, 4.33003e-15, 5, 2
0, 0, 0.00333333, -45, 3.60432e-15, 15, 2
0, 0, 0.00333333, -45, 2.38253e-15, 25, 2
0, 0, 0.00333333, -45, 6.5649e-16, 35, 0
0, 0, 0.00333333, -45, 6.5929e-15, 45, 0
0, 0, 0.00333333, -35, 5.01948e-16, -45, 2
0, 0, 0.00333333, -35, 1.34434e-16, -35, 2
0, 0, 0.00333333, -35, -9.22128e-16, -25, 2
0, 0, 0.00333333, -35, -4.73473e-15, -15, 2
0, 0, 0.00333333, -35, -7.70676e-16, -5, 2
0, 0, 0.00333333, -35, -1.96338e-15, 5, 2
0, 0, 0.00333333, -35, -2.81175e-15, 15, 2
0, 0, 0.00333333, -35, 2.97907e-15, 25, 2
0, 0, 0.00333333, -35, 3.14989e-17, 35, 2
0, 0, 0.00333333, -35, -4.3488e-15, 45, 2
0, 0, 0.00333333, -25, -2.82236e-15, -45, 2
0, 0, 0.00333333, -25, 1.71671e-15, -35, 2
0, 0, 0.00333333, -25, 1.87094e-16, -25, 2
0, 0, 0.00333333, -25, 3.48552e-15, -15, 2
0, 0, 0.00333333, -25, 3.41111e-15, -5, 2
0, 0, 0.00333333, -25, 4.76217e-15, 5, 2
0, 0, 0.00333333, -25, 4.2797e-15, 15, 2
0, 0, 0.00333333, -25, 5.53289e-15, 25, 2
0, 0, 0.00333333, -25, -1.20487e-14, 35, 2
0, 0, 0.00333333, -25, -2.62942e-15, 45, 2
0, 0, 0.00333333, -15, 3.42987e-15, -45, 1
0, 0, 0.00333333, -15, -2.9894e-15, -35, 2
0, 0, 0.00333333, -15, -3.37353e-16, -25, 2
0, 0, 0.00333333, -15, 1.08721e-15, -15, 2
0, 0, 0.00333333, -15, 2.01008e-15, -5, 2
0, 0, 0.00333333, -15, 1.39625e-15, 5, 2
0, 0, 0.00333333, -15, -3.04009e-15, 15, 2
0, 0, 0.00333333, -15, 2.04332e-15, 25, 2
0, 0, 0.00333333, -15, -2.29932e-15, 35, 2
0, 0, 0.00333333, -15, 8.4901e-15, 45, 1
0, 0, 0.00333333, -5, 2.46493e-17, -45, 1
0, 0, 0.00333333, -5, 3.51601e-16, -35, 2
0, 0, 0.00333333, -5, 3.17913e-16, -25, 2
0, 0, 0.00333333, -5, 2.23553e-16, -15, 2
0, 0, 0.00333333, -5, 2.21427e-16, -5, 2
0, 0, 0.00333333, -5, 1.28505e-15, 5, 2
0, 0, 0.00333333, -5, 1.14001e-16, 15, 2
0, 0, 0.00333333, -5, 1.25679e-15, 25, 2
0, 0, 0.00333333, -5, 3.25147e-16, 35, 1
0, 0, 0.00333333, -5, -1.6719e-15, 45, 1
0, 0, 0.00333333, 5, -3.05773e-16, -45, 1
0, 0, 0.00333333, 5, -5.86336e-16, -35, 2
0, 0, 0.00333333, 5, -3.67302e-16, -25, 2
0, 0, 0.00333333, 5, -1.81383e-15, -15, 2
0, 0, 0.00333333, 5, -3.55469e-16, -5, 2
0, 0, 0.00333333, 5, -1.16091e-15, 5, 2
0, 0, 0.00333333, 5, -1.14001e-16, 15, 2
0, 0, 0.00333333, 5, -8.47083e-16, 25, 2
0, 0, 0.00333333, 5, -2.59945e-16, 35, 2
0, 0, 0.00333333, 5, 3.14957e-15, 45, 1
0, 0, 0.00333333, 15, -2.40184e-15, -45, 2
0, 0, 0.00333333, 15, 1.11153e-15, -35, 2
0, 0, 0.00333333, 15, 7.9811e-16, -25, 2
0, 0, 0.00333333, 15, -2.47073e-15, -15, 2
0, 0, 0.00333333, 15, -1.38477e-15, -5, 2
0, 0, 0.00333333, 15, -3.9103e-15, 5, 2
0, 0, 0.00333333, 15, -1.90896e-15, 15, 2
0, 0, 0.00333333, 15, 4.3219e-15, 25, 2
0, 0, 0.00333333, 15, -4.37119e-16, 35, 2
0, 0, 0.00333333, 15, -6.43404e-15, 45, 2
0, 0, 0.00333333, 25, -2.41426e-15, -45, 2
0, 0, 0.00333333, 25, -3.88083e-15, -35, 2
0, 0, 0.00333333, 25, -4.03973e-15, -25, 2
0, 0, 0.00333333, 25, -2.48868e-16, -15, 2
0, 0, 0.00333333, 25, -4.04942e-15, -5, 2
0, 0, 0.00333333, 25, 3.45288e-16, 5, 2
0, 0, 0.00333333, 25, -1.56541e-15, 15, 2
0, 0, 0.00333333, 25, 3.53699e-16, 25, 2
0, 0, 0.00333333, 25, -5.16965e-16, 35, 2
0, 0, 0.00333333, 25, -1.48269e-15, 45, 2
0, 0, 0.00333333, 35, -5.01948e-16, -45, 2
0, 0, 0.00333333, 35, -1.10016e-15, -35, 2
0, 0, 0.00333333, 35, -3.8487e-15, -25, 2
0, 0, 0.00333333, 35, -6.55813e-17, -15, 2
0, 0, 0.00333333, 35, 3.57644e-15, -5, 2
0, 0, 0.00333333, 35, 3.56963e-15, 5, 2
0, 0, 0.00333333, 35, 2.34597e-15, 15, 2
0, 0, 0.00333333, 35, -1.05872e-14, 25, 2
0, 0, 0.00333333, 35, 7.00217e-16, 35, 2
0, 0, 0.00333333, 35, -1.49184e-16, 45, 2
0, 0, 0.00333333, 45, 1.74435e-15, -45, 2
0, 0, 0.00333333, 45, -4.90571e-15, -35, 2
0, 0, 0.00333333, 45, -3.24998e-15, -25, 2
0, 0, 0.00333333, 45, -4.77954e-16, -15, 2
0, 0, 0.00333333, 45, -6.49773e-16, -5, 2
0, 0, 0.00333333, 45, 8.59397e-17, 5, 2
0, 0, 0.00333333, 45, 1.27584e-15, 15, 2
0, 0, 0.00333333, 45, -9.44836e-16, 25, 2
0, 0, 0.00333333, 45, -7.92975e-15, 35, 0
0, 0, 0.00333333, 45, 1.56312e-15, 45, 0
0, 0, 0.01, -45, 7.58682e-15, -45, 0
0, 0, 0.01, -45, 1.72516e-15, -35, 0
0, 0, 0.01, -45, 2.20381e-15, -25, 2
0, 0, 0.01, -45, 4.40042e-15, -15, 2
0, 0, 0.01, -45, 8.66037e-16, -5, 2
0, 0, 0.01, -45, 4.33003e-15, 5, 2
0, 0, 0.01, -45, 3.60432e-15, 15, 2
0, 0, 0.01, -45, 2.38253e-15, 25, 2
0, 0, 0.01, -45, 6.5649e-16, 35, 0
0, 0, 0.01, -45, 6.5929e-15, 45, 0
0, 0, 0.01, -35, 5.01948e-16, -45, 0
0, 0, 0.01, -35, 1.34434e-16, -35, 2
0, 0, 0.01, -35, -9.22128e-16, -25, 2
0, 0, 0.01, -35, -4.73473e-15, -15, 2
0, 0, 0.01, -35, -7.70676e-16, -5, 2
0, 0, 0.01, -35, -1.96338e-15, 5, 2
0, 0, 0.01, -35, -2.81175e-15, 15, 2
0, 0, 0.01, -35, 2.97907e-15, 25, 2
0, 0, 0.01, -35, 3.14989e-17, 35, 2
0, 0, 0.01, -35, -4.3488e-15, 45, 0
0, 0, 0.01, -25, -2.82236e-15, -45, 0
0, 0, 0.01, -25, 1.71671e-15, -35, 2
0, 0, 0.01, -25, 1.87094e-16, -25, 2
0, 0, 0.01, -25, 3.48552e-15, -15, 2
0, 0, 0.01, -25, 3.41111e-15, -5, 2
0, 0, 0.01, -25, 4.76217e-15, 5, 2
0, 0, 0.01, -25, 4.2797e-15, 15, 2
0, 0, 0.01, -25, 5.53289e-15, 25, 2
0, 0, 0.01, -25, -1.20487e-14, 35, 2
0, 0, 0.01, -25, -2.62942e-15, 45, 2
0, 0, 0.01, -15, 3.42987e-15, -45, 0
0, 0, 0.01, -15, -2.9894e-15, -35, 2
0, 0, 0.01, -15, -3.37353e-16, -25, 2
0, 0, 0.01, -15, 1.08721e-15, -15, 2
0, 0, 0.01, -15, 2.01008e-15, -5, 2
0, 0, 0.01, -15, 1.39625e-15, 5, 2
0, 0, 0.01, -15, -3.04009e-15, 15, 2
0, 0, 0.01, -15, 2.04332e-15, 25, 2
0, 0, 0.01, -15, -2.29932e-15, 35, 2
0, 0, 0.01, -15, 8.4901e-15, 45, 2
0, 0, 0.01, -5, 2.46493e-17, -45, 0
0, 0, 0.01, -5, 3.51601e-16, -35, 1
0, 0, 0.01, -5, 3.17913e-16, -25, 1
0, 0, 0.01, -5, 2.23553e-16, -15, 2
0, 0, 0.01, -5, 2.21427e-16, -5, 2
0, 0, 0.01, -5, 1.28505e-15, 5, 2
0, 0, 0.01, -5, 1.14001e-16, 15, 2
0, 0, 0.01, -5, 1.25679e-15, 25, 1
0, 0, 0.01, -5, 3.25147e-16, 35, 1
0, 0, 0.01, -5, -1.6719e-15, 45, 1
0, 0, 0.01, 5, -3.05773e-16, -45, 0
0, 0, 0.01, 5, -5.86336e-16, -35, 1
0, 0, 0.01, 5, -3.67302e-16, -25, 1
0, 0, 0.01, 5, -1.81383e-15, -15, 2
0, 0, 0.01, 5, -3.55469e-16, -5, 2
0, 0, 0.01, 5, -1.16091e-15, 5, 2
0, 0, 0.01, 5, -1.14001e-16, 15, 2
0, 0, 0.01, 5, -8.47083e-16, 25, 1
0, 0, 0.01, 5, -2.59945e-16, 35, 1
0, 0, 0.01, 5, 3.14957e-15, 45, 1
0, 0, 0.01, 15, -2.40184e-15, -45, 0
0, 0, 0.01, 15, 1.11153e-15, -35, 2
0, 0, 0.01, 15, 7.9811e-16, -25, 2
0, 0, 0.01, 15, -2.47073e-15, -15, 2
0, 0, 0.01, 15, -1.38477e-15, -5, 2
0, 0, 0.01, 15, -3.9103e-15, 5, 2
0, 0, 0.01, 15, -1.90896e-15, 15, 2
0, 0, 0.01, 15, 4.3219e-15, 25, 2
0, 0, 0.01, 15, -4.37119e-16, 35, 2
0, 0, 0.01, 15, -6.43404e-15, 45, 2
0, 0, 0.01, 25, -2.41426e-15, -45, 0
0, 0, 0.01, 25, -3.88083e-15, -35, 2
0, 0, 0.01, 25, -4.03973e-15, -25, 2
0, 0, 0.01, 25, -2.48868e-16, -15, 2
0, 0, 0.01, 25, -4.04942e-15, -5, 2
0, 0, 0.01, 25, 3.45288e-16, 5, 2
0, 0, 0.01, 25, -1.56541e-15, 15, 2
0, 0, 0.01, 25, 3.53699e-16, 25, 2
0, 0, 0.01, 25, -5.16965e-16, 35, 2
0, 0, 0.01, 25, -1.48269e-15, 45, 2
0, 0, 0.01, 35, -5.01948e-16, -45, 0
0, 0, 0.01, 35, -1.10016e-15, -35, 2
0, 0, 0.01, 35, -3.8487e-15, -25, 2
0, 0, 0.01, 35, -6.55813e-17, -15, 2
0, 0, 0.01, 35, 3.57644e-15, -5, 2
0, 0, 0.01, 35, 3.56963e-15, 5, 2
0, 0, 0.01, 35, 2.34597e-15, 15, 2
0, 0, 0.01, 35, -1.05872e-14, 25, 2
0, 0, 0.01, 35, 7.00217e-16, 35, 2
0, 0, 0.01, 35, -1.49184e-16, 45, 0
0, 0, 0.01, 45, 1.74435e-15, -45, 0
0, 0, 0.01, 45, -4.90571e-15, -35, 2
0, 0, 0.01, 45, -3.24998e-15, -25, 2
0, 0, 0.01, 45, -4.77954e-16, -15, 2
0, 0, 0.01, 45, -6.49773e-16, -5, 2
0, 0, 0.01, 45, 8.59397e-17, 5, 2
0, 0, 0.01, 45, 1.27584e-15, 15, 2
0, 0, 0.01, 45, -9.44836e-16, 25, 2
0, 0, 0.01, 45, -7.92975e-15, 35, 0
0, 0, 0.01, 45, 1.56312e-15, 45, 0
0, 0, 0.0166667, -45, 7.58682e-15, -45, 0
0, 0, 0.0166667, -45, 1.72516e-15, -35, 0
0, 0, 0.0166667, -45, 2.20381e-15, -25, 2
0, 0, 0.0166667, -45, 4.40042e-15, -15, 2
0, 0, 0.0166667, -45, 8.66037e-16, -5, 1
0, 0, 0.0166667, -45, 4.33003e-15, 5, 2
0, 0, 0.0166667, -45, 3.60432e-15, 15, 2
0, 0, 0.0166667, -45, 2.38253e-15, 25, 0
0, 0, 0.0166667, -45, 6.5649e-16, 35, 0
0, 0, 0.0166667, -45, 6.5929e-15, 45, 0
0, 0, 0.0166667, -35, 5.01948e-16, -45, 0
0, 0, 0.0166667, -35, 1.34434e-16, -35, 2
0, 0, 0.0166667, -35, -9.22128e-16, -25, 1
0, 0, 0.0166667, -35, -4.73473e-15, -15, 1
0, 0, 0.0166667, -35, -7.70676e-16, -5, 1
0, 0, 0.0166667, -35, -1.96338e-15, 5, 2
0, 0, 0.0166667, -35, -2.81175e-15, 15, 2
0, 0, 0.0166667, -35, 2.97907e-15, 25, 2
0, 0, 0.0166667, -35, 3.14989e-17, 35, 2
0, 0, 0.0166667, -35, -4.3488e-15, 45, 0
0, 0, 0.0166667, -25, -2.82236e-15, -45, 0
0, 0, 0.0166667, -25, 1.71671e-15, -35, 1
0, 0, 0.0166667, -25, 1.87094e-16, -25, 1
0, 0, 0.0166667, -25, 3.48552e-15, -15, 1
0, 0, 0.0166667, -25, 3.41111e-15, -5, 1
0, 0, 0.0166667, -25, 4.76217e-15, 5, 2
0, 0, 0.0166667, -25, 4.2797e-15, 15, 2
0, 0, 0.0166667, -25, 5.53289e-15, 25, 2
0, 0, 0.0166667, -25, -1.20487e-14, 35, 2
0, 0, 0.0166667, -25, -2.62942e-15, 45, 2
0, 0, 0.0166667, -15, 3.42987e-15, -45, 0
0, 0, 0.0166667, -15, -2.9894e-15, -35, 1
0, 0, 0.0166667, -15, -3.37353e-16, -25, 1
0, 0, 0.0166667, -15, 1.08721e-15, -15, 2
0, 0, 0.0166667, -15, 2.01008e-15, -5, 1
0, 0, 0.0166667, -15, 1.39625e-15, 5, 1
0, 0, 0.0166667, -15, -3.04009e-15, 15, 2
0, 0, 0.0166667, -15, 2.04332e-15, 25, 1
0, 0, 0.0166667, -15, -2.29932e-15, 35, 2
0, 0, 0.0166667, -15, 8.4901e-15, 45, 1
0, 0, 0.0166667, -5, 2.46493e-17, -45, 0
0, 0, 0.0166667, -5, 3.51601e-16, -35, 1
0, 0, 0.0166667, -5, 3.17913e-16, -25, 1
0, 0, 0.0166667, -5, 2.23553e-16, -15, 1
0, 0, 0.0166667, -5, 2.21427e-16, -5, 1
0, 0, 0.0166667, -5, 1.28505e-15, 5, 1
0, 0, 0.0166667, -5, 1.14001e-16, 15, 1
0, 0, 0.0166667, -5, 1.25679e-15, 25, 1
0, 0, 0.0166667, -5, 3.25147e-16, 35, 1
0, 0, 0.0166667, -5, -1.6719e-15, 45, 1
0, 0, 0.0166667, 5, -3.05773e-16, -45, 0
0, 0, 0.0166667, 5, -5.86336e-16, -35, 1
0, 0, 0.0166667, 5, -3.67302e-16, -25, 1
0, 0, 0.0166667, 5, -1.81383e-15, -15, 1
0, 0, 0.0166667, 5, -3.55469e-16, -5, 1
0, 0, 0.0166667, 5, -1.16091e-15, 5, 2
0, 0, 0.0166667, 5, -1.14001e-16, 15, 1
0, 0, 0.0166667, 5, -8.47083e-16, 25, 1
0, 0, 0.0166667, 5, -2.59945e-16, 35, 1
0, 0, 0.0166667, 5, 3.14957e-15, 45, 1
0, 0, 0.0166667, 15, -2.40184e-15, -45, 0
0, 0, 0.0166667, 15, 1.11153e-15, -35, 1
0, 0, 0.0166667, 15, 7.9811e-16, -25, 1
0, 0, 0.0166667, 15, -2.47073e-15, -15, 1
0, 0, 0.0166667, 15, -1.38477e-15, -5, 1
0, 0, 0.0166667, 15, -3.9103e-15, 5, 2
0, 0, 0.0166667, 15, -1.90896e-15, 15, 2
0, 0, 0.0166667, 15, 4.3219e-15, 25, 2
0, 0, 0.0166667, 15, -4.37119e-16, 35, 1
0, 0, 0.0166667, 15, -6.43404e-15, 45, 1
0, 0, 0.0166667, 25, -2.41426e-15, -45, 0
0, 0, 0.0166667, 25, -3.88083e-15, -35, 2
0, 0, 0.0166667, 25, -4.03973e-15, -25, 1
0, 0, 0.0166667, 25, -2.48868e-16, -15, 1
0, 0, 0.0166667, 25, -4.04942e-15, -5, 1
0, 0, 0.0166667, 25, 3.45288e-16, 5, 2
0, 0, 0.0166667, 25, -1.56541e-15, 15, 2
0, 0, 0.0166667, 25, 3.53699e-16, 25, 2
0, 0, 0.0166667, 25, -5.16965e-16, 35, 2
0, 0, 0.0166667, 25, -1.48269e-15, 45, 2
0, 0, 0.0166667, 35, -5.01948e-16, -45, 0
0, 0, 0.0166667, 35, -1.10016e-15, -35, 2
0, 0, 0.0166667, 35, -3.8487e-15, -25, 2
0, 0, 0.0166667, 35, -6.55813e-17, -15, 2
0, 0, 0.0166667, 35, 3.57644e-15, -5, 1
0, 0, 0.0166667, 35, 3.56963e-15, 5, 2
0, 0, 0.0166667, 35, 2.34597e-15, 15, 2
0, 0, 0.0166667, 35, -1.05872e-14, 25, 2
0, 0, 0.0166667, 35, 7.00217e-16, 35, 2
0, 0, 0.0166667, 35, -1.49184e-16, 45, 2
0, 0, 0.0166667, 45, 1.74435e-15, -45, 0
0, 0, 0.0166667, 45, -4.90571e-15, -35, 0
0, 0, 0.0166667, 45, -3.24998e-15, -25, 2
0, 0, 0.0166667, 45, -4.77954e-16, -15, 2
0, 0, 0.0166667, 45, -6.49773e-16, -5, 0
0, 0, 0.0166667, 45, 8.59397e-17, 5, 2
0, 0, 0.0166667, 45, 1.27584e-15, 15, 2
0, 0, 0.0166667, 45, -9.44836e-16, 25, 0
0, 0, 0.0166667, 45, -7.92975e-15, 35, 0
0, 0, 0.0166667, 45, 1.56312e-15, 45, 0
0, 0, 0.0233333, -45, 7.58682e-15, -45, 0
0, 0, 0.0233333, -45, 1.72516e-15, -35, 0
0, 0, 0.0233333, -45, 2.20381e-15, -25, 0
0, 0, 0.0233333, -45, 4.40042e-15, -15, 2
0, 0, 0.0233333, -45, 8.66037e-16, -5, 1
0, 0, 0.0233333, -45, 4.33003e-15, 5, 1
0, 0, 0.0233333, -45, 3.60432e-15, 15, 2
0, 0, 0.0233333, -45, 2.38253e-15, 25, 0
0, 0, 0.0233333, -45, 6.5649e-16, 35, 0
0, 0, 0.0233333, -45, 6.5929e-15, 45, 0
0, 0, 0.0233333, -35, 5.01948e-16, -45, 0
0, 0, 0.0233333, -35, 1.34434e-16, -35, 0
0, 0, 0.0233333, -35, -9.22128e-16, -25, 1
0, 0, 0.0233333, -35, -4.73473e-15, -15, 1
0, 0, 0.0233333, -35, -7.70676e-16, -5, 1
0, 0, 0.0233333, -35, -1.96338e-15, 5, 1
0, 0, 0.0233333, -35, -2.81175e-15, 15, 1
0, 0, 0.0233333, -35, 2.97907e-15, 25, 1
0, 0, 0.0233333, -35, 3.14989e-17, 35, 2
0, 0, 0.0233333, -35, -4.3488e-15, 45, 1
0, 0, 0.0233333, -25, -2.82236e-15, -45, 0
0, 0, 0.0233333, -25, 1.71671e-15, -35, 0
0, 0, 0.0233333, -25, 1.87094e-16, -25, 1
0, 0, 0.0233333, -25, 3.48552e-15, -15, 1
0, 0, 0.0233333, -25, 3.41111e-15, -5, 1
0, 0, 0.0233333, -25, 4.76217e-15, 5, 1
0, 0, 0.0233333, -25, 4.2797e-15, 15, 1
0, 0, 0.0233333, -25, 5.53289e-15, 25, 1
0, 0, 0.0233333, -25, -1.20487e-14, 35, 1
0, 0, 0.0233333, -25, -2.62942e-15, 45, 1
0, 0, 0.0233333, -15, 3.42987e-15, -45, 0
0, 0, 0.0233333, -15, -2.9894e-15, -35, 0
0, 0, 0.0233333, -15, -3.37353e-16, -25, 1
0, 0, 0.0233333, -15, 1.08721e-15, -15, 1
0, 0, 0.0233333, -15, 2.01008e-15, -5, 1
0, 0, 0.0233333, -15, 1.39625e-15, 5, 1
0, 0, 0.0233333, -15, -3.04009e-15, 15, 1
0, 0, 0.0233333, -15, 2.04332e-15, 25, 1
0, 0, 0.0233333, -15, -2.29932e-15, 35, 1
0, 0, 0.0233333, -15, 8.4901e-15, 45, 1
0, 0, 0.0233333, -5, 2.46493e-17, -45, 0
0, 0, 0.0233333, -5, 3.51601e-16, -35, 0
0, 0, 0.0233333, -5, 3.17913e-16, -25, 1
0, 0, 0.0233333, -5, 2.23553e-16, -15, 1
0, 0, 0.0233333, -5, 2.21427e-16, -5, 1
0, 0, 0.0233333, -5, 1.28505e-15, 5, 1
0, 0, 0.0233333, -5, 1.14001e-16, 15, 1
0, 0, 0.0233333, -5, 1.25679e-15, 25, 1
0, 0, 0.0233333, -5, 3.25147e-16, 35, 1
0, 0, 0.0233333, -5, -1.6719e-15, 45, 1
0, 0, 0.0233333, 5, -3.05773e-16, -45, 0
0, 0, 0.0233333, 5, -5.86336e-16, -35, 0
0, 0, 0.0233333, 5, -3.67302e-16, -25, 1
0, 0, 0.0233333, 5, -1.81383e-15, -15, 1
0, 0, 0.0233333, 5, -3.55469e-16, -5, 1
0, 0, 0.0233333, 5, -1.16091e-15, 5, 1
0, 0, 0.0233333, 5, -1.14001e-16, 15, 1
0, 0, 0.0233333, 5, -8.47083e-16, 25, 1
0, 0, 0.0233333, 5, -2.59945e-16, 35, 1
0, 0, 0.0233333, 5, 3.14957e-15, 45, 1
0, 0, 0.0233333, 15, -2.40184e-15, -45, 0
0, 0, 0.0233333, 15, 1.11153e-15, -35, 0
0, 0, 0.0233333, 15, 7.9811e-16, -25, 1
0, 0, 0.0233333, 15, -2.47073e-15, -15, 1
0, 0, 0.0233333, 15, -1.38477e-15, -5, 1
0, 0, 0.0233333, 15, -3.9103e-15, 5, 1
0, 0, 0.0233333, 15, -1.90896e-15, 15, 1
0, 0, 0.0233333, 15, 4.3219e-15, 25, 1
0, 0, 0.0233333, 15, -4.37119e-16, 35, 1
0, 0, 0.0233333, 15, -6.43404e-15, 45, 1
0, 0, 0.0233333, 25, -2.41426e-15, -45, 0
0, 0, 0.0233333, 25, -3.88083e-15, -35, 0
0, 0, 0.0233333, 25, -4.03973e-15, -25, 1
0, 0, 0.0233333, 25, -2.48868e-16, -15, 1
0, 0, 0.0233333, 25, -4.04942e-15, -5, 1
0, 0, 0.0233333, 25, 3.45288e-16, 5, 1
0, 0, 0.0233333, 25, -1.56541e-15, 15, 1
0, 0, 0.0233333, 25, 3.53699e-16, 25, 1
0, 0, 0.0233333, 25, -5.16965e-16, 35, 1
0, 0, 0.0233333, 25, -1.48269e-15, 45, 1
0, 0, 0.0233333, 35, -5.01948e-16, -45, 0
0, 0, 0.0233333, 35, -1.10016e-15, -35, 0
0, 0, 0.0233333, 35, -3.8487e-15, -25, 1
0, 0, 0.0233333, 35, -6.55813e-17, -15, 1
0, 0, 0.0233333, 35, 3.57644e-15, -5, 1
0, 0, 0.0233333, 35, 3.56963e-15, 5, 1
0, 0, 0.0233333, 35, 2.34597e-15, 15, 1
0, 0, 0.0233333, 35, -1.05872e-14, 25, 1
0, 0, 0.0233333, 35, 7.00217e-16, 35, 2
0, 0, 0.0233333, 35, -1.49184e-16, 45, 2
0, 0, 0.0233333, 45, 1.74435e-15, -45, 0
0, 0, 0.0233333, 45, -4.90571e-15, -35, 0
0, 0, 0.0233333, 45, -3.24998e-15, -25, 0
0, 0, 0.0233333, 45, -4.77954e-16, -15, 1
0, 0, 0.0233333, 45, -6.49773e-16, -5, 1
0, 0, 0.0233333, 45, 8.59397e-17, 5, 1
0, 0, 0.0233333, 45, 1.27584e-15, 15, 2
0, 0, 0.0233333, 45, -9.44836e-16, 25, 0
0, 0, 0.0233333, 45, -7.92975e-15, 35, 0
0, 0, 0.0233333, 45, 1.56312e-15, 45, 0
0, 0, 0.03, -45, 7.58682e-15, -45, 0
0, 0, 0.03, -45, 1.72516e-15, -35, 0
0, 0, 0.03, -45, 2.20381e-15, -25, 0
0, 0, 0.03, -45, 4.40042e-15, -15, 0
0, 0, 0.03, -45, 8.66037e-16, -5, 1
0, 0, 0.03, -45, 4.33003e-15, 5, 1
0, 0, 0.03, -45, 3.60432e-15, 15, 2
0, 0, 0.03, -45, 2.38253e-15, 25, 0
0, 0, 0.03, -45, 6.5649e-16, 35, 0
0, 0, 0.03, -45, 6.5929e-15, 45, 0
0, 0, 0.03, -35, 5.01948e-16, -45, 0
0, 0, 0.03, -35, 1.34434e-16, -35, 0
0, 0, 0.03, -35, -9.22128e-16, -25, 1
0, 0, 0.03, -35, -4.73473e-15, -15, 1
0, 0, 0.03, -35, -7.70676e-16, -5, 1
0, 0, 0.03, -35, -1.96338e-15, 5, 1
0, 0, 0.03, -35, -2.81175e-15, 15, 1
0, 0, 0.03, -35, 2.97907e-15, 25, 2
0, 0, 0.03, -35, 3.14989e-17, 35, 1
0, 0, 0.03, -35, -4.3488e-15, 45, 1
0, 0, 0.03, -25, -2.82236e-15, -45, 0
0, 0, 0.03, -25, 1.71671e-15, -35, 0
0, 0, 0.03, -25, 1.87094e-16, -25, 1
0, 0, 0.03, -25, 3.48552e-15, -15, 1
0, 0, 0.03, -25, 3.41111e-15, -5, 1
0, 0, 0.03, -25, 4.76217e-15, 5, 1
0, 0, 0.03, -25, 4.2797e-15, 15, 1
0, 0, 0.03, -25, 5.53289e-15, 25, 1
0, 0, 0.03, -25, -1.20487e-14, 35, 1
0, 0, 0.03, -25, -2.62942e-15, 45, 1
0, 0, 0.03, -15, 3.42987e-15, -45, 0
0, 0, 0.03, -15, -2.9894e-15, -35, 0
0, 0, 0.03, -15, -3.37353e-16, -25, 1
0, 0, 0.03, -15, 1.08721e-15, -15, 1
0, 0, 0.03, -15, 2.01008e-15, -5, 1
0, 0, 0.03, -15, 1.39625e-15, 5, 1
0, 0, 0.03, -15, -3.04009e-15, 15, 1
0, 0, 0.03, -15, 2.04332e-15, 25, 1
0, 0, 0.03, -15, -2.29932e-15, 35, 1
0, 0, 0.03, -15, 8.4901e-15, 45, 1
0, 0, 0.03, -5, 2.46493e-17, -45, 0
0, 0, 0.03, -5, 3.51601e-16, -35, 0
0, 0, 0.03, -5, 3.17913e-16, -25, 1
0, 0, 0.03, -5, 2.23553e-16, -15, 1
0, 0, 0.03, -5, 2.21427e-16, -5, 1
0, 0, 0.03, -5, 1.28505e-15, 5, 1
0, 0, 0.03, -5, 1.14001e-16, 15, 1
0, 0, 0.03, -5, 1.25679e-15, 25, 1
0, 0, 0.03, -5, 3.25147e-16, 35, 1
0, 0, 0.03, -5, -1.6719e-15, 45, 1
0, 0, 0.03, 5, -3.05773e-16, -45, 0
0, 0, 0.03, 5, -5.86336e-16, -35, 0
0, 0, 0.03, 5, -3.67302e-16, -25, 1
0, 0, 0.03, 5, -1.81383e-15, -15, 1
0, 0, 0.03, 5, -3.55469e-16, -5, 1
0, 0, 0.03, 5, -1.16091e-15, 5, 1
0, 0, 0.03, 5, -1.14001e-16, 15, 1
0, 0, 0.03, 5, -8.47083e-16, 25, 1
0, 0, 0.03, 5, -2.59945e-16, 35, 1
0, 0, 0.03, 5, 3.14957e-15, 45, 1
0, 0, 0.03, 15, -2.40184e-15, -45, 0
0, 0, 0.03, 15, 1.11153e-15, -35, 0
0, 0, 0.03, 15, 7.9811e-16, -25, 1
0, 0, 0.03, 15, -2.47073e-15, -15, 1
0, 0, 0.03, 15, -1.38477e-15, -5, 1
0, 0, 0.03, 15, -3.9103e-15, 5, 1
0, 0, 0.03, 15, -1.90896e-15, 15, 1
0, 0, 0.03, 15, 4.3219e-15, 25, 1
0, 0, 0.03, 15, -4.37119e-16, 35, 1
0, 0, 0.03, 15, -6.43404e-15, 45, 1
0, 0, 0.03, 25, -2.41426e-15, -45, 0
0, 0, 0.03, 25, -3.88083e-15, -35, 0
0, 0, 0.03, 25, -4.03973e-15, -25, 1
0, 0, 0.03, 25, -2.48868e-16, -15, 1
0, 0, 0.03, 25, -4.04942e-15, -5, 1
0, 0, 0.03, 25, 3.45288e-16, 5, 1
0, 0, 0.03, 25, -1.56541e-15, 15, 1
0, 0, 0.03, 25, 3.53699e-16, 25, 1
0, 0, 0.03, 25, -5.16965e-16, 35, 1
0, 0, 0.03, 25, -1.48269e-15, 45, 1
0, 0, 0.03, 35, -5.01948e-16, -45, 0
0, 0, 0.03, 35, -1.10016e-15, -35, 0
0, 0, 0.03, 35, -3.8487e-15, -25, 1
0, 0, 0.03, 35, -6.55813e-17, -15, 1
0, 0, 0.03, 35, 3.57644e-15, -5, 1
0, 0, 0.03, 35, 3.56963e-15, 5, 1
0, 0, 0.03, 35, 2.34597e-15, 15, 1
0, 0, 0.03, 35, -1.05872e-14, 25, 2
0, 0, 0.03, 35, 7.00217e-16, 35, 1
0, 0, 0.03, 35, -1.49184e-16, 45, 2
0, 0, 0.03, 45, 1.74435e-15, -45, 0
0, 0, 0.03, 45, -4.90571e-15, -35, 0
0, 0, 0.03, 45, -3.24998e-15, -25, 0
0, 0, 0.03, 45, -4.77954e-16, -15, 2
0, 0, 0.03, 45, -6.49773e-16, -5, 1
0, 0, 0.03, 45, 8.59397e-17, 5, 1
0, 0, 0.03, 45, 1.27584e-15, 15, 2
0, 0, 0.03, 45, -9.44836e-16, 25, 0
0, 0, 0.03, 45, -7.92975e-15, 35, 0
0, 0, 0.03, 45, 1.56312e-15, 45, 0
