0, 0, -0.05, -75, 3.73312e-15, -60, 0
0, 0, -0.05, -75, 6.08912e-15, -46.6667, 0
0, 0, -0.05, -75, 7.31496e-16, -33.3333, 0
0, 0, -0.05, -75, 3.66076e-15, -20, 0
0, 0, -0.05, -75, 6.22368e-16, -6.66667, 0
0, 0, -0.05, -75, 2.95547e-15, 6.66667, 0
0, 0, -0.05, -75, 4.4559e-15, 20, 0
0, 0, -0.05, -75, 4.26268e-15, 33.3333, 0
0, 0, -0.05, -75, 5.73497e-15, 46.6667, 0
0, 0, -0.05, -75, 4.6595e-15, 60, 0
0, 0, -0.05, -58.3333, 4.44635e-16, -60, 0
0, 0, -0.05, -58.3333, 3.91853e-15, -46.6667, 0
0, 0, -0.05, -58.3333, 5.2927e-15, -33.3333, 0
0, 0, -0.05, -58.3333, 8.10392e-16, -20, 0
0, 0, -0.05, -58.3333, 1.09036e-15, -6.66667, 0
0, 0, -0.05, -58.3333, 2.10913e-15, 6.66667, 0
0, 0, -0.05, -58.3333, 1.43719e-15, 20, 0
0, 0, -0.05, -58.3333, 6.24531e-15, 33.3333, 0
0, 0, -0.05, -58.3333, -4.03876e-16, 46.6667, 0
0, 0, -0.05, -58.3333, 4.5763e-15, 60, 0
0, 0, -0.05, -41.6667, 1.85679e-15, -60, 0
0, 0, -0.05, -41.6667, 7.50875e-15, -46.6667, 0
0, 0, -0.05, -41.6667, 2.56567e-17, -33.3333, 0
0, 0, -0.05, -41.6667, 3.07953e-15, -20, 0
0, 0, -0.05, -41.6667, -4.58263e-15, -6.66667, 0
0, 0, -0.05, -41.6667, -6.76416e-16, 6.66667, 0
0, 0, -0.05, -41.6667, 4.89004e-15, 20, 0
0, 0, -0.05, -41.6667, -8.12515e-16, 33.3333, 0
0, 0, -0.05, -41.6667, 3.08511e-16, 46.6667, 0
0, 0, -0.05, -41.6667, -4.881e-15, 60, 0
0, 0, -0.05, -25, 6.46658e-15, -60, 0
0, 0, -0.05, -25, 8.93512e-15, -46.6667, 0
0, 0, -0.05, -25, 2.01498e-15, -33.3333, 0
0, 0, -0.05, -25, 5.9816e-16, -20, 0
0, 0, -0.05, -25, 3.70169e-15, -6.66667, 0
0, 0, -0.05, -25, 4.40377e-15, 6.66667, 0
0, 0, -0.05, -25, 6.42581e-15, 20, 0
0, 0, -0.05, -25, 4.98834e-17, 33.3333, 0
0, 0, -0.05, -25, -2.34075e-15, 46.6667, 0
0, 0, -0.05, -25, -5.6224e-16, 60, 0
0, 0, -0.05, -8.33333, -1.67816e-15, -60, 0
0, 0, -0.05, -8.33333, -4.92058e-18, -46.6667, 0
0, 0, -0.05, -8.33333, -3.65399e-16, -33.3333, 0
0, 0, -0.05, -8.33333, -4.12282e-16, -20, 0
0, 0, -0.05, -8.33333, 5.77244e-18, -6.66667, 0
0, 0, -0.05, -8.33333, 2.52465e-15, 6.66667, 0
0, 0, -0.05, -8.33333, 2.58148e-15, 20, 0
0, 0, -0.05, -8.33333, -7.58566e-16, 33.3333, 0
0, 0, -0.05, -8.33333, 1.35966e-15, 46.6667, 0
0, 0, -0.05, -8.33333, -4.2091e-15, 60, 0
0, 0, -0.05, 8.33333, -2.95416e-16, -60, 0
0, 0, -0.05, 8.33333, 1.09816e-15, -46.6667, 0
0, 0, -0.05, 8.33333, -1.77551e-15, -33.3333, 0
0, 0, -0.05, 8.33333, 1.40329e-16, -20, 0
0, 0, -0.05, 8.33333, 7.9071e-16, -6.66667, 0
0, 0, -0.05, 8.33333, -5.08472e-16, 6.66667, 0
0, 0, -0.05, 8.33333, 1.58101e-15, 20, 0
0, 0, -0.05, 8.33333, -1.49604e-15, 33.3333, 0
0, 0, -0.05, 8.33333, 1.40854e-16, 46.6667, 0
0, 0, -0.05, 8.33333, -3.52923e-15, 60, 0
0, 0, -0.05, 25, -2.59742e-15, -60, 0
0, 0, -0.05, 25, -4.21738e-15, -46.6667, 0
0, 0, -0.05, 25, -1.02791e-15, -33.3333, 0
0, 0, -0.05, 25, 2.94751e-15, -20, 0
0, 0, -0.05, 25, -1.48269e-15, -6.66667, 0
0, 0, -0.05, 25, 9.794e-16, 6.66667, 0
0, 0, -0.05, 25, 1.76379e-15, 20, 0
0, 0, -0.05, 25, -4.20846e-15, 33.3333, 0
0, 0, -0.05, 25, -3.86156e-15, 46.6667, 0
0, 0, -0.05, 25, 9.28022e-15, 60, 0
0, 0, -0.05, 41.6667, 8.97655e-16, -60, 0
0, 0, -0.05, 41.6667, -4.42158e-15, -46.6667, 0
0, 0, -0.05, 41.6667, 3.1192e-15, -33.3333, 0
0, 0, -0.05, 41.6667, -3.42015e-15, -20, 0
0, 0, -0.05, 41.6667, 4.56022e-16, -6.66667, 0
0, 0, -0.05, 41.6667, 1.4304e-15, 6.66667, 0
0, 0, -0.05, 41.6667, -3.69485e-15, 20, 0
0, 0, -0.05, 41.6667, 2.01941e-15, 33.3333, 0
0, 0, -0.05, 41.6667, 3.59522e-15, 46.6667, 0
0, 0, -0.05, 41.6667, 2.81517e-15, 60, 0
0, 0, -0.05, 58.3333, -3.62519e-15, -60, 0
0, 0, -0.05, 58.3333, -2.92061e-15, -46.6667, 0
0, 0, -0.05, 58.3333, -1.30673e-15, -33.3333, 0
0, 0, -0.05, 58.3333, -4.56745e-16, -20, 0
0, 0, -0.05, 58.3333, -3.26038e-15, -6.66667, 0
0, 0, -0.05, 58.3333, -2.52703e-15, 6.66667, 0
0, 0, -0.05, 58.3333, 1.23117e-16, 20, 0
0, 0, -0.05, 58.3333, -2.88187e-15, 33.3333, 0
0, 0, -0.05, 58.3333, -4.97387e-15, 46.6667, 0
0, 0, -0.05, 58.3333, -3.09255e-15, 60, 0
0, 0, -0.05, 75, -3.67985e-15, -60, 0
0, 0, -0.05, 75, -3.33411e-15, -46.6667, 0
0, 0, -0.05, 75, -1.42248e-15, -33.3333, 0
0, 0, -0.05, 75, -5.73475e-15, -20, 0
0, 0, -0.05, 75, -3.69407e-15, -6.66667, 0
0, 0, -0.05, 75, -1.51891e-15, 6.66667, 0
0, 0, -0.05, 75, -2.72828e-15, 20, 0
0, 0, -0.05, 75, 2.54417e-15, 33.3333, 0
0, 0, -0.05, 75, -1.78454e-15, 46.6667, 0
0, 0, -0.05, 75, -1.30271e-16, 60, 0
0, 0, -0.0388889, -75, 3.73312e-15, -60, 0
0, 0, -0.0388889, -75, 6.08912e-15, -46.6667, 0
0, 0, -0.0388889, -75, 7.31496e-16, -33.3333, 0
0, 0, -0.0388889, -75, 3.66076e-15, -20, 0
0, 0, -0.0388889, -75, 6.22368e-16, -6.66667, 0
0, 0, -0.0388889, -75, 2.95547e-15, 6.66667, 0
0, 0, -0.0388889, -75, 4.4559e-15, 20, 0
0, 0, -0.0388889, -75, 4.26268e-15, 33.3333, 0
0, 0, -0.0388889, -75, 5.73497e-15, 46.6667, 0
0, 0, -0.0388889, -75, 4.6595e-15, 60, 0
0, 0, -0.0388889, -58.3333, 4.44635e-16, -60, 0
0, 0, -0.0388889, -58.3333, 3.91853e-15, -46.6667, 0
0, 0, -0.0388889, -58.3333, 5.2927e-15, -33.3333, 0
0, 0, -0.0388889, -58.3333, 8.10392e-16, -20, 0
0, 0, -0.0388889, -58.3333, 1.09036e-15, -6.66667, 0
0, 0, -0.0388889, -58.3333, 2.10913e-15, 6.66667, 0
0, 0, -0.0388889, -58.3333, 1.43719e-15, 20, 0
0, 0, -0.0388889, -58.3333, 6.24531e-15, 33.3333, 0
0, 0, -0.0388889, -58.3333, -4.03876e-16, 46.6667, 0
0, 0, -0.0388889, -58.3333, 4.5763e-15, 60, 0
0, 0, -0.0388889, -41.6667, 1.85679e-15, -60, 0
0, 0, -0.0388889, -41.6667, 7.50875e-15, -46.6667, 0
0, 0, -0.0388889, -41.6667, 2.56567e-17, -33.3333, 0
0, 0, -0.0388889, -41.6667, 3.07953e-15, -20, 0
0, 0, -0.0388889, -41.6667, -4.58263e-15, -6.66667, 0
0, 0, -0.0388889, -41.6667, -6.76416e-16, 6.66667, 0
0, 0, -0.0388889, -41.6667, 4.89004e-15, 20, 0
0, 0, -0.0388889, -41.6667, -8.12515e-16, 33.3333, 0
0, 0, -0.0388889, -41.6667, 3.08511e-16, 46.6667, 0
0, 0, -0.0388889, -41.6667, -4.881e-15, 60, 0
0, 0, -0.0388889, -25, 6.46658e-15, -60, 0
0, 0, -0.0388889, -25, 8.93512e-15, -46.6667, 0
0, 0, -0.0388889, -25, 2.01498e-15, -33.3333, 0
0, 0, -0.0388889, -25, 5.9816e-16, -20, 0
0, 0, -0.0388889, -25, 3.70169e-15, -6.66667, 0
0, 0, -0.0388889, -25, 4.40377e-15, 6.66667, 0
0, 0, -0.0388889, -25, 6.42581e-15, 20, 0
0, 0, -0.0388889, -25, 4.98834e-17, 33.3333, 0
0, 0, -0.0388889, -25, -2.34075e-15, 46.6667, 0
0, 0, -0.0388889, -25, -5.6224e-16, 60, 0
0, 0, -0.0388889, -8.33333, -1.67816e-15, -60, 0
0, 0, -0.0388889, -8.33333, -4.92058e-18, -46.6667, 0
0, 0, -0.0388889, -8.33333, -3.65399e-16, -33.3333, 0
0, 0, -0.0388889, -8.33333, -4.12282e-16, -20, 0
0, 0, -0.0388889, -8.33333, 5.77244e-18, -6.66667, 0
0, 0, -0.0388889, -8.33333, 2.52465e-15, 6.66667, 0
0, 0, -0.0388889, -8.33333, 2.58148e-15, 20, 0
0, 0, -0.0388889, -8.33333, -7.58566e-16, 33.3333, 0
0, 0, -0.0388889, -8.33333, 1.35966e-15, 46.6667, 0
0, 0, -0.0388889, -8.33333, -4.2091e-15, 60, 0
0, 0, -0.0388889, 8.33333, -2.95416e-16, -60, 0
0, 0, -0.0388889, 8.33333, 1.09816e-15, -46.6667, 0
0, 0, -0.0388889, 8.33333, -1.77551e-15, -33.3333, 0
0, 0, -0.0388889, 8.33333, 1.40329e-16, -20, 0
0, 0, -0.0388889, 8.33333, 7.9071e-16, -6.66667, 0
0, 0, -0.0388889, 8.33333, -5.08472e-16, 6.66667, 0
0, 0, -0.0388889, 8.33333, 1.58101e-15, 20, 0
0, 0, -0.0388889, 8.33333, -1.49604e-15, 33.3333, 0
0, 0, -0.0388889, 8.33333, 1.40854e-16, 46.6667, 0
0, 0, -0.0388889, 8.33333, -3.52923e-15, 60, 0
0, 0, -0.0388889, 25, -2.59742e-15, -60, 0
0, 0, -0.0388889, 25, -4.21738e-15, -46.6667, 0
0, 0, -0.0388889, 25, -1.02791e-15, -33.3333, 0
0, 0, -0.0388889, 25, 2.94751e-15, -20, 0
0, 0, -0.0388889, 25, -1.48269e-15, -6.66667, 0
0, 0, -0.0388889, 25, 9.794e-16, 6.66667, 0
0, 0, -0.0388889, 25, 1.76379e-15, 20, 0
0, 0, -0.0388889, 25, -4.20846e-15, 33.3333, 0
0, 0, -0.0388889, 25, -3.86156e-15, 46.6667, 0
0, 0, -0.0388889, 25, 9.28022e-15, 60, 0
0, 0, -0.0388889, 41.6667, 8.97655e-16, -60, 0
0, 0, -0.0388889, 41.6667, -4.42158e-15, -46.6667, 0
0, 0, -0.0388889, 41.6667, 3.1192e-15, -33.3333, 0
0, 0, -0.0388889, 41.6667, -3.42015e-15, -20, 0
0, 0, -0.0388889, 41.6667, 4.56022e-16, -6.66667, 0
0, 0, -0.0388889, 41.6667, 1.4304e-15, 6.66667, 0
0, 0, -0.0388889, 41.6667, -3.69485e-15, 20, 0
0, 0, -0.0388889, 41.6667, 2.01941e-15, 33.3333, 0
0, 0, -0.0388889, 41.6667, 3.59522e-15, 46.6667, 0
0, 0, -0.0388889, 41.6667, 2.81517e-15, 60, 0
0, 0, -0.0388889, 58.3333, -3.62519e-15, -60, 0
0, 0, -0.0388889, 58.3333, -2.92061e-15, -46.6667, 0
0, 0, -0.0388889, 58.3333, -1.30673e-15, -33.3333, 0
0, 0, -0.0388889, 58.3333, -4.56745e-16, -20, 0
0, 0, -0.0388889, 58.3333, -3.26038e-15, -6.66667, 0
0, 0, -0.0388889, 58.3333, -2.52703e-15, 6.66667, 0
0, 0, -0.0388889, 58.3333, 1.23117e-16, 20, 0
0, 0, -0.0388889, 58.3333, -2.88187e-15, 33.3333, 0
0, 0, -0.0388889, 58.3333, -4.97387e-15, 46.6667, 0
0, 0, -0.0388889, 58.3333, -3.09255e-15, 60, 0
0, 0, -0.0388889, 75, -3.67985e-15, -60, 0
0, 0, -0.0388889, 75, -3.33411e-15, -46.6667, 0
0, 0, -0.0388889, 75, -1.42248e-15, -33.3333, 0
0, 0, -0.0388889, 75, -5.73475e-15, -20, 0
0, 0, -0.0388889, 75, -3.69407e-15, -6.66667, 0
0, 0, -0.0388889, 75, -1.51891e-15, 6.66667, 0
0, 0, -0.0388889, 75, -2.72828e-15, 20, 0
0, 0, -0.0388889, 75, 2.54417e-15, 33.3333, 0
0, 0, -0.0388889, 75, -1.78454e-15, 46.6667, 0
0, 0, -0.0388889, 75, -1.30271e-16, 60, 0
0, 0, -0.0277778, -75, 3.73312e-15, -60, 0
0, 0, -0.0277778, -75, 6.08912e-15, -46.6667, 0
0, 0, -0.0277778, -75, 7.31496e-16, -33.3333, 0
0, 0, -0.0277778, -75, 3.66076e-15, -20, 0
0, 0, -0.0277778, -75, 6.22368e-16, -6.66667, 0
0, 0, -0.0277778, -75, 2.95547e-15, 6.66667, 0
0, 0, -0.0277778, -75, 4.4559e-15, 20, 0
0, 0, -0.0277778, -75, 4.26268e-15, 33.3333, 0
0, 0, -0.0277778, -75, 5.73497e-15, 46.6667, 0
0, 0, -0.0277778, -75, 4.6595e-15, 60, 0
0, 0, -0.0277778, -58.3333, 4.44635e-16, -60, 0
0, 0, -0.0277778, -58.3333, 3.91853e-15, -46.6667, 0
0, 0, -0.0277778, -58.3333, 5.2927e-15, -33.3333, 0
0, 0, -0.0277778, -58.3333, 8.10392e-16, -20, 0
0, 0, -0.0277778, -58.3333, 1.09036e-15, -6.66667, 0
0, 0, -0.0277778, -58.3333, 2.10913e-15, 6.66667, 0
0, 0, -0.0277778, -58.3333, 1.43719e-15, 20, 0
0, 0, -0.0277778, -58.3333, 6.24531e-15, 33.3333, 0
0, 0, -0.0277778, -58.3333, -4.03876e-16, 46.6667, 0
0, 0, -0.0277778, -58.3333, 4.5763e-15, 60, 0
0, 0, -0.0277778, -41.6667, 1.85679e-15, -60, 0
0, 0, -0.0277778, -41.6667, 7.50875e-15, -46.6667, 0
0, 0, -0.0277778, -41.6667, 2.56567e-17, -33.3333, 0
0, 0, -0.0277778, -41.6667, 3.07953e-15, -20, 0
0, 0, -0.0277778, -41.6667, -4.58263e-15, -6.66667, 1
0, 0, -0.0277778, -41.6667, -6.76416e-16, 6.66667, 1
0, 0, -0.0277778, -41.6667, 4.89004e-15, 20, 0
0, 0, -0.0277778, -41.6667, -8.12515e-16, 33.3333, 0
0, 0, -0.0277778, -41.6667, 3.08511e-16, 46.6667, 0
0, 0, -0.0277778, -41.6667, -4.881e-15, 60, 0
0, 0, -0.0277778, -25, 6.46658e-15, -60, 0
0, 0, -0.0277778, -25, 8.93512e-15, -46.6667, 0
0, 0, -0.0277778, -25, 2.01498e-15, -33.3333, 0
0, 0, -0.0277778, -25, 5.9816e-16, -20, 1
0, 0, -0.0277778, -25, 3.70169e-15, -6.66667, 1
0, 0, -0.0277778, -25, 4.40377e-15, 6.66667, 1
0, 0, -0.0277778, -25, 6.42581e-15, 20, 0
0, 0, -0.0277778, -25, 4.98834e-17, 33.3333, 0
0, 0, -0.0277778, -25, -2.34075e-15, 46.6667, 0
0, 0, -0.0277778, -25, -5.6224e-16, 60, 0
0, 0, -0.0277778, -8.33333, -1.67816e-15, -60, 0
0, 0, -0.0277778, -8.33333, -4.92058e-18, -46.6667, 1
0, 0, -0.0277778, -8.33333, -3.65399e-16, -33.3333, 1
0, 0, -0.0277778, -8.33333, -4.12282e-16, -20, 1
0, 0, -0.0277778, -8.33333, 5.77244e-18, -6.66667, 1
0, 0, -0.0277778, -8.33333, 2.52465e-15, 6.66667, 1
0, 0, -0.0277778, -8.33333, 2.58148e-15, 20, 1
0, 0, -0.0277778, -8.33333, -7.58566e-16, 33.3333, 1
0, 0, -0.0277778, -8.33333, 1.35966e-15, 46.6667, 1
0, 0, -0.0277778, -8.33333, -4.2091e-15, 60, 0
0, 0, -0.0277778, 8.33333, -2.95416e-16, -60, 0
0, 0, -0.0277778, 8.33333, 1.09816e-15, -46.6667, 1
0, 0, -0.0277778, 8.33333, -1.77551e-15, -33.3333, 1
0, 0, -0.0277778, 8.33333, 1.40329e-16, -20, 1
0, 0, -0.0277778, 8.33333, 7.9071e-16, -6.66667, 1
0, 0, -0.0277778, 8.33333, -5.08472e-16, 6.66667, 1
0, 0, -0.0277778, 8.33333, 1.58101e-15, 20, 1
0, 0, -0.0277778, 8.33333, -1.49604e-15, 33.3333, 1
0, 0, -0.0277778, 8.33333, 1.40854e-16, 46.6667, 1
0, 0, -0.0277778, 8.33333, -3.52923e-15, 60, 0
0, 0, -0.0277778, 25, -2.59742e-15, -60, 0
0, 0, -0.0277778, 25, -4.21738e-15, -46.6667, 0
0, 0, -0.0277778, 25, -1.02791e-15, -33.3333, 0
0, 0, -0.0277778, 25, 2.94751e-15, -20, 0
0, 0, -0.0277778, 25, -1.48269e-15, -6.66667, 1
0, 0, -0.0277778, 25, 9.794e-16, 6.66667, 1
0, 0, -0.0277778, 25, 1.76379e-15, 20, 0
0, 0, -0.0277778, 25, -4.20846e-15, 33.3333, 0
0, 0, -0.0277778, 25, -3.86156e-15, 46.6667, 0
0, 0, -0.0277778, 25, 9.28022e-15, 60, 0
0, 0, -0.0277778, 41.6667, 8.97655e-16, -60, 0
0, 0, -0.0277778, 41.6667, -4.42158e-15, -46.6667, 0
0, 0, -0.0277778, 41.6667, 3.1192e-15, -33.3333, 0
0, 0, -0.0277778, 41.6667, -3.42015e-15, -20, 0
0, 0, -0.0277778, 41.6667, 4.56022e-16, -6.66667, 1
0, 0, -0.0277778, 41.6667, 1.4304e-15, 6.66667, 1
0, 0, -0.0277778, 41.6667, -3.69485e-15, 20, 0
0, 0, -0.0277778, 41.6667, 2.01941e-15, 33.3333, 0
0, 0, -0.0277778, 41.6667, 3.59522e-15, 46.6667, 0
0, 0, -0.0277778, 41.6667, 2.81517e-15, 60, 0
0, 0, -0.0277778, 58.3333, -3.62519e-15, -60, 0
0, 0, -0.0277778, 58.3333, -2.92061e-15, -46.6667, 0
0, 0, -0.0277778, 58.3333, -1.30673e-15, -33.3333, 0
0, 0, -0.0277778, 58.3333, -4.56745e-16, -20, 0
0, 0, -0.0277778, 58.3333, -3.26038e-15, -6.66667, 0
0, 0, -0.0277778, 58.3333, -2.52703e-15, 6.66667, 0
0, 0, -0.0277778, 58.3333, 1.23117e-16, 20, 0
0, 0, -0.0277778, 58.3333, -2.88187e-15, 33.3333, 0
0, 0, -0.0277778, 58.3333, -4.97387e-15, 46.6667, 0
0, 0, -0.0277778, 58.3333, -3.09255e-15, 60, 0
0, 0, -0.0277778, 75, -3.67985e-15, -60, 0
0, 0, -0.0277778, 75, -3.33411e-15, -46.6667, 0
0, 0, -0.0277778, 75, -1.42248e-15, -33.3333, 0
0, 0, -0.0277778, 75, -5.73475e-15, -20, 0
0, 0, -0.0277778, 75, -3.69407e-15, -6.66667, 0
0, 0, -0.0277778, 75, -1.51891e-15, 6.66667, 0
0, 0, -0.0277778, 75, -2.72828e-15, 20, 0
0, 0, -0.0277778, 75, 2.54417e-15, 33.3333, 0
0, 0, -0.0277778, 75, -1.78454e-15, 46.6667, 0
0, 0, -0.0277778, 75, -1.30271e-16, 60, 0
0, 0, -0.0166667, -75, 3.73312e-15, -60, 0
0, 0, -0.0166667, -75, 6.08912e-15, -46.6667, 0
0, 0, -0.0166667, -75, 7.31496e-16, -33.3333, 0
0, 0, -0.0166667, -75, 3.66076e-15, -20, 0
0, 0, -0.0166667, -75, 6.22368e-16, -6.66667, 0
0, 0, -0.0166667, -75, 2.95547e-15, 6.66667, 0
0, 0, -0.0166667, -75, 4.4559e-15, 20, 0
0, 0, -0.0166667, -75, 4.26268e-15, 33.3333, 0
0, 0, -0.0166667, -75, 5.73497e-15, 46.6667, 0
0, 0, -0.0166667, -75, 4.6595e-15, 60, 0
0, 0, -0.0166667, -58.3333, 4.44635e-16, -60, 0
0, 0, -0.0166667, -58.3333, 3.91853e-15, -46.6667, 0
0, 0, -0.0166667, -58.3333, 5.2927e-15, -33.3333, 0
0, 0, -0.0166667, -58.3333, 8.10392e-16, -20, 0
0, 0, -0.0166667, -58.3333, 1.09036e-15, -6.66667, 0
0, 0, -0.0166667, -58.3333, 2.10913e-15, 6.66667, 0
0, 0, -0.0166667, -58.3333, 1.43719e-15, 20, 0
0, 0, -0.0166667, -58.3333, 6.24531e-15, 33.3333, 0
0, 0, -0.0166667, -58.3333, -4.03876e-16, 46.6667, 0
0, 0, -0.0166667, -58.3333, 4.5763e-15, 60, 0
0, 0, -0.0166667, -41.6667, 1.85679e-15, -60, 0
0, 0, -0.0166667, -41.6667, 7.50875e-15, -46.6667, 0
0, 0, -0.0166667, -41.6667, 2.56567e-17, -33.3333, 1
0, 0, -0.0166667, -41.6667, 3.07953e-15, -20, 2
0, 0, -0.0166667, -41.6667, -4.58263e-15, -6.66667, 2
0, 0, -0.0166667, -41.6667, -6.76416e-16, 6.66667, 0
0, 0, -0.0166667, -41.6667, 4.89004e-15, 20, 0
0, 0, -0.0166667, -41.6667, -8.12515e-16, 33.3333, 1
0, 0, -0.0166667, -41.6667, 3.08511e-16, 46.6667, 0
0, 0, -0.0166667, -41.6667, -4.881e-15, 60, 1
0, 0, -0.0166667, -25, 6.46658e-15, -60, 0
0, 0, -0.0166667, -25, 8.93512e-15, -46.6667, 1
0, 0, -0.0166667, -25, 2.01498e-15, -33.3333, 2
0, 0, -0.0166667, -25, 5.9816e-16, -20, 2
0, 0, -0.0166667, -25, 3.70169e-15, -6.66667, 2
0, 0, -0.0166667, -25, 4.40377e-15, 6.66667, 1
0, 0, -0.0166667, -25, 6.42581e-15, 20, 1
0, 0, -0.0166667, -25, 4.98834e-17, 33.3333, 1
0, 0, -0.0166667, -25, -2.34075e-15, 46.6667, 1
0, 0, -0.0166667, -25, -5.6224e-16, 60, 1
0, 0, -0.0166667, -8.33333, -1.67816e-15, -60, 0
0, 0, -0.0166667, -8.33333, -4.92058e-18, -46.6667, 1
0, 0, -0.0166667, -8.33333, -3.65399e-16, -33.3333, 1
0, 0, -0.0166667, -8.33333, -4.12282e-16, -20, 1
0, 0, -0.0166667, -8.33333, 5.77244e-18, -6.66667, 1
0, 0, -0.0166667, -8.33333, 2.52465e-15, 6.66667, 1
0, 0, -0.0166667, -8.33333, 2.58148e-15, 20, 1
0, 0, -0.0166667, -8.33333, -7.58566e-16, 33.3333, 1
0, 0, -0.0166667, -8.33333, 1.35966e-15, 46.6667, 1
0, 0, -0.0166667, -8.33333, -4.2091e-15, 60, 1
0, 0, -0.0166667, 8.33333, -2.95416e-16, -60, 0
0, 0, -0.0166667, 8.33333, 1.09816e-15, -46.6667, 1
0, 0, -0.0166667, 8.33333, -1.77551e-15, -33.3333, 1
0, 0, -0.0166667, 8.33333, 1.40329e-16, -20, 1
0, 0, -0.0166667, 8.33333, 7.9071e-16, -6.66667, 2
0, 0, -0.0166667, 8.33333, -5.08472e-16, 6.66667, 1
0, 0, -0.0166667, 8.33333, 1.58101e-15, 20, 1
0, 0, -0.0166667, 8.33333, -1.49604e-15, 33.3333, 1
0, 0, -0.0166667, 8.33333, 1.40854e-16, 46.6667, 1
0, 0, -0.0166667, 8.33333, -3.52923e-15, 60, 1
0, 0, -0.0166667, 25, -2.59742e-15, -60, 0
0, 0, -0.0166667, 25, -4.21738e-15, -46.6667, 1
0, 0, -0.0166667, 25, -1.02791e-15, -33.3333, 2
0, 0, -0.0166667, 25, 2.94751e-15, -20, 2
0, 0, -0.0166667, 25, -1.48269e-15, -6.66667, 2
0, 0, -0.0166667, 25, 9.794e-16, 6.66667, 1
0, 0, -0.0166667, 25, 1.76379e-15, 20, 2
0, 0, -0.0166667, 25, -4.20846e-15, 33.3333, 2
0, 0, -0.0166667, 25, -3.86156e-15, 46.6667, 1
0, 0, -0.0166667, 25, 9.28022e-15, 60, 1
0, 0, -0.0166667, 41.6667, 8.97655e-16, -60, 0
0, 0, -0.0166667, 41.6667, -4.42158e-15, -46.6667, 0
0, 0, -0.0166667, 41.6667, 3.1192e-15, -33.3333, 0
0, 0, -0.0166667, 41.6667, -3.42015e-15, -20, 2
0, 0, -0.0166667, 41.6667, 4.56022e-16, -6.66667, 2
0, 0, -0.0166667, 41.6667, 1.4304e-15, 6.66667, 0
0, 0, -0.0166667, 41.6667, -3.69485e-15, 20, 2
0, 0, -0.0166667, 41.6667, 2.01941e-15, 33.3333, 1
0, 0, -0.0166667, 41.6667, 3.59522e-15, 46.6667, 1
0, 0, -0.0166667, 41.6667, 2.81517e-15, 60, 0
0, 0, -0.0166667, 58.3333, -3.62519e-15, -60, 0
0, 0, -0.0166667, 58.3333, -2.92061e-15, -46.6667, 0
0, 0, -0.0166667, 58.3333, -1.30673e-15, -33.3333, 0
0, 0, -0.0166667, 58.3333, -4.56745e-16, -20, 0
0, 0, -0.0166667, 58.3333, -3.26038e-15, -6.66667, 0
0, 0, -0.0166667, 58.3333, -2.52703e-15, 6.66667, 0
0, 0, -0.0166667, 58.3333, 1.23117e-16, 20, 0
0, 0, -0.0166667, 58.3333, -2.88187e-15, 33.3333, 0
0, 0, -0.0166667, 58.3333, -4.97387e-15, 46.6667, 0
0, 0, -0.0166667, 58.3333, -3.09255e-15, 60, 0
0, 0, -0.0166667, 75, -3.67985e-15, -60, 0
0, 0, -0.0166667, 75, -3.33411e-15, -46.6667, 0
0, 0, -0.0166667, 75, -1.42248e-15, -33.3333, 0
0, 0, -0.0166667, 75, -5.73475e-15, -20, 0
0, 0, -0.0166667, 75, -3.69407e-15, -6.66667, 0
0, 0, -0.0166667, 75, -1.51891e-15, 6.66667, 0
0, 0, -0.0166667, 75, -2.72828e-15, 20, 0
0, 0, -0.0166667, 75, 2.54417e-15, 33.3333, 0
0, 0, -0.0166667, 75, -1.78454e-15, 46.6667, 0
0, 0, -0.0166667, 75, -1.30271e-16, 60, 0
0, 0, -0.00555556, -75, 3.73312e-15, -60, 0
0, 0, -0.00555556, -75, 6.08912e-15, -46.6667, 0
0, 0, -0.00555556, -75, 7.31496e-16, -33.3333, 0
0, 0, -0.00555556, -75, 3.66076e-15, -20, 0
0, 0, -0.00555556, -75, 6.22368e-16, -6.66667, 0
0, 0, -0.00555556, -75, 2.95547e-15, 6.66667, 0
0, 0, -0.00555556, -75, 4.4559e-15, 20, 0
0, 0, -0.00555556, -75, 4.26268e-15, 33.3333, 0
0, 0, -0.00555556, -75, 5.73497e-15, 46.6667, 0
0, 0, -0.00555556, -75, 4.6595e-15, 60, 0
0, 0, -0.00555556, -58.3333, 4.44635e-16, -60, 0
0, 0, -0.00555556, -58.3333, 3.91853e-15, -46.6667, 0
0, 0, -0.00555556, -58.3333, 5.2927e-15, -33.3333, 0
0, 0, -0.00555556, -58.3333, 8.10392e-16, -20, 0
0, 0, -0.00555556, -58.3333, 1.09036e-15, -6.66667, 0
0, 0, -0.00555556, -58.3333, 2.10913e-15, 6.66667, 0
0, 0, -0.00555556, -58.3333, 1.43719e-15, 20, 0
0, 0, -0.00555556, -58.3333, 6.24531e-15, 33.3333, 0
0, 0, -0.00555556, -58.3333, -4.03876e-16, 46.6667, 0
0, 0, -0.00555556, -58.3333, 4.5763e-15, 60, 0
0, 0, -0.00555556, -41.6667, 1.85679e-15, -60, 0
0, 0, -0.00555556, -41.6667, 7.50875e-15, -46.6667, 1
0, 0, -0.00555556, -41.6667, 2.56567e-17, -33.3333, 2
0, 0, -0.00555556, -41.6667, 3.07953e-15, -20, 2
0, 0, -0.00555556, -41.6667, -4.58263e-15, -6.66667, 2
0, 0, -0.00555556, -41.6667, -6.76416e-16, 6.66667, 2
0, 0, -0.00555556, -41.6667, 4.89004e-15, 20, 2
0, 0, -0.00555556, -41.6667, -8.12515e-16, 33.3333, 1
0, 0, -0.00555556, -41.6667, 3.08511e-16, 46.6667, 1
0, 0, -0.00555556, -41.6667, -4.881e-15, 60, 0
0, 0, -0.00555556, -25, 6.46658e-15, -60, 0
0, 0, -0.00555556, -25, 8.93512e-15, -46.6667, 2
0, 0, -0.00555556, -25, 2.01498e-15, -33.3333, 2
0, 0, -0.00555556, -25, 5.9816e-16, -20, 2
0, 0, -0.00555556, -25, 3.70169e-15, -6.66667, 2
0, 0, -0.00555556, -25, 4.40377e-15, 6.66667, 2
0, 0, -0.00555556, -25, 6.42581e-15, 20, 2
0, 0, -0.00555556, -25, 4.98834e-17, 33.3333, 2
0, 0, -0.00555556, -25, -2.34075e-15, 46.6667, 1
0, 0, -0.00555556, -25, -5.6224e-16, 60, 1
0, 0, -0.00555556, -8.33333, -1.67816e-15, -60, 0
0, 0, -0.00555556, -8.33333, -4.92058e-18, -46.6667, 1
0, 0, -0.00555556, -8.33333, -3.65399e-16, -33.3333, 2
0, 0, -0.00555556, -8.33333, -4.12282e-16, -20, 2
0, 0, -0.00555556, -8.33333, 5.77244e-18, -6.66667, 2
0, 0, -0.00555556, -8.33333, 2.52465e-15, 6.66667, 2
0, 0, -0.00555556, -8.33333, 2.58148e-15, 20, 2
0, 0, -0.00555556, -8.33333, -7.58566e-16, 33.3333, 2
0, 0, -0.00555556, -8.33333, 1.35966e-15, 46.6667, 1
0, 0, -0.00555556, -8.33333, -4.2091e-15, 60, 1
0, 0, -0.00555556, 8.33333, -2.95416e-16, -60, 0
0, 0, -0.00555556, 8.33333, 1.09816e-15, -46.6667, 1
0, 0, -0.00555556, 8.33333, -1.77551e-15, -33.3333, 2
0, 0, -0.00555556, 8.33333, 1.40329e-16, -20, 2
0, 0, -0.00555556, 8.33333, 7.9071e-16, -6.66667, 2
0, 0, -0.00555556, 8.33333, -5.08472e-16, 6.66667, 2
0, 0, -0.00555556, 8.33333, 1.58101e-15, 20, 2
0, 0, -0.00555556, 8.33333, -1.49604e-15, 33.3333, 2
0, 0, -0.00555556, 8.33333, 1.40854e-16, 46.6667, 1
0, 0, -0.00555556, 8.33333, -3.52923e-15, 60, 1
0, 0, -0.00555556, 25, -2.59742e-15, -60, 0
0, 0, -0.00555556, 25, -4.21738e-15, -46.6667, 2
0, 0, -0.00555556, 25, -1.02791e-15, -33.3333, 2
0, 0, -0.00555556, 25, 2.94751e-15, -20, 2
0, 0, -0.00555556, 25, -1.48269e-15, -6.66667, 2
0, 0, -0.00555556, 25, 9.794e-16, 6.66667, 2
0, 0, -0.00555556, 25, 1.76379e-15, 20, 2
0, 0, -0.00555556, 25, -4.20846e-15, 33.3333, 2
0, 0, -0.00555556, 25, -3.86156e-15, 46.6667, 1
0, 0, -0.00555556, 25, 9.28022e-15, 60, 1
0, 0, -0.00555556, 41.6667, 8.97655e-16, -60, 0
0, 0, -0.00555556, 41.6667, -4.42158e-15, -46.6667, 1
0, 0, -0.00555556, 41.6667, 3.1192e-15, -33.3333, 2
0, 0, -0.00555556, 41.6667, -3.42015e-15, -20, 2
0, 0, -0.00555556, 41.6667, 4.56022e-16, -6.66667, 2
0, 0, -0.00555556, 41.6667, 1.4304e-15, 6.66667, 2
0, 0, -0.00555556, 41.6667, -3.69485e-15, 20, 2
0, 0, -0.00555556, 41.6667, 2.01941e-15, 33.3333, 0
0, 0, -0.00555556, 41.6667, 3.59522e-15, 46.6667, 0
0, 0, -0.00555556, 41.6667, 2.81517e-15, 60, 0
0, 0, -0.00555556, 58.3333, -3.62519e-15, -60, 0
0, 0, -0.00555556, 58.3333, -2.92061e-15, -46.6667, 0
0, 0, -0.00555556, 58.3333, -1.30673e-15, -33.3333, 0
0, 0, -0.00555556, 58.3333, -4.56745e-16, -20, 0
0, 0, -0.00555556, 58.3333, -3.26038e-15, -6.66667, 0
0, 0, -0.00555556, 58.3333, -2.52703e-15, 6.66667, 0
0, 0, -0.00555556, 58.3333, 1.23117e-16, 20, 0
0, 0, -0.00555556, 58.3333, -2.88187e-15, 33.3333, 0
0, 0, -0.00555556, 58.3333, -4.97387e-15, 46.6667, 0
0, 0, -0.00555556, 58.3333, -3.09255e-15, 60, 0
0, 0, -0.00555556, 75, -3.67985e-15, -60, 0
0, 0, -0.00555556, 75, -3.33411e-15, -46.6667, 0
0, 0, -0.00555556, 75, -1.42248e-15, -33.3333, 0
0, 0, -0.00555556, 75, -5.73475e-15, -20, 0
0, 0, -0.00555556, 75, -3.69407e-15, -6.66667, 0
0, 0, -0.00555556, 75, -1.51891e-15, 6.66667, 0
0, 0, -0.00555556, 75, -2.72828e-15, 20, 0
0, 0, -0.00555556, 75, 2.54417e-15, 33.3333, 0
0, 0, -0.00555556, 75, -1.78454e-15, 46.6667, 0
0, 0, -0.00555556, 75, -1.30271e-16, 60, 0
0, 0, 0.00555556, -75, 3.73312e-15, -60, 0
0, 0, 0.00555556, -75, 6.08912e-15, -46.6667, 0
0, 0, 0.00555556, -75, 7.31496e-16, -33.3333, 0
0, 0, 0.00555556, -75, 3.66076e-15, -20, 0
0, 0, 0.00555556, -75, 6.22368e-16, -6.66667, 0
0, 0, 0.00555556, -75, 2.95547e-15, 6.66667, 0
0, 0, 0.00555556, -75, 4.4559e-15, 20, 0
0, 0, 0.00555556, -75, 4.26268e-15, 33.3333, 0
0, 0, 0.00555556, -75, 5.73497e-15, 46.6667, 0
0, 0, 0.00555556, -75, 4.6595e-15, 60, 0
0, 0, 0.00555556, -58.3333, 4.44635e-16, -60, 0
0, 0, 0.00555556, -58.3333, 3.91853e-15, -46.6667, 0
0, 0, 0.00555556, -58.3333, 5.2927e-15, -33.3333, 0
0, 0, 0.00555556, -58.3333, 8.10392e-16, -20, 0
0, 0, 0.00555556, -58.3333, 1.09036e-15, -6.66667, 0
0, 0, 0.00555556, -58.3333, 2.10913e-15, 6.66667, 0
0, 0, 0.00555556, -58.3333, 1.43719e-15, 20, 0
0, 0, 0.00555556, -58.3333, 6.24531e-15, 33.3333, 0
0, 0, 0.00555556, -58.3333, -4.03876e-16, 46.6667, 0
0, 0, 0.00555556, -58.3333, 4.5763e-15, 60, 0
0, 0, 0.00555556, -41.6667, 1.85679e-15, -60, 0
0, 0, 0.00555556, -41.6667, 7.50875e-15, -46.6667, 0
0, 0, 0.00555556, -41.6667, 2.56567e-17, -33.3333, 0
0, 0, 0.00555556, -41.6667, 3.07953e-15, -20, 2
0, 0, 0.00555556, -41.6667, -4.58263e-15, -6.66667, 2
0, 0, 0.00555556, -41.6667, -6.76416e-16, 6.66667, 2
0, 0, 0.00555556, -41.6667, 4.89004e-15, 20, 2
0, 0, 0.00555556, -41.6667, -8.12515e-16, 33.3333, 2
0, 0, 0.00555556, -41.6667, 3.08511e-16, 46.6667, 0
0, 0, 0.00555556, -41.6667, -4.881e-15, 60, 0
0, 0, 0.00555556, -25, 6.46658e-15, -60, 0
0, 0, 0.00555556, -25, 8.93512e-15, -46.6667, 0
0, 0, 0.00555556, -25, 2.01498e-15, -33.3333, 2
0, 0, 0.00555556, -25, 5.9816e-16, -20, 2
0, 0, 0.00555556, -25, 3.70169e-15, -6.66667, 2
0, 0, 0.00555556, -25, 4.40377e-15, 6.66667, 2
0, 0, 0.00555556, -25, 6.42581e-15, 20, 2
0, 0, 0.00555556, -25, 4.98834e-17, 33.3333, 2
0, 0, 0.00555556, -25, -2.34075e-15, 46.6667, 2
0, 0, 0.00555556, -25, -5.6224e-16, 60, 1
0, 0, 0.00555556, -8.33333, -1.67816e-15, -60, 0
0, 0, 0.00555556, -8.33333, -4.92058e-18, -46.6667, 0
0, 0, 0.00555556, -8.33333, -3.65399e-16, -33.3333, 2
0, 0, 0.00555556, -8.33333, -4.12282e-16, -20, 2
0, 0, 0.00555556, -8.33333, 5.77244e-18, -6.66667, 2
0, 0, 0.00555556, -8.33333, 2.52465e-15, 6.66667, 2
0, 0, 0.00555556, -8.33333, 2.58148e-15, 20, 2
0, 0, 0.00555556, -8.33333, -7.58566e-16, 33.3333, 2
0, 0, 0.00555556, -8.33333, 1.35966e-15, 46.6667, 1
0, 0, 0.00555556, -8.33333, -4.2091e-15, 60, 1
0, 0, 0.00555556, 8.33333, -2.95416e-16, -60, 0
0, 0, 0.00555556, 8.33333, 1.09816e-15, -46.6667, 0
0, 0, 0.00555556, 8.33333, -1.77551e-15, -33.3333, 2
0, 0, 0.00555556, 8.33333, 1.40329e-16, -20, 2
0, 0, 0.00555556, 8.33333, 7.9071e-16, -6.66667, 2
0, 0, 0.00555556, 8.33333, -5.08472e-16, 6.66667, 2
0, 0, 0.00555556, 8.33333, 1.58101e-15, 20, 2
0, 0, 0.00555556, 8.33333, -1.49604e-15, 33.3333, 2
0, 0, 0.00555556, 8.33333, 1.40854e-16, 46.6667, 1
0, 0, 0.00555556, 8.33333, -3.52923e-15, 60, 1
0, 0, 0.00555556, 25, -2.59742e-15, -60, 0
0, 0, 0.00555556, 25, -4.21738e-15, -46.6667, 0
0, 0, 0.00555556, 25, -1.02791e-15, -33.3333, 2
0, 0, 0.00555556, 25, 2.94751e-15, -20, 2
0, 0, 0.00555556, 25, -1.48269e-15, -6.66667, 2
0, 0, 0.00555556, 25, 9.794e-16, 6.66667, 2
0, 0, 0.00555556, 25, 1.76379e-15, 20, 2
0, 0, 0.00555556, 25, -4.20846e-15, 33.3333, 2
0, 0, 0.00555556, 25, -3.86156e-15, 46.6667, 2
0, 0, 0.00555556, 25, 9.28022e-15, 60, 1
0, 0, 0.00555556, 41.6667, 8.97655e-16, -60, 0
0, 0, 0.00555556, 41.6667, -4.42158e-15, -46.6667, 0
0, 0, 0.00555556, 41.6667, 3.1192e-15, -33.3333, 2
0, 0, 0.00555556, 41.6667, -3.42015e-15, -20, 2
0, 0, 0.00555556, 41.6667, 4.56022e-16, -6.66667, 2
0, 0, 0.00555556, 41.6667, 1.4304e-15, 6.66667, 2
0, 0, 0.00555556, 41.6667, -3.69485e-15, 20, 2
0, 0, 0.00555556, 41.6667, 2.01941e-15, 33.3333, 2
0, 0, 0.00555556, 41.6667, 3.59522e-15, 46.6667, 0
0, 0, 0.00555556, 41.6667, 2.81517e-15, 60, 0
0, 0, 0.00555556, 58.3333, -3.62519e-15, -60, 0
0, 0, 0.00555556, 58.3333, -2.92061e-15, -46.6667, 0
0, 0, 0.00555556, 58.3333, -1.30673e-15, -33.3333, 0
0, 0, 0.00555556, 58.3333, -4.56745e-16, -20, 0
0, 0, 0.00555556, 58.3333, -3.26038e-15, -6.66667, 0
0, 0, 0.00555556, 58.3333, -2.52703e-15, 6.66667, 0
0, 0, 0.00555556, 58.3333, 1.23117e-16, 20, 0
0, 0, 0.00555556, 58.3333, -2.88187e-15, 33.3333, 0
0, 0, 0.00555556, 58.3333, -4.97387e-15, 46.6667, 0
0, 0, 0.00555556, 58.3333, -3.09255e-15, 60, 0
0, 0, 0.00555556, 75, -3.67985e-15, -60, 0
0, 0, 0.00555556, 75, -3.33411e-15, -46.6667, 0
0, 0, 0.00555556, 75, -1.42248e-15, -33.3333, 0
0, 0, 0.00555556, 75, -5.73475e-15, -20, 0
0, 0, 0.00555556, 75, -3.69407e-15, -6.66667, 0
0, 0, 0.00555556, 75, -1.51891e-15, 6.66667, 0
0, 0, 0.00555556, 75, -2.72828e-15, 20, 0
0, 0, 0.00555556, 75, 2.54417e-15, 33.3333, 0
0, 0, 0.00555556, 75, -1.78454e-15, 46.6667, 0
0, 0, 0.00555556, 75, -1.30271e-16, 60, 0
0, 0, 0.0166667, -75, 3.73312e-15, -60, 0
0, 0, 0.0166667, -75, 6.08912e-15, -46.6667, 0
0, 0, 0.0166667, -75, 7.31496e-16, -33.3333, 0
0, 0, 0.0166667, -75, 3.66076e-15, -20, 0
0, 0, 0.0166667, -75, 6.22368e-16, -6.66667, 0
0, 0, 0.0166667, -75, 2.95547e-15, 6.66667, 0
0, 0, 0.0166667, -75, 4.4559e-15, 20, 0
0, 0, 0.0166667, -75, 4.26268e-15, 33.3333, 0
0, 0, 0.0166667, -75, 5.73497e-15, 46.6667, 0
0, 0, 0.0166667, -75, 4.6595e-15, 60, 0
0, 0, 0.0166667, -58.3333, 4.44635e-16, -60, 0
0, 0, 0.0166667, -58.3333, 3.91853e-15, -46.6667, 0
0, 0, 0.0166667, -58.3333, 5.2927e-15, -33.3333, 0
0, 0, 0.0166667, -58.3333, 8.10392e-16, -20, 0
0, 0, 0.0166667, -58.3333, 1.09036e-15, -6.66667, 0
0, 0, 0.0166667, -58.3333, 2.10913e-15, 6.66667, 0
0, 0, 0.0166667, -58.3333, 1.43719e-15, 20, 0
0, 0, 0.0166667, -58.3333, 6.24531e-15, 33.3333, 0
0, 0, 0.0166667, -58.3333, -4.03876e-16, 46.6667, 0
0, 0, 0.0166667, -58.3333, 4.5763e-15, 60, 0
0, 0, 0.0166667, -41.6667, 1.85679e-15, -60, 0
0, 0, 0.0166667, -41.6667, 7.50875e-15, -46.6667, 0
0, 0, 0.0166667, -41.6667, 2.56567e-17, -33.3333, 0
0, 0, 0.0166667, -41.6667, 3.07953e-15, -20, 2
0, 0, 0.0166667, -41.6667, -4.58263e-15, -6.66667, 1
0, 0, 0.0166667, -41.6667, -6.76416e-16, 6.66667, 2
0, 0, 0.0166667, -41.6667, 4.89004e-15, 20, 2
0, 0, 0.0166667, -41.6667, -8.12515e-16, 33.3333, 0
0, 0, 0.0166667, -41.6667, 3.08511e-16, 46.6667, 0
0, 0, 0.0166667, -41.6667, -4.881e-15, 60, 0
0, 0, 0.0166667, -25, 6.46658e-15, -60, 0
0, 0, 0.0166667, -25, 8.93512e-15, -46.6667, 0
0, 0, 0.0166667, -25, 2.01498e-15, -33.3333, 1
0, 0, 0.0166667, -25, 5.9816e-16, -20, 1
0, 0, 0.0166667, -25, 3.70169e-15, -6.66667, 1
0, 0, 0.0166667, -25, 4.40377e-15, 6.66667, 2
0, 0, 0.0166667, -25, 6.42581e-15, 20, 2
0, 0, 0.0166667, -25, 4.98834e-17, 33.3333, 2
0, 0, 0.0166667, -25, -2.34075e-15, 46.6667, 2
0, 0, 0.0166667, -25, -5.6224e-16, 60, 1
0, 0, 0.0166667, -8.33333, -1.67816e-15, -60, 0
0, 0, 0.0166667, -8.33333, -4.92058e-18, -46.6667, 0
0, 0, 0.0166667, -8.33333, -3.65399e-16, -33.3333, 1
0, 0, 0.0166667, -8.33333, -4.12282e-16, -20, 1
0, 0, 0.0166667, -8.33333, 5.77244e-18, -6.66667, 1
0, 0, 0.0166667, -8.33333, 2.52465e-15, 6.66667, 1
0, 0, 0.0166667, -8.33333, 2.58148e-15, 20, 1
0, 0, 0.0166667, -8.33333, -7.58566e-16, 33.3333, 1
0, 0, 0.0166667, -8.33333, 1.35966e-15, 46.6667, 1
0, 0, 0.0166667, -8.33333, -4.2091e-15, 60, 1
0, 0, 0.0166667, 8.33333, -2.95416e-16, -60, 0
0, 0, 0.0166667, 8.33333, 1.09816e-15, -46.6667, 0
0, 0, 0.0166667, 8.33333, -1.77551e-15, -33.3333, 1
0, 0, 0.0166667, 8.33333, 1.40329e-16, -20, 1
0, 0, 0.0166667, 8.33333, 7.9071e-16, -6.66667, 1
0, 0, 0.0166667, 8.33333, -5.08472e-16, 6.66667, 1
0, 0, 0.0166667, 8.33333, 1.58101e-15, 20, 1
0, 0, 0.0166667, 8.33333, -1.49604e-15, 33.3333, 1
0, 0, 0.0166667, 8.33333, 1.40854e-16, 46.6667, 1
0, 0, 0.0166667, 8.33333, -3.52923e-15, 60, 1
0, 0, 0.0166667, 25, -2.59742e-15, -60, 0
0, 0, 0.0166667, 25, -4.21738e-15, -46.6667, 0
0, 0, 0.0166667, 25, -1.02791e-15, -33.3333, 1
0, 0, 0.0166667, 25, 2.94751e-15, -20, 2
0, 0, 0.0166667, 25, -1.48269e-15, -6.66667, 1
0, 0, 0.0166667, 25, 9.794e-16, 6.66667, 2
0, 0, 0.0166667, 25, 1.76379e-15, 20, 2
0, 0, 0.0166667, 25, -4.20846e-15, 33.3333, 2
0, 0, 0.0166667, 25, -3.86156e-15, 46.6667, 2
0, 0, 0.0166667, 25, 9.28022e-15, 60, 1
0, 0, 0.0166667, 41.6667, 8.97655e-16, -60, 0
0, 0, 0.0166667, 41.6667, -4.42158e-15, -46.6667, 0
0, 0, 0.0166667, 41.6667, 3.1192e-15, -33.3333, 2
0, 0, 0.0166667, 41.6667, -3.42015e-15, -20, 2
0, 0, 0.0166667, 41.6667, 4.56022e-16, -6.66667, 0
0, 0, 0.0166667, 41.6667, 1.4304e-15, 6.66667, 2
0, 0, 0.0166667, 41.6667, -3.69485e-15, 20, 2
0, 0, 0.0166667, 41.6667, 2.01941e-15, 33.3333, 0
0, 0, 0.0166667, 41.6667, 3.59522e-15, 46.6667, 0
0, 0, 0.0166667, 41.6667, 2.81517e-15, 60, 0
0, 0, 0.0166667, 58.3333, -3.62519e-15, -60, 0
0, 0, 0.0166667, 58.3333, -2.92061e-15, -46.6667, 0
0, 0, 0.0166667, 58.3333, -1.30673e-15, -33.3333, 0
0, 0, 0.0166667, 58.3333, -4.56745e-16, -20, 0
0, 0, 0.0166667, 58.3333, -3.26038e-15, -6.66667, 0
0, 0, 0.0166667, 58.3333, -2.52703e-15, 6.66667, 0
0, 0, 0.0166667, 58.3333, 1.23117e-16, 20, 0
0, 0, 0.0166667, 58.3333, -2.88187e-15, 33.3333, 0
0, 0, 0.0166667, 58.3333, -4.97387e-15, 46.6667, 0
0, 0, 0.0166667, 58.3333, -3.09255e-15, 60, 0
0, 0, 0.0166667, 75, -3.67985e-15, -60, 0
0, 0, 0.0166667, 75, -3.33411e-15, -46.6667, 0
0, 0, 0.0166667, 75, -1.42248e-15, -33.3333, 0
0, 0, 0.0166667, 75, -5.73475e-15, -20, 0
0, 0, 0.0166667, 75, -3.69407e-15, -6.66667, 0
0, 0, 0.0166667, 75, -1.51891e-15, 6.66667, 0
0, 0, 0.0166667, 75, -2.72828e-15, 20, 0
0, 0, 0.0166667, 75, 2.54417e-15, 33.3333, 0
0, 0, 0.0166667, 75, -1.78454e-15, 46.6667, 0
0, 0, 0.0166667, 75, -1.30271e-16, 60, 0
0, 0, 0.0277778, -75, 3.73312e-15, -60, 0
0, 0, 0.0277778, -75, 6.08912e-15, -46.6667, 0
0, 0, 0.0277778, -75, 7.31496e-16, -33.3333, 0
0, 0, 0.0277778, -75, 3.66076e-15, -20, 0
0, 0, 0.0277778, -75, 6.22368e-16, -6.66667, 0
0, 0, 0.0277778, -75, 2.95547e-15, 6.66667, 0
0, 0, 0.0277778, -75, 4.4559e-15, 20, 0
0, 0, 0.0277778, -75, 4.26268e-15, 33.3333, 0
0, 0, 0.0277778, -75, 5.73497e-15, 46.6667, 0
0, 0, 0.0277778, -75, 4.6595e-15, 60, 0
0, 0, 0.0277778, -58.3333, 4.44635e-16, -60, 0
0, 0, 0.0277778, -58.3333, 3.91853e-15, -46.6667, 0
0, 0, 0.0277778, -58.3333, 5.2927e-15, -33.3333, 0
0, 0, 0.0277778, -58.3333, 8.10392e-16, -20, 0
0, 0, 0.0277778, -58.3333, 1.09036e-15, -6.66667, 0
0, 0, 0.0277778, -58.3333, 2.10913e-15, 6.66667, 0
0, 0, 0.0277778, -58.3333, 1.43719e-15, 20, 0
0, 0, 0.0277778, -58.3333, 6.24531e-15, 33.3333, 0
0, 0, 0.0277778, -58.3333, -4.03876e-16, 46.6667, 0
0, 0, 0.0277778, -58.3333, 4.5763e-15, 60, 0
0, 0, 0.0277778, -41.6667, 1.85679e-15, -60, 0
0, 0, 0.0277778, -41.6667, 7.50875e-15, -46.6667, 0
0, 0, 0.0277778, -41.6667, 2.56567e-17, -33.3333, 0
0, 0, 0.0277778, -41.6667, 3.07953e-15, -20, 2
0, 0, 0.0277778, -41.6667, -4.58263e-15, -6.66667, 1
0, 0, 0.0277778, -41.6667, -6.76416e-16, 6.66667, 1
0, 0, 0.0277778, -41.6667, 4.89004e-15, 20, 0
0, 0, 0.0277778, -41.6667, -8.12515e-16, 33.3333, 0
0, 0, 0.0277778, -41.6667, 3.08511e-16, 46.6667, 0
0, 0, 0.0277778, -41.6667, -4.881e-15, 60, 0
0, 0, 0.0277778, -25, 6.46658e-15, -60, 0
0, 0, 0.0277778, -25, 8.93512e-15, -46.6667, 0
0, 0, 0.0277778, -25, 2.01498e-15, -33.3333, 0
0, 0, 0.0277778, -25, 5.9816e-16, -20, 1
0, 0, 0.0277778, -25, 3.70169e-15, -6.66667, 1
0, 0, 0.0277778, -25, 4.40377e-15, 6.66667, 1
0, 0, 0.0277778, -25, 6.42581e-15, 20, 1
0, 0, 0.0277778, -25, 4.98834e-17, 33.3333, 1
0, 0, 0.0277778, -25, -2.34075e-15, 46.6667, 1
0, 0, 0.0277778, -25, -5.6224e-16, 60, 0
0, 0, 0.0277778, -8.33333, -1.67816e-15, -60, 0
0, 0, 0.0277778, -8.33333, -4.92058e-18, -46.6667, 0
0, 0, 0.0277778, -8.33333, -3.65399e-16, -33.3333, 0
0, 0, 0.0277778, -8.33333, -4.12282e-16, -20, 1
0, 0, 0.0277778, -8.33333, 5.77244e-18, -6.66667, 1
0, 0, 0.0277778, -8.33333, 2.52465e-15, 6.66667, 1
0, 0, 0.0277778, -8.33333, 2.58148e-15, 20, 1
0, 0, 0.0277778, -8.33333, -7.58566e-16, 33.3333, 1
0, 0, 0.0277778, -8.33333, 1.35966e-15, 46.6667, 1
0, 0, 0.0277778, -8.33333, -4.2091e-15, 60, 1
0, 0, 0.0277778, 8.33333, -2.95416e-16, -60, 0
0, 0, 0.0277778, 8.33333, 1.09816e-15, -46.6667, 0
0, 0, 0.0277778, 8.33333, -1.77551e-15, -33.3333, 0
0, 0, 0.0277778, 8.33333, 1.40329e-16, -20, 1
0, 0, 0.0277778, 8.33333, 7.9071e-16, -6.66667, 1
0, 0, 0.0277778, 8.33333, -5.08472e-16, 6.66667, 1
0, 0, 0.0277778, 8.33333, 1.58101e-15, 20, 1
0, 0, 0.0277778, 8.33333, -1.49604e-15, 33.3333, 1
0, 0, 0.0277778, 8.33333, 1.40854e-16, 46.6667, 1
0, 0, 0.0277778, 8.33333, -3.52923e-15, 60, 1
0, 0, 0.0277778, 25, -2.59742e-15, -60, 0
0, 0, 0.0277778, 25, -4.21738e-15, -46.6667, 0
0, 0, 0.0277778, 25, -1.02791e-15, -33.3333, 0
0, 0, 0.0277778, 25, 2.94751e-15, -20, 1
0, 0, 0.0277778, 25, -1.48269e-15, -6.66667, 1
0, 0, 0.0277778, 25, 9.794e-16, 6.66667, 1
0, 0, 0.0277778, 25, 1.76379e-15, 20, 1
0, 0, 0.0277778, 25, -4.20846e-15, 33.3333, 1
0, 0, 0.0277778, 25, -3.86156e-15, 46.6667, 1
0, 0, 0.0277778, 25, 9.28022e-15, 60, 0
0, 0, 0.0277778, 41.6667, 8.97655e-16, -60, 0
0, 0, 0.0277778, 41.6667, -4.42158e-15, -46.6667, 0
0, 0, 0.0277778, 41.6667, 3.1192e-15, -33.3333, 0
0, 0, 0.0277778, 41.6667, -3.42015e-15, -20, 0
0, 0, 0.0277778, 41.6667, 4.56022e-16, -6.66667, 1
0, 0, 0.0277778, 41.6667, 1.4304e-15, 6.66667, 1
0, 0, 0.0277778, 41.6667, -3.69485e-15, 20, 0
0, 0, 0.0277778, 41.6667, 2.01941e-15, 33.3333, 2
0, 0, 0.0277778, 41.6667, 3.59522e-15, 46.6667, 0
0, 0, 0.0277778, 41.6667, 2.81517e-15, 60, 0
0, 0, 0.0277778, 58.3333, -3.62519e-15, -60, 0
0, 0, 0.0277778, 58.3333, -2.92061e-15, -46.6667, 0
0, 0, 0.0277778, 58.3333, -1.30673e-15, -33.3333, 0
0, 0, 0.0277778, 58.3333, -4.56745e-16, -20, 0
0, 0, 0.0277778, 58.3333, -3.26038e-15, -6.66667, 0
0, 0, 0.0277778, 58.3333, -2.52703e-15, 6.66667, 0
0, 0, 0.0277778, 58.3333, 1.23117e-16, 20, 0
0, 0, 0.0277778, 58.3333, -2.88187e-15, 33.3333, 0
0, 0, 0.0277778, 58.3333, -4.97387e-15, 46.6667, 0
0, 0, 0.0277778, 58.3333, -3.09255e-15, 60, 0
0, 0, 0.0277778, 75, -3.67985e-15, -60, 0
0, 0, 0.0277778, 75, -3.33411e-15, -46.6667, 0
0, 0, 0.0277778, 75, -1.42248e-15, -33.3333, 0
0, 0, 0.0277778, 75, -5.73475e-15, -20, 0
0, 0, 0.0277778, 75, -3.69407e-15, -6.66667, 0
0, 0, 0.0277778, 75, -1.51891e-15, 6.66667, 0
0, 0, 0.0277778, 75, -2.72828e-15, 20, 0
0, 0, 0.0277778, 75, 2.54417e-15, 33.3333, 0
0, 0, 0.0277778, 75, -1.78454e-15, 46.6667, 0
0, 0, 0.0277778, 75, -1.30271e-16, 60, 0
0, 0, 0.0388889, -75, 3.73312e-15, -60, 0
0, 0, 0.0388889, -75, 6.08912e-15, -46.6667, 0
0, 0, 0.0388889, -75, 7.31496e-16, -33.3333, 0
0, 0, 0.0388889, -75, 3.66076e-15, -20, 0
0, 0, 0.0388889, -75, 6.22368e-16, -6.66667, 0
0, 0, 0.0388889, -75, 2.95547e-15, 6.66667, 0
0, 0, 0.0388889, -75, 4.4559e-15, 20, 0
0, 0, 0.0388889, -75, 4.26268e-15, 33.3333, 0
0, 0, 0.0388889, -75, 5.73497e-15, 46.6667, 0
0, 0, 0.0388889, -75, 4.6595e-15, 60, 0
0, 0, 0.0388889, -58.3333, 4.44635e-16, -60, 0
0, 0, 0.0388889, -58.3333, 3.91853e-15, -46.6667, 0
0, 0, 0.0388889, -58.3333, 5.2927e-15, -33.3333, 0
0, 0, 0.0388889, -58.3333, 8.10392e-16, -20, 0
0, 0, 0.0388889, -58.3333, 1.09036e-15, -6.66667, 0
0, 0, 0.0388889, -58.3333, 2.10913e-15, 6.66667, 0
0, 0, 0.0388889, -58.3333, 1.43719e-15, 20, 0
0, 0, 0.0388889, -58.3333, 6.24531e-15, 33.3333, 0
0, 0, 0.0388889, -58.3333, -4.03876e-16, 46.6667, 0
0, 0, 0.0388889, -58.3333, 4.5763e-15, 60, 0
0, 0, 0.0388889, -41.6667, 1.85679e-15, -60, 0
0, 0, 0.0388889, -41.6667, 7.50875e-15, -46.6667, 0
0, 0, 0.0388889, -41.6667, 2.56567e-17, -33.3333, 0
0, 0, 0.0388889, -41.6667, 3.07953e-15, -20, 0
0, 0, 0.0388889, -41.6667, -4.58263e-15, -6.66667, 1
0, 0, 0.0388889, -41.6667, -6.76416e-16, 6.66667, 1
0, 0, 0.0388889, -41.6667, 4.89004e-15, 20, 0
0, 0, 0.0388889, -41.6667, -8.12515e-16, 33.3333, 1
0, 0, 0.0388889, -41.6667, 3.08511e-16, 46.6667, 0
0, 0, 0.0388889, -41.6667, -4.881e-15, 60, 0
0, 0, 0.0388889, -25, 6.46658e-15, -60, 0
0, 0, 0.0388889, -25, 8.93512e-15, -46.6667, 0
0, 0, 0.0388889, -25, 2.01498e-15, -33.3333, 0
0, 0, 0.0388889, -25, 5.9816e-16, -20, 0
0, 0, 0.0388889, -25, 3.70169e-15, -6.66667, 1
0, 0, 0.0388889, -25, 4.40377e-15, 6.66667, 1
0, 0, 0.0388889, -25, 6.42581e-15, 20, 1
0, 0, 0.0388889, -25, 4.98834e-17, 33.3333, 1
0, 0, 0.0388889, -25, -2.34075e-15, 46.6667, 1
0, 0, 0.0388889, -25, -5.6224e-16, 60, 0
0, 0, 0.0388889, -8.33333, -1.67816e-15, -60, 0
0, 0, 0.0388889, -8.33333, -4.92058e-18, -46.6667, 0
0, 0, 0.0388889, -8.33333, -3.65399e-16, -33.3333, 0
0, 0, 0.0388889, -8.33333, -4.12282e-16, -20, 1
0, 0, 0.0388889, -8.33333, 5.77244e-18, -6.66667, 1
0, 0, 0.0388889, -8.33333, 2.52465e-15, 6.66667, 1
0, 0, 0.0388889, -8.33333, 2.58148e-15, 20, 1
0, 0, 0.0388889, -8.33333, -7.58566e-16, 33.3333, 1
0, 0, 0.0388889, -8.33333, 1.35966e-15, 46.6667, 1
0, 0, 0.0388889, -8.33333, -4.2091e-15, 60, 0
0, 0, 0.0388889, 8.33333, -2.95416e-16, -60, 0
0, 0, 0.0388889, 8.33333, 1.09816e-15, -46.6667, 0
0, 0, 0.0388889, 8.33333, -1.77551e-15, -33.3333, 0
0, 0, 0.0388889, 8.33333, 1.40329e-16, -20, 1
0, 0, 0.0388889, 8.33333, 7.9071e-16, -6.66667, 1
0, 0, 0.0388889, 8.33333, -5.08472e-16, 6.66667, 1
0, 0, 0.0388889, 8.33333, 1.58101e-15, 20, 1
0, 0, 0.0388889, 8.33333, -1.49604e-15, 33.3333, 1
0, 0, 0.0388889, 8.33333, 1.40854e-16, 46.6667, 1
0, 0, 0.0388889, 8.33333, -3.52923e-15, 60, 0
0, 0, 0.0388889, 25, -2.59742e-15, -60, 0
0, 0, 0.0388889, 25, -4.21738e-15, -46.6667, 0
0, 0, 0.0388889, 25, -1.02791e-15, -33.3333, 0
0, 0, 0.0388889, 25, 2.94751e-15, -20, 0
0, 0, 0.0388889, 25, -1.48269e-15, -6.66667, 1
0, 0, 0.0388889, 25, 9.794e-16, 6.66667, 1
0, 0, 0.0388889, 25, 1.76379e-15, 20, 1
0, 0, 0.0388889, 25, -4.20846e-15, 33.3333, 1
0, 0, 0.0388889, 25, -3.86156e-15, 46.6667, 1
0, 0, 0.0388889, 25, 9.28022e-15, 60, 0
0, 0, 0.0388889, 41.6667, 8.97655e-16, -60, 0
0, 0, 0.0388889, 41.6667, -4.42158e-15, -46.6667, 0
0, 0, 0.0388889, 41.6667, 3.1192e-15, -33.3333, 0
0, 0, 0.0388889, 41.6667, -3.42015e-15, -20, 0
0, 0, 0.0388889, 41.6667, 4.56022e-16, -6.66667, 1
0, 0, 0.0388889, 41.6667, 1.4304e-15, 6.66667, 1
0, 0, 0.0388889, 41.6667, -3.69485e-15, 20, 0
0, 0, 0.0388889, 41.6667, 2.01941e-15, 33.3333, 1
0, 0, 0.0388889, 41.6667, 3.59522e-15, 46.6667, 0
0, 0, 0.0388889, 41.6667, 2.81517e-15, 60, 0
0, 0, 0.0388889, 58.3333, -3.62519e-15, -60, 0
0, 0, 0.0388889, 58.3333, -2.92061e-15, -46.6667, 0
0, 0, 0.0388889, 58.3333, -1.30673e-15, -33.3333, 0
0, 0, 0.0388889, 58.3333, -4.56745e-16, -20, 0
0, 0, 0.0388889, 58.3333, -3.26038e-15, -6.66667, 0
0, 0, 0.0388889, 58.3333, -2.52703e-15, 6.66667, 0
0, 0, 0.0388889, 58.3333, 1.23117e-16, 20, 0
0, 0, 0.0388889, 58.3333, -2.88187e-15, 33.3333, 0
0, 0, 0.0388889, 58.3333, -4.97387e-15, 46.6667, 0
0, 0, 0.0388889, 58.3333, -3.09255e-15, 60, 0
0, 0, 0.0388889, 75, -3.67985e-15, -60, 0
0, 0, 0.0388889, 75, -3.33411e-15, -46.6667, 0
0, 0, 0.0388889, 75, -1.42248e-15, -33.3333, 0
0, 0, 0.0388889, 75, -5.73475e-15, -20, 0
0, 0, 0.0388889, 75, -3.69407e-15, -6.66667, 0
0, 0, 0.0388889, 75, -1.51891e-15, 6.66667, 0
0, 0, 0.0388889, 75, -2.72828e-15, 20, 0
0, 0, 0.0388889, 75, 2.54417e-15, 33.3333, 0
0, 0, 0.0388889, 75, -1.78454e-15, 46.6667, 0
0, 0, 0.0388889, 75, -1.30271e-16, 60, 0
0, 0, 0.05, -75, 3.73312e-15, -60, 0
0, 0, 0.05, -75, 6.08912e-15, -46.6667, 0
0, 0, 0.05, -75, 7.31496e-16, -33.3333, 0
0, 0, 0.05, -75, 3.66076e-15, -20, 0
0, 0, 0.05, -75, 6.22368e-16, -6.66667, 0
0, 0, 0.05, -75, 2.95547e-15, 6.66667, 0
0, 0, 0.05, -75, 4.4559e-15, 20, 0
0, 0, 0.05, -75, 4.26268e-15, 33.3333, 0
0, 0, 0.05, -75, 5.73497e-15, 46.6667, 0
0, 0, 0.05, -75, 4.6595e-15, 60, 0
0, 0, 0.05, -58.3333, 4.44635e-16, -60, 0
0, 0, 0.05, -58.3333, 3.91853e-15, -46.6667, 0
0, 0, 0.05, -58.3333, 5.2927e-15, -33.3333, 0
0, 0, 0.05, -58.3333, 8.10392e-16, -20, 0
0, 0, 0.05, -58.3333, 1.09036e-15, -6.66667, 0
0, 0, 0.05, -58.3333, 2.10913e-15, 6.66667, 0
0, 0, 0.05, -58.3333, 1.43719e-15, 20, 0
0, 0, 0.05, -58.3333, 6.24531e-15, 33.3333, 0
0, 0, 0.05, -58.3333, -4.03876e-16, 46.6667, 0
0, 0, 0.05, -58.3333, 4.5763e-15, 60, 0
0, 0, 0.05, -41.6667, 1.85679e-15, -60, 0
0, 0, 0.05, -41.6667, 7.50875e-15, -46.6667, 0
0, 0, 0.05, -41.6667, 2.56567e-17, -33.3333, 0
0, 0, 0.05, -41.6667, 3.07953e-15, -20, 0
0, 0, 0.05, -41.6667, -4.58263e-15, -6.66667, 1
0, 0, 0.05, -41.6667, -6.76416e-16, 6.66667, 1
0, 0, 0.05, -41.6667, 4.89004e-15, 20, 0
0, 0, 0.05, -41.6667, -8.12515e-16, 33.3333, 0
0, 0, 0.05, -41.6667, 3.08511e-16, 46.6667, 0
0, 0, 0.05, -41.6667, -4.881e-15, 60, 0
0, 0, 0.05, -25, 6.46658e-15, -60, 0
0, 0, 0.05, -25, 8.93512e-15, -46.6667, 0
0, 0, 0.05, -25, 2.01498e-15, -33.3333, 0
0, 0, 0.05, -25, 5.9816e-16, -20, 0
0, 0, 0.05, -25, 3.70169e-15, -6.66667, 1
0, 0, 0.05, -25, 4.40377e-15, 6.66667, 1
0, 0, 0.05, -25, 6.42581e-15, 20, 1
0, 0, 0.05, -25, 4.98834e-17, 33.3333, 1
0, 0, 0.05, -25, -2.34075e-15, 46.6667, 0
0, 0, 0.05, -25, -5.6224e-16, 60, 0
0, 0, 0.05, -8.33333, -1.67816e-15, -60, 0
0, 0, 0.05, -8.33333, -4.92058e-18, -46.6667, 0
0, 0, 0.05, -8.33333, -3.65399e-16, -33.3333, 0
0, 0, 0.05, -8.33333, -4.12282e-16, -20, 1
0, 0, 0.05, -8.33333, 5.77244e-18, -6.66667, 1
0, 0, 0.05, -8.33333, 2.52465e-15, 6.66667, 1
0, 0, 0.05, -8.33333, 2.58148e-15, 20, 1
0, 0, 0.05, -8.33333, -7.58566e-16, 33.3333, 1
0, 0, 0.05, -8.33333, 1.35966e-15, 46.6667, 1
0, 0, 0.05, -8.33333, -4.2091e-15, 60, 0
0, 0, 0.05, 8.33333, -2.95416e-16, -60, 0
0, 0, 0.05, 8.33333, 1.09816e-15, -46.6667, 0
0, 0, 0.05, 8.33333, -1.77551e-15, -33.3333, 0
0, 0, 0.05, 8.33333, 1.40329e-16, -20, 1
0, 0, 0.05, 8.33333, 7.9071e-16, -6.66667, 1
0, 0, 0.05, 8.33333, -5.08472e-16, 6.66667, 1
0, 0, 0.05, 8.33333, 1.58101e-15, 20, 1
0, 0, 0.05, 8.33333, -1.49604e-15, 33.3333, 1
0, 0, 0.05, 8.33333, 1.40854e-16, 46.6667, 1
0, 0, 0.05, 8.33333, -3.52923e-15, 60, 0
0, 0, 0.05, 25, -2.59742e-15, -60, 0
0, 0, 0.05, 25, -4.21738e-15, -46.6667, 0
0, 0, 0.05, 25, -1.02791e-15, -33.3333, 0
0, 0, 0.05, 25, 2.94751e-15, -20, 0
0, 0, 0.05, 25, -1.48269e-15, -6.66667, 1
0, 0, 0.05, 25, 9.794e-16, 6.66667, 1
0, 0, 0.05, 25, 1.76379e-15, 20, 1
0, 0, 0.05, 25, -4.20846e-15, 33.3333, 1
0, 0, 0.05, 25, -3.86156e-15, 46.6667, 0
0, 0, 0.05, 25, 9.28022e-15, 60, 0
0, 0, 0.05, 41.6667, 8.97655e-16, -60, 0
0, 0, 0.05, 41.6667, -4.42158e-15, -46.6667, 0
0, 0, 0.05, 41.6667, 3.1192e-15, -33.3333, 0
0, 0, 0.05, 41.6667, -3.42015e-15, -20, 0
0, 0, 0.05, 41.6667, 4.56022e-16, -6.66667, 1
0, 0, 0.05, 41.6667, 1.4304e-15, 6.66667, 1
0, 0, 0.05, 41.6667, -3.69485e-15, 20, 0
0, 0, 0.05, 41.6667, 2.01941e-15, 33.3333, 0
0, 0, 0.05, 41.6667, 3.59522e-15, 46.6667, 0
0, 0, 0.05, 41.6667, 2.81517e-15, 60, 0
0, 0, 0.05, 58.3333, -3.62519e-15, -60, 0
0, 0, 0.05, 58.3333, -2.92061e-15, -46.6667, 0
0, 0, 0.05, 58.3333, -1.30673e-15, -33.3333, 0
0, 0, 0.05, 58.3333, -4.56745e-16, -20, 0
0, 0, 0.05, 58.3333, -3.26038e-15, -6.66667, 0
0, 0, 0.05, 58.3333, -2.52703e-15, 6.66667, 0
0, 0, 0.05, 58.3333, 1.23117e-16, 20, 0
0, 0, 0.05, 58.3333, -2.88187e-15, 33.3333, 0
0, 0, 0.05, 58.3333, -4.97387e-15, 46.6667, 0
0, 0, 0.05, 58.3333, -3.09255e-15, 60, 0
0, 0, 0.05, 75, -3.67985e-15, -60, 0
0, 0, 0.05, 75, -3.33411e-15, -46.6667, 0
0, 0, 0.05, 75, -1.42248e-15, -33.3333, 0
0, 0, 0.05, 75, -5.73475e-15, -20, 0
0, 0, 0.05, 75, -3.69407e-15, -6.66667, 0
0, 0, 0.05, 75, -1.51891e-15, 6.66667, 0
0, 0, 0.05, 75, -2.72828e-15, 20, 0
0, 0, 0.05, 75, 2.54417e-15, 33.3333, 0
0, 0, 0.05, 75, -1.78454e-15, 46.6667, 0
0, 0, 0.05, 75, -1.30271e-16, 60, 0
