-0.00333333, 0, -0.00333333, 0, -0, 3.50835e-15, 2
-0.00333333, 0, 0.00333333, 0, -0, 3.50835e-15, 2
0.00333333, 0, -0.00333333, 0, -0, 3.50835e-15, 2
0.00333333, 0, 0.00333333, 0, -0, 3.50835e-15, 2
-0.00333333, 0, -0.01, 0, -0, 3.50835e-15, 2
-0.01, 0, 0.00333333, 0, -0, 3.50835e-15, 2
-0.01, 0, -0.00333333, 0, -0, 3.50835e-15, 2
0.00333333, 0, -0.01, 0, -0, 3.50835e-15, 2
0.00333333, 0, 0.01, 0, -0, 3.50835e-15, 2
-0.00333333, 0, 0.01, 0, -0, 3.50835e-15, 2
0.01, 0, -0.00333333, 0, -0, 3.50835e-15, 2
0.01, 0, 0.00333333, 0, -0, 3.50835e-15, 2
-0.01, 0, -0.01, 0, -0, 3.50835e-15, 2
0.01, 0, -0.01, 0, -0, 3.50835e-15, 2
-0.01, 0, 0.01, 0, -0, 3.50835e-15, 2
0.01, 0, 0.01, 0, -0, 3.50835e-15, 2
-0.0166667, 0, -0.00333333, 0, -0, 3.50835e-15, 2
-0.00333333, 0, -0.0166667, 0, -0, 3.50835e-15, 2
0.00333333, 0, -0.0166667, 0, -0, 3.50835e-15, 2
-0.0166667, 0, 0.00333333, 0, -0, 3.50835e-15, 2
0.0166667, 0, -0.00333333, 0, -0, 3.50835e-15, 2
-0.00333333, 0, 0.0166667, 0, -0, 3.50835e-15, 2
0.0166667, 0, 0.00333333, 0, -0, 3.50835e-15, 2
0.00333333, 0, 0.0166667, 0, -0, 3.50835e-15, 2
-0.0166667, 0, -0.01, 0, -0, 3.50835e-15, 2
-0.0166667, 0, 0.01, 0, -0, 3.50835e-15, 2
0.0166667, 0, -0.01, 0, -0, 3.50835e-15, 2
0.01, 0, 0.0166667, 0, -0, 3.50835e-15, 2
-0.01, 0, 0.0166667, 0, -0, 3.50835e-15, 2
0.0166667, 0, 0.01, 0, -0, 3.50835e-15, 2
0.00333333, 0, -0.0233333, 0, -0, 3.50835e-15, 2
-0.00333333, 0, -0.0233333, 0, -0, 3.50835e-15, 2
-0.0233333, 0, 0.00333333, 0, -0, 3.50835e-15, 2
-0.0166667, 0, 0.0166667, 0, -0, 3.50835e-15, 2
0.0166667, 0, -0.0166667, 0, -0, 3.50835e-15, 2
-0.00333333, 0, 0.0233333, 0, -0, 3.50835e-15, 2
0.0166667, 0, 0.0166667, 0, -0, 3.50835e-15, 2
0.00333333, 0, 0.0233333, 0, -0, 3.50835e-15, 2
-0.01, 0, -0.0233333, 0, -0, 3.50835e-15, 2
0.01, 0, -0.0233333, 0, -0, 3.50835e-15, 2
-0.01, 0, 0.0233333, 0, -0, 3.50835e-15, 2
0.0233333, 0, -0.01, 0, -0, 3.50835e-15, 2
0.01, 0, 0.0233333, 0, -0, 3.50835e-15, 2
-0.0166667, 0, -0.0233333, 0, -0, 3.50835e-15, 2
-0.0166667, 0, 0.0233333, 0, -0, 3.50835e-15, 2
0.0166667, 0, -0.0233333, 0, -0, 3.50835e-15, 2
0.0166667, 0, 0.0233333, 0, -0, 3.50835e-15, 2
-0.00333333, 0, -0.03, 0, -0, 3.50835e-15, 2
0.00333333, 0, -0.03, 0, -0, 3.50835e-15, 2
-0.00333333, 0, 0.03, 0, -0, 3.50835e-15, 2
0.00333333, 0, 0.03, 0, -0, 3.50835e-15, 2
-0.01, 0, -0.03, 0, -0, 3.50835e-15, 2
0.01, 0, -0.03, 0, -0, 3.50835e-15, 2
-0.01, 0, 0.03, 0, -0, 3.50835e-15, 2
0.01, 0, 0.03, 0, -0, 3.50835e-15, 2
-0.0166667, 0, -0.03, 0, -0, 3.50835e-15, 2
0.0166667, 0, -0.03, 0, -0, 3.50835e-15, 2
-0.0166667, 0, 0.03, 0, -0, 3.50835e-15, 2
0.0166667, 0, 0.03, 0, -0, 3.50835e-15, 2
-0.0233333, 0, 0.03, 0, -0, 3.50835e-15, 2
-0.01, 0, -0.0166667, 0, -0, 3.50835e-15, 1
0.01, 0, -0.0166667, 0, -0, 3.50835e-15, 1
-0.0166667, 0, -0.0166667, 0, -0, 3.50835e-15, 1
0.0233333, 0, -0.00333333, 0, -0, 3.50835e-15, 1
-0.0233333, 0, -0.0166667, 0, -0, 3.50835e-15, 1
0.0233333, 0, -0.0233333, 0, -0, 3.50835e-15, 1
-0.0233333, 0, -0.00333333, 0, -0, 3.50835e-15, 0
0.0233333, 0, 0.00333333, 0, -0, 3.50835e-15, 0
-0.0233333, 0, -0.01, 0, -0, 3.50835e-15, 0
-0.0233333, 0, 0.01, 0, -0, 3.50835e-15, 0
0.0233333, 0, 0.01, 0, -0, 3.50835e-15, 0
-0.0233333, 0, 0.0166667, 0, -0, 3.50835e-15, 0
0.0233333, 0, -0.0166667, 0, -0, 3.50835e-15, 0
0.0233333, 0, 0.0166667, 0, -0, 3.50835e-15, 0
-0.03, 0, 0.00333333, 0, -0, 3.50835e-15, 0
-0.03, 0, -0.00333333, 0, -0, 3.50835e-15, 0
0.03, 0, -0.00333333, 0, -0, 3.50835e-15, 0
0.03, 0, 0.00333333, 0, -0, 3.50835e-15, 0
-0.03, 0, 0.01, 0, -0, 3.50835e-15, 0
-0.03, 0, -0.01, 0, -0, 3.50835e-15, 0
0.03, 0, 0.01, 0, -0, 3.50835e-15, 0
0.03, 0, -0.01, 0, -0, 3.50835e-15, 0
-0.0233333, 0, -0.0233333, 0, -0, 3.50835e-15, 0
-0.0233333, 0, 0.0233333, 0, -0, 3.50835e-15, 0
0.0233333, 0, 0.0233333, 0, -0, 3.50835e-15, 2
-0.03, 0, -0.0166667, 0, -0, 3.50835e-15, 0
0.03, 0, -0.0166667, 0, -0, 3.50835e-15, 0
0.03, 0, 0.0166667, 0, -0, 3.50835e-15, 0
-0.03, 0, 0.0166667, 0, -0, 3.50835e-15, 0
0.03, 0, 0.0233333, 0, -0, 3.50835e-15, 0
-0.03, 0, -0.0233333, 0, -0, 3.50835e-15, 0
0.03, 0, -0.0233333, 0, -0, 3.50835e-15, 0
0.0233333, 0, 0.03, 0, -0, 3.50835e-15, 0
0.0233333, 0, -0.03, 0, -0, 3.50835e-15, 0
-0.0233333, 0, -0.03, 0, -0, 3.50835e-15, 0
-0.03, 0, 0.0233333, 0, -0, 3.50835e-15, 0
0.03, 0, -0.03, 0, -0, 3.50835e-15, 0
-0.03, 0, 0.03, 0, -0, 3.50835e-15, 0
-0.03, 0, -0.03, 0, -0, 3.50835e-15, 0
0.03, 0, 0.03, 0, -0, 3.50835e-15, 0
