0, 0, -0.025, -60, 3.03832e-15, -90, 0
0, 0, -0.025, -60, 3.03832e-15, -70, 0
0, 0, -0.025, -60, 3.03832e-15, -50, 0
0, 0, -0.025, -60, 3.03832e-15, -30, 0
0, 0, -0.025, -60, 3.03832e-15, -10, 0
0, 0, -0.025, -60, 3.03832e-15, 10, 0
0, 0, -0.025, -60, 3.03832e-15, 30, 0
0, 0, -0.025, -60, 3.03832e-15, 50, 0
0, 0, -0.025, -60, 3.03832e-15, 70, 0
0, 0, -0.025, -60, 3.03832e-15, 90, 0
0, 0, -0.025, -46.6667, 2.55188e-15, -90, 0
0, 0, -0.025, -46.6667, 2.55188e-15, -70, 0
0, 0, -0.025, -46.6667, 2.55188e-15, -50, 0
0, 0, -0.025, -46.6667, 2.55188e-15, -30, 0
0, 0, -0.025, -46.6667, 2.55188e-15, -10, 1
0, 0, -0.025, -46.6667, 2.55188e-15, 10, 0
0, 0, -0.025, -46.6667, 2.55188e-15, 30, 0
0, 0, -0.025, -46.6667, 2.55188e-15, 50, 0
0, 0, -0.025, -46.6667, 2.55188e-15, 70, 0
0, 0, -0.025, -46.6667, 2.55188e-15, 90, 0
0, 0, -0.025, -33.3333, 1.92787e-15, -90, 0
0, 0, -0.025, -33.3333, 1.92787e-15, -70, 0
0, 0, -0.025, -33.3333, 1.92787e-15, -50, 0
0, 0, -0.025, -33.3333, 1.92787e-15, -30, 0
0, 0, -0.025, -33.3333, 1.92787e-15, -10, 1
0, 0, -0.025, -33.3333, 1.92787e-15, 10, 1
0, 0, -0.025, -33.3333, 1.92787e-15, 30, 0
0, 0, -0.025, -33.3333, 1.92787e-15, 50, 0
0, 0, -0.025, -33.3333, 1.92787e-15, 70, 0
0, 0, -0.025, -33.3333, 1.92787e-15, 90, 0
0, 0, -0.025, -20, 1.19993e-15, -90, 0
0, 0, -0.025, -20, 1.19993e-15, -70, 0
0, 0, -0.025, -20, 1.19993e-15, -50, 0
0, 0, -0.025, -20, 1.19993e-15, -30, 0
0, 0, -0.025, -20, 1.19993e-15, -10, 1
0, 0, -0.025, -20, 1.19993e-15, 10, 1
0, 0, -0.025, -20, 1.19993e-15, 30, 0
0, 0, -0.025, -20, 1.19993e-15, 50, 0
0, 0, -0.025, -20, 1.19993e-15, 70, 0
0, 0, -0.025, -20, 1.19993e-15, 90, 0
0, 0, -0.025, -6.66667, 4.07295e-16, -90, 0
0, 0, -0.025, -6.66667, 4.07295e-16, -70, 0
0, 0, -0.025, -6.66667, 4.07295e-16, -50, 1
0, 0, -0.025, -6.66667, 4.07295e-16, -30, 1
0, 0, -0.025, -6.66667, 4.07295e-16, -10, 1
0, 0, -0.025, -6.66667, 4.07295e-16, 10, 1
0, 0, -0.025, -6.66667, 4.07295e-16, 30, 1
0, 0, -0.025, -6.66667, 4.07295e-16, 50, 1
0, 0, -0.025, -6.66667, 4.07295e-16, 70, 0
0, 0, -0.025, -6.66667, 4.07295e-16, 90, 0
0, 0, -0.025, 6.66667, -4.07295e-16, -90, 0
0, 0, -0.025, 6.66667, -4.07295e-16, -70, 0
0, 0, -0.025, 6.66667, -4.07295e-16, -50, 1
0, 0, -0.025, 6.66667, -4.07295e-16, -30, 1
0, 0, -0.025, 6.66667, -4.07295e-16, -10, 1
0, 0, -0.025, 6.66667, -4.07295e-16, 10, 1
0, 0, -0.025, 6.66667, -4.07295e-16, 30, 1
0, 0, -0.025, 6.66667, -4.07295e-16, 50, 1
0, 0, -0.025, 6.66667, -4.07295e-16, 70, 0
0, 0, -0.025, 6.66667, -4.07295e-16, 90, 0
0, 0, -0.025, 20, -1.19993e-15, -90, 0
0, 0, -0.025, 20, -1.19993e-15, -70, 0
0, 0, -0.025, 20, -1.19993e-15, -50, 0
0, 0, -0.025, 20, -1.19993e-15, -30, 0
0, 0, -0.025, 20, -1.19993e-15, -10, 1
0, 0, -0.025, 20, -1.19993e-15, 10, 1
0, 0, -0.025, 20, -1.19993e-15, 30, 0
0, 0, -0.025, 20, -1.19993e-15, 50, 0
0, 0, -0.025, 20, -1.19993e-15, 70, 0
0, 0, -0.025, 20, -1.19993e-15, 90, 0
0, 0, -0.025, 33.3333, -1.92787e-15, -90, 0
0, 0, -0.025, 33.3333, -1.92787e-15, -70, 0
0, 0, -0.025, 33.3333, -1.92787e-15, -50, 0
0, 0, -0.025, 33.3333, -1.92787e-15, -30, 0
0, 0, -0.025, 33.3333, -1.92787e-15, -10, 1
0, 0, -0.025, 33.3333, -1.92787e-15, 10, 1
0, 0, -0.025, 33.3333, -1.92787e-15, 30, 0
0, 0, -0.025, 33.3333, -1.92787e-15, 50, 0
0, 0, -0.025, 33.3333, -1.92787e-15, 70, 0
0, 0, -0.025, 33.3333, -1.92787e-15, 90, 0
0, 0, -0.025, 46.6667, -2.55188e-15, -90, 0
0, 0, -0.025, 46.6667, -2.55188e-15, -70, 0
0, 0, -0.025, 46.6667, -2.55188e-15, -50, 0
0, 0, -0.025, 46.6667, -2.55188e-15, -30, 0
0, 0, -0.025, 46.6667, -2.55188e-15, -10, 0
0, 0, -0.025, 46.6667, -2.55188e-15, 10, 1
0, 0, -0.025, 46.6667, -2.55188e-15, 30, 0
0, 0, -0.025, 46.6667, -2.55188e-15, 50, 0
0, 0, -0.025, 46.6667, -2.55188e-15, 70, 0
0, 0, -0.025, 46.6667, -2.55188e-15, 90, 0
0, 0, -0.025, 60, -3.03832e-15, -90, 0
0, 0, -0.025, 60, -3.03832e-15, -70, 0
0, 0, -0.025, 60, -3.03832e-15, -50, 0
0, 0, -0.025, 60, -3.03832e-15, -30, 0
0, 0, -0.025, 60, -3.03832e-15, -10, 0
0, 0, -0.025, 60, -3.03832e-15, 10, 0
0, 0, -0.025, 60, -3.03832e-15, 30, 0
0, 0, -0.025, 60, -3.03832e-15, 50, 0
0, 0, -0.025, 60, -3.03832e-15, 70, 0
0, 0, -0.025, 60, -3.03832e-15, 90, 0
0, 0, -0.0194444, -60, 3.03832e-15, -90, 0
0, 0, -0.0194444, -60, 3.03832e-15, -70, 0
0, 0, -0.0194444, -60, 3.03832e-15, -50, 0
0, 0, -0.0194444, -60, 3.03832e-15, -30, 0
0, 0, -0.0194444, -60, 3.03832e-15, -10, 0
0, 0, -0.0194444, -60, 3.03832e-15, 10, 0
0, 0, -0.0194444, -60, 3.03832e-15, 30, 0
0, 0, -0.0194444, -60, 3.03832e-15, 50, 0
0, 0, -0.0194444, -60, 3.03832e-15, 70, 0
0, 0, -0.0194444, -60, 3.03832e-15, 90, 0
0, 0, -0.0194444, -46.6667, 2.55188e-15, -90, 0
0, 0, -0.0194444, -46.6667, 2.55188e-15, -70, 0
0, 0, -0.0194444, -46.6667, 2.55188e-15, -50, 0
0, 0, -0.0194444, -46.6667, 2.55188e-15, -30, 0
0, 0, -0.0194444, -46.6667, 2.55188e-15, -10, 1
0, 0, -0.0194444, -46.6667, 2.55188e-15, 10, 1
0, 0, -0.0194444, -46.6667, 2.55188e-15, 30, 0
0, 0, -0.0194444, -46.6667, 2.55188e-15, 50, 0
0, 0, -0.0194444, -46.6667, 2.55188e-15, 70, 0
0, 0, -0.0194444, -46.6667, 2.55188e-15, 90, 0
0, 0, -0.0194444, -33.3333, 1.92787e-15, -90, 0
0, 0, -0.0194444, -33.3333, 1.92787e-15, -70, 0
0, 0, -0.0194444, -33.3333, 1.92787e-15, -50, 0
0, 0, -0.0194444, -33.3333, 1.92787e-15, -30, 1
0, 0, -0.0194444, -33.3333, 1.92787e-15, -10, 1
0, 0, -0.0194444, -33.3333, 1.92787e-15, 10, 1
0, 0, -0.0194444, -33.3333, 1.92787e-15, 30, 1
0, 0, -0.0194444, -33.3333, 1.92787e-15, 50, 0
0, 0, -0.0194444, -33.3333, 1.92787e-15, 70, 0
0, 0, -0.0194444, -33.3333, 1.92787e-15, 90, 0
0, 0, -0.0194444, -20, 1.19993e-15, -90, 0
0, 0, -0.0194444, -20, 1.19993e-15, -70, 0
0, 0, -0.0194444, -20, 1.19993e-15, -50, 0
0, 0, -0.0194444, -20, 1.19993e-15, -30, 1
0, 0, -0.0194444, -20, 1.19993e-15, -10, 1
0, 0, -0.0194444, -20, 1.19993e-15, 10, 1
0, 0, -0.0194444, -20, 1.19993e-15, 30, 1
0, 0, -0.0194444, -20, 1.19993e-15, 50, 0
0, 0, -0.0194444, -20, 1.19993e-15, 70, 0
0, 0, -0.0194444, -20, 1.19993e-15, 90, 0
0, 0, -0.0194444, -6.66667, 4.07295e-16, -90, 0
0, 0, -0.0194444, -6.66667, 4.07295e-16, -70, 0
0, 0, -0.0194444, -6.66667, 4.07295e-16, -50, 1
0, 0, -0.0194444, -6.66667, 4.07295e-16, -30, 1
0, 0, -0.0194444, -6.66667, 4.07295e-16, -10, 1
0, 0, -0.0194444, -6.66667, 4.07295e-16, 10, 1
0, 0, -0.0194444, -6.66667, 4.07295e-16, 30, 1
0, 0, -0.0194444, -6.66667, 4.07295e-16, 50, 1
0, 0, -0.0194444, -6.66667, 4.07295e-16, 70, 0
0, 0, -0.0194444, -6.66667, 4.07295e-16, 90, 0
0, 0, -0.0194444, 6.66667, -4.07295e-16, -90, 0
0, 0, -0.0194444, 6.66667, -4.07295e-16, -70, 0
0, 0, -0.0194444, 6.66667, -4.07295e-16, -50, 1
0, 0, -0.0194444, 6.66667, -4.07295e-16, -30, 1
0, 0, -0.0194444, 6.66667, -4.07295e-16, -10, 1
0, 0, -0.0194444, 6.66667, -4.07295e-16, 10, 1
0, 0, -0.0194444, 6.66667, -4.07295e-16, 30, 1
0, 0, -0.0194444, 6.66667, -4.07295e-16, 50, 1
0, 0, -0.0194444, 6.66667, -4.07295e-16, 70, 0
0, 0, -0.0194444, 6.66667, -4.07295e-16, 90, 0
0, 0, -0.0194444, 20, -1.19993e-15, -90, 0
0, 0, -0.0194444, 20, -1.19993e-15, -70, 0
0, 0, -0.0194444, 20, -1.19993e-15, -50, 0
0, 0, -0.0194444, 20, -1.19993e-15, -30, 1
0, 0, -0.0194444, 20, -1.19993e-15, -10, 1
0, 0, -0.0194444, 20, -1.19993e-15, 10, 1
0, 0, -0.0194444, 20, -1.19993e-15, 30, 1
0, 0, -0.0194444, 20, -1.19993e-15, 50, 0
0, 0, -0.0194444, 20, -1.19993e-15, 70, 0
0, 0, -0.0194444, 20, -1.19993e-15, 90, 0
0, 0, -0.0194444, 33.3333, -1.92787e-15, -90, 0
0, 0, -0.0194444, 33.3333, -1.92787e-15, -70, 0
0, 0, -0.0194444, 33.3333, -1.92787e-15, -50, 0
0, 0, -0.0194444, 33.3333, -1.92787e-15, -30, 1
0, 0, -0.0194444, 33.3333, -1.92787e-15, -10, 1
0, 0, -0.0194444, 33.3333, -1.92787e-15, 10, 1
0, 0, -0.0194444, 33.3333, -1.92787e-15, 30, 1
0, 0, -0.0194444, 33.3333, -1.92787e-15, 50, 0
0, 0, -0.0194444, 33.3333, -1.92787e-15, 70, 0
0, 0, -0.0194444, 33.3333, -1.92787e-15, 90, 0
0, 0, -0.0194444, 46.6667, -2.55188e-15, -90, 0
0, 0, -0.0194444, 46.6667, -2.55188e-15, -70, 0
0, 0, -0.0194444, 46.6667, -2.55188e-15, -50, 0
0, 0, -0.0194444, 46.6667, -2.55188e-15, -30, 0
0, 0, -0.0194444, 46.6667, -2.55188e-15, -10, 1
0, 0, -0.0194444, 46.6667, -2.55188e-15, 10, 1
0, 0, -0.0194444, 46.6667, -2.55188e-15, 30, 0
0, 0, -0.0194444, 46.6667, -2.55188e-15, 50, 0
0, 0, -0.0194444, 46.6667, -2.55188e-15, 70, 0
0, 0, -0.0194444, 46.6667, -2.55188e-15, 90, 0
0, 0, -0.0194444, 60, -3.03832e-15, -90, 0
0, 0, -0.0194444, 60, -3.03832e-15, -70, 0
0, 0, -0.0194444, 60, -3.03832e-15, -50, 0
0, 0, -0.0194444, 60, -3.03832e-15, -30, 0
0, 0, -0.0194444, 60, -3.03832e-15, -10, 0
0, 0, -0.0194444, 60, -3.03832e-15, 10, 0
0, 0, -0.0194444, 60, -3.03832e-15, 30, 0
0, 0, -0.0194444, 60, -3.03832e-15, 50, 0
0, 0, -0.0194444, 60, -3.03832e-15, 70, 0
0, 0, -0.0194444, 60, -3.03832e-15, 90, 0
0, 0, -0.0138889, -60, 3.03832e-15, -90, 0
0, 0, -0.0138889, -60, 3.03832e-15, -70, 0
0, 0, -0.0138889, -60, 3.03832e-15, -50, 0
0, 0, -0.0138889, -60, 3.03832e-15, -30, 0
0, 0, -0.0138889, -60, 3.03832e-15, -10, 0
0, 0, -0.0138889, -60, 3.03832e-15, 10, 0
0, 0, -0.0138889, -60, 3.03832e-15, 30, 0
0, 0, -0.0138889, -60, 3.03832e-15, 50, 0
0, 0, -0.0138889, -60, 3.03832e-15, 70, 0
0, 0, -0.0138889, -60, 3.03832e-15, 90, 0
0, 0, -0.0138889, -46.6667, 2.55188e-15, -90, 0
0, 0, -0.0138889, -46.6667, 2.55188e-15, -70, 0
0, 0, -0.0138889, -46.6667, 2.55188e-15, -50, 0
0, 0, -0.0138889, -46.6667, 2.55188e-15, -30, 0
0, 0, -0.0138889, -46.6667, 2.55188e-15, -10, 1
0, 0, -0.0138889, -46.6667, 2.55188e-15, 10, 1
0, 0, -0.0138889, -46.6667, 2.55188e-15, 30, 0
0, 0, -0.0138889, -46.6667, 2.55188e-15, 50, 0
0, 0, -0.0138889, -46.6667, 2.55188e-15, 70, 0
0, 0, -0.0138889, -46.6667, 2.55188e-15, 90, 0
0, 0, -0.0138889, -33.3333, 1.92787e-15, -90, 0
0, 0, -0.0138889, -33.3333, 1.92787e-15, -70, 0
0, 0, -0.0138889, -33.3333, 1.92787e-15, -50, 0
0, 0, -0.0138889, -33.3333, 1.92787e-15, -30, 1
0, 0, -0.0138889, -33.3333, 1.92787e-15, -10, 1
0, 0, -0.0138889, -33.3333, 1.92787e-15, 10, 1
0, 0, -0.0138889, -33.3333, 1.92787e-15, 30, 1
0, 0, -0.0138889, -33.3333, 1.92787e-15, 50, 0
0, 0, -0.0138889, -33.3333, 1.92787e-15, 70, 0
0, 0, -0.0138889, -33.3333, 1.92787e-15, 90, 0
0, 0, -0.0138889, -20, 1.19993e-15, -90, 0
0, 0, -0.0138889, -20, 1.19993e-15, -70, 0
0, 0, -0.0138889, -20, 1.19993e-15, -50, 1
0, 0, -0.0138889, -20, 1.19993e-15, -30, 1
0, 0, -0.0138889, -20, 1.19993e-15, -10, 1
0, 0, -0.0138889, -20, 1.19993e-15, 10, 1
0, 0, -0.0138889, -20, 1.19993e-15, 30, 1
0, 0, -0.0138889, -20, 1.19993e-15, 50, 0
0, 0, -0.0138889, -20, 1.19993e-15, 70, 0
0, 0, -0.0138889, -20, 1.19993e-15, 90, 0
0, 0, -0.0138889, -6.66667, 4.07295e-16, -90, 0
0, 0, -0.0138889, -6.66667, 4.07295e-16, -70, 0
0, 0, -0.0138889, -6.66667, 4.07295e-16, -50, 1
0, 0, -0.0138889, -6.66667, 4.07295e-16, -30, 1
0, 0, -0.0138889, -6.66667, 4.07295e-16, -10, 1
0, 0, -0.0138889, -6.66667, 4.07295e-16, 10, 1
0, 0, -0.0138889, -6.66667, 4.07295e-16, 30, 1
0, 0, -0.0138889, -6.66667, 4.07295e-16, 50, 1
0, 0, -0.0138889, -6.66667, 4.07295e-16, 70, 1
0, 0, -0.0138889, -6.66667, 4.07295e-16, 90, 0
0, 0, -0.0138889, 6.66667, -4.07295e-16, -90, 0
0, 0, -0.0138889, 6.66667, -4.07295e-16, -70, 0
0, 0, -0.0138889, 6.66667, -4.07295e-16, -50, 1
0, 0, -0.0138889, 6.66667, -4.07295e-16, -30, 1
0, 0, -0.0138889, 6.66667, -4.07295e-16, -10, 1
0, 0, -0.0138889, 6.66667, -4.07295e-16, 10, 1
0, 0, -0.0138889, 6.66667, -4.07295e-16, 30, 1
0, 0, -0.0138889, 6.66667, -4.07295e-16, 50, 1
0, 0, -0.0138889, 6.66667, -4.07295e-16, 70, 1
0, 0, -0.0138889, 6.66667, -4.07295e-16, 90, 0
0, 0, -0.0138889, 20, -1.19993e-15, -90, 0
0, 0, -0.0138889, 20, -1.19993e-15, -70, 0
0, 0, -0.0138889, 20, -1.19993e-15, -50, 1
0, 0, -0.0138889, 20, -1.19993e-15, -30, 1
0, 0, -0.0138889, 20, -1.19993e-15, -10, 1
0, 0, -0.0138889, 20, -1.19993e-15, 10, 1
0, 0, -0.0138889, 20, -1.19993e-15, 30, 1
0, 0, -0.0138889, 20, -1.19993e-15, 50, 0
0, 0, -0.0138889, 20, -1.19993e-15, 70, 0
0, 0, -0.0138889, 20, -1.19993e-15, 90, 0
0, 0, -0.0138889, 33.3333, -1.92787e-15, -90, 0
0, 0, -0.0138889, 33.3333, -1.92787e-15, -70, 0
0, 0, -0.0138889, 33.3333, -1.92787e-15, -50, 1
0, 0, -0.0138889, 33.3333, -1.92787e-15, -30, 1
0, 0, -0.0138889, 33.3333, -1.92787e-15, -10, 1
0, 0, -0.0138889, 33.3333, -1.92787e-15, 10, 1
0, 0, -0.0138889, 33.3333, -1.92787e-15, 30, 1
0, 0, -0.0138889, 33.3333, -1.92787e-15, 50, 0
0, 0, -0.0138889, 33.3333, -1.92787e-15, 70, 0
0, 0, -0.0138889, 33.3333, -1.92787e-15, 90, 0
0, 0, -0.0138889, 46.6667, -2.55188e-15, -90, 0
0, 0, -0.0138889, 46.6667, -2.55188e-15, -70, 0
0, 0, -0.0138889, 46.6667, -2.55188e-15, -50, 0
0, 0, -0.0138889, 46.6667, -2.55188e-15, -30, 0
0, 0, -0.0138889, 46.6667, -2.55188e-15, -10, 1
0, 0, -0.0138889, 46.6667, -2.55188e-15, 10, 1
0, 0, -0.0138889, 46.6667, -2.55188e-15, 30, 0
0, 0, -0.0138889, 46.6667, -2.55188e-15, 50, 0
0, 0, -0.0138889, 46.6667, -2.55188e-15, 70, 0
0, 0, -0.0138889, 46.6667, -2.55188e-15, 90, 0
0, 0, -0.0138889, 60, -3.03832e-15, -90, 0
0, 0, -0.0138889, 60, -3.03832e-15, -70, 0
0, 0, -0.0138889, 60, -3.03832e-15, -50, 0
0, 0, -0.0138889, 60, -3.03832e-15, -30, 0
0, 0, -0.0138889, 60, -3.03832e-15, -10, 0
0, 0, -0.0138889, 60, -3.03832e-15, 10, 0
0, 0, -0.0138889, 60, -3.03832e-15, 30, 0
0, 0, -0.0138889, 60, -3.03832e-15, 50, 0
0, 0, -0.0138889, 60, -3.03832e-15, 70, 0
0, 0, -0.0138889, 60, -3.03832e-15, 90, 0
0, 0, -0.00833333, -60, 3.03832e-15, -90, 0
0, 0, -0.00833333, -60, 3.03832e-15, -70, 0
0, 0, -0.00833333, -60, 3.03832e-15, -50, 0
0, 0, -0.00833333, -60, 3.03832e-15, -30, 0
0, 0, -0.00833333, -60, 3.03832e-15, -10, 0
0, 0, -0.00833333, -60, 3.03832e-15, 10, 0
0, 0, -0.00833333, -60, 3.03832e-15, 30, 0
0, 0, -0.00833333, -60, 3.03832e-15, 50, 0
0, 0, -0.00833333, -60, 3.03832e-15, 70, 0
0, 0, -0.00833333, -60, 3.03832e-15, 90, 0
0, 0, -0.00833333, -46.6667, 2.55188e-15, -90, 0
0, 0, -0.00833333, -46.6667, 2.55188e-15, -70, 0
0, 0, -0.00833333, -46.6667, 2.55188e-15, -50, 0
0, 0, -0.00833333, -46.6667, 2.55188e-15, -30, 1
0, 0, -0.00833333, -46.6667, 2.55188e-15, -10, 1
0, 0, -0.00833333, -46.6667, 2.55188e-15, 10, 1
0, 0, -0.00833333, -46.6667, 2.55188e-15, 30, 0
0, 0, -0.00833333, -46.6667, 2.55188e-15, 50, 0
0, 0, -0.00833333, -46.6667, 2.55188e-15, 70, 0
0, 0, -0.00833333, -46.6667, 2.55188e-15, 90, 0
0, 0, -0.00833333, -33.3333, 1.92787e-15, -90, 0
0, 0, -0.00833333, -33.3333, 1.92787e-15, -70, 0
0, 0, -0.00833333, -33.3333, 1.92787e-15, -50, 0
0, 0, -0.00833333, -33.3333, 1.92787e-15, -30, 1
0, 0, -0.00833333, -33.3333, 1.92787e-15, -10, 1
0, 0, -0.00833333, -33.3333, 1.92787e-15, 10, 1
0, 0, -0.00833333, -33.3333, 1.92787e-15, 30, 1
0, 0, -0.00833333, -33.3333, 1.92787e-15, 50, 0
0, 0, -0.00833333, -33.3333, 1.92787e-15, 70, 0
0, 0, -0.00833333, -33.3333, 1.92787e-15, 90, 1
0, 0, -0.00833333, -20, 1.19993e-15, -90, 0
0, 0, -0.00833333, -20, 1.19993e-15, -70, 0
0, 0, -0.00833333, -20, 1.19993e-15, -50, 1
0, 0, -0.00833333, -20, 1.19993e-15, -30, 1
0, 0, -0.00833333, -20, 1.19993e-15, -10, 1
0, 0, -0.00833333, -20, 1.19993e-15, 10, 1
0, 0, -0.00833333, -20, 1.19993e-15, 30, 1
0, 0, -0.00833333, -20, 1.19993e-15, 50, 1
0, 0, -0.00833333, -20, 1.19993e-15, 70, 0
0, 0, -0.00833333, -20, 1.19993e-15, 90, 1
0, 0, -0.00833333, -6.66667, 4.07295e-16, -90, 0
0, 0, -0.00833333, -6.66667, 4.07295e-16, -70, 0
0, 0, -0.00833333, -6.66667, 4.07295e-16, -50, 1
0, 0, -0.00833333, -6.66667, 4.07295e-16, -30, 1
0, 0, -0.00833333, -6.66667, 4.07295e-16, -10, 1
0, 0, -0.00833333, -6.66667, 4.07295e-16, 10, 1
0, 0, -0.00833333, -6.66667, 4.07295e-16, 30, 1
0, 0, -0.00833333, -6.66667, 4.07295e-16, 50, 1
0, 0, -0.00833333, -6.66667, 4.07295e-16, 70, 1
0, 0, -0.00833333, -6.66667, 4.07295e-16, 90, 1
0, 0, -0.00833333, 6.66667, -4.07295e-16, -90, 0
0, 0, -0.00833333, 6.66667, -4.07295e-16, -70, 0
0, 0, -0.00833333, 6.66667, -4.07295e-16, -50, 1
0, 0, -0.00833333, 6.66667, -4.07295e-16, -30, 1
0, 0, -0.00833333, 6.66667, -4.07295e-16, -10, 1
0, 0, -0.00833333, 6.66667, -4.07295e-16, 10, 1
0, 0, -0.00833333, 6.66667, -4.07295e-16, 30, 1
0, 0, -0.00833333, 6.66667, -4.07295e-16, 50, 1
0, 0, -0.00833333, 6.66667, -4.07295e-16, 70, 1
0, 0, -0.00833333, 6.66667, -4.07295e-16, 90, 1
0, 0, -0.00833333, 20, -1.19993e-15, -90, 0
0, 0, -0.00833333, 20, -1.19993e-15, -70, 0
0, 0, -0.00833333, 20, -1.19993e-15, -50, 1
0, 0, -0.00833333, 20, -1.19993e-15, -30, 1
0, 0, -0.00833333, 20, -1.19993e-15, -10, 1
0, 0, -0.00833333, 20, -1.19993e-15, 10, 1
0, 0, -0.00833333, 20, -1.19993e-15, 30, 1
0, 0, -0.00833333, 20, -1.19993e-15, 50, 1
0, 0, -0.00833333, 20, -1.19993e-15, 70, 0
0, 0, -0.00833333, 20, -1.19993e-15, 90, 1
0, 0, -0.00833333, 33.3333, -1.92787e-15, -90, 0
0, 0, -0.00833333, 33.3333, -1.92787e-15, -70, 0
0, 0, -0.00833333, 33.3333, -1.92787e-15, -50, 0
0, 0, -0.00833333, 33.3333, -1.92787e-15, -30, 1
0, 0, -0.00833333, 33.3333, -1.92787e-15, -10, 1
0, 0, -0.00833333, 33.3333, -1.92787e-15, 10, 1
0, 0, -0.00833333, 33.3333, -1.92787e-15, 30, 1
0, 0, -0.00833333, 33.3333, -1.92787e-15, 50, 0
0, 0, -0.00833333, 33.3333, -1.92787e-15, 70, 0
0, 0, -0.00833333, 33.3333, -1.92787e-15, 90, 0
0, 0, -0.00833333, 46.6667, -2.55188e-15, -90, 0
0, 0, -0.00833333, 46.6667, -2.55188e-15, -70, 0
0, 0, -0.00833333, 46.6667, -2.55188e-15, -50, 0
0, 0, -0.00833333, 46.6667, -2.55188e-15, -30, 1
0, 0, -0.00833333, 46.6667, -2.55188e-15, -10, 1
0, 0, -0.00833333, 46.6667, -2.55188e-15, 10, 1
0, 0, -0.00833333, 46.6667, -2.55188e-15, 30, 0
0, 0, -0.00833333, 46.6667, -2.55188e-15, 50, 0
0, 0, -0.00833333, 46.6667, -2.55188e-15, 70, 0
0, 0, -0.00833333, 46.6667, -2.55188e-15, 90, 0
0, 0, -0.00833333, 60, -3.03832e-15, -90, 0
0, 0, -0.00833333, 60, -3.03832e-15, -70, 0
0, 0, -0.00833333, 60, -3.03832e-15, -50, 0
0, 0, -0.00833333, 60, -3.03832e-15, -30, 0
0, 0, -0.00833333, 60, -3.03832e-15, -10, 0
0, 0, -0.00833333, 60, -3.03832e-15, 10, 0
0, 0, -0.00833333, 60, -3.03832e-15, 30, 0
0, 0, -0.00833333, 60, -3.03832e-15, 50, 0
0, 0, -0.00833333, 60, -3.03832e-15, 70, 0
0, 0, -0.00833333, 60, -3.03832e-15, 90, 0
0, 0, -0.00277778, -60, 3.03832e-15, -90, 0
0, 0, -0.00277778, -60, 3.03832e-15, -70, 0
0, 0, -0.00277778, -60, 3.03832e-15, -50, 0
0, 0, -0.00277778, -60, 3.03832e-15, -30, 0
0, 0, -0.00277778, -60, 3.03832e-15, -10, 0
0, 0, -0.00277778, -60, 3.03832e-15, 10, 0
0, 0, -0.00277778, -60, 3.03832e-15, 30, 0
0, 0, -0.00277778, -60, 3.03832e-15, 50, 0
0, 0, -0.00277778, -60, 3.03832e-15, 70, 0
0, 0, -0.00277778, -60, 3.03832e-15, 90, 0
0, 0, -0.00277778, -46.6667, 2.55188e-15, -90, 0
0, 0, -0.00277778, -46.6667, 2.55188e-15, -70, 0
0, 0, -0.00277778, -46.6667, 2.55188e-15, -50, 0
0, 0, -0.00277778, -46.6667, 2.55188e-15, -30, 1
0, 0, -0.00277778, -46.6667, 2.55188e-15, -10, 1
0, 0, -0.00277778, -46.6667, 2.55188e-15, 10, 1
0, 0, -0.00277778, -46.6667, 2.55188e-15, 30, 0
0, 0, -0.00277778, -46.6667, 2.55188e-15, 50, 0
0, 0, -0.00277778, -46.6667, 2.55188e-15, 70, 0
0, 0, -0.00277778, -46.6667, 2.55188e-15, 90, 0
0, 0, -0.00277778, -33.3333, 1.92787e-15, -90, 0
0, 0, -0.00277778, -33.3333, 1.92787e-15, -70, 0
0, 0, -0.00277778, -33.3333, 1.92787e-15, -50, 0
0, 0, -0.00277778, -33.3333, 1.92787e-15, -30, 1
0, 0, -0.00277778, -33.3333, 1.92787e-15, -10, 1
0, 0, -0.00277778, -33.3333, 1.92787e-15, 10, 1
0, 0, -0.00277778, -33.3333, 1.92787e-15, 30, 1
0, 0, -0.00277778, -33.3333, 1.92787e-15, 50, 1
0, 0, -0.00277778, -33.3333, 1.92787e-15, 70, 0
0, 0, -0.00277778, -33.3333, 1.92787e-15, 90, 1
0, 0, -0.00277778, -20, 1.19993e-15, -90, 0
0, 0, -0.00277778, -20, 1.19993e-15, -70, 0
0, 0, -0.00277778, -20, 1.19993e-15, -50, 0
0, 0, -0.00277778, -20, 1.19993e-15, -30, 1
0, 0, -0.00277778, -20, 1.19993e-15, -10, 1
0, 0, -0.00277778, -20, 1.19993e-15, 10, 1
0, 0, -0.00277778, -20, 1.19993e-15, 30, 1
0, 0, -0.00277778, -20, 1.19993e-15, 50, 1
0, 0, -0.00277778, -20, 1.19993e-15, 70, 0
0, 0, -0.00277778, -20, 1.19993e-15, 90, 0
0, 0, -0.00277778, -6.66667, 4.07295e-16, -90, 0
0, 0, -0.00277778, -6.66667, 4.07295e-16, -70, 0
0, 0, -0.00277778, -6.66667, 4.07295e-16, -50, 0
0, 0, -0.00277778, -6.66667, 4.07295e-16, -30, 1
0, 0, -0.00277778, -6.66667, 4.07295e-16, -10, 1
0, 0, -0.00277778, -6.66667, 4.07295e-16, 10, 1
0, 0, -0.00277778, -6.66667, 4.07295e-16, 30, 1
0, 0, -0.00277778, -6.66667, 4.07295e-16, 50, 1
0, 0, -0.00277778, -6.66667, 4.07295e-16, 70, 1
0, 0, -0.00277778, -6.66667, 4.07295e-16, 90, 1
0, 0, -0.00277778, 6.66667, -4.07295e-16, -90, 0
0, 0, -0.00277778, 6.66667, -4.07295e-16, -70, 0
0, 0, -0.00277778, 6.66667, -4.07295e-16, -50, 0
0, 0, -0.00277778, 6.66667, -4.07295e-16, -30, 1
0, 0, -0.00277778, 6.66667, -4.07295e-16, -10, 1
0, 0, -0.00277778, 6.66667, -4.07295e-16, 10, 1
0, 0, -0.00277778, 6.66667, -4.07295e-16, 30, 1
0, 0, -0.00277778, 6.66667, -4.07295e-16, 50, 1
0, 0, -0.00277778, 6.66667, -4.07295e-16, 70, 1
0, 0, -0.00277778, 6.66667, -4.07295e-16, 90, 0
0, 0, -0.00277778, 20, -1.19993e-15, -90, 0
0, 0, -0.00277778, 20, -1.19993e-15, -70, 0
0, 0, -0.00277778, 20, -1.19993e-15, -50, 0
0, 0, -0.00277778, 20, -1.19993e-15, -30, 1
0, 0, -0.00277778, 20, -1.19993e-15, -10, 1
0, 0, -0.00277778, 20, -1.19993e-15, 10, 1
0, 0, -0.00277778, 20, -1.19993e-15, 30, 1
0, 0, -0.00277778, 20, -1.19993e-15, 50, 1
0, 0, -0.00277778, 20, -1.19993e-15, 70, 0
0, 0, -0.00277778, 20, -1.19993e-15, 90, 1
0, 0, -0.00277778, 33.3333, -1.92787e-15, -90, 0
0, 0, -0.00277778, 33.3333, -1.92787e-15, -70, 0
0, 0, -0.00277778, 33.3333, -1.92787e-15, -50, 0
0, 0, -0.00277778, 33.3333, -1.92787e-15, -30, 1
0, 0, -0.00277778, 33.3333, -1.92787e-15, -10, 1
0, 0, -0.00277778, 33.3333, -1.92787e-15, 10, 1
0, 0, -0.00277778, 33.3333, -1.92787e-15, 30, 1
0, 0, -0.00277778, 33.3333, -1.92787e-15, 50, 1
0, 0, -0.00277778, 33.3333, -1.92787e-15, 70, 0
0, 0, -0.00277778, 33.3333, -1.92787e-15, 90, 0
0, 0, -0.00277778, 46.6667, -2.55188e-15, -90, 0
0, 0, -0.00277778, 46.6667, -2.55188e-15, -70, 0
0, 0, -0.00277778, 46.6667, -2.55188e-15, -50, 0
0, 0, -0.00277778, 46.6667, -2.55188e-15, -30, 1
0, 0, -0.00277778, 46.6667, -2.55188e-15, -10, 1
0, 0, -0.00277778, 46.6667, -2.55188e-15, 10, 1
0, 0, -0.00277778, 46.6667, -2.55188e-15, 30, 0
0, 0, -0.00277778, 46.6667, -2.55188e-15, 50, 0
0, 0, -0.00277778, 46.6667, -2.55188e-15, 70, 0
0, 0, -0.00277778, 46.6667, -2.55188e-15, 90, 0
0, 0, -0.00277778, 60, -3.03832e-15, -90, 0
0, 0, -0.00277778, 60, -3.03832e-15, -70, 0
0, 0, -0.00277778, 60, -3.03832e-15, -50, 0
0, 0, -0.00277778, 60, -3.03832e-15, -30, 0
0, 0, -0.00277778, 60, -3.03832e-15, -10, 0
0, 0, -0.00277778, 60, -3.03832e-15, 10, 0
0, 0, -0.00277778, 60, -3.03832e-15, 30, 0
0, 0, -0.00277778, 60, -3.03832e-15, 50, 0
0, 0, -0.00277778, 60, -3.03832e-15, 70, 0
0, 0, -0.00277778, 60, -3.03832e-15, 90, 0
0, 0, 0.00277778, -60, 3.03832e-15, -90, 0
0, 0, 0.00277778, -60, 3.03832e-15, -70, 0
0, 0, 0.00277778, -60, 3.03832e-15, -50, 0
0, 0, 0.00277778, -60, 3.03832e-15, -30, 0
0, 0, 0.00277778, -60, 3.03832e-15, -10, 0
0, 0, 0.00277778, -60, 3.03832e-15, 10, 0
0, 0, 0.00277778, -60, 3.03832e-15, 30, 0
0, 0, 0.00277778, -60, 3.03832e-15, 50, 0
0, 0, 0.00277778, -60, 3.03832e-15, 70, 0
0, 0, 0.00277778, -60, 3.03832e-15, 90, 0
0, 0, 0.00277778, -46.6667, 2.55188e-15, -90, 0
0, 0, 0.00277778, -46.6667, 2.55188e-15, -70, 0
0, 0, 0.00277778, -46.6667, 2.55188e-15, -50, 0
0, 0, 0.00277778, -46.6667, 2.55188e-15, -30, 1
0, 0, 0.00277778, -46.6667, 2.55188e-15, -10, 1
0, 0, 0.00277778, -46.6667, 2.55188e-15, 10, 1
0, 0, 0.00277778, -46.6667, 2.55188e-15, 30, 0
0, 0, 0.00277778, -46.6667, 2.55188e-15, 50, 0
0, 0, 0.00277778, -46.6667, 2.55188e-15, 70, 0
0, 0, 0.00277778, -46.6667, 2.55188e-15, 90, 0
0, 0, 0.00277778, -33.3333, 1.92787e-15, -90, 0
0, 0, 0.00277778, -33.3333, 1.92787e-15, -70, 0
0, 0, 0.00277778, -33.3333, 1.92787e-15, -50, 0
0, 0, 0.00277778, -33.3333, 1.92787e-15, -30, 1
0, 0, 0.00277778, -33.3333, 1.92787e-15, -10, 1
0, 0, 0.00277778, -33.3333, 1.92787e-15, 10, 1
0, 0, 0.00277778, -33.3333, 1.92787e-15, 30, 1
0, 0, 0.00277778, -33.3333, 1.92787e-15, 50, 1
0, 0, 0.00277778, -33.3333, 1.92787e-15, 70, 1
0, 0, 0.00277778, -33.3333, 1.92787e-15, 90, 1
0, 0, 0.00277778, -20, 1.19993e-15, -90, 0
0, 0, 0.00277778, -20, 1.19993e-15, -70, 0
0, 0, 0.00277778, -20, 1.19993e-15, -50, 0
0, 0, 0.00277778, -20, 1.19993e-15, -30, 1
0, 0, 0.00277778, -20, 1.19993e-15, -10, 1
0, 0, 0.00277778, -20, 1.19993e-15, 10, 1
0, 0, 0.00277778, -20, 1.19993e-15, 30, 1
0, 0, 0.00277778, -20, 1.19993e-15, 50, 1
0, 0, 0.00277778, -20, 1.19993e-15, 70, 1
0, 0, 0.00277778, -20, 1.19993e-15, 90, 1
0, 0, 0.00277778, -6.66667, 4.07295e-16, -90, 0
0, 0, 0.00277778, -6.66667, 4.07295e-16, -70, 0
0, 0, 0.00277778, -6.66667, 4.07295e-16, -50, 0
0, 0, 0.00277778, -6.66667, 4.07295e-16, -30, 1
0, 0, 0.00277778, -6.66667, 4.07295e-16, -10, 1
0, 0, 0.00277778, -6.66667, 4.07295e-16, 10, 1
0, 0, 0.00277778, -6.66667, 4.07295e-16, 30, 1
0, 0, 0.00277778, -6.66667, 4.07295e-16, 50, 1
0, 0, 0.00277778, -6.66667, 4.07295e-16, 70, 1
0, 0, 0.00277778, -6.66667, 4.07295e-16, 90, 1
0, 0, 0.00277778, 6.66667, -4.07295e-16, -90, 0
0, 0, 0.00277778, 6.66667, -4.07295e-16, -70, 0
0, 0, 0.00277778, 6.66667, -4.07295e-16, -50, 0
0, 0, 0.00277778, 6.66667, -4.07295e-16, -30, 1
0, 0, 0.00277778, 6.66667, -4.07295e-16, -10, 1
0, 0, 0.00277778, 6.66667, -4.07295e-16, 10, 1
0, 0, 0.00277778, 6.66667, -4.07295e-16, 30, 1
0, 0, 0.00277778, 6.66667, -4.07295e-16, 50, 1
0, 0, 0.00277778, 6.66667, -4.07295e-16, 70, 1
0, 0, 0.00277778, 6.66667, -4.07295e-16, 90, 1
0, 0, 0.00277778, 20, -1.19993e-15, -90, 0
0, 0, 0.00277778, 20, -1.19993e-15, -70, 0
0, 0, 0.00277778, 20, -1.19993e-15, -50, 0
0, 0, 0.00277778, 20, -1.19993e-15, -30, 1
0, 0, 0.00277778, 20, -1.19993e-15, -10, 1
0, 0, 0.00277778, 20, -1.19993e-15, 10, 1
0, 0, 0.00277778, 20, -1.19993e-15, 30, 1
0, 0, 0.00277778, 20, -1.19993e-15, 50, 1
0, 0, 0.00277778, 20, -1.19993e-15, 70, 1
0, 0, 0.00277778, 20, -1.19993e-15, 90, 1
0, 0, 0.00277778, 33.3333, -1.92787e-15, -90, 0
0, 0, 0.00277778, 33.3333, -1.92787e-15, -70, 0
0, 0, 0.00277778, 33.3333, -1.92787e-15, -50, 0
0, 0, 0.00277778, 33.3333, -1.92787e-15, -30, 1
0, 0, 0.00277778, 33.3333, -1.92787e-15, -10, 1
0, 0, 0.00277778, 33.3333, -1.92787e-15, 10, 1
0, 0, 0.00277778, 33.3333, -1.92787e-15, 30, 1
0, 0, 0.00277778, 33.3333, -1.92787e-15, 50, 1
0, 0, 0.00277778, 33.3333, -1.92787e-15, 70, 1
0, 0, 0.00277778, 33.3333, -1.92787e-15, 90, 0
0, 0, 0.00277778, 46.6667, -2.55188e-15, -90, 0
0, 0, 0.00277778, 46.6667, -2.55188e-15, -70, 0
0, 0, 0.00277778, 46.6667, -2.55188e-15, -50, 0
0, 0, 0.00277778, 46.6667, -2.55188e-15, -30, 1
0, 0, 0.00277778, 46.6667, -2.55188e-15, -10, 1
0, 0, 0.00277778, 46.6667, -2.55188e-15, 10, 1
0, 0, 0.00277778, 46.6667, -2.55188e-15, 30, 0
0, 0, 0.00277778, 46.6667, -2.55188e-15, 50, 0
0, 0, 0.00277778, 46.6667, -2.55188e-15, 70, 0
0, 0, 0.00277778, 46.6667, -2.55188e-15, 90, 0
0, 0, 0.00277778, 60, -3.03832e-15, -90, 0
0, 0, 0.00277778, 60, -3.03832e-15, -70, 0
0, 0, 0.00277778, 60, -3.03832e-15, -50, 0
0, 0, 0.00277778, 60, -3.03832e-15, -30, 0
0, 0, 0.00277778, 60, -3.03832e-15, -10, 0
0, 0, 0.00277778, 60, -3.03832e-15, 10, 0
0, 0, 0.00277778, 60, -3.03832e-15, 30, 0
0, 0, 0.00277778, 60, -3.03832e-15, 50, 0
0, 0, 0.00277778, 60, -3.03832e-15, 70, 0
0, 0, 0.00277778, 60, -3.03832e-15, 90, 0
0, 0, 0.00833333, -60, 3.03832e-15, -90, 0
0, 0, 0.00833333, -60, 3.03832e-15, -70, 0
0, 0, 0.00833333, -60, 3.03832e-15, -50, 0
0, 0, 0.00833333, -60, 3.03832e-15, -30, 0
0, 0, 0.00833333, -60, 3.03832e-15, -10, 0
0, 0, 0.00833333, -60, 3.03832e-15, 10, 0
0, 0, 0.00833333, -60, 3.03832e-15, 30, 0
0, 0, 0.00833333, -60, 3.03832e-15, 50, 0
0, 0, 0.00833333, -60, 3.03832e-15, 70, 0
0, 0, 0.00833333, -60, 3.03832e-15, 90, 0
0, 0, 0.00833333, -46.6667, 2.55188e-15, -90, 0
0, 0, 0.00833333, -46.6667, 2.55188e-15, -70, 0
0, 0, 0.00833333, -46.6667, 2.55188e-15, -50, 0
0, 0, 0.00833333, -46.6667, 2.55188e-15, -30, 0
0, 0, 0.00833333, -46.6667, 2.55188e-15, -10, 1
0, 0, 0.00833333, -46.6667, 2.55188e-15, 10, 1
0, 0, 0.00833333, -46.6667, 2.55188e-15, 30, 0
0, 0, 0.00833333, -46.6667, 2.55188e-15, 50, 0
0, 0, 0.00833333, -46.6667, 2.55188e-15, 70, 0
0, 0, 0.00833333, -46.6667, 2.55188e-15, 90, 0
0, 0, 0.00833333, -33.3333, 1.92787e-15, -90, 0
0, 0, 0.00833333, -33.3333, 1.92787e-15, -70, 0
0, 0, 0.00833333, -33.3333, 1.92787e-15, -50, 0
0, 0, 0.00833333, -33.3333, 1.92787e-15, -30, 1
0, 0, 0.00833333, -33.3333, 1.92787e-15, -10, 1
0, 0, 0.00833333, -33.3333, 1.92787e-15, 10, 1
0, 0, 0.00833333, -33.3333, 1.92787e-15, 30, 1
0, 0, 0.00833333, -33.3333, 1.92787e-15, 50, 1
0, 0, 0.00833333, -33.3333, 1.92787e-15, 70, 0
0, 0, 0.00833333, -33.3333, 1.92787e-15, 90, 1
0, 0, 0.00833333, -20, 1.19993e-15, -90, 0
0, 0, 0.00833333, -20, 1.19993e-15, -70, 0
0, 0, 0.00833333, -20, 1.19993e-15, -50, 0
0, 0, 0.00833333, -20, 1.19993e-15, -30, 1
0, 0, 0.00833333, -20, 1.19993e-15, -10, 1
0, 0, 0.00833333, -20, 1.19993e-15, 10, 1
0, 0, 0.00833333, -20, 1.19993e-15, 30, 1
0, 0, 0.00833333, -20, 1.19993e-15, 50, 1
0, 0, 0.00833333, -20, 1.19993e-15, 70, 0
0, 0, 0.00833333, -20, 1.19993e-15, 90, 1
0, 0, 0.00833333, -6.66667, 4.07295e-16, -90, 0
0, 0, 0.00833333, -6.66667, 4.07295e-16, -70, 0
0, 0, 0.00833333, -6.66667, 4.07295e-16, -50, 0
0, 0, 0.00833333, -6.66667, 4.07295e-16, -30, 1
0, 0, 0.00833333, -6.66667, 4.07295e-16, -10, 1
0, 0, 0.00833333, -6.66667, 4.07295e-16, 10, 1
0, 0, 0.00833333, -6.66667, 4.07295e-16, 30, 1
0, 0, 0.00833333, -6.66667, 4.07295e-16, 50, 1
0, 0, 0.00833333, -6.66667, 4.07295e-16, 70, 1
0, 0, 0.00833333, -6.66667, 4.07295e-16, 90, 1
0, 0, 0.00833333, 6.66667, -4.07295e-16, -90, 0
0, 0, 0.00833333, 6.66667, -4.07295e-16, -70, 0
0, 0, 0.00833333, 6.66667, -4.07295e-16, -50, 0
0, 0, 0.00833333, 6.66667, -4.07295e-16, -30, 1
0, 0, 0.00833333, 6.66667, -4.07295e-16, -10, 1
0, 0, 0.00833333, 6.66667, -4.07295e-16, 10, 1
0, 0, 0.00833333, 6.66667, -4.07295e-16, 30, 1
0, 0, 0.00833333, 6.66667, -4.07295e-16, 50, 1
0, 0, 0.00833333, 6.66667, -4.07295e-16, 70, 1
0, 0, 0.00833333, 6.66667, -4.07295e-16, 90, 1
0, 0, 0.00833333, 20, -1.19993e-15, -90, 0
0, 0, 0.00833333, 20, -1.19993e-15, -70, 0
0, 0, 0.00833333, 20, -1.19993e-15, -50, 0
0, 0, 0.00833333, 20, -1.19993e-15, -30, 1
0, 0, 0.00833333, 20, -1.19993e-15, -10, 1
0, 0, 0.00833333, 20, -1.19993e-15, 10, 1
0, 0, 0.00833333, 20, -1.19993e-15, 30, 1
0, 0, 0.00833333, 20, -1.19993e-15, 50, 1
0, 0, 0.00833333, 20, -1.19993e-15, 70, 0
0, 0, 0.00833333, 20, -1.19993e-15, 90, 1
0, 0, 0.00833333, 33.3333, -1.92787e-15, -90, 0
0, 0, 0.00833333, 33.3333, -1.92787e-15, -70, 0
0, 0, 0.00833333, 33.3333, -1.92787e-15, -50, 0
0, 0, 0.00833333, 33.3333, -1.92787e-15, -30, 1
0, 0, 0.00833333, 33.3333, -1.92787e-15, -10, 1
0, 0, 0.00833333, 33.3333, -1.92787e-15, 10, 1
0, 0, 0.00833333, 33.3333, -1.92787e-15, 30, 1
0, 0, 0.00833333, 33.3333, -1.92787e-15, 50, 1
0, 0, 0.00833333, 33.3333, -1.92787e-15, 70, 0
0, 0, 0.00833333, 33.3333, -1.92787e-15, 90, 0
0, 0, 0.00833333, 46.6667, -2.55188e-15, -90, 0
0, 0, 0.00833333, 46.6667, -2.55188e-15, -70, 0
0, 0, 0.00833333, 46.6667, -2.55188e-15, -50, 0
0, 0, 0.00833333, 46.6667, -2.55188e-15, -30, 0
0, 0, 0.00833333, 46.6667, -2.55188e-15, -10, 1
0, 0, 0.00833333, 46.6667, -2.55188e-15, 10, 1
0, 0, 0.00833333, 46.6667, -2.55188e-15, 30, 0
0, 0, 0.00833333, 46.6667, -2.55188e-15, 50, 0
0, 0, 0.00833333, 46.6667, -2.55188e-15, 70, 0
0, 0, 0.00833333, 46.6667, -2.55188e-15, 90, 0
0, 0, 0.00833333, 60, -3.03832e-15, -90, 0
0, 0, 0.00833333, 60, -3.03832e-15, -70, 0
0, 0, 0.00833333, 60, -3.03832e-15, -50, 0
0, 0, 0.00833333, 60, -3.03832e-15, -30, 0
0, 0, 0.00833333, 60, -3.03832e-15, -10, 0
0, 0, 0.00833333, 60, -3.03832e-15, 10, 0
0, 0, 0.00833333, 60, -3.03832e-15, 30, 0
0, 0, 0.00833333, 60, -3.03832e-15, 50, 0
0, 0, 0.00833333, 60, -3.03832e-15, 70, 0
0, 0, 0.00833333, 60, -3.03832e-15, 90, 0
0, 0, 0.0138889, -60, 3.03832e-15, -90, 0
0, 0, 0.0138889, -60, 3.03832e-15, -70, 0
0, 0, 0.0138889, -60, 3.03832e-15, -50, 0
0, 0, 0.0138889, -60, 3.03832e-15, -30, 0
0, 0, 0.0138889, -60, 3.03832e-15, -10, 0
0, 0, 0.0138889, -60, 3.03832e-15, 10, 0
0, 0, 0.0138889, -60, 3.03832e-15, 30, 0
0, 0, 0.0138889, -60, 3.03832e-15, 50, 0
0, 0, 0.0138889, -60, 3.03832e-15, 70, 0
0, 0, 0.0138889, -60, 3.03832e-15, 90, 0
0, 0, 0.0138889, -46.6667, 2.55188e-15, -90, 0
0, 0, 0.0138889, -46.6667, 2.55188e-15, -70, 0
0, 0, 0.0138889, -46.6667, 2.55188e-15, -50, 0
0, 0, 0.0138889, -46.6667, 2.55188e-15, -30, 0
0, 0, 0.0138889, -46.6667, 2.55188e-15, -10, 1
0, 0, 0.0138889, -46.6667, 2.55188e-15, 10, 1
0, 0, 0.0138889, -46.6667, 2.55188e-15, 30, 0
0, 0, 0.0138889, -46.6667, 2.55188e-15, 50, 0
0, 0, 0.0138889, -46.6667, 2.55188e-15, 70, 0
0, 0, 0.0138889, -46.6667, 2.55188e-15, 90, 0
0, 0, 0.0138889, -33.3333, 1.92787e-15, -90, 0
0, 0, 0.0138889, -33.3333, 1.92787e-15, -70, 0
0, 0, 0.0138889, -33.3333, 1.92787e-15, -50, 0
0, 0, 0.0138889, -33.3333, 1.92787e-15, -30, 1
0, 0, 0.0138889, -33.3333, 1.92787e-15, -10, 1
0, 0, 0.0138889, -33.3333, 1.92787e-15, 10, 1
0, 0, 0.0138889, -33.3333, 1.92787e-15, 30, 1
0, 0, 0.0138889, -33.3333, 1.92787e-15, 50, 0
0, 0, 0.0138889, -33.3333, 1.92787e-15, 70, 0
0, 0, 0.0138889, -33.3333, 1.92787e-15, 90, 0
0, 0, 0.0138889, -20, 1.19993e-15, -90, 0
0, 0, 0.0138889, -20, 1.19993e-15, -70, 0
0, 0, 0.0138889, -20, 1.19993e-15, -50, 0
0, 0, 0.0138889, -20, 1.19993e-15, -30, 1
0, 0, 0.0138889, -20, 1.19993e-15, -10, 1
0, 0, 0.0138889, -20, 1.19993e-15, 10, 1
0, 0, 0.0138889, -20, 1.19993e-15, 30, 1
0, 0, 0.0138889, -20, 1.19993e-15, 50, 1
0, 0, 0.0138889, -20, 1.19993e-15, 70, 0
0, 0, 0.0138889, -20, 1.19993e-15, 90, 0
0, 0, 0.0138889, -6.66667, 4.07295e-16, -90, 0
0, 0, 0.0138889, -6.66667, 4.07295e-16, -70, 0
0, 0, 0.0138889, -6.66667, 4.07295e-16, -50, 0
0, 0, 0.0138889, -6.66667, 4.07295e-16, -30, 1
0, 0, 0.0138889, -6.66667, 4.07295e-16, -10, 1
0, 0, 0.0138889, -6.66667, 4.07295e-16, 10, 1
0, 0, 0.0138889, -6.66667, 4.07295e-16, 30, 1
0, 0, 0.0138889, -6.66667, 4.07295e-16, 50, 1
0, 0, 0.0138889, -6.66667, 4.07295e-16, 70, 1
0, 0, 0.0138889, -6.66667, 4.07295e-16, 90, 0
0, 0, 0.0138889, 6.66667, -4.07295e-16, -90, 0
0, 0, 0.0138889, 6.66667, -4.07295e-16, -70, 0
0, 0, 0.0138889, 6.66667, -4.07295e-16, -50, 0
0, 0, 0.0138889, 6.66667, -4.07295e-16, -30, 1
0, 0, 0.0138889, 6.66667, -4.07295e-16, -10, 1
0, 0, 0.0138889, 6.66667, -4.07295e-16, 10, 1
0, 0, 0.0138889, 6.66667, -4.07295e-16, 30, 1
0, 0, 0.0138889, 6.66667, -4.07295e-16, 50, 1
0, 0, 0.0138889, 6.66667, -4.07295e-16, 70, 1
0, 0, 0.0138889, 6.66667, -4.07295e-16, 90, 0
0, 0, 0.0138889, 20, -1.19993e-15, -90, 0
0, 0, 0.0138889, 20, -1.19993e-15, -70, 0
0, 0, 0.0138889, 20, -1.19993e-15, -50, 0
0, 0, 0.0138889, 20, -1.19993e-15, -30, 1
0, 0, 0.0138889, 20, -1.19993e-15, -10, 1
0, 0, 0.0138889, 20, -1.19993e-15, 10, 1
0, 0, 0.0138889, 20, -1.19993e-15, 30, 1
0, 0, 0.0138889, 20, -1.19993e-15, 50, 1
0, 0, 0.0138889, 20, -1.19993e-15, 70, 0
0, 0, 0.0138889, 20, -1.19993e-15, 90, 0
0, 0, 0.0138889, 33.3333, -1.92787e-15, -90, 0
0, 0, 0.0138889, 33.3333, -1.92787e-15, -70, 0
0, 0, 0.0138889, 33.3333, -1.92787e-15, -50, 0
0, 0, 0.0138889, 33.3333, -1.92787e-15, -30, 1
0, 0, 0.0138889, 33.3333, -1.92787e-15, -10, 1
0, 0, 0.0138889, 33.3333, -1.92787e-15, 10, 1
0, 0, 0.0138889, 33.3333, -1.92787e-15, 30, 1
0, 0, 0.0138889, 33.3333, -1.92787e-15, 50, 0
0, 0, 0.0138889, 33.3333, -1.92787e-15, 70, 0
0, 0, 0.0138889, 33.3333, -1.92787e-15, 90, 0
0, 0, 0.0138889, 46.6667, -2.55188e-15, -90, 0
0, 0, 0.0138889, 46.6667, -2.55188e-15, -70, 0
0, 0, 0.0138889, 46.6667, -2.55188e-15, -50, 0
0, 0, 0.0138889, 46.6667, -2.55188e-15, -30, 0
0, 0, 0.0138889, 46.6667, -2.55188e-15, -10, 1
0, 0, 0.0138889, 46.6667, -2.55188e-15, 10, 1
0, 0, 0.0138889, 46.6667, -2.55188e-15, 30, 0
0, 0, 0.0138889, 46.6667, -2.55188e-15, 50, 0
0, 0, 0.0138889, 46.6667, -2.55188e-15, 70, 0
0, 0, 0.0138889, 46.6667, -2.55188e-15, 90, 0
0, 0, 0.0138889, 60, -3.03832e-15, -90, 0
0, 0, 0.0138889, 60, -3.03832e-15, -70, 0
0, 0, 0.0138889, 60, -3.03832e-15, -50, 0
0, 0, 0.0138889, 60, -3.03832e-15, -30, 0
0, 0, 0.0138889, 60, -3.03832e-15, -10, 0
0, 0, 0.0138889, 60, -3.03832e-15, 10, 0
0, 0, 0.0138889, 60, -3.03832e-15, 30, 0
0, 0, 0.0138889, 60, -3.03832e-15, 50, 0
0, 0, 0.0138889, 60, -3.03832e-15, 70, 0
0, 0, 0.0138889, 60, -3.03832e-15, 90, 0
0, 0, 0.0194444, -60, 3.03832e-15, -90, 0
0, 0, 0.0194444, -60, 3.03832e-15, -70, 0
0, 0, 0.0194444, -60, 3.03832e-15, -50, 0
0, 0, 0.0194444, -60, 3.03832e-15, -30, 0
0, 0, 0.0194444, -60, 3.03832e-15, -10, 0
0, 0, 0.0194444, -60, 3.03832e-15, 10, 0
0, 0, 0.0194444, -60, 3.03832e-15, 30, 0
0, 0, 0.0194444, -60, 3.03832e-15, 50, 0
0, 0, 0.0194444, -60, 3.03832e-15, 70, 0
0, 0, 0.0194444, -60, 3.03832e-15, 90, 0
0, 0, 0.0194444, -46.6667, 2.55188e-15, -90, 0
0, 0, 0.0194444, -46.6667, 2.55188e-15, -70, 0
0, 0, 0.0194444, -46.6667, 2.55188e-15, -50, 0
0, 0, 0.0194444, -46.6667, 2.55188e-15, -30, 0
0, 0, 0.0194444, -46.6667, 2.55188e-15, -10, 1
0, 0, 0.0194444, -46.6667, 2.55188e-15, 10, 1
0, 0, 0.0194444, -46.6667, 2.55188e-15, 30, 0
0, 0, 0.0194444, -46.6667, 2.55188e-15, 50, 0
0, 0, 0.0194444, -46.6667, 2.55188e-15, 70, 0
0, 0, 0.0194444, -46.6667, 2.55188e-15, 90, 0
0, 0, 0.0194444, -33.3333, 1.92787e-15, -90, 0
0, 0, 0.0194444, -33.3333, 1.92787e-15, -70, 0
0, 0, 0.0194444, -33.3333, 1.92787e-15, -50, 0
0, 0, 0.0194444, -33.3333, 1.92787e-15, -30, 1
0, 0, 0.0194444, -33.3333, 1.92787e-15, -10, 1
0, 0, 0.0194444, -33.3333, 1.92787e-15, 10, 1
0, 0, 0.0194444, -33.3333, 1.92787e-15, 30, 1
0, 0, 0.0194444, -33.3333, 1.92787e-15, 50, 0
0, 0, 0.0194444, -33.3333, 1.92787e-15, 70, 0
0, 0, 0.0194444, -33.3333, 1.92787e-15, 90, 0
0, 0, 0.0194444, -20, 1.19993e-15, -90, 0
0, 0, 0.0194444, -20, 1.19993e-15, -70, 0
0, 0, 0.0194444, -20, 1.19993e-15, -50, 0
0, 0, 0.0194444, -20, 1.19993e-15, -30, 1
0, 0, 0.0194444, -20, 1.19993e-15, -10, 1
0, 0, 0.0194444, -20, 1.19993e-15, 10, 1
0, 0, 0.0194444, -20, 1.19993e-15, 30, 1
0, 0, 0.0194444, -20, 1.19993e-15, 50, 1
0, 0, 0.0194444, -20, 1.19993e-15, 70, 0
0, 0, 0.0194444, -20, 1.19993e-15, 90, 0
0, 0, 0.0194444, -6.66667, 4.07295e-16, -90, 0
0, 0, 0.0194444, -6.66667, 4.07295e-16, -70, 0
0, 0, 0.0194444, -6.66667, 4.07295e-16, -50, 0
0, 0, 0.0194444, -6.66667, 4.07295e-16, -30, 1
0, 0, 0.0194444, -6.66667, 4.07295e-16, -10, 1
0, 0, 0.0194444, -6.66667, 4.07295e-16, 10, 1
0, 0, 0.0194444, -6.66667, 4.07295e-16, 30, 1
0, 0, 0.0194444, -6.66667, 4.07295e-16, 50, 1
0, 0, 0.0194444, -6.66667, 4.07295e-16, 70, 1
0, 0, 0.0194444, -6.66667, 4.07295e-16, 90, 0
0, 0, 0.0194444, 6.66667, -4.07295e-16, -90, 0
0, 0, 0.0194444, 6.66667, -4.07295e-16, -70, 0
0, 0, 0.0194444, 6.66667, -4.07295e-16, -50, 0
0, 0, 0.0194444, 6.66667, -4.07295e-16, -30, 1
0, 0, 0.0194444, 6.66667, -4.07295e-16, -10, 1
0, 0, 0.0194444, 6.66667, -4.07295e-16, 10, 1
0, 0, 0.0194444, 6.66667, -4.07295e-16, 30, 1
0, 0, 0.0194444, 6.66667, -4.07295e-16, 50, 1
0, 0, 0.0194444, 6.66667, -4.07295e-16, 70, 1
0, 0, 0.0194444, 6.66667, -4.07295e-16, 90, 0
0, 0, 0.0194444, 20, -1.19993e-15, -90, 0
0, 0, 0.0194444, 20, -1.19993e-15, -70, 0
0, 0, 0.0194444, 20, -1.19993e-15, -50, 0
0, 0, 0.0194444, 20, -1.19993e-15, -30, 1
0, 0, 0.0194444, 20, -1.19993e-15, -10, 1
0, 0, 0.0194444, 20, -1.19993e-15, 10, 1
0, 0, 0.0194444, 20, -1.19993e-15, 30, 1
0, 0, 0.0194444, 20, -1.19993e-15, 50, 1
0, 0, 0.0194444, 20, -1.19993e-15, 70, 0
0, 0, 0.0194444, 20, -1.19993e-15, 90, 0
0, 0, 0.0194444, 33.3333, -1.92787e-15, -90, 0
0, 0, 0.0194444, 33.3333, -1.92787e-15, -70, 0
0, 0, 0.0194444, 33.3333, -1.92787e-15, -50, 0
0, 0, 0.0194444, 33.3333, -1.92787e-15, -30, 1
0, 0, 0.0194444, 33.3333, -1.92787e-15, -10, 1
0, 0, 0.0194444, 33.3333, -1.92787e-15, 10, 1
0, 0, 0.0194444, 33.3333, -1.92787e-15, 30, 1
0, 0, 0.0194444, 33.3333, -1.92787e-15, 50, 1
0, 0, 0.0194444, 33.3333, -1.92787e-15, 70, 0
0, 0, 0.0194444, 33.3333, -1.92787e-15, 90, 0
0, 0, 0.0194444, 46.6667, -2.55188e-15, -90, 0
0, 0, 0.0194444, 46.6667, -2.55188e-15, -70, 0
0, 0, 0.0194444, 46.6667, -2.55188e-15, -50, 0
0, 0, 0.0194444, 46.6667, -2.55188e-15, -30, 0
0, 0, 0.0194444, 46.6667, -2.55188e-15, -10, 1
0, 0, 0.0194444, 46.6667, -2.55188e-15, 10, 1
0, 0, 0.0194444, 46.6667, -2.55188e-15, 30, 0
0, 0, 0.0194444, 46.6667, -2.55188e-15, 50, 0
0, 0, 0.0194444, 46.6667, -2.55188e-15, 70, 0
0, 0, 0.0194444, 46.6667, -2.55188e-15, 90, 0
0, 0, 0.0194444, 60, -3.03832e-15, -90, 0
0, 0, 0.0194444, 60, -3.03832e-15, -70, 0
0, 0, 0.0194444, 60, -3.03832e-15, -50, 0
0, 0, 0.0194444, 60, -3.03832e-15, -30, 0
0, 0, 0.0194444, 60, -3.03832e-15, -10, 0
0, 0, 0.0194444, 60, -3.03832e-15, 10, 0
0, 0, 0.0194444, 60, -3.03832e-15, 30, 0
0, 0, 0.0194444, 60, -3.03832e-15, 50, 0
0, 0, 0.0194444, 60, -3.03832e-15, 70, 0
0, 0, 0.0194444, 60, -3.03832e-15, 90, 0
0, 0, 0.025, -60, 3.03832e-15, -90, 0
0, 0, 0.025, -60, 3.03832e-15, -70, 0
0, 0, 0.025, -60, 3.03832e-15, -50, 0
0, 0, 0.025, -60, 3.03832e-15, -30, 0
0, 0, 0.025, -60, 3.03832e-15, -10, 0
0, 0, 0.025, -60, 3.03832e-15, 10, 0
0, 0, 0.025, -60, 3.03832e-15, 30, 0
0, 0, 0.025, -60, 3.03832e-15, 50, 0
0, 0, 0.025, -60, 3.03832e-15, 70, 0
0, 0, 0.025, -60, 3.03832e-15, 90, 0
0, 0, 0.025, -46.6667, 2.55188e-15, -90, 0
0, 0, 0.025, -46.6667, 2.55188e-15, -70, 0
0, 0, 0.025, -46.6667, 2.55188e-15, -50, 0
0, 0, 0.025, -46.6667, 2.55188e-15, -30, 0
0, 0, 0.025, -46.6667, 2.55188e-15, -10, 1
0, 0, 0.025, -46.6667, 2.55188e-15, 10, 1
0, 0, 0.025, -46.6667, 2.55188e-15, 30, 0
0, 0, 0.025, -46.6667, 2.55188e-15, 50, 0
0, 0, 0.025, -46.6667, 2.55188e-15, 70, 0
0, 0, 0.025, -46.6667, 2.55188e-15, 90, 0
0, 0, 0.025, -33.3333, 1.92787e-15, -90, 0
0, 0, 0.025, -33.3333, 1.92787e-15, -70, 0
0, 0, 0.025, -33.3333, 1.92787e-15, -50, 0
0, 0, 0.025, -33.3333, 1.92787e-15, -30, 0
0, 0, 0.025, -33.3333, 1.92787e-15, -10, 1
0, 0, 0.025, -33.3333, 1.92787e-15, 10, 1
0, 0, 0.025, -33.3333, 1.92787e-15, 30, 1
0, 0, 0.025, -33.3333, 1.92787e-15, 50, 0
0, 0, 0.025, -33.3333, 1.92787e-15, 70, 0
0, 0, 0.025, -33.3333, 1.92787e-15, 90, 0
0, 0, 0.025, -20, 1.19993e-15, -90, 0
0, 0, 0.025, -20, 1.19993e-15, -70, 0
0, 0, 0.025, -20, 1.19993e-15, -50, 0
0, 0, 0.025, -20, 1.19993e-15, -30, 0
0, 0, 0.025, -20, 1.19993e-15, -10, 1
0, 0, 0.025, -20, 1.19993e-15, 10, 1
0, 0, 0.025, -20, 1.19993e-15, 30, 1
0, 0, 0.025, -20, 1.19993e-15, 50, 1
0, 0, 0.025, -20, 1.19993e-15, 70, 0
0, 0, 0.025, -20, 1.19993e-15, 90, 0
0, 0, 0.025, -6.66667, 4.07295e-16, -90, 0
0, 0, 0.025, -6.66667, 4.07295e-16, -70, 0
0, 0, 0.025, -6.66667, 4.07295e-16, -50, 0
0, 0, 0.025, -6.66667, 4.07295e-16, -30, 0
0, 0, 0.025, -6.66667, 4.07295e-16, -10, 1
0, 0, 0.025, -6.66667, 4.07295e-16, 10, 1
0, 0, 0.025, -6.66667, 4.07295e-16, 30, 1
0, 0, 0.025, -6.66667, 4.07295e-16, 50, 1
0, 0, 0.025, -6.66667, 4.07295e-16, 70, 0
0, 0, 0.025, -6.66667, 4.07295e-16, 90, 0
0, 0, 0.025, 6.66667, -4.07295e-16, -90, 0
0, 0, 0.025, 6.66667, -4.07295e-16, -70, 0
0, 0, 0.025, 6.66667, -4.07295e-16, -50, 0
0, 0, 0.025, 6.66667, -4.07295e-16, -30, 0
0, 0, 0.025, 6.66667, -4.07295e-16, -10, 1
0, 0, 0.025, 6.66667, -4.07295e-16, 10, 1
0, 0, 0.025, 6.66667, -4.07295e-16, 30, 1
0, 0, 0.025, 6.66667, -4.07295e-16, 50, 1
0, 0, 0.025, 6.66667, -4.07295e-16, 70, 0
0, 0, 0.025, 6.66667, -4.07295e-16, 90, 0
0, 0, 0.025, 20, -1.19993e-15, -90, 0
0, 0, 0.025, 20, -1.19993e-15, -70, 0
0, 0, 0.025, 20, -1.19993e-15, -50, 0
0, 0, 0.025, 20, -1.19993e-15, -30, 0
0, 0, 0.025, 20, -1.19993e-15, -10, 1
0, 0, 0.025, 20, -1.19993e-15, 10, 1
0, 0, 0.025, 20, -1.19993e-15, 30, 1
0, 0, 0.025, 20, -1.19993e-15, 50, 1
0, 0, 0.025, 20, -1.19993e-15, 70, 0
0, 0, 0.025, 20, -1.19993e-15, 90, 0
0, 0, 0.025, 33.3333, -1.92787e-15, -90, 0
0, 0, 0.025, 33.3333, -1.92787e-15, -70, 0
0, 0, 0.025, 33.3333, -1.92787e-15, -50, 0
0, 0, 0.025, 33.3333, -1.92787e-15, -30, 0
0, 0, 0.025, 33.3333, -1.92787e-15, -10, 1
0, 0, 0.025, 33.3333, -1.92787e-15, 10, 1
0, 0, 0.025, 33.3333, -1.92787e-15, 30, 1
0, 0, 0.025, 33.3333, -1.92787e-15, 50, 1
0, 0, 0.025, 33.3333, -1.92787e-15, 70, 0
0, 0, 0.025, 33.3333, -1.92787e-15, 90, 0
0, 0, 0.025, 46.6667, -2.55188e-15, -90, 0
0, 0, 0.025, 46.6667, -2.55188e-15, -70, 0
0, 0, 0.025, 46.6667, -2.55188e-15, -50, 0
0, 0, 0.025, 46.6667, -2.55188e-15, -30, 0
0, 0, 0.025, 46.6667, -2.55188e-15, -10, 1
0, 0, 0.025, 46.6667, -2.55188e-15, 10, 1
0, 0, 0.025, 46.6667, -2.55188e-15, 30, 0
0, 0, 0.025, 46.6667, -2.55188e-15, 50, 0
0, 0, 0.025, 46.6667, -2.55188e-15, 70, 0
0, 0, 0.025, 46.6667, -2.55188e-15, 90, 0
0, 0, 0.025, 60, -3.03832e-15, -90, 0
0, 0, 0.025, 60, -3.03832e-15, -70, 0
0, 0, 0.025, 60, -3.03832e-15, -50, 0
0, 0, 0.025, 60, -3.03832e-15, -30, 0
0, 0, 0.025, 60, -3.03832e-15, -10, 0
0, 0, 0.025, 60, -3.03832e-15, 10, 0
0, 0, 0.025, 60, -3.03832e-15, 30, 0
0, 0, 0.025, 60, -3.03832e-15, 50, 0
0, 0, 0.025, 60, -3.03832e-15, 70, 0
0, 0, 0.025, 60, -3.03832e-15, 90, 0
